

================================================================
== Vivado HLS Report for 'ofdm_receiver_fft_stage_last'
================================================================
* Date:           Sun Nov 13 23:40:29 2016

* Version:        2015.4 (Build 1412921 on Wed Nov 18 09:58:55 AM 2015)
* Project:        qpsk_decode
* Solution:       solution1
* Product family: zynq
* Target device:  xc7z020clg484-1


================================================================
== Performance Estimates
================================================================
+ Timing (ns): 
    * Summary: 
    +--------+-------+----------+------------+
    |  Clock | Target| Estimated| Uncertainty|
    +--------+-------+----------+------------+
    |ap_clk  |  10.00|      8.41|        1.25|
    +--------+-------+----------+------------+

+ Latency (clock cycles): 
    * Summary: 
    +-----+-----+-----+-----+---------+
    |  Latency  |  Interval | Pipeline|
    | min | max | min | max |   Type  |
    +-----+-----+-----+-----+---------+
    |  528|  528|  528|  528|   none  |
    +-----+-----+-----+-----+---------+

    + Detail: 
        * Instance: 
        N/A

        * Loop: 
        +-------------+-----+-----+----------+-----------+-----------+------+----------+
        |             |  Latency  | Iteration|  Initiation Interval  | Trip |          |
        |  Loop Name  | min | max |  Latency |  achieved |   target  | Count| Pipelined|
        +-------------+-----+-----+----------+-----------+-----------+------+----------+
        |- butterfly  |  526|  526|        19|          4|          1|   128|    yes   |
        +-------------+-----+-----+----------+-----------+-----------+------+----------+

============================================================
+ Verbose Summary: Synthesis Manager
============================================================
InlineROM: 1
ExposeGlobal: 0
============================================================
+ Verbose Summary: CDFG Model
============================================================
IsTopModel: 0
ResetActiveHigh: 1
IsCombinational: 2
IsDatapathOnly: 0
HasWiredReturn: 1
HasMFsm: 0
HasVarLatency: 1
IsPipeline: 0
IsRtlPipelined: 0
IsInstanceOverlapped: 0
IsDontTouch: 0
HasImplIP: 0
IsGatedGlobalClock: 0

+ Individual pipeline summary: 
  * Pipeline-0: initiation interval (II) = 4, depth = 19


============================================================
+ Verbose Summary: Schedule
============================================================
* Number of FSM states: 21
* Pipeline: 1
  Pipeline-0: II = 4, D = 19, States = { 2 3 4 5 6 7 8 9 10 11 12 13 14 15 16 17 18 19 20 }
* Dataflow Pipeline: 0

* FSM state transitions: 
1 --> 
	2  / true
2 --> 
	21  / (exitcond)
	3  / (!exitcond)
3 --> 
	4  / true
4 --> 
	5  / true
5 --> 
	6  / true
6 --> 
	7  / true
7 --> 
	8  / true
8 --> 
	9  / true
9 --> 
	10  / true
10 --> 
	11  / true
11 --> 
	12  / true
12 --> 
	13  / true
13 --> 
	14  / true
14 --> 
	15  / true
15 --> 
	16  / true
16 --> 
	17  / true
17 --> 
	18  / true
18 --> 
	19  / true
19 --> 
	20  / true
20 --> 
	2  / true
21 --> 
* FSM state operations: 

 <State 1>: 1.57ns
ST_1: stg_22 [1/1] 1.57ns
:0  br label %1


 <State 2>: 4.55ns
ST_2: k [1/1] 0.00ns
:0  %k = phi i10 [ 0, %0 ], [ %k_3_3, %2 ]

ST_2: exitcond [1/1] 2.07ns
:1  %exitcond = icmp eq i10 %k, -512

ST_2: stg_25 [1/1] 0.00ns
:2  br i1 %exitcond, label %3, label %2

ST_2: tmp_30 [1/1] 0.00ns
:0  %tmp_30 = trunc i10 %k to i9

ST_2: k_cast [1/1] 0.00ns
:1  %k_cast = zext i10 %k to i11

ST_2: i_lower [1/1] 1.37ns
:11  %i_lower = xor i10 %k, -512

ST_2: newIndex2 [1/1] 0.00ns
:13  %newIndex2 = call i9 @_ssdm_op_PartSelect.i9.i10.i32.i32(i10 %i_lower, i32 1, i32 9)

ST_2: newIndex4 [1/1] 0.00ns
:14  %newIndex4 = zext i9 %newIndex2 to i64

ST_2: real_i_0_addr [1/1] 0.00ns
:15  %real_i_0_addr = getelementptr [512 x float]* %real_i_0, i64 0, i64 %newIndex4

ST_2: real_i_0_load [2/2] 2.71ns
:16  %real_i_0_load = load float* %real_i_0_addr, align 4

ST_2: k_3_s [1/1] 0.00ns
:43  %k_3_s = or i9 %tmp_30, 1

ST_2: tmp_1 [1/1] 0.00ns
:45  %tmp_1 = zext i9 %k_3_s to i64

ST_2: W_real54_addr_1 [1/1] 0.00ns
:46  %W_real54_addr_1 = getelementptr inbounds [512 x float]* @W_real54, i64 0, i64 %tmp_1

ST_2: W_real54_load_1 [2/2] 2.39ns
:47  %W_real54_load_1 = load float* %W_real54_addr_1, align 4

ST_2: W_imag46_addr_1 [1/1] 0.00ns
:48  %W_imag46_addr_1 = getelementptr inbounds [512 x float]* @W_imag46, i64 0, i64 %tmp_1

ST_2: W_imag46_load_1 [2/2] 2.39ns
:49  %W_imag46_load_1 = load float* %W_imag46_addr_1, align 4

ST_2: i_lower_1 [1/1] 1.84ns
:50  %i_lower_1 = add i11 513, %k_cast

ST_2: tmp_1_22 [1/1] 0.00ns
:51  %tmp_1_22 = zext i11 %i_lower_1 to i64

ST_2: newIndex8 [1/1] 0.00ns
:52  %newIndex8 = call i10 @_ssdm_op_PartSelect.i10.i11.i32.i32(i11 %i_lower_1, i32 1, i32 10)

ST_2: newIndex9 [1/1] 0.00ns
:53  %newIndex9 = zext i10 %newIndex8 to i64

ST_2: real_i_1_addr [1/1] 0.00ns
:54  %real_i_1_addr = getelementptr [512 x float]* %real_i_1, i64 0, i64 %newIndex9

ST_2: real_i_1_load [2/2] 2.71ns
:55  %real_i_1_load = load float* %real_i_1_addr, align 4

ST_2: imag_i_addr_10 [1/1] 0.00ns
:57  %imag_i_addr_10 = getelementptr [1024 x float]* %imag_i, i64 0, i64 %tmp_1_22

ST_2: imag_i_load_1 [2/2] 2.71ns
:58  %imag_i_load_1 = load float* %imag_i_addr_10, align 4

ST_2: i_lower_2 [1/1] 1.84ns
:86  %i_lower_2 = add i11 514, %k_cast

ST_2: newIndex1 [1/1] 0.00ns
:88  %newIndex1 = call i10 @_ssdm_op_PartSelect.i10.i11.i32.i32(i11 %i_lower_2, i32 1, i32 10)

ST_2: newIndex10 [1/1] 0.00ns
:89  %newIndex10 = zext i10 %newIndex1 to i64

ST_2: real_i_0_addr_2 [1/1] 0.00ns
:90  %real_i_0_addr_2 = getelementptr [512 x float]* %real_i_0, i64 0, i64 %newIndex10

ST_2: real_i_0_load_2 [2/2] 2.71ns
:91  %real_i_0_load_2 = load float* %real_i_0_addr_2, align 4

ST_2: i_lower_3 [1/1] 1.84ns
:124  %i_lower_3 = add i11 515, %k_cast

ST_2: tmp_3_24 [1/1] 0.00ns
:125  %tmp_3_24 = zext i11 %i_lower_3 to i64

ST_2: newIndex6 [1/1] 0.00ns
:126  %newIndex6 = call i10 @_ssdm_op_PartSelect.i10.i11.i32.i32(i11 %i_lower_3, i32 1, i32 10)

ST_2: newIndex13 [1/1] 0.00ns
:127  %newIndex13 = zext i10 %newIndex6 to i64

ST_2: real_i_1_addr_2 [1/1] 0.00ns
:128  %real_i_1_addr_2 = getelementptr [512 x float]* %real_i_1, i64 0, i64 %newIndex13

ST_2: real_i_1_load_2 [2/2] 2.71ns
:129  %real_i_1_load_2 = load float* %real_i_1_addr_2, align 4

ST_2: imag_i_addr_14 [1/1] 0.00ns
:131  %imag_i_addr_14 = getelementptr [1024 x float]* %imag_i, i64 0, i64 %tmp_3_24

ST_2: imag_i_load_6 [2/2] 2.71ns
:132  %imag_i_load_6 = load float* %imag_i_addr_14, align 4


 <State 3>: 8.41ns
ST_3: tmp_s [1/1] 0.00ns
:12  %tmp_s = zext i10 %i_lower to i64

ST_3: real_i_0_load [1/2] 2.71ns
:16  %real_i_0_load = load float* %real_i_0_addr, align 4

ST_3: imag_i_addr [1/1] 0.00ns
:18  %imag_i_addr = getelementptr [1024 x float]* %imag_i, i64 0, i64 %tmp_s

ST_3: imag_i_load [2/2] 2.71ns
:19  %imag_i_load = load float* %imag_i_addr, align 4

ST_3: W_real54_load_1 [1/2] 2.39ns
:47  %W_real54_load_1 = load float* %W_real54_addr_1, align 4

ST_3: W_imag46_load_1 [1/2] 2.39ns
:49  %W_imag46_load_1 = load float* %W_imag46_addr_1, align 4

ST_3: real_i_1_load [1/2] 2.71ns
:55  %real_i_1_load = load float* %real_i_1_addr, align 4

ST_3: tmp_13_1 [4/4] 5.70ns
:56  %tmp_13_1 = fmul float %real_i_1_load, %W_real54_load_1

ST_3: imag_i_load_1 [1/2] 2.71ns
:58  %imag_i_load_1 = load float* %imag_i_addr_10, align 4

ST_3: tmp_14_1 [4/4] 5.70ns
:59  %tmp_14_1 = fmul float %imag_i_load_1, %W_imag46_load_1

ST_3: tmp_15_1 [4/4] 5.70ns
:61  %tmp_15_1 = fmul float %imag_i_load_1, %W_real54_load_1

ST_3: tmp_16_1 [4/4] 5.70ns
:62  %tmp_16_1 = fmul float %real_i_1_load, %W_imag46_load_1

ST_3: tmp_2_23 [1/1] 0.00ns
:87  %tmp_2_23 = zext i11 %i_lower_2 to i64

ST_3: real_i_0_load_2 [1/2] 2.71ns
:91  %real_i_0_load_2 = load float* %real_i_0_addr_2, align 4

ST_3: imag_i_addr_12 [1/1] 0.00ns
:93  %imag_i_addr_12 = getelementptr [1024 x float]* %imag_i, i64 0, i64 %tmp_2_23

ST_3: imag_i_load_2 [2/2] 2.71ns
:94  %imag_i_load_2 = load float* %imag_i_addr_12, align 4

ST_3: k_3_2 [1/1] 0.00ns
:118  %k_3_2 = or i9 %tmp_30, 3

ST_3: tmp_3 [1/1] 0.00ns
:119  %tmp_3 = zext i9 %k_3_2 to i64

ST_3: W_real54_addr_3 [1/1] 0.00ns
:120  %W_real54_addr_3 = getelementptr inbounds [512 x float]* @W_real54, i64 0, i64 %tmp_3

ST_3: W_real54_load_3 [2/2] 2.39ns
:121  %W_real54_load_3 = load float* %W_real54_addr_3, align 4

ST_3: W_imag46_addr_3 [1/1] 0.00ns
:122  %W_imag46_addr_3 = getelementptr inbounds [512 x float]* @W_imag46, i64 0, i64 %tmp_3

ST_3: W_imag46_load_3 [2/2] 2.39ns
:123  %W_imag46_load_3 = load float* %W_imag46_addr_3, align 4

ST_3: real_i_1_load_2 [1/2] 2.71ns
:129  %real_i_1_load_2 = load float* %real_i_1_addr_2, align 4

ST_3: imag_i_load_6 [1/2] 2.71ns
:132  %imag_i_load_6 = load float* %imag_i_addr_14, align 4

ST_3: newIndex [1/1] 0.00ns
:138  %newIndex = call i8 @_ssdm_op_PartSelect.i8.i9.i32.i32(i9 %k_3_2, i32 1, i32 8)


 <State 4>: 8.09ns
ST_4: tmp1 [1/1] 0.00ns
:6  %tmp1 = zext i10 %k to i64

ST_4: W_real54_addr [1/1] 0.00ns
:7  %W_real54_addr = getelementptr inbounds [512 x float]* @W_real54, i64 0, i64 %tmp1

ST_4: W_real54_load [2/2] 2.39ns
:8  %W_real54_load = load float* %W_real54_addr, align 16

ST_4: W_imag46_addr [1/1] 0.00ns
:9  %W_imag46_addr = getelementptr inbounds [512 x float]* @W_imag46, i64 0, i64 %tmp1

ST_4: W_imag46_load [2/2] 2.39ns
:10  %W_imag46_load = load float* %W_imag46_addr, align 16

ST_4: imag_i_load [1/2] 2.71ns
:19  %imag_i_load = load float* %imag_i_addr, align 4

ST_4: newIndex5 [1/1] 0.00ns
:25  %newIndex5 = call i9 @_ssdm_op_PartSelect.i9.i10.i32.i32(i10 %k, i32 1, i32 9)

ST_4: tmp_13_1 [3/4] 5.70ns
:56  %tmp_13_1 = fmul float %real_i_1_load, %W_real54_load_1

ST_4: tmp_14_1 [3/4] 5.70ns
:59  %tmp_14_1 = fmul float %imag_i_load_1, %W_imag46_load_1

ST_4: tmp_15_1 [3/4] 5.70ns
:61  %tmp_15_1 = fmul float %imag_i_load_1, %W_real54_load_1

ST_4: tmp_16_1 [3/4] 5.70ns
:62  %tmp_16_1 = fmul float %real_i_1_load, %W_imag46_load_1

ST_4: imag_i_load_2 [1/2] 2.71ns
:94  %imag_i_load_2 = load float* %imag_i_addr_12, align 4

ST_4: W_real54_load_3 [1/2] 2.39ns
:121  %W_real54_load_3 = load float* %W_real54_addr_3, align 4

ST_4: W_imag46_load_3 [1/2] 2.39ns
:123  %W_imag46_load_3 = load float* %W_imag46_addr_3, align 4

ST_4: tmp_13_3 [4/4] 5.70ns
:130  %tmp_13_3 = fmul float %real_i_1_load_2, %W_real54_load_3

ST_4: tmp_14_3 [4/4] 5.70ns
:133  %tmp_14_3 = fmul float %imag_i_load_6, %W_imag46_load_3

ST_4: tmp_15_3 [4/4] 5.70ns
:135  %tmp_15_3 = fmul float %imag_i_load_6, %W_real54_load_3

ST_4: tmp_16_3 [4/4] 5.70ns
:136  %tmp_16_3 = fmul float %real_i_1_load_2, %W_imag46_load_3

ST_4: k_3_3 [1/1] 1.84ns
:156  %k_3_3 = add i10 4, %k


 <State 5>: 8.09ns
ST_5: W_real54_load [1/2] 2.39ns
:8  %W_real54_load = load float* %W_real54_addr, align 16

ST_5: W_imag46_load [1/2] 2.39ns
:10  %W_imag46_load = load float* %W_imag46_addr, align 16

ST_5: tmp_13 [4/4] 5.70ns
:17  %tmp_13 = fmul float %real_i_0_load, %W_real54_load

ST_5: tmp_14 [4/4] 5.70ns
:20  %tmp_14 = fmul float %imag_i_load, %W_imag46_load

ST_5: tmp_15 [4/4] 5.70ns
:22  %tmp_15 = fmul float %imag_i_load, %W_real54_load

ST_5: tmp_16 [4/4] 5.70ns
:23  %tmp_16 = fmul float %real_i_0_load, %W_imag46_load

ST_5: tmp_13_1 [2/4] 5.70ns
:56  %tmp_13_1 = fmul float %real_i_1_load, %W_real54_load_1

ST_5: tmp_14_1 [2/4] 5.70ns
:59  %tmp_14_1 = fmul float %imag_i_load_1, %W_imag46_load_1

ST_5: tmp_15_1 [2/4] 5.70ns
:61  %tmp_15_1 = fmul float %imag_i_load_1, %W_real54_load_1

ST_5: tmp_16_1 [2/4] 5.70ns
:62  %tmp_16_1 = fmul float %real_i_1_load, %W_imag46_load_1

ST_5: k_3_1 [1/1] 0.00ns
:80  %k_3_1 = or i9 %tmp_30, 2

ST_5: tmp_2 [1/1] 0.00ns
:81  %tmp_2 = zext i9 %k_3_1 to i64

ST_5: W_real54_addr_2 [1/1] 0.00ns
:82  %W_real54_addr_2 = getelementptr inbounds [512 x float]* @W_real54, i64 0, i64 %tmp_2

ST_5: W_real54_load_2 [2/2] 2.39ns
:83  %W_real54_load_2 = load float* %W_real54_addr_2, align 8

ST_5: W_imag46_addr_2 [1/1] 0.00ns
:84  %W_imag46_addr_2 = getelementptr inbounds [512 x float]* @W_imag46, i64 0, i64 %tmp_2

ST_5: W_imag46_load_2 [2/2] 2.39ns
:85  %W_imag46_load_2 = load float* %W_imag46_addr_2, align 8

ST_5: newIndex11 [1/1] 0.00ns
:100  %newIndex11 = call i8 @_ssdm_op_PartSelect.i8.i9.i32.i32(i9 %k_3_1, i32 1, i32 8)

ST_5: tmp_13_3 [3/4] 5.70ns
:130  %tmp_13_3 = fmul float %real_i_1_load_2, %W_real54_load_3

ST_5: tmp_14_3 [3/4] 5.70ns
:133  %tmp_14_3 = fmul float %imag_i_load_6, %W_imag46_load_3

ST_5: tmp_15_3 [3/4] 5.70ns
:135  %tmp_15_3 = fmul float %imag_i_load_6, %W_real54_load_3

ST_5: tmp_16_3 [3/4] 5.70ns
:136  %tmp_16_3 = fmul float %real_i_1_load_2, %W_imag46_load_3


 <State 6>: 8.09ns
ST_6: tmp_13 [3/4] 5.70ns
:17  %tmp_13 = fmul float %real_i_0_load, %W_real54_load

ST_6: tmp_14 [3/4] 5.70ns
:20  %tmp_14 = fmul float %imag_i_load, %W_imag46_load

ST_6: tmp_15 [3/4] 5.70ns
:22  %tmp_15 = fmul float %imag_i_load, %W_real54_load

ST_6: tmp_16 [3/4] 5.70ns
:23  %tmp_16 = fmul float %real_i_0_load, %W_imag46_load

ST_6: tmp_13_1 [1/4] 5.70ns
:56  %tmp_13_1 = fmul float %real_i_1_load, %W_real54_load_1

ST_6: tmp_14_1 [1/4] 5.70ns
:59  %tmp_14_1 = fmul float %imag_i_load_1, %W_imag46_load_1

ST_6: tmp_15_1 [1/4] 5.70ns
:61  %tmp_15_1 = fmul float %imag_i_load_1, %W_real54_load_1

ST_6: tmp_16_1 [1/4] 5.70ns
:62  %tmp_16_1 = fmul float %real_i_1_load, %W_imag46_load_1

ST_6: W_real54_load_2 [1/2] 2.39ns
:83  %W_real54_load_2 = load float* %W_real54_addr_2, align 8

ST_6: W_imag46_load_2 [1/2] 2.39ns
:85  %W_imag46_load_2 = load float* %W_imag46_addr_2, align 8

ST_6: tmp_13_2 [4/4] 5.70ns
:92  %tmp_13_2 = fmul float %real_i_0_load_2, %W_real54_load_2

ST_6: tmp_14_2 [4/4] 5.70ns
:95  %tmp_14_2 = fmul float %imag_i_load_2, %W_imag46_load_2

ST_6: tmp_15_2 [4/4] 5.70ns
:97  %tmp_15_2 = fmul float %imag_i_load_2, %W_real54_load_2

ST_6: tmp_16_2 [4/4] 5.70ns
:98  %tmp_16_2 = fmul float %real_i_0_load_2, %W_imag46_load_2

ST_6: tmp_13_3 [2/4] 5.70ns
:130  %tmp_13_3 = fmul float %real_i_1_load_2, %W_real54_load_3

ST_6: tmp_14_3 [2/4] 5.70ns
:133  %tmp_14_3 = fmul float %imag_i_load_6, %W_imag46_load_3

ST_6: tmp_15_3 [2/4] 5.70ns
:135  %tmp_15_3 = fmul float %imag_i_load_6, %W_real54_load_3

ST_6: tmp_16_3 [2/4] 5.70ns
:136  %tmp_16_3 = fmul float %real_i_1_load_2, %W_imag46_load_3


 <State 7>: 7.26ns
ST_7: tmp_13 [2/4] 5.70ns
:17  %tmp_13 = fmul float %real_i_0_load, %W_real54_load

ST_7: tmp_14 [2/4] 5.70ns
:20  %tmp_14 = fmul float %imag_i_load, %W_imag46_load

ST_7: tmp_15 [2/4] 5.70ns
:22  %tmp_15 = fmul float %imag_i_load, %W_real54_load

ST_7: tmp_16 [2/4] 5.70ns
:23  %tmp_16 = fmul float %real_i_0_load, %W_imag46_load

ST_7: newIndex7 [1/1] 0.00ns
:26  %newIndex7 = zext i9 %newIndex5 to i64

ST_7: temp_R_1 [5/5] 7.26ns
:60  %temp_R_1 = fsub float %tmp_13_1, %tmp_14_1

ST_7: temp_I_1 [5/5] 7.26ns
:63  %temp_I_1 = fadd float %tmp_15_1, %tmp_16_1

ST_7: real_i_1_addr_1 [1/1] 0.00ns
:64  %real_i_1_addr_1 = getelementptr [512 x float]* %real_i_1, i64 0, i64 %newIndex7

ST_7: real_i_1_load_1 [2/2] 2.71ns
:65  %real_i_1_load_1 = load float* %real_i_1_addr_1, align 4

ST_7: tmp_13_2 [3/4] 5.70ns
:92  %tmp_13_2 = fmul float %real_i_0_load_2, %W_real54_load_2

ST_7: tmp_14_2 [3/4] 5.70ns
:95  %tmp_14_2 = fmul float %imag_i_load_2, %W_imag46_load_2

ST_7: tmp_15_2 [3/4] 5.70ns
:97  %tmp_15_2 = fmul float %imag_i_load_2, %W_real54_load_2

ST_7: tmp_16_2 [3/4] 5.70ns
:98  %tmp_16_2 = fmul float %real_i_0_load_2, %W_imag46_load_2

ST_7: tmp_13_3 [1/4] 5.70ns
:130  %tmp_13_3 = fmul float %real_i_1_load_2, %W_real54_load_3

ST_7: tmp_14_3 [1/4] 5.70ns
:133  %tmp_14_3 = fmul float %imag_i_load_6, %W_imag46_load_3

ST_7: tmp_15_3 [1/4] 5.70ns
:135  %tmp_15_3 = fmul float %imag_i_load_6, %W_real54_load_3

ST_7: tmp_16_3 [1/4] 5.70ns
:136  %tmp_16_3 = fmul float %real_i_1_load_2, %W_imag46_load_3


 <State 8>: 7.26ns
ST_8: tmp_13 [1/4] 5.70ns
:17  %tmp_13 = fmul float %real_i_0_load, %W_real54_load

ST_8: tmp_14 [1/4] 5.70ns
:20  %tmp_14 = fmul float %imag_i_load, %W_imag46_load

ST_8: tmp_15 [1/4] 5.70ns
:22  %tmp_15 = fmul float %imag_i_load, %W_real54_load

ST_8: tmp_16 [1/4] 5.70ns
:23  %tmp_16 = fmul float %real_i_0_load, %W_imag46_load

ST_8: temp_R_1 [4/5] 7.26ns
:60  %temp_R_1 = fsub float %tmp_13_1, %tmp_14_1

ST_8: temp_I_1 [4/5] 7.26ns
:63  %temp_I_1 = fadd float %tmp_15_1, %tmp_16_1

ST_8: real_i_1_load_1 [1/2] 2.71ns
:65  %real_i_1_load_1 = load float* %real_i_1_addr_1, align 4

ST_8: imag_i_addr_11 [1/1] 0.00ns
:69  %imag_i_addr_11 = getelementptr [1024 x float]* %imag_i, i64 0, i64 %tmp_1

ST_8: imag_i_load_4 [2/2] 2.71ns
:70  %imag_i_load_4 = load float* %imag_i_addr_11, align 4

ST_8: tmp_13_2 [2/4] 5.70ns
:92  %tmp_13_2 = fmul float %real_i_0_load_2, %W_real54_load_2

ST_8: tmp_14_2 [2/4] 5.70ns
:95  %tmp_14_2 = fmul float %imag_i_load_2, %W_imag46_load_2

ST_8: tmp_15_2 [2/4] 5.70ns
:97  %tmp_15_2 = fmul float %imag_i_load_2, %W_real54_load_2

ST_8: tmp_16_2 [2/4] 5.70ns
:98  %tmp_16_2 = fmul float %real_i_0_load_2, %W_imag46_load_2

ST_8: temp_R_3 [5/5] 7.26ns
:134  %temp_R_3 = fsub float %tmp_13_3, %tmp_14_3

ST_8: temp_I_3 [5/5] 7.26ns
:137  %temp_I_3 = fadd float %tmp_15_3, %tmp_16_3


 <State 9>: 7.26ns
ST_9: temp_R [5/5] 7.26ns
:21  %temp_R = fsub float %tmp_13, %tmp_14

ST_9: temp_I [5/5] 7.26ns
:24  %temp_I = fadd float %tmp_15, %tmp_16

ST_9: temp_R_1 [3/5] 7.26ns
:60  %temp_R_1 = fsub float %tmp_13_1, %tmp_14_1

ST_9: temp_I_1 [3/5] 7.26ns
:63  %temp_I_1 = fadd float %tmp_15_1, %tmp_16_1

ST_9: imag_i_load_4 [1/2] 2.71ns
:70  %imag_i_load_4 = load float* %imag_i_addr_11, align 4

ST_9: tmp_13_2 [1/4] 5.70ns
:92  %tmp_13_2 = fmul float %real_i_0_load_2, %W_real54_load_2

ST_9: tmp_14_2 [1/4] 5.70ns
:95  %tmp_14_2 = fmul float %imag_i_load_2, %W_imag46_load_2

ST_9: tmp_15_2 [1/4] 5.70ns
:97  %tmp_15_2 = fmul float %imag_i_load_2, %W_real54_load_2

ST_9: tmp_16_2 [1/4] 5.70ns
:98  %tmp_16_2 = fmul float %real_i_0_load_2, %W_imag46_load_2

ST_9: temp_R_3 [4/5] 7.26ns
:134  %temp_R_3 = fsub float %tmp_13_3, %tmp_14_3

ST_9: temp_I_3 [4/5] 7.26ns
:137  %temp_I_3 = fadd float %tmp_15_3, %tmp_16_3

ST_9: imag_i_addr_15 [1/1] 0.00ns
:145  %imag_i_addr_15 = getelementptr [1024 x float]* %imag_i, i64 0, i64 %tmp_3

ST_9: imag_i_load_7 [2/2] 2.71ns
:146  %imag_i_load_7 = load float* %imag_i_addr_15, align 4


 <State 10>: 7.26ns
ST_10: temp_R [4/5] 7.26ns
:21  %temp_R = fsub float %tmp_13, %tmp_14

ST_10: temp_I [4/5] 7.26ns
:24  %temp_I = fadd float %tmp_15, %tmp_16

ST_10: temp_R_1 [2/5] 7.26ns
:60  %temp_R_1 = fsub float %tmp_13_1, %tmp_14_1

ST_10: temp_I_1 [2/5] 7.26ns
:63  %temp_I_1 = fadd float %tmp_15_1, %tmp_16_1

ST_10: temp_R_2 [5/5] 7.26ns
:96  %temp_R_2 = fsub float %tmp_13_2, %tmp_14_2

ST_10: temp_I_2 [5/5] 7.26ns
:99  %temp_I_2 = fadd float %tmp_15_2, %tmp_16_2

ST_10: temp_R_3 [3/5] 7.26ns
:134  %temp_R_3 = fsub float %tmp_13_3, %tmp_14_3

ST_10: temp_I_3 [3/5] 7.26ns
:137  %temp_I_3 = fadd float %tmp_15_3, %tmp_16_3

ST_10: imag_i_load_7 [1/2] 2.71ns
:146  %imag_i_load_7 = load float* %imag_i_addr_15, align 4


 <State 11>: 7.26ns
ST_11: temp_R [3/5] 7.26ns
:21  %temp_R = fsub float %tmp_13, %tmp_14

ST_11: temp_I [3/5] 7.26ns
:24  %temp_I = fadd float %tmp_15, %tmp_16

ST_11: real_i_0_addr_1 [1/1] 0.00ns
:27  %real_i_0_addr_1 = getelementptr [512 x float]* %real_i_0, i64 0, i64 %newIndex7

ST_11: real_i_0_load_1 [2/2] 2.71ns
:28  %real_i_0_load_1 = load float* %real_i_0_addr_1, align 4

ST_11: temp_R_1 [1/5] 7.26ns
:60  %temp_R_1 = fsub float %tmp_13_1, %tmp_14_1

ST_11: temp_I_1 [1/5] 7.26ns
:63  %temp_I_1 = fadd float %tmp_15_1, %tmp_16_1

ST_11: temp_R_2 [4/5] 7.26ns
:96  %temp_R_2 = fsub float %tmp_13_2, %tmp_14_2

ST_11: temp_I_2 [4/5] 7.26ns
:99  %temp_I_2 = fadd float %tmp_15_2, %tmp_16_2

ST_11: newIndex12 [1/1] 0.00ns
:101  %newIndex12 = zext i8 %newIndex11 to i64

ST_11: real_i_0_addr_3 [1/1] 0.00ns
:102  %real_i_0_addr_3 = getelementptr [512 x float]* %real_i_0, i64 0, i64 %newIndex12

ST_11: real_i_0_load_3 [2/2] 2.71ns
:103  %real_i_0_load_3 = load float* %real_i_0_addr_3, align 4

ST_11: temp_R_3 [2/5] 7.26ns
:134  %temp_R_3 = fsub float %tmp_13_3, %tmp_14_3

ST_11: temp_I_3 [2/5] 7.26ns
:137  %temp_I_3 = fadd float %tmp_15_3, %tmp_16_3

ST_11: newIndex3 [1/1] 0.00ns
:139  %newIndex3 = zext i8 %newIndex to i64

ST_11: real_i_1_addr_3 [1/1] 0.00ns
:140  %real_i_1_addr_3 = getelementptr [512 x float]* %real_i_1, i64 0, i64 %newIndex3

ST_11: real_i_1_load_3 [2/2] 2.71ns
:141  %real_i_1_load_3 = load float* %real_i_1_addr_3, align 4


 <State 12>: 7.26ns
ST_12: temp_R [2/5] 7.26ns
:21  %temp_R = fsub float %tmp_13, %tmp_14

ST_12: temp_I [2/5] 7.26ns
:24  %temp_I = fadd float %tmp_15, %tmp_16

ST_12: real_i_0_load_1 [1/2] 2.71ns
:28  %real_i_0_load_1 = load float* %real_i_0_addr_1, align 4

ST_12: imag_i_addr_9 [1/1] 0.00ns
:32  %imag_i_addr_9 = getelementptr [1024 x float]* %imag_i, i64 0, i64 %tmp1

ST_12: imag_i_load_3 [2/2] 2.71ns
:33  %imag_i_load_3 = load float* %imag_i_addr_9, align 4

ST_12: tmp_17_1 [5/5] 7.26ns
:66  %tmp_17_1 = fsub float %real_i_1_load_1, %temp_R_1

ST_12: tmp_18_1 [5/5] 7.26ns
:71  %tmp_18_1 = fsub float %imag_i_load_4, %temp_I_1

ST_12: tmp_19_1 [5/5] 7.26ns
:74  %tmp_19_1 = fadd float %real_i_1_load_1, %temp_R_1

ST_12: tmp_20_1 [5/5] 7.26ns
:77  %tmp_20_1 = fadd float %imag_i_load_4, %temp_I_1

ST_12: temp_R_2 [3/5] 7.26ns
:96  %temp_R_2 = fsub float %tmp_13_2, %tmp_14_2

ST_12: temp_I_2 [3/5] 7.26ns
:99  %temp_I_2 = fadd float %tmp_15_2, %tmp_16_2

ST_12: real_i_0_load_3 [1/2] 2.71ns
:103  %real_i_0_load_3 = load float* %real_i_0_addr_3, align 4

ST_12: temp_R_3 [1/5] 7.26ns
:134  %temp_R_3 = fsub float %tmp_13_3, %tmp_14_3

ST_12: temp_I_3 [1/5] 7.26ns
:137  %temp_I_3 = fadd float %tmp_15_3, %tmp_16_3

ST_12: real_i_1_load_3 [1/2] 2.71ns
:141  %real_i_1_load_3 = load float* %real_i_1_addr_3, align 4


 <State 13>: 7.26ns
ST_13: temp_R [1/5] 7.26ns
:21  %temp_R = fsub float %tmp_13, %tmp_14

ST_13: temp_I [1/5] 7.26ns
:24  %temp_I = fadd float %tmp_15, %tmp_16

ST_13: imag_i_load_3 [1/2] 2.71ns
:33  %imag_i_load_3 = load float* %imag_i_addr_9, align 4

ST_13: tmp_17_1 [4/5] 7.26ns
:66  %tmp_17_1 = fsub float %real_i_1_load_1, %temp_R_1

ST_13: tmp_18_1 [4/5] 7.26ns
:71  %tmp_18_1 = fsub float %imag_i_load_4, %temp_I_1

ST_13: tmp_19_1 [4/5] 7.26ns
:74  %tmp_19_1 = fadd float %real_i_1_load_1, %temp_R_1

ST_13: tmp_20_1 [4/5] 7.26ns
:77  %tmp_20_1 = fadd float %imag_i_load_4, %temp_I_1

ST_13: temp_R_2 [2/5] 7.26ns
:96  %temp_R_2 = fsub float %tmp_13_2, %tmp_14_2

ST_13: temp_I_2 [2/5] 7.26ns
:99  %temp_I_2 = fadd float %tmp_15_2, %tmp_16_2

ST_13: imag_i_addr_13 [1/1] 0.00ns
:107  %imag_i_addr_13 = getelementptr [1024 x float]* %imag_i, i64 0, i64 %tmp_2

ST_13: imag_i_load_5 [2/2] 2.71ns
:108  %imag_i_load_5 = load float* %imag_i_addr_13, align 4

ST_13: tmp_17_3 [5/5] 7.26ns
:142  %tmp_17_3 = fsub float %real_i_1_load_3, %temp_R_3

ST_13: tmp_18_3 [5/5] 7.26ns
:147  %tmp_18_3 = fsub float %imag_i_load_7, %temp_I_3

ST_13: tmp_19_3 [5/5] 7.26ns
:150  %tmp_19_3 = fadd float %real_i_1_load_3, %temp_R_3

ST_13: tmp_20_3 [5/5] 7.26ns
:153  %tmp_20_3 = fadd float %imag_i_load_7, %temp_I_3


 <State 14>: 7.26ns
ST_14: tmp_17 [5/5] 7.26ns
:29  %tmp_17 = fsub float %real_i_0_load_1, %temp_R

ST_14: tmp_18 [5/5] 7.26ns
:34  %tmp_18 = fsub float %imag_i_load_3, %temp_I

ST_14: tmp_19 [5/5] 7.26ns
:37  %tmp_19 = fadd float %real_i_0_load_1, %temp_R

ST_14: tmp_20 [5/5] 7.26ns
:40  %tmp_20 = fadd float %imag_i_load_3, %temp_I

ST_14: tmp_17_1 [3/5] 7.26ns
:66  %tmp_17_1 = fsub float %real_i_1_load_1, %temp_R_1

ST_14: tmp_18_1 [3/5] 7.26ns
:71  %tmp_18_1 = fsub float %imag_i_load_4, %temp_I_1

ST_14: tmp_19_1 [3/5] 7.26ns
:74  %tmp_19_1 = fadd float %real_i_1_load_1, %temp_R_1

ST_14: tmp_20_1 [3/5] 7.26ns
:77  %tmp_20_1 = fadd float %imag_i_load_4, %temp_I_1

ST_14: temp_R_2 [1/5] 7.26ns
:96  %temp_R_2 = fsub float %tmp_13_2, %tmp_14_2

ST_14: temp_I_2 [1/5] 7.26ns
:99  %temp_I_2 = fadd float %tmp_15_2, %tmp_16_2

ST_14: imag_i_load_5 [1/2] 2.71ns
:108  %imag_i_load_5 = load float* %imag_i_addr_13, align 4

ST_14: tmp_17_3 [4/5] 7.26ns
:142  %tmp_17_3 = fsub float %real_i_1_load_3, %temp_R_3

ST_14: tmp_18_3 [4/5] 7.26ns
:147  %tmp_18_3 = fsub float %imag_i_load_7, %temp_I_3

ST_14: tmp_19_3 [4/5] 7.26ns
:150  %tmp_19_3 = fadd float %real_i_1_load_3, %temp_R_3

ST_14: tmp_20_3 [4/5] 7.26ns
:153  %tmp_20_3 = fadd float %imag_i_load_7, %temp_I_3


 <State 15>: 7.26ns
ST_15: tmp_17 [4/5] 7.26ns
:29  %tmp_17 = fsub float %real_i_0_load_1, %temp_R

ST_15: tmp_18 [4/5] 7.26ns
:34  %tmp_18 = fsub float %imag_i_load_3, %temp_I

ST_15: tmp_19 [4/5] 7.26ns
:37  %tmp_19 = fadd float %real_i_0_load_1, %temp_R

ST_15: tmp_20 [4/5] 7.26ns
:40  %tmp_20 = fadd float %imag_i_load_3, %temp_I

ST_15: tmp_17_1 [2/5] 7.26ns
:66  %tmp_17_1 = fsub float %real_i_1_load_1, %temp_R_1

ST_15: tmp_18_1 [2/5] 7.26ns
:71  %tmp_18_1 = fsub float %imag_i_load_4, %temp_I_1

ST_15: tmp_19_1 [2/5] 7.26ns
:74  %tmp_19_1 = fadd float %real_i_1_load_1, %temp_R_1

ST_15: tmp_20_1 [2/5] 7.26ns
:77  %tmp_20_1 = fadd float %imag_i_load_4, %temp_I_1

ST_15: tmp_17_2 [5/5] 7.26ns
:104  %tmp_17_2 = fsub float %real_i_0_load_3, %temp_R_2

ST_15: tmp_18_2 [5/5] 7.26ns
:109  %tmp_18_2 = fsub float %imag_i_load_5, %temp_I_2

ST_15: tmp_19_2 [5/5] 7.26ns
:112  %tmp_19_2 = fadd float %real_i_0_load_3, %temp_R_2

ST_15: tmp_20_2 [5/5] 7.26ns
:115  %tmp_20_2 = fadd float %imag_i_load_5, %temp_I_2

ST_15: tmp_17_3 [3/5] 7.26ns
:142  %tmp_17_3 = fsub float %real_i_1_load_3, %temp_R_3

ST_15: tmp_18_3 [3/5] 7.26ns
:147  %tmp_18_3 = fsub float %imag_i_load_7, %temp_I_3

ST_15: tmp_19_3 [3/5] 7.26ns
:150  %tmp_19_3 = fadd float %real_i_1_load_3, %temp_R_3

ST_15: tmp_20_3 [3/5] 7.26ns
:153  %tmp_20_3 = fadd float %imag_i_load_7, %temp_I_3


 <State 16>: 7.26ns
ST_16: tmp_17 [3/5] 7.26ns
:29  %tmp_17 = fsub float %real_i_0_load_1, %temp_R

ST_16: tmp_18 [3/5] 7.26ns
:34  %tmp_18 = fsub float %imag_i_load_3, %temp_I

ST_16: tmp_19 [3/5] 7.26ns
:37  %tmp_19 = fadd float %real_i_0_load_1, %temp_R

ST_16: tmp_20 [3/5] 7.26ns
:40  %tmp_20 = fadd float %imag_i_load_3, %temp_I

ST_16: tmp_17_1 [1/5] 7.26ns
:66  %tmp_17_1 = fsub float %real_i_1_load_1, %temp_R_1

ST_16: tmp_18_1 [1/5] 7.26ns
:71  %tmp_18_1 = fsub float %imag_i_load_4, %temp_I_1

ST_16: tmp_19_1 [1/5] 7.26ns
:74  %tmp_19_1 = fadd float %real_i_1_load_1, %temp_R_1

ST_16: tmp_20_1 [1/5] 7.26ns
:77  %tmp_20_1 = fadd float %imag_i_load_4, %temp_I_1

ST_16: tmp_17_2 [4/5] 7.26ns
:104  %tmp_17_2 = fsub float %real_i_0_load_3, %temp_R_2

ST_16: tmp_18_2 [4/5] 7.26ns
:109  %tmp_18_2 = fsub float %imag_i_load_5, %temp_I_2

ST_16: tmp_19_2 [4/5] 7.26ns
:112  %tmp_19_2 = fadd float %real_i_0_load_3, %temp_R_2

ST_16: tmp_20_2 [4/5] 7.26ns
:115  %tmp_20_2 = fadd float %imag_i_load_5, %temp_I_2

ST_16: tmp_17_3 [2/5] 7.26ns
:142  %tmp_17_3 = fsub float %real_i_1_load_3, %temp_R_3

ST_16: tmp_18_3 [2/5] 7.26ns
:147  %tmp_18_3 = fsub float %imag_i_load_7, %temp_I_3

ST_16: tmp_19_3 [2/5] 7.26ns
:150  %tmp_19_3 = fadd float %real_i_1_load_3, %temp_R_3

ST_16: tmp_20_3 [2/5] 7.26ns
:153  %tmp_20_3 = fadd float %imag_i_load_7, %temp_I_3


 <State 17>: 7.26ns
ST_17: tmp_17 [2/5] 7.26ns
:29  %tmp_17 = fsub float %real_i_0_load_1, %temp_R

ST_17: tmp_18 [2/5] 7.26ns
:34  %tmp_18 = fsub float %imag_i_load_3, %temp_I

ST_17: tmp_19 [2/5] 7.26ns
:37  %tmp_19 = fadd float %real_i_0_load_1, %temp_R

ST_17: tmp_20 [2/5] 7.26ns
:40  %tmp_20 = fadd float %imag_i_load_3, %temp_I

ST_17: real_o_1_addr [1/1] 0.00ns
:67  %real_o_1_addr = getelementptr [512 x float]* %real_o_1, i64 0, i64 %newIndex9

ST_17: stg_295 [1/1] 2.71ns
:68  store float %tmp_17_1, float* %real_o_1_addr, align 4

ST_17: imag_o_addr_8 [1/1] 0.00ns
:72  %imag_o_addr_8 = getelementptr [1024 x float]* %imag_o, i64 0, i64 %tmp_1_22

ST_17: stg_297 [1/1] 2.71ns
:73  store float %tmp_18_1, float* %imag_o_addr_8, align 4

ST_17: real_o_1_addr_1 [1/1] 0.00ns
:75  %real_o_1_addr_1 = getelementptr [512 x float]* %real_o_1, i64 0, i64 %newIndex7

ST_17: stg_299 [1/1] 2.71ns
:76  store float %tmp_19_1, float* %real_o_1_addr_1, align 4

ST_17: imag_o_addr_9 [1/1] 0.00ns
:78  %imag_o_addr_9 = getelementptr [1024 x float]* %imag_o, i64 0, i64 %tmp_1

ST_17: stg_301 [1/1] 2.71ns
:79  store float %tmp_20_1, float* %imag_o_addr_9, align 4

ST_17: tmp_17_2 [3/5] 7.26ns
:104  %tmp_17_2 = fsub float %real_i_0_load_3, %temp_R_2

ST_17: tmp_18_2 [3/5] 7.26ns
:109  %tmp_18_2 = fsub float %imag_i_load_5, %temp_I_2

ST_17: tmp_19_2 [3/5] 7.26ns
:112  %tmp_19_2 = fadd float %real_i_0_load_3, %temp_R_2

ST_17: tmp_20_2 [3/5] 7.26ns
:115  %tmp_20_2 = fadd float %imag_i_load_5, %temp_I_2

ST_17: tmp_17_3 [1/5] 7.26ns
:142  %tmp_17_3 = fsub float %real_i_1_load_3, %temp_R_3

ST_17: tmp_18_3 [1/5] 7.26ns
:147  %tmp_18_3 = fsub float %imag_i_load_7, %temp_I_3

ST_17: tmp_19_3 [1/5] 7.26ns
:150  %tmp_19_3 = fadd float %real_i_1_load_3, %temp_R_3

ST_17: tmp_20_3 [1/5] 7.26ns
:153  %tmp_20_3 = fadd float %imag_i_load_7, %temp_I_3


 <State 18>: 7.26ns
ST_18: tmp_17 [1/5] 7.26ns
:29  %tmp_17 = fsub float %real_i_0_load_1, %temp_R

ST_18: tmp_18 [1/5] 7.26ns
:34  %tmp_18 = fsub float %imag_i_load_3, %temp_I

ST_18: tmp_19 [1/5] 7.26ns
:37  %tmp_19 = fadd float %real_i_0_load_1, %temp_R

ST_18: tmp_20 [1/5] 7.26ns
:40  %tmp_20 = fadd float %imag_i_load_3, %temp_I

ST_18: tmp_17_2 [2/5] 7.26ns
:104  %tmp_17_2 = fsub float %real_i_0_load_3, %temp_R_2

ST_18: tmp_18_2 [2/5] 7.26ns
:109  %tmp_18_2 = fsub float %imag_i_load_5, %temp_I_2

ST_18: tmp_19_2 [2/5] 7.26ns
:112  %tmp_19_2 = fadd float %real_i_0_load_3, %temp_R_2

ST_18: tmp_20_2 [2/5] 7.26ns
:115  %tmp_20_2 = fadd float %imag_i_load_5, %temp_I_2

ST_18: real_o_1_addr_2 [1/1] 0.00ns
:143  %real_o_1_addr_2 = getelementptr [512 x float]* %real_o_1, i64 0, i64 %newIndex13

ST_18: stg_319 [1/1] 2.71ns
:144  store float %tmp_17_3, float* %real_o_1_addr_2, align 4

ST_18: imag_o_addr_12 [1/1] 0.00ns
:148  %imag_o_addr_12 = getelementptr [1024 x float]* %imag_o, i64 0, i64 %tmp_3_24

ST_18: stg_321 [1/1] 2.71ns
:149  store float %tmp_18_3, float* %imag_o_addr_12, align 4

ST_18: imag_o_addr_13 [1/1] 0.00ns
:154  %imag_o_addr_13 = getelementptr [1024 x float]* %imag_o, i64 0, i64 %tmp_3

ST_18: stg_323 [1/1] 2.71ns
:155  store float %tmp_20_3, float* %imag_o_addr_13, align 4


 <State 19>: 7.26ns
ST_19: real_o_0_addr [1/1] 0.00ns
:30  %real_o_0_addr = getelementptr [512 x float]* %real_o_0, i64 0, i64 %newIndex4

ST_19: stg_325 [1/1] 2.71ns
:31  store float %tmp_17, float* %real_o_0_addr, align 4

ST_19: imag_o_addr [1/1] 0.00ns
:35  %imag_o_addr = getelementptr [1024 x float]* %imag_o, i64 0, i64 %tmp_s

ST_19: stg_327 [1/1] 2.71ns
:36  store float %tmp_18, float* %imag_o_addr, align 4

ST_19: real_o_0_addr_1 [1/1] 0.00ns
:38  %real_o_0_addr_1 = getelementptr [512 x float]* %real_o_0, i64 0, i64 %newIndex7

ST_19: stg_329 [1/1] 2.71ns
:39  store float %tmp_19, float* %real_o_0_addr_1, align 4

ST_19: imag_o_addr_7 [1/1] 0.00ns
:41  %imag_o_addr_7 = getelementptr [1024 x float]* %imag_o, i64 0, i64 %tmp1

ST_19: stg_331 [1/1] 2.71ns
:42  store float %tmp_20, float* %imag_o_addr_7, align 4

ST_19: tmp_17_2 [1/5] 7.26ns
:104  %tmp_17_2 = fsub float %real_i_0_load_3, %temp_R_2

ST_19: tmp_18_2 [1/5] 7.26ns
:109  %tmp_18_2 = fsub float %imag_i_load_5, %temp_I_2

ST_19: tmp_19_2 [1/5] 7.26ns
:112  %tmp_19_2 = fadd float %real_i_0_load_3, %temp_R_2

ST_19: tmp_20_2 [1/5] 7.26ns
:115  %tmp_20_2 = fadd float %imag_i_load_5, %temp_I_2

ST_19: real_o_1_addr_3 [1/1] 0.00ns
:151  %real_o_1_addr_3 = getelementptr [512 x float]* %real_o_1, i64 0, i64 %newIndex3

ST_19: stg_337 [1/1] 2.71ns
:152  store float %tmp_19_3, float* %real_o_1_addr_3, align 4


 <State 20>: 2.71ns
ST_20: stg_338 [1/1] 0.00ns
:2  call void (...)* @_ssdm_op_SpecLoopTripCount(i64 128, i64 128, i64 128)

ST_20: stg_339 [1/1] 0.00ns
:3  call void (...)* @_ssdm_op_SpecLoopName([10 x i8]* @p_str3) nounwind

ST_20: tmp [1/1] 0.00ns
:4  %tmp = call i32 (...)* @_ssdm_op_SpecRegionBegin([10 x i8]* @p_str3)

ST_20: stg_341 [1/1] 0.00ns
:5  call void (...)* @_ssdm_op_SpecPipeline(i32 1, i32 1, i32 1, i32 0, [1 x i8]* @p_str) nounwind

ST_20: empty [1/1] 0.00ns
:44  %empty = call i32 (...)* @_ssdm_op_SpecRegionEnd([10 x i8]* @p_str3, i32 %tmp)

ST_20: real_o_0_addr_2 [1/1] 0.00ns
:105  %real_o_0_addr_2 = getelementptr [512 x float]* %real_o_0, i64 0, i64 %newIndex10

ST_20: stg_344 [1/1] 2.71ns
:106  store float %tmp_17_2, float* %real_o_0_addr_2, align 4

ST_20: imag_o_addr_10 [1/1] 0.00ns
:110  %imag_o_addr_10 = getelementptr [1024 x float]* %imag_o, i64 0, i64 %tmp_2_23

ST_20: stg_346 [1/1] 2.71ns
:111  store float %tmp_18_2, float* %imag_o_addr_10, align 4

ST_20: real_o_0_addr_3 [1/1] 0.00ns
:113  %real_o_0_addr_3 = getelementptr [512 x float]* %real_o_0, i64 0, i64 %newIndex12

ST_20: stg_348 [1/1] 2.71ns
:114  store float %tmp_19_2, float* %real_o_0_addr_3, align 4

ST_20: imag_o_addr_11 [1/1] 0.00ns
:116  %imag_o_addr_11 = getelementptr [1024 x float]* %imag_o, i64 0, i64 %tmp_2

ST_20: stg_350 [1/1] 2.71ns
:117  store float %tmp_20_2, float* %imag_o_addr_11, align 4

ST_20: stg_351 [1/1] 0.00ns
:157  br label %1


 <State 21>: 0.00ns
ST_21: stg_352 [1/1] 0.00ns
:0  ret void



============================================================
+ Verbose Summary: Binding
============================================================
N/A
* FSMD analyzer results:
  - Output states:
  - Chain level:
	State 1
	State 2
	State 3
	State 4
	State 5
	State 6
	State 7
	State 8
	State 9
	State 10
	State 11
	State 12
	State 13
	State 14
	State 15
	State 16
	State 17
	State 18
	State 19
	State 20
	State 21


============================================================
+ Verbose Summary: Datapath Resource usage 
============================================================
N/A
