

================================================================
== Vivado HLS Report for 'ofdm_receiver_fft_stages17'
================================================================
* Date:           Sun Nov 13 23:40:48 2016

* Version:        2015.4 (Build 1412921 on Wed Nov 18 09:58:55 AM 2015)
* Project:        qpsk_decode
* Solution:       solution1
* Product family: zynq
* Target device:  xc7z020clg484-1


================================================================
== Performance Estimates
================================================================
+ Timing (ns): 
    * Summary: 
    +--------+-------+----------+------------+
    |  Clock | Target| Estimated| Uncertainty|
    +--------+-------+----------+------------+
    |ap_clk  |  10.00|      8.41|        1.25|
    +--------+-------+----------+------------+

+ Latency (clock cycles): 
    * Summary: 
    +-----+-----+-----+-----+---------+
    |  Latency  |  Interval | Pipeline|
    | min | max | min | max |   Type  |
    +-----+-----+-----+-----+---------+
    |  257|  257|  257|  257|   none  |
    +-----+-----+-----+-----+---------+

    + Detail: 
        * Instance: 
        N/A

        * Loop: 
        +-------------+-----+-----+----------+-----------+-----------+------+----------+
        |             |  Latency  | Iteration|  Initiation Interval  | Trip |          |
        |  Loop Name  | min | max |  Latency |  achieved |   target  | Count| Pipelined|
        +-------------+-----+-----+----------+-----------+-----------+------+----------+
        |- butterfly  |  256|  256|         4|          -|          -|    64|    no    |
        | + DFTpts    |    0|    0|        18|          2|          1|     0|    yes   |
        +-------------+-----+-----+----------+-----------+-----------+------+----------+



================================================================
== Utilization Estimates
================================================================
* Summary: 
+-----------------+---------+-------+--------+-------+
|       Name      | BRAM_18K| DSP48E|   FF   |  LUT  |
+-----------------+---------+-------+--------+-------+
|DSP              |        -|      -|       -|      -|
|Expression       |        -|      -|       0|    125|
|FIFO             |        -|      -|       -|      -|
|Instance         |        -|     12|     901|   1812|
|Memory           |        2|      -|       0|      0|
|Multiplexer      |        -|      -|       -|    558|
|Register         |        -|      -|     750|    198|
+-----------------+---------+-------+--------+-------+
|Total            |        2|     12|    1651|   2693|
+-----------------+---------+-------+--------+-------+
|Available        |      280|    220|  106400|  53200|
+-----------------+---------+-------+--------+-------+
|Utilization (%)  |    ~0   |      5|       1|      5|
+-----------------+---------+-------+--------+-------+

+ Detail: 
    * Instance: 
    +----------------------------------------------------+------------------------------------------------+---------+-------+-----+-----+
    |                      Instance                      |                     Module                     | BRAM_18K| DSP48E|  FF | LUT |
    +----------------------------------------------------+------------------------------------------------+---------+-------+-----+-----+
    |ofdm_receiver_fadd_32ns_32ns_32_5_full_dsp_U89      |ofdm_receiver_fadd_32ns_32ns_32_5_full_dsp      |        0|      2|  205|  390|
    |ofdm_receiver_faddfsub_32ns_32ns_32_5_full_dsp_U88  |ofdm_receiver_faddfsub_32ns_32ns_32_5_full_dsp  |        0|      2|  205|  390|
    |ofdm_receiver_fmul_32ns_32ns_32_4_max_dsp_U90       |ofdm_receiver_fmul_32ns_32ns_32_4_max_dsp       |        0|      3|  143|  321|
    |ofdm_receiver_fmul_32ns_32ns_32_4_max_dsp_U91       |ofdm_receiver_fmul_32ns_32ns_32_4_max_dsp       |        0|      3|  143|  321|
    |ofdm_receiver_fsub_32ns_32ns_32_5_full_dsp_U87      |ofdm_receiver_fsub_32ns_32ns_32_5_full_dsp      |        0|      2|  205|  390|
    +----------------------------------------------------+------------------------------------------------+---------+-------+-----+-----+
    |Total                                               |                                                |        0|     12|  901| 1812|
    +----------------------------------------------------+------------------------------------------------+---------+-------+-----+-----+

    * DSP48: 
    N/A

    * Memory: 
    +------------+-------------------------------------+---------+---+----+------+-----+------+-------------+
    |   Memory   |                Module               | BRAM_18K| FF| LUT| Words| Bits| Banks| W*Bits*Banks|
    +------------+-------------------------------------+---------+---+----+------+-----+------+-------------+
    |W_imag40_U  |ofdm_receiver_fft_stages12_W_imag45  |        1|  0|   0|   512|   32|     1|        16384|
    |W_real48_U  |ofdm_receiver_fft_stages12_W_real53  |        1|  0|   0|   512|   32|     1|        16384|
    +------------+-------------------------------------+---------+---+----+------+-----+------+-------------+
    |Total       |                                     |        2|  0|   0|  1024|   64|     2|        32768|
    +------------+-------------------------------------+---------+---+----+------+-----+------+-------------+

    * FIFO: 
    N/A

    * Expression: 
    +--------------------+----------+-------+---+----+------------+------------+
    |    Variable Name   | Operation| DSP48E| FF| LUT| Bitwidth P0| Bitwidth P1|
    +--------------------+----------+-------+---+----+------------+------------+
    |i_2_fu_339_p2       |     +    |      0|  0|  32|          32|           8|
    |i_lower_fu_305_p2   |     +    |      0|  0|  32|           7|          32|
    |j_fu_273_p2         |     +    |      0|  0|   7|           7|           1|
    |k_1_fu_368_p2       |     +    |      0|  0|  10|          10|           4|
    |grp_fu_260_p3       |  Select  |      0|  0|  32|           1|          32|
    |exitcond_fu_267_p2  |   icmp   |      0|  0|   3|           7|           8|
    |icmp_fu_299_p2      |   icmp   |      0|  0|   8|          22|           1|
    |ap_sig_bdd_320      |    or    |      0|  0|   1|           1|           1|
    +--------------------+----------+-------+---+----+------------+------------+
    |Total               |          |      0|  0| 125|          87|          87|
    +--------------------+----------+-------+---+----+------------+------------+

    * Multiplexer: 
    +-----------------------+----+-----------+-----+-----------+
    |          Name         | LUT| Input Size| Bits| Total Bits|
    +-----------------------+----+-----------+-----+-----------+
    |ap_NS_fsm              |   1|          7|    1|          7|
    |ap_reg_ppiten_pp0_it8  |   1|          2|    1|          2|
    |grp_fu_238_p0          |  32|          3|   32|         96|
    |grp_fu_238_p1          |  32|          3|   32|         96|
    |grp_fu_242_opcode      |   2|          3|    2|          6|
    |grp_fu_242_p0          |  32|          3|   32|         96|
    |grp_fu_242_p1          |  32|          3|   32|         96|
    |grp_fu_246_p0          |  32|          3|   32|         96|
    |grp_fu_246_p1          |  32|          3|   32|         96|
    |grp_fu_250_p0          |  32|          3|   32|         96|
    |grp_fu_250_p1          |  32|          3|   32|         96|
    |grp_fu_255_p0          |  32|          3|   32|         96|
    |grp_fu_255_p1          |  32|          3|   32|         96|
    |grp_fu_260_p0          |   1|          3|    1|          3|
    |i2_phi_fu_231_p4       |  32|          2|   32|         64|
    |i2_reg_228             |  32|          2|   32|         64|
    |i_reg_216              |   7|          2|    7|         14|
    |imag_i_address0        |  10|          3|   10|         30|
    |imag_o_address0        |  10|          3|   10|         30|
    |imag_o_d0              |  32|          3|   32|         96|
    |k_reg_204              |  10|          2|   10|         20|
    |real_i1_address0       |   9|          3|    9|         27|
    |real_i_address0        |   9|          3|    9|         27|
    |real_o2_address0       |   9|          3|    9|         27|
    |real_o2_d0             |  32|          3|   32|         96|
    |real_o_address0        |   9|          3|    9|         27|
    |real_o_d0              |  32|          3|   32|         96|
    +-----------------------+----+-----------+-----+-----------+
    |Total                  | 558|         80|  558|       1596|
    +-----------------------+----+-----------+-----+-----------+

    * Register: 
    +---------------------------+----+----+-----+-----------+
    |            Name           | FF | LUT| Bits| Const Bits|
    +---------------------------+----+----+-----+-----------+
    |ap_CS_fsm                  |   6|   0|    6|          0|
    |ap_done_reg                |   1|   0|    1|          0|
    |ap_reg_ppiten_pp0_it0      |   1|   0|    1|          0|
    |ap_reg_ppiten_pp0_it1      |   1|   0|    1|          0|
    |ap_reg_ppiten_pp0_it2      |   1|   0|    1|          0|
    |ap_reg_ppiten_pp0_it3      |   1|   0|    1|          0|
    |ap_reg_ppiten_pp0_it4      |   1|   0|    1|          0|
    |ap_reg_ppiten_pp0_it5      |   1|   0|    1|          0|
    |ap_reg_ppiten_pp0_it6      |   1|   0|    1|          0|
    |ap_reg_ppiten_pp0_it7      |   1|   0|    1|          0|
    |ap_reg_ppiten_pp0_it8      |   1|   0|    1|          0|
    |c_reg_397                  |  32|   0|   32|          0|
    |i2_reg_228                 |  32|   0|   32|          0|
    |i_2_reg_460                |  32|   0|   32|          0|
    |i_reg_216                  |   7|   0|    7|          0|
    |icmp_reg_409               |   1|   0|    1|          0|
    |imag_i_load_1_reg_533      |  32|   0|   32|          0|
    |j_reg_377                  |   7|   0|    7|          0|
    |k_reg_204                  |  10|   0|   10|          0|
    |real_i_load_1_phi_reg_527  |  32|   0|   32|          0|
    |real_i_load_phi_reg_448    |  32|   0|   32|          0|
    |real_o2_addr_3_reg_510     |   9|   0|    9|          0|
    |real_o2_addr_reg_438       |   9|   0|    9|          0|
    |real_o_addr_3_reg_505      |   9|   0|    9|          0|
    |real_o_addr_reg_433        |   9|   0|    9|          0|
    |s_reg_403                  |  32|   0|   32|          0|
    |temp_I_reg_521             |  32|   0|   32|          0|
    |temp_R_reg_515             |  32|   0|   32|          0|
    |tmp_10_reg_545             |  32|   0|   32|          0|
    |tmp_11_reg_550             |  32|   0|   32|          0|
    |tmp_12_reg_556             |  32|   0|   32|          0|
    |tmp_19_reg_443             |   1|   0|    1|          0|
    |tmp_2_reg_413              |  64|   0|   64|          0|
    |tmp_3_reg_475              |  32|   0|   32|          0|
    |tmp_4_reg_465              |  32|   0|   32|          0|
    |tmp_5_reg_470              |  32|   0|   32|          0|
    |tmp_6_reg_480              |  32|   0|   32|          0|
    |tmp_7_reg_485              |  64|   0|   64|          0|
    |tmp_8_reg_539              |  32|   0|   32|          0|
    |i2_reg_228                 |   0|  32|   32|          0|
    |icmp_reg_409               |   0|   1|    1|          0|
    |real_o2_addr_3_reg_510     |   0|   9|    9|          0|
    |real_o2_addr_reg_438       |   0|   9|    9|          0|
    |real_o_addr_3_reg_505      |   0|   9|    9|          0|
    |real_o_addr_reg_433        |   0|   9|    9|          0|
    |tmp_19_reg_443             |   0|   1|    1|          0|
    |tmp_2_reg_413              |   0|  64|   64|          0|
    |tmp_7_reg_485              |   0|  64|   64|          0|
    +---------------------------+----+----+-----+-----------+
    |Total                      | 750| 198|  948|          0|
    +---------------------------+----+----+-----+-----------+



================================================================
== Interface
================================================================
* Summary: 
+------------------+-----+-----+------------+----------------------------+--------------+
|     RTL Ports    | Dir | Bits|  Protocol  |        Source Object       |    C Type    |
+------------------+-----+-----+------------+----------------------------+--------------+
|ap_clk            |  in |    1| ap_ctrl_hs | ofdm_receiver_fft_stages17 | return value |
|ap_rst            |  in |    1| ap_ctrl_hs | ofdm_receiver_fft_stages17 | return value |
|ap_start          |  in |    1| ap_ctrl_hs | ofdm_receiver_fft_stages17 | return value |
|ap_done           | out |    1| ap_ctrl_hs | ofdm_receiver_fft_stages17 | return value |
|ap_continue       |  in |    1| ap_ctrl_hs | ofdm_receiver_fft_stages17 | return value |
|ap_idle           | out |    1| ap_ctrl_hs | ofdm_receiver_fft_stages17 | return value |
|ap_ready          | out |    1| ap_ctrl_hs | ofdm_receiver_fft_stages17 | return value |
|real_i_address0   | out |    9|  ap_memory |           real_i           |     array    |
|real_i_ce0        | out |    1|  ap_memory |           real_i           |     array    |
|real_i_q0         |  in |   32|  ap_memory |           real_i           |     array    |
|real_i1_address0  | out |    9|  ap_memory |           real_i1          |     array    |
|real_i1_ce0       | out |    1|  ap_memory |           real_i1          |     array    |
|real_i1_q0        |  in |   32|  ap_memory |           real_i1          |     array    |
|imag_i_address0   | out |   10|  ap_memory |           imag_i           |     array    |
|imag_i_ce0        | out |    1|  ap_memory |           imag_i           |     array    |
|imag_i_q0         |  in |   32|  ap_memory |           imag_i           |     array    |
|real_o_address0   | out |    9|  ap_memory |           real_o           |     array    |
|real_o_ce0        | out |    1|  ap_memory |           real_o           |     array    |
|real_o_we0        | out |    1|  ap_memory |           real_o           |     array    |
|real_o_d0         | out |   32|  ap_memory |           real_o           |     array    |
|real_o2_address0  | out |    9|  ap_memory |           real_o2          |     array    |
|real_o2_ce0       | out |    1|  ap_memory |           real_o2          |     array    |
|real_o2_we0       | out |    1|  ap_memory |           real_o2          |     array    |
|real_o2_d0        | out |   32|  ap_memory |           real_o2          |     array    |
|imag_o_address0   | out |   10|  ap_memory |           imag_o           |     array    |
|imag_o_ce0        | out |    1|  ap_memory |           imag_o           |     array    |
|imag_o_we0        | out |    1|  ap_memory |           imag_o           |     array    |
|imag_o_d0         | out |   32|  ap_memory |           imag_o           |     array    |
+------------------+-----+-----+------------+----------------------------+--------------+

============================================================
+ Verbose Summary: Synthesis Manager
============================================================
InlineROM: 1
ExposeGlobal: 0
============================================================
+ Verbose Summary: CDFG Model
============================================================
IsTopModel: 0
ResetActiveHigh: 1
IsCombinational: 2
IsDatapathOnly: 0
HasWiredReturn: 1
HasMFsm: 0
HasVarLatency: 1
IsPipeline: 0
IsRtlPipelined: 0
IsInstanceOverlapped: 0
IsDontTouch: 0
HasImplIP: 0
IsGatedGlobalClock: 0

+ Individual pipeline summary: 
  * Pipeline-0: initiation interval (II) = 2, depth = 18


============================================================
+ Verbose Summary: Schedule
============================================================
* Number of FSM states: 22
* Pipeline: 1
  Pipeline-0: II = 2, D = 18, States = { 4 5 6 7 8 9 10 11 12 13 14 15 16 17 18 19 20 21 }
* Dataflow Pipeline: 0

* FSM state transitions: 
1 --> 
	2  / true
2 --> 
	3  / (!exitcond)
3 --> 
	4  / true
4 --> 
	22  / (!icmp)
	5  / (icmp)
5 --> 
	6  / true
6 --> 
	7  / true
7 --> 
	8  / true
8 --> 
	9  / true
9 --> 
	10  / true
10 --> 
	11  / true
11 --> 
	12  / true
12 --> 
	13  / true
13 --> 
	14  / true
14 --> 
	15  / true
15 --> 
	16  / true
16 --> 
	17  / true
17 --> 
	18  / true
18 --> 
	19  / true
19 --> 
	20  / true
20 --> 
	21  / true
21 --> 
	4  / true
22 --> 
	2  / true
* FSM state operations: 

 <State 1>: 1.57ns
ST_1: stg_23 [1/1] 1.57ns
:0  br label %1


 <State 2>: 2.39ns
ST_2: k [1/1] 0.00ns
:0  %k = phi i10 [ 0, %0 ], [ %k_1, %6 ]

ST_2: i [1/1] 0.00ns
:1  %i = phi i7 [ 0, %0 ], [ %j, %6 ]

ST_2: exitcond [1/1] 1.97ns
:2  %exitcond = icmp eq i7 %i, -64

ST_2: j [1/1] 1.72ns
:3  %j = add i7 %i, 1

ST_2: stg_28 [1/1] 0.00ns
:4  br i1 %exitcond, label %7, label %2

ST_2: tmp_s [1/1] 0.00ns
:5  %tmp_s = zext i10 %k to i64

ST_2: W_real48_addr [1/1] 0.00ns
:6  %W_real48_addr = getelementptr inbounds [512 x float]* @W_real48, i64 0, i64 %tmp_s

ST_2: c [2/2] 2.39ns
:7  %c = load float* %W_real48_addr, align 16

ST_2: W_imag40_addr [1/1] 0.00ns
:8  %W_imag40_addr = getelementptr inbounds [512 x float]* @W_imag40, i64 0, i64 %tmp_s

ST_2: s [2/2] 2.39ns
:9  %s = load float* %W_imag40_addr, align 16

ST_2: stg_34 [1/1] 0.00ns
:0  ret void


 <State 3>: 2.39ns
ST_3: i_cast [1/1] 0.00ns
:0  %i_cast = zext i7 %i to i32

ST_3: stg_36 [1/1] 0.00ns
:1  call void (...)* @_ssdm_op_SpecLoopTripCount(i64 64, i64 64, i64 64)

ST_3: stg_37 [1/1] 0.00ns
:2  call void (...)* @_ssdm_op_SpecLoopName([10 x i8]* @p_str3) nounwind

ST_3: tmp [1/1] 0.00ns
:3  %tmp = call i32 (...)* @_ssdm_op_SpecRegionBegin([10 x i8]* @p_str3)

ST_3: stg_39 [1/1] 0.00ns
:4  call void (...)* @_ssdm_op_SpecPipeline(i32 1, i32 1, i32 1, i32 0, [1 x i8]* @p_str) nounwind

ST_3: c [1/2] 2.39ns
:7  %c = load float* %W_real48_addr, align 16

ST_3: s [1/2] 2.39ns
:9  %s = load float* %W_imag40_addr, align 16

ST_3: stg_42 [1/1] 1.57ns
:10  br label %3


 <State 4>: 5.15ns
ST_4: i2 [1/1] 0.00ns
:0  %i2 = phi i32 [ %i_cast, %2 ], [ %i_2, %5 ]

ST_4: tmp_18 [1/1] 0.00ns
:1  %tmp_18 = call i22 @_ssdm_op_PartSelect.i22.i32.i32.i32(i32 %i2, i32 10, i32 31)

ST_4: icmp [1/1] 2.37ns
:2  %icmp = icmp slt i22 %tmp_18, 1

ST_4: stg_46 [1/1] 0.00ns
:3  br i1 %icmp, label %_ifconv, label %6

ST_4: i_lower [1/1] 2.44ns
_ifconv:4  %i_lower = add nsw i32 64, %i2

ST_4: tmp_2 [1/1] 0.00ns
_ifconv:5  %tmp_2 = sext i32 %i_lower to i64

ST_4: newIndex8 [1/1] 0.00ns
_ifconv:7  %newIndex8 = call i31 @_ssdm_op_PartSelect.i31.i32.i32.i32(i32 %i_lower, i32 1, i32 31)

ST_4: newIndex4 [1/1] 0.00ns
_ifconv:8  %newIndex4 = zext i31 %newIndex8 to i64

ST_4: real_i_addr [1/1] 0.00ns
_ifconv:9  %real_i_addr = getelementptr [512 x float]* %real_i, i64 0, i64 %newIndex4

ST_4: real_i1_addr [1/1] 0.00ns
_ifconv:10  %real_i1_addr = getelementptr [512 x float]* %real_i1, i64 0, i64 %newIndex4

ST_4: real_i1_load [2/2] 2.71ns
_ifconv:11  %real_i1_load = load float* %real_i1_addr, align 4

ST_4: real_i_load12 [2/2] 2.71ns
_ifconv:12  %real_i_load12 = load float* %real_i_addr, align 4

ST_4: imag_i_addr [1/1] 0.00ns
_ifconv:15  %imag_i_addr = getelementptr [1024 x float]* %imag_i, i64 0, i64 %tmp_2

ST_4: imag_i_load [2/2] 2.71ns
_ifconv:16  %imag_i_load = load float* %imag_i_addr, align 4

ST_4: real_o_addr [1/1] 0.00ns
_ifconv:31  %real_o_addr = getelementptr [512 x float]* %real_o, i64 0, i64 %newIndex4

ST_4: real_o2_addr [1/1] 0.00ns
_ifconv:32  %real_o2_addr = getelementptr [512 x float]* %real_o2, i64 0, i64 %newIndex4


 <State 5>: 8.41ns
ST_5: tmp_19 [1/1] 0.00ns
_ifconv:6  %tmp_19 = trunc i32 %i2 to i1

ST_5: real_i1_load [1/2] 2.71ns
_ifconv:11  %real_i1_load = load float* %real_i1_addr, align 4

ST_5: real_i_load12 [1/2] 2.71ns
_ifconv:12  %real_i_load12 = load float* %real_i_addr, align 4

ST_5: real_i_load_phi [1/1] 1.37ns
_ifconv:13  %real_i_load_phi = select i1 %tmp_19, float %real_i1_load, float %real_i_load12

ST_5: imag_i_load [1/2] 2.71ns
_ifconv:16  %imag_i_load = load float* %imag_i_addr, align 4

ST_5: tmp_4 [4/4] 5.70ns
_ifconv:17  %tmp_4 = fmul float %imag_i_load, %s

ST_5: tmp_5 [4/4] 5.70ns
_ifconv:19  %tmp_5 = fmul float %imag_i_load, %c

ST_5: i_2 [1/1] 2.44ns
:4  %i_2 = add nsw i32 %i2, 128


 <State 6>: 5.70ns
ST_6: tmp_3 [4/4] 5.70ns
_ifconv:14  %tmp_3 = fmul float %real_i_load_phi, %c

ST_6: tmp_4 [3/4] 5.70ns
_ifconv:17  %tmp_4 = fmul float %imag_i_load, %s

ST_6: tmp_5 [3/4] 5.70ns
_ifconv:19  %tmp_5 = fmul float %imag_i_load, %c

ST_6: tmp_6 [4/4] 5.70ns
_ifconv:20  %tmp_6 = fmul float %real_i_load_phi, %s


 <State 7>: 5.70ns
ST_7: tmp_3 [3/4] 5.70ns
_ifconv:14  %tmp_3 = fmul float %real_i_load_phi, %c

ST_7: tmp_4 [2/4] 5.70ns
_ifconv:17  %tmp_4 = fmul float %imag_i_load, %s

ST_7: tmp_5 [2/4] 5.70ns
_ifconv:19  %tmp_5 = fmul float %imag_i_load, %c

ST_7: tmp_6 [3/4] 5.70ns
_ifconv:20  %tmp_6 = fmul float %real_i_load_phi, %s


 <State 8>: 5.70ns
ST_8: tmp_3 [2/4] 5.70ns
_ifconv:14  %tmp_3 = fmul float %real_i_load_phi, %c

ST_8: tmp_4 [1/4] 5.70ns
_ifconv:17  %tmp_4 = fmul float %imag_i_load, %s

ST_8: tmp_5 [1/4] 5.70ns
_ifconv:19  %tmp_5 = fmul float %imag_i_load, %c

ST_8: tmp_6 [2/4] 5.70ns
_ifconv:20  %tmp_6 = fmul float %real_i_load_phi, %s


 <State 9>: 5.70ns
ST_9: tmp_3 [1/4] 5.70ns
_ifconv:14  %tmp_3 = fmul float %real_i_load_phi, %c

ST_9: tmp_6 [1/4] 5.70ns
_ifconv:20  %tmp_6 = fmul float %real_i_load_phi, %s


 <State 10>: 7.26ns
ST_10: temp_R [5/5] 7.26ns
_ifconv:18  %temp_R = fsub float %tmp_3, %tmp_4

ST_10: temp_I [5/5] 7.26ns
_ifconv:21  %temp_I = fadd float %tmp_5, %tmp_6


 <State 11>: 7.26ns
ST_11: temp_R [4/5] 7.26ns
_ifconv:18  %temp_R = fsub float %tmp_3, %tmp_4

ST_11: temp_I [4/5] 7.26ns
_ifconv:21  %temp_I = fadd float %tmp_5, %tmp_6


 <State 12>: 7.26ns
ST_12: temp_R [3/5] 7.26ns
_ifconv:18  %temp_R = fsub float %tmp_3, %tmp_4

ST_12: temp_I [3/5] 7.26ns
_ifconv:21  %temp_I = fadd float %tmp_5, %tmp_6


 <State 13>: 7.26ns
ST_13: temp_R [2/5] 7.26ns
_ifconv:18  %temp_R = fsub float %tmp_3, %tmp_4

ST_13: temp_I [2/5] 7.26ns
_ifconv:21  %temp_I = fadd float %tmp_5, %tmp_6

ST_13: tmp_7 [1/1] 0.00ns
_ifconv:22  %tmp_7 = sext i32 %i2 to i64

ST_13: newIndex [1/1] 0.00ns
_ifconv:23  %newIndex = call i31 @_ssdm_op_PartSelect.i31.i32.i32.i32(i32 %i2, i32 1, i32 31)

ST_13: newIndex3 [1/1] 0.00ns
_ifconv:24  %newIndex3 = zext i31 %newIndex to i64

ST_13: real_i_addr_3 [1/1] 0.00ns
_ifconv:25  %real_i_addr_3 = getelementptr [512 x float]* %real_i, i64 0, i64 %newIndex3

ST_13: real_i1_addr_3 [1/1] 0.00ns
_ifconv:26  %real_i1_addr_3 = getelementptr [512 x float]* %real_i1, i64 0, i64 %newIndex3

ST_13: real_i1_load_3 [2/2] 2.71ns
_ifconv:27  %real_i1_load_3 = load float* %real_i1_addr_3, align 4

ST_13: real_i_load [2/2] 2.71ns
_ifconv:28  %real_i_load = load float* %real_i_addr_3, align 4

ST_13: imag_i_addr_3 [1/1] 0.00ns
:0  %imag_i_addr_3 = getelementptr [1024 x float]* %imag_i, i64 0, i64 %tmp_7

ST_13: imag_i_load_1 [2/2] 2.71ns
:1  %imag_i_load_1 = load float* %imag_i_addr_3, align 4

ST_13: real_o_addr_3 [1/1] 0.00ns
:6  %real_o_addr_3 = getelementptr [512 x float]* %real_o, i64 0, i64 %newIndex3

ST_13: real_o2_addr_3 [1/1] 0.00ns
:7  %real_o2_addr_3 = getelementptr [512 x float]* %real_o2, i64 0, i64 %newIndex3


 <State 14>: 7.26ns
ST_14: temp_R [1/5] 7.26ns
_ifconv:18  %temp_R = fsub float %tmp_3, %tmp_4

ST_14: temp_I [1/5] 7.26ns
_ifconv:21  %temp_I = fadd float %tmp_5, %tmp_6

ST_14: real_i1_load_3 [1/2] 2.71ns
_ifconv:27  %real_i1_load_3 = load float* %real_i1_addr_3, align 4

ST_14: real_i_load [1/2] 2.71ns
_ifconv:28  %real_i_load = load float* %real_i_addr_3, align 4

ST_14: real_i_load_1_phi [1/1] 1.37ns
_ifconv:29  %real_i_load_1_phi = select i1 %tmp_19, float %real_i1_load_3, float %real_i_load

ST_14: stg_105 [1/1] 0.00ns
_ifconv:33  br i1 %tmp_19, label %branch7, label %branch6

ST_14: imag_i_load_1 [1/2] 2.71ns
:1  %imag_i_load_1 = load float* %imag_i_addr_3, align 4

ST_14: stg_107 [1/1] 0.00ns
:8  br i1 %tmp_19, label %branch5, label %branch4


 <State 15>: 7.26ns
ST_15: tmp_8 [5/5] 7.26ns
_ifconv:30  %tmp_8 = fsub float %real_i_load_1_phi, %temp_R

ST_15: tmp_10 [5/5] 7.26ns
:2  %tmp_10 = fsub float %imag_i_load_1, %temp_I

ST_15: tmp_11 [5/5] 7.26ns
:5  %tmp_11 = fadd float %real_i_load_1_phi, %temp_R


 <State 16>: 7.26ns
ST_16: tmp_8 [4/5] 7.26ns
_ifconv:30  %tmp_8 = fsub float %real_i_load_1_phi, %temp_R

ST_16: tmp_10 [4/5] 7.26ns
:2  %tmp_10 = fsub float %imag_i_load_1, %temp_I

ST_16: tmp_11 [4/5] 7.26ns
:5  %tmp_11 = fadd float %real_i_load_1_phi, %temp_R

ST_16: tmp_12 [5/5] 7.26ns
:0  %tmp_12 = fadd float %imag_i_load_1, %temp_I


 <State 17>: 7.26ns
ST_17: tmp_8 [3/5] 7.26ns
_ifconv:30  %tmp_8 = fsub float %real_i_load_1_phi, %temp_R

ST_17: tmp_10 [3/5] 7.26ns
:2  %tmp_10 = fsub float %imag_i_load_1, %temp_I

ST_17: tmp_11 [3/5] 7.26ns
:5  %tmp_11 = fadd float %real_i_load_1_phi, %temp_R

ST_17: tmp_12 [4/5] 7.26ns
:0  %tmp_12 = fadd float %imag_i_load_1, %temp_I


 <State 18>: 7.26ns
ST_18: tmp_8 [2/5] 7.26ns
_ifconv:30  %tmp_8 = fsub float %real_i_load_1_phi, %temp_R

ST_18: tmp_10 [2/5] 7.26ns
:2  %tmp_10 = fsub float %imag_i_load_1, %temp_I

ST_18: tmp_11 [2/5] 7.26ns
:5  %tmp_11 = fadd float %real_i_load_1_phi, %temp_R

ST_18: tmp_12 [3/5] 7.26ns
:0  %tmp_12 = fadd float %imag_i_load_1, %temp_I


 <State 19>: 7.26ns
ST_19: tmp_8 [1/5] 7.26ns
_ifconv:30  %tmp_8 = fsub float %real_i_load_1_phi, %temp_R

ST_19: tmp_10 [1/5] 7.26ns
:2  %tmp_10 = fsub float %imag_i_load_1, %temp_I

ST_19: tmp_11 [1/5] 7.26ns
:5  %tmp_11 = fadd float %real_i_load_1_phi, %temp_R

ST_19: tmp_12 [2/5] 7.26ns
:0  %tmp_12 = fadd float %imag_i_load_1, %temp_I


 <State 20>: 7.26ns
ST_20: stg_127 [1/1] 2.71ns
branch6:0  store float %tmp_8, float* %real_o_addr, align 4

ST_20: stg_128 [1/1] 2.71ns
branch7:0  store float %tmp_8, float* %real_o2_addr, align 4

ST_20: imag_o_addr [1/1] 0.00ns
:3  %imag_o_addr = getelementptr [1024 x float]* %imag_o, i64 0, i64 %tmp_2

ST_20: stg_130 [1/1] 2.71ns
:4  store float %tmp_10, float* %imag_o_addr, align 4

ST_20: tmp_12 [1/5] 7.26ns
:0  %tmp_12 = fadd float %imag_i_load_1, %temp_I


 <State 21>: 2.71ns
ST_21: stg_132 [1/1] 0.00ns
_ifconv:0  call void (...)* @_ssdm_op_SpecLoopName([7 x i8]* @p_str2) nounwind

ST_21: tmp_14 [1/1] 0.00ns
_ifconv:1  %tmp_14 = call i32 (...)* @_ssdm_op_SpecRegionBegin([7 x i8]* @p_str2)

ST_21: stg_134 [1/1] 0.00ns
_ifconv:2  call void (...)* @_ssdm_op_SpecLoopTripCount(i32 0, i32 0, i32 0, [1 x i8]* @p_str) nounwind

ST_21: stg_135 [1/1] 0.00ns
_ifconv:3  call void (...)* @_ssdm_op_SpecPipeline(i32 1, i32 1, i32 1, i32 0, [1 x i8]* @p_str) nounwind

ST_21: stg_136 [1/1] 0.00ns
branch6:1  br label %4

ST_21: stg_137 [1/1] 0.00ns
branch7:1  br label %4

ST_21: stg_138 [1/1] 2.71ns
branch4:0  store float %tmp_11, float* %real_o_addr_3, align 4

ST_21: stg_139 [1/1] 0.00ns
branch4:1  br label %5

ST_21: stg_140 [1/1] 2.71ns
branch5:0  store float %tmp_11, float* %real_o2_addr_3, align 4

ST_21: stg_141 [1/1] 0.00ns
branch5:1  br label %5

ST_21: imag_o_addr_3 [1/1] 0.00ns
:1  %imag_o_addr_3 = getelementptr [1024 x float]* %imag_o, i64 0, i64 %tmp_7

ST_21: stg_143 [1/1] 2.71ns
:2  store float %tmp_12, float* %imag_o_addr_3, align 4

ST_21: empty [1/1] 0.00ns
:3  %empty = call i32 (...)* @_ssdm_op_SpecRegionEnd([7 x i8]* @p_str2, i32 %tmp_14)

ST_21: stg_145 [1/1] 0.00ns
:5  br label %3


 <State 22>: 1.84ns
ST_22: k_1 [1/1] 1.84ns
:0  %k_1 = add i10 %k, 8

ST_22: empty_16 [1/1] 0.00ns
:1  %empty_16 = call i32 (...)* @_ssdm_op_SpecRegionEnd([10 x i8]* @p_str3, i32 %tmp)

ST_22: stg_148 [1/1] 0.00ns
:2  br label %1



============================================================
+ Verbose Summary: Binding
============================================================
STG Binding: 
---------------- STG Properties BEGIN ----------------
- Is combinational: 0
- Is one-state seq: 0
- Is datapath-only: 0
- Is clock enabled: 0
- Is pipelined: 0
- Is top level: 0
Port [ Return ] is wired: 1; IO mode=ap_ctrl_hs:ce=0
Port [ real_i]:  wired=1; compound=1; hidden=0; nouse=0; global=0; static=0; extern=0; dir=0; type=1; mode=0x20073655f40; pingpong=1; private_global=0; MemPort=[13]; IO mode=ap_memory:ce=0
Port [ real_i1]:  wired=1; compound=1; hidden=0; nouse=0; global=0; static=0; extern=0; dir=0; type=1; mode=0x20073655be0; pingpong=1; private_global=0; MemPort=[13]; IO mode=ap_memory:ce=0
Port [ imag_i]:  wired=1; compound=1; hidden=0; nouse=0; global=0; static=0; extern=0; dir=0; type=1; mode=0x20073656c30; pingpong=1; private_global=0; MemPort=[13]; IO mode=ap_memory:ce=0
Port [ real_o]:  wired=1; compound=1; hidden=0; nouse=0; global=0; static=0; extern=0; dir=1; type=1; mode=0x20073655fd0; pingpong=1; private_global=0; MemPort=[03]; IO mode=ap_memory:ce=0
Port [ real_o2]:  wired=1; compound=1; hidden=0; nouse=0; global=0; static=0; extern=0; dir=1; type=1; mode=0x20073656060; pingpong=1; private_global=0; MemPort=[03]; IO mode=ap_memory:ce=0
Port [ imag_o]:  wired=1; compound=1; hidden=0; nouse=0; global=0; static=0; extern=0; dir=1; type=1; mode=0x20073656180; pingpong=1; private_global=0; MemPort=[03]; IO mode=ap_memory:ce=0
Port [ W_real48]:  wired=0; compound=1; hidden=1; nouse=0; global=1; static=1; extern=0; dir=0; type=1; mode=0x200736562a0; pingpong=0; private_global=1; linkage=7; visibility=0; MemPort=[1]; IO mode=ap_memory:ce=0
Port [ W_imag40]:  wired=0; compound=1; hidden=1; nouse=0; global=1; static=1; extern=0; dir=0; type=1; mode=0x20073657140; pingpong=0; private_global=1; linkage=7; visibility=0; MemPort=[1]; IO mode=ap_memory:ce=0
---------------- STG Properties END ------------------

---------------- Datapath Model BEGIN ----------------

<LifeTime>
<method=bitvector/>
stg_23            (br               ) [ 01111111111111111111111]
k                 (phi              ) [ 00111111111111111111111]
i                 (phi              ) [ 00110000000000000000000]
exitcond          (icmp             ) [ 00111111111111111111111]
j                 (add              ) [ 01111111111111111111111]
stg_28            (br               ) [ 00000000000000000000000]
tmp_s             (zext             ) [ 00000000000000000000000]
W_real48_addr     (getelementptr    ) [ 00010000000000000000000]
W_imag40_addr     (getelementptr    ) [ 00010000000000000000000]
stg_34            (ret              ) [ 00000000000000000000000]
i_cast            (zext             ) [ 00111111111111111111111]
stg_36            (speclooptripcount) [ 00000000000000000000000]
stg_37            (specloopname     ) [ 00000000000000000000000]
tmp               (specregionbegin  ) [ 00001111111111111111111]
stg_39            (specpipeline     ) [ 00000000000000000000000]
c                 (load             ) [ 00001111111111111111110]
s                 (load             ) [ 00001111111111111111110]
stg_42            (br               ) [ 00111111111111111111111]
i2                (phi              ) [ 00001111111111000000000]
tmp_18            (partselect       ) [ 00000000000000000000000]
icmp              (icmp             ) [ 00111111111111111111111]
stg_46            (br               ) [ 00000000000000000000000]
i_lower           (add              ) [ 00000000000000000000000]
tmp_2             (sext             ) [ 00001111111111111111100]
newIndex8         (partselect       ) [ 00000000000000000000000]
newIndex4         (zext             ) [ 00000000000000000000000]
real_i_addr       (getelementptr    ) [ 00000100000000000000000]
real_i1_addr      (getelementptr    ) [ 00000100000000000000000]
imag_i_addr       (getelementptr    ) [ 00000100000000000000000]
real_o_addr       (getelementptr    ) [ 00001111111111111111100]
real_o2_addr      (getelementptr    ) [ 00001111111111111111100]
tmp_19            (trunc            ) [ 00001111111111111111110]
real_i1_load      (load             ) [ 00000000000000000000000]
real_i_load12     (load             ) [ 00000000000000000000000]
real_i_load_phi   (select           ) [ 00001111110000000000000]
imag_i_load       (load             ) [ 00001111100000000000000]
i_2               (add              ) [ 00111111111111111111111]
tmp_4             (fmul             ) [ 00001100011111100000000]
tmp_5             (fmul             ) [ 00001100011111100000000]
tmp_3             (fmul             ) [ 00001100001111100000000]
tmp_6             (fmul             ) [ 00001100001111100000000]
tmp_7             (sext             ) [ 00001100000000111111110]
newIndex          (partselect       ) [ 00000000000000000000000]
newIndex3         (zext             ) [ 00000000000000000000000]
real_i_addr_3     (getelementptr    ) [ 00001000000000100000000]
real_i1_addr_3    (getelementptr    ) [ 00001000000000100000000]
imag_i_addr_3     (getelementptr    ) [ 00001000000000100000000]
real_o_addr_3     (getelementptr    ) [ 00001100000000111111110]
real_o2_addr_3    (getelementptr    ) [ 00001100000000111111110]
temp_R            (fsub             ) [ 00001100000000011111000]
temp_I            (fadd             ) [ 00001100000000011111100]
real_i1_load_3    (load             ) [ 00000000000000000000000]
real_i_load       (load             ) [ 00000000000000000000000]
real_i_load_1_phi (select           ) [ 00001100000000011111000]
stg_105           (br               ) [ 00000000000000000000000]
imag_i_load_1     (load             ) [ 00001100000000011111100]
stg_107           (br               ) [ 00000000000000000000000]
tmp_8             (fsub             ) [ 00001000000000000000100]
tmp_10            (fsub             ) [ 00001000000000000000100]
tmp_11            (fadd             ) [ 00001100000000000000110]
stg_127           (store            ) [ 00000000000000000000000]
stg_128           (store            ) [ 00000000000000000000000]
imag_o_addr       (getelementptr    ) [ 00000000000000000000000]
stg_130           (store            ) [ 00000000000000000000000]
tmp_12            (fadd             ) [ 00000100000000000000010]
stg_132           (specloopname     ) [ 00000000000000000000000]
tmp_14            (specregionbegin  ) [ 00000000000000000000000]
stg_134           (speclooptripcount) [ 00000000000000000000000]
stg_135           (specpipeline     ) [ 00000000000000000000000]
stg_136           (br               ) [ 00000000000000000000000]
stg_137           (br               ) [ 00000000000000000000000]
stg_138           (store            ) [ 00000000000000000000000]
stg_139           (br               ) [ 00000000000000000000000]
stg_140           (store            ) [ 00000000000000000000000]
stg_141           (br               ) [ 00000000000000000000000]
imag_o_addr_3     (getelementptr    ) [ 00000000000000000000000]
stg_143           (store            ) [ 00000000000000000000000]
empty             (specregionend    ) [ 00000000000000000000000]
stg_145           (br               ) [ 00111111111111111111111]
k_1               (add              ) [ 01111111111111111111111]
empty_16          (specregionend    ) [ 00000000000000000000000]
stg_148           (br               ) [ 01111111111111111111111]
</LifeTime>

<model>

<comp_list>
<comp id="0" class="1000" name="real_i">
<pin_list>
<pin id="1" dir="1" index="0" bw="1" slack="0"/>
</pin_list>
<bind>
<StgValue><ssdm name="real_i"/><MemPortTyVec>1 3 </MemPortTyVec>
</StgValue>
</bind>
</comp>

<comp id="2" class="1000" name="real_i1">
<pin_list>
<pin id="3" dir="1" index="0" bw="1" slack="0"/>
</pin_list>
<bind>
<StgValue><ssdm name="real_i1"/><MemPortTyVec>1 3 </MemPortTyVec>
</StgValue>
</bind>
</comp>

<comp id="4" class="1000" name="imag_i">
<pin_list>
<pin id="5" dir="1" index="0" bw="1" slack="0"/>
</pin_list>
<bind>
<StgValue><ssdm name="imag_i"/><MemPortTyVec>1 3 </MemPortTyVec>
</StgValue>
</bind>
</comp>

<comp id="6" class="1000" name="real_o">
<pin_list>
<pin id="7" dir="1" index="0" bw="1" slack="0"/>
</pin_list>
<bind>
<StgValue><ssdm name="real_o"/><MemPortTyVec>0 3 </MemPortTyVec>
</StgValue>
</bind>
</comp>

<comp id="8" class="1000" name="real_o2">
<pin_list>
<pin id="9" dir="1" index="0" bw="1" slack="0"/>
</pin_list>
<bind>
<StgValue><ssdm name="real_o2"/><MemPortTyVec>0 3 </MemPortTyVec>
</StgValue>
</bind>
</comp>

<comp id="10" class="1000" name="imag_o">
<pin_list>
<pin id="11" dir="1" index="0" bw="1" slack="0"/>
</pin_list>
<bind>
<StgValue><ssdm name="imag_o"/><MemPortTyVec>0 3 </MemPortTyVec>
</StgValue>
</bind>
</comp>

<comp id="12" class="1000" name="W_real48">
<pin_list>
<pin id="13" dir="1" index="0" bw="1" slack="0"/>
</pin_list>
<bind>
<StgValue><ssdm name="W_real48"/><MemPortTyVec>1 </MemPortTyVec>
</StgValue>
</bind>
</comp>

<comp id="14" class="1000" name="W_imag40">
<pin_list>
<pin id="15" dir="1" index="0" bw="1" slack="0"/>
</pin_list>
<bind>
<StgValue><ssdm name="W_imag40"/><MemPortTyVec>1 </MemPortTyVec>
</StgValue>
</bind>
</comp>

<comp id="16" class="1001" name="const_16">
<pin_list>
<pin id="17" dir="1" index="0" bw="1" slack="1"/>
</pin_list>
<bind>
<StgValue><ssdm name=""/></StgValue>
</bind>
</comp>

<comp id="18" class="1001" name="const_18">
<pin_list>
<pin id="19" dir="1" index="0" bw="1" slack="1"/>
</pin_list>
<bind>
<StgValue><ssdm name=""/></StgValue>
</bind>
</comp>

<comp id="20" class="1001" name="const_20">
<pin_list>
<pin id="21" dir="1" index="0" bw="1" slack="0"/>
</pin_list>
<bind>
<StgValue><ssdm name=""/></StgValue>
</bind>
</comp>

<comp id="22" class="1001" name="const_22">
<pin_list>
<pin id="23" dir="1" index="0" bw="1" slack="0"/>
</pin_list>
<bind>
<StgValue><ssdm name=""/></StgValue>
</bind>
</comp>

<comp id="24" class="1001" name="const_24">
<pin_list>
<pin id="25" dir="1" index="0" bw="1" slack="0"/>
</pin_list>
<bind>
<StgValue><ssdm name=""/></StgValue>
</bind>
</comp>

<comp id="26" class="1001" name="const_26">
<pin_list>
<pin id="27" dir="1" index="0" bw="1" slack="2147483647"/>
</pin_list>
<bind>
<StgValue><ssdm name="_ssdm_op_SpecLoopTripCount"/></StgValue>
</bind>
</comp>

<comp id="28" class="1001" name="const_28">
<pin_list>
<pin id="29" dir="1" index="0" bw="1" slack="2147483647"/>
</pin_list>
<bind>
<StgValue><ssdm name=""/></StgValue>
</bind>
</comp>

<comp id="30" class="1001" name="const_30">
<pin_list>
<pin id="31" dir="1" index="0" bw="1" slack="2147483647"/>
</pin_list>
<bind>
<StgValue><ssdm name="_ssdm_op_SpecLoopName"/></StgValue>
</bind>
</comp>

<comp id="32" class="1001" name="const_32">
<pin_list>
<pin id="33" dir="1" index="0" bw="1" slack="2147483647"/>
</pin_list>
<bind>
<StgValue><ssdm name="p_str3"/></StgValue>
</bind>
</comp>

<comp id="34" class="1001" name="const_34">
<pin_list>
<pin id="35" dir="1" index="0" bw="1" slack="2147483647"/>
</pin_list>
<bind>
<StgValue><ssdm name="_ssdm_op_SpecRegionBegin"/></StgValue>
</bind>
</comp>

<comp id="36" class="1001" name="const_36">
<pin_list>
<pin id="37" dir="1" index="0" bw="1" slack="2147483647"/>
</pin_list>
<bind>
<StgValue><ssdm name="_ssdm_op_SpecPipeline"/></StgValue>
</bind>
</comp>

<comp id="38" class="1001" name="const_38">
<pin_list>
<pin id="39" dir="1" index="0" bw="1" slack="0"/>
</pin_list>
<bind>
<StgValue><ssdm name=""/></StgValue>
</bind>
</comp>

<comp id="40" class="1001" name="const_40">
<pin_list>
<pin id="41" dir="1" index="0" bw="1" slack="2147483647"/>
</pin_list>
<bind>
<StgValue><ssdm name=""/></StgValue>
</bind>
</comp>

<comp id="42" class="1001" name="const_42">
<pin_list>
<pin id="43" dir="1" index="0" bw="1" slack="2147483647"/>
</pin_list>
<bind>
<StgValue><ssdm name="p_str"/></StgValue>
</bind>
</comp>

<comp id="44" class="1001" name="const_44">
<pin_list>
<pin id="45" dir="1" index="0" bw="1" slack="0"/>
</pin_list>
<bind>
<StgValue><ssdm name="_ssdm_op_PartSelect.i22.i32.i32.i32"/></StgValue>
</bind>
</comp>

<comp id="46" class="1001" name="const_46">
<pin_list>
<pin id="47" dir="1" index="0" bw="1" slack="0"/>
</pin_list>
<bind>
<StgValue><ssdm name=""/></StgValue>
</bind>
</comp>

<comp id="48" class="1001" name="const_48">
<pin_list>
<pin id="49" dir="1" index="0" bw="1" slack="0"/>
</pin_list>
<bind>
<StgValue><ssdm name=""/></StgValue>
</bind>
</comp>

<comp id="50" class="1001" name="const_50">
<pin_list>
<pin id="51" dir="1" index="0" bw="1" slack="0"/>
</pin_list>
<bind>
<StgValue><ssdm name=""/></StgValue>
</bind>
</comp>

<comp id="52" class="1001" name="const_52">
<pin_list>
<pin id="53" dir="1" index="0" bw="1" slack="0"/>
</pin_list>
<bind>
<StgValue><ssdm name=""/></StgValue>
</bind>
</comp>

<comp id="54" class="1001" name="const_54">
<pin_list>
<pin id="55" dir="1" index="0" bw="1" slack="0"/>
</pin_list>
<bind>
<StgValue><ssdm name="_ssdm_op_PartSelect.i31.i32.i32.i32"/></StgValue>
</bind>
</comp>

<comp id="56" class="1001" name="const_56">
<pin_list>
<pin id="57" dir="1" index="0" bw="1" slack="0"/>
</pin_list>
<bind>
<StgValue><ssdm name=""/></StgValue>
</bind>
</comp>

<comp id="58" class="1001" name="const_58">
<pin_list>
<pin id="59" dir="1" index="0" bw="1" slack="2147483647"/>
</pin_list>
<bind>
<StgValue><ssdm name="p_str2"/></StgValue>
</bind>
</comp>

<comp id="60" class="1001" name="const_60">
<pin_list>
<pin id="61" dir="1" index="0" bw="1" slack="2147483647"/>
</pin_list>
<bind>
<StgValue><ssdm name="_ssdm_op_SpecRegionEnd"/></StgValue>
</bind>
</comp>

<comp id="62" class="1001" name="const_62">
<pin_list>
<pin id="63" dir="1" index="0" bw="1" slack="0"/>
</pin_list>
<bind>
<StgValue><ssdm name=""/></StgValue>
</bind>
</comp>

<comp id="64" class="1004" name="W_real48_addr_gep_fu_64">
<pin_list>
<pin id="65" dir="0" index="0" bw="32" slack="0"/>
<pin id="66" dir="0" index="1" bw="1" slack="0"/>
<pin id="67" dir="0" index="2" bw="10" slack="0"/>
<pin id="68" dir="1" index="3" bw="9" slack="0"/>
</pin_list>
<bind>
<opcode="getelementptr(29) " fcode="getelementptr"/>
<opset="W_real48_addr/2 "/>
</bind>
</comp>

<comp id="71" class="1004" name="grp_access_fu_71">
<pin_list>
<pin id="72" dir="0" index="0" bw="9" slack="0"/>
<pin id="73" dir="0" index="1" bw="32" slack="2147483647"/>
<pin id="74" dir="1" index="2" bw="32" slack="2"/>
</pin_list>
<bind>
<opcode="load(27) " fcode="load"/>
<opset="c/2 "/>
</bind>
</comp>

<comp id="76" class="1004" name="W_imag40_addr_gep_fu_76">
<pin_list>
<pin id="77" dir="0" index="0" bw="32" slack="0"/>
<pin id="78" dir="0" index="1" bw="1" slack="0"/>
<pin id="79" dir="0" index="2" bw="10" slack="0"/>
<pin id="80" dir="1" index="3" bw="9" slack="0"/>
</pin_list>
<bind>
<opcode="getelementptr(29) " fcode="getelementptr"/>
<opset="W_imag40_addr/2 "/>
</bind>
</comp>

<comp id="83" class="1004" name="grp_access_fu_83">
<pin_list>
<pin id="84" dir="0" index="0" bw="9" slack="0"/>
<pin id="85" dir="0" index="1" bw="32" slack="2147483647"/>
<pin id="86" dir="1" index="2" bw="32" slack="2"/>
</pin_list>
<bind>
<opcode="load(27) " fcode="load"/>
<opset="s/2 "/>
</bind>
</comp>

<comp id="88" class="1004" name="real_i_addr_gep_fu_88">
<pin_list>
<pin id="89" dir="0" index="0" bw="32" slack="0"/>
<pin id="90" dir="0" index="1" bw="1" slack="0"/>
<pin id="91" dir="0" index="2" bw="31" slack="0"/>
<pin id="92" dir="1" index="3" bw="9" slack="0"/>
</pin_list>
<bind>
<opcode="getelementptr(29) " fcode="getelementptr"/>
<opset="real_i_addr/4 "/>
</bind>
</comp>

<comp id="95" class="1004" name="real_i1_addr_gep_fu_95">
<pin_list>
<pin id="96" dir="0" index="0" bw="32" slack="0"/>
<pin id="97" dir="0" index="1" bw="1" slack="0"/>
<pin id="98" dir="0" index="2" bw="31" slack="0"/>
<pin id="99" dir="1" index="3" bw="9" slack="0"/>
</pin_list>
<bind>
<opcode="getelementptr(29) " fcode="getelementptr"/>
<opset="real_i1_addr/4 "/>
</bind>
</comp>

<comp id="102" class="1004" name="grp_access_fu_102">
<pin_list>
<pin id="103" dir="0" index="0" bw="9" slack="0"/>
<pin id="104" dir="0" index="1" bw="32" slack="2147483647"/>
<pin id="105" dir="1" index="2" bw="32" slack="0"/>
</pin_list>
<bind>
<opcode="load(27) " fcode="load"/>
<opset="real_i1_load/4 real_i1_load_3/13 "/>
</bind>
</comp>

<comp id="107" class="1004" name="grp_access_fu_107">
<pin_list>
<pin id="108" dir="0" index="0" bw="9" slack="0"/>
<pin id="109" dir="0" index="1" bw="32" slack="2147483647"/>
<pin id="110" dir="1" index="2" bw="32" slack="0"/>
</pin_list>
<bind>
<opcode="load(27) " fcode="load"/>
<opset="real_i_load12/4 real_i_load/13 "/>
</bind>
</comp>

<comp id="112" class="1004" name="imag_i_addr_gep_fu_112">
<pin_list>
<pin id="113" dir="0" index="0" bw="32" slack="0"/>
<pin id="114" dir="0" index="1" bw="1" slack="0"/>
<pin id="115" dir="0" index="2" bw="32" slack="0"/>
<pin id="116" dir="1" index="3" bw="10" slack="0"/>
</pin_list>
<bind>
<opcode="getelementptr(29) " fcode="getelementptr"/>
<opset="imag_i_addr/4 "/>
</bind>
</comp>

<comp id="119" class="1004" name="grp_access_fu_119">
<pin_list>
<pin id="120" dir="0" index="0" bw="10" slack="0"/>
<pin id="121" dir="0" index="1" bw="32" slack="2147483647"/>
<pin id="122" dir="1" index="2" bw="32" slack="0"/>
</pin_list>
<bind>
<opcode="load(27) " fcode="load"/>
<opset="imag_i_load/4 imag_i_load_1/13 "/>
</bind>
</comp>

<comp id="124" class="1004" name="real_o_addr_gep_fu_124">
<pin_list>
<pin id="125" dir="0" index="0" bw="32" slack="0"/>
<pin id="126" dir="0" index="1" bw="1" slack="0"/>
<pin id="127" dir="0" index="2" bw="31" slack="0"/>
<pin id="128" dir="1" index="3" bw="9" slack="16"/>
</pin_list>
<bind>
<opcode="getelementptr(29) " fcode="getelementptr"/>
<opset="real_o_addr/4 "/>
</bind>
</comp>

<comp id="131" class="1004" name="real_o2_addr_gep_fu_131">
<pin_list>
<pin id="132" dir="0" index="0" bw="32" slack="0"/>
<pin id="133" dir="0" index="1" bw="1" slack="0"/>
<pin id="134" dir="0" index="2" bw="31" slack="0"/>
<pin id="135" dir="1" index="3" bw="9" slack="16"/>
</pin_list>
<bind>
<opcode="getelementptr(29) " fcode="getelementptr"/>
<opset="real_o2_addr/4 "/>
</bind>
</comp>

<comp id="138" class="1004" name="real_i_addr_3_gep_fu_138">
<pin_list>
<pin id="139" dir="0" index="0" bw="32" slack="0"/>
<pin id="140" dir="0" index="1" bw="1" slack="0"/>
<pin id="141" dir="0" index="2" bw="31" slack="0"/>
<pin id="142" dir="1" index="3" bw="9" slack="0"/>
</pin_list>
<bind>
<opcode="getelementptr(29) " fcode="getelementptr"/>
<opset="real_i_addr_3/13 "/>
</bind>
</comp>

<comp id="145" class="1004" name="real_i1_addr_3_gep_fu_145">
<pin_list>
<pin id="146" dir="0" index="0" bw="32" slack="0"/>
<pin id="147" dir="0" index="1" bw="1" slack="0"/>
<pin id="148" dir="0" index="2" bw="31" slack="0"/>
<pin id="149" dir="1" index="3" bw="9" slack="0"/>
</pin_list>
<bind>
<opcode="getelementptr(29) " fcode="getelementptr"/>
<opset="real_i1_addr_3/13 "/>
</bind>
</comp>

<comp id="154" class="1004" name="imag_i_addr_3_gep_fu_154">
<pin_list>
<pin id="155" dir="0" index="0" bw="32" slack="0"/>
<pin id="156" dir="0" index="1" bw="1" slack="0"/>
<pin id="157" dir="0" index="2" bw="32" slack="0"/>
<pin id="158" dir="1" index="3" bw="10" slack="0"/>
</pin_list>
<bind>
<opcode="getelementptr(29) " fcode="getelementptr"/>
<opset="imag_i_addr_3/13 "/>
</bind>
</comp>

<comp id="162" class="1004" name="real_o_addr_3_gep_fu_162">
<pin_list>
<pin id="163" dir="0" index="0" bw="32" slack="0"/>
<pin id="164" dir="0" index="1" bw="1" slack="0"/>
<pin id="165" dir="0" index="2" bw="31" slack="0"/>
<pin id="166" dir="1" index="3" bw="9" slack="8"/>
</pin_list>
<bind>
<opcode="getelementptr(29) " fcode="getelementptr"/>
<opset="real_o_addr_3/13 "/>
</bind>
</comp>

<comp id="169" class="1004" name="real_o2_addr_3_gep_fu_169">
<pin_list>
<pin id="170" dir="0" index="0" bw="32" slack="0"/>
<pin id="171" dir="0" index="1" bw="1" slack="0"/>
<pin id="172" dir="0" index="2" bw="31" slack="0"/>
<pin id="173" dir="1" index="3" bw="9" slack="8"/>
</pin_list>
<bind>
<opcode="getelementptr(29) " fcode="getelementptr"/>
<opset="real_o2_addr_3/13 "/>
</bind>
</comp>

<comp id="176" class="1004" name="grp_access_fu_176">
<pin_list>
<pin id="177" dir="0" index="0" bw="9" slack="8"/>
<pin id="178" dir="0" index="1" bw="32" slack="1"/>
<pin id="179" dir="1" index="2" bw="32" slack="2147483647"/>
</pin_list>
<bind>
<opcode="store(28) " fcode="store"/>
<opset="stg_127/20 stg_138/21 "/>
</bind>
</comp>

<comp id="180" class="1004" name="grp_access_fu_180">
<pin_list>
<pin id="181" dir="0" index="0" bw="9" slack="8"/>
<pin id="182" dir="0" index="1" bw="32" slack="1"/>
<pin id="183" dir="1" index="2" bw="32" slack="2147483647"/>
</pin_list>
<bind>
<opcode="store(28) " fcode="store"/>
<opset="stg_128/20 stg_140/21 "/>
</bind>
</comp>

<comp id="184" class="1004" name="imag_o_addr_gep_fu_184">
<pin_list>
<pin id="185" dir="0" index="0" bw="32" slack="0"/>
<pin id="186" dir="0" index="1" bw="1" slack="0"/>
<pin id="187" dir="0" index="2" bw="32" slack="16"/>
<pin id="188" dir="1" index="3" bw="10" slack="0"/>
</pin_list>
<bind>
<opcode="getelementptr(29) " fcode="getelementptr"/>
<opset="imag_o_addr/20 "/>
</bind>
</comp>

<comp id="191" class="1004" name="grp_access_fu_191">
<pin_list>
<pin id="192" dir="0" index="0" bw="10" slack="0"/>
<pin id="193" dir="0" index="1" bw="32" slack="1"/>
<pin id="194" dir="1" index="2" bw="32" slack="2147483647"/>
</pin_list>
<bind>
<opcode="store(28) " fcode="store"/>
<opset="stg_130/20 stg_143/21 "/>
</bind>
</comp>

<comp id="196" class="1004" name="imag_o_addr_3_gep_fu_196">
<pin_list>
<pin id="197" dir="0" index="0" bw="32" slack="0"/>
<pin id="198" dir="0" index="1" bw="1" slack="0"/>
<pin id="199" dir="0" index="2" bw="32" slack="8"/>
<pin id="200" dir="1" index="3" bw="10" slack="0"/>
</pin_list>
<bind>
<opcode="getelementptr(29) " fcode="getelementptr"/>
<opset="imag_o_addr_3/21 "/>
</bind>
</comp>

<comp id="204" class="1005" name="k_reg_204">
<pin_list>
<pin id="205" dir="0" index="0" bw="10" slack="1"/>
<pin id="206" dir="1" index="1" bw="10" slack="1"/>
</pin_list>
<bind>
<opset="k (phireg) "/>
</bind>
</comp>

<comp id="208" class="1004" name="k_phi_fu_208">
<pin_list>
<pin id="209" dir="0" index="0" bw="1" slack="1"/>
<pin id="210" dir="0" index="1" bw="0" slack="2147483647"/>
<pin id="211" dir="0" index="2" bw="10" slack="1"/>
<pin id="212" dir="0" index="3" bw="0" slack="2147483647"/>
<pin id="213" dir="1" index="4" bw="10" slack="0"/>
</pin_list>
<bind>
<opcode="phi(47) " fcode="phi"/>
<opset="k/2 "/>
</bind>
</comp>

<comp id="216" class="1005" name="i_reg_216">
<pin_list>
<pin id="217" dir="0" index="0" bw="7" slack="1"/>
<pin id="218" dir="1" index="1" bw="7" slack="1"/>
</pin_list>
<bind>
<opset="i (phireg) "/>
</bind>
</comp>

<comp id="220" class="1004" name="i_phi_fu_220">
<pin_list>
<pin id="221" dir="0" index="0" bw="1" slack="1"/>
<pin id="222" dir="0" index="1" bw="0" slack="2147483647"/>
<pin id="223" dir="0" index="2" bw="7" slack="0"/>
<pin id="224" dir="0" index="3" bw="0" slack="2147483647"/>
<pin id="225" dir="1" index="4" bw="7" slack="0"/>
</pin_list>
<bind>
<opcode="phi(47) " fcode="phi"/>
<opset="i/2 "/>
</bind>
</comp>

<comp id="228" class="1005" name="i2_reg_228">
<pin_list>
<pin id="229" dir="0" index="0" bw="32" slack="1"/>
<pin id="230" dir="1" index="1" bw="32" slack="1"/>
</pin_list>
<bind>
<opset="i2 (phireg) "/>
</bind>
</comp>

<comp id="231" class="1004" name="i2_phi_fu_231">
<pin_list>
<pin id="232" dir="0" index="0" bw="7" slack="1"/>
<pin id="233" dir="0" index="1" bw="0" slack="2147483647"/>
<pin id="234" dir="0" index="2" bw="32" slack="1"/>
<pin id="235" dir="0" index="3" bw="0" slack="2147483647"/>
<pin id="236" dir="1" index="4" bw="32" slack="0"/>
</pin_list>
<bind>
<opcode="phi(47) " fcode="phi"/>
<opset="i2/4 "/>
</bind>
</comp>

<comp id="238" class="1004" name="grp_fu_238">
<pin_list>
<pin id="239" dir="0" index="0" bw="32" slack="1"/>
<pin id="240" dir="0" index="1" bw="32" slack="1"/>
<pin id="241" dir="1" index="2" bw="32" slack="1"/>
</pin_list>
<bind>
<opcode="fsub(11) " fcode="fadd"/>
<opset="temp_R/10 tmp_8/15 "/>
</bind>
</comp>

<comp id="242" class="1004" name="grp_fu_242">
<pin_list>
<pin id="243" dir="0" index="0" bw="32" slack="1"/>
<pin id="244" dir="0" index="1" bw="32" slack="1"/>
<pin id="245" dir="1" index="2" bw="32" slack="1"/>
</pin_list>
<bind>
<opcode="fadd(9) fsub(11) " fcode="fadd"/>
<opset="temp_I/10 tmp_10/15 "/>
</bind>
</comp>

<comp id="246" class="1004" name="grp_fu_246">
<pin_list>
<pin id="247" dir="0" index="0" bw="32" slack="1"/>
<pin id="248" dir="0" index="1" bw="32" slack="1"/>
<pin id="249" dir="1" index="2" bw="32" slack="1"/>
</pin_list>
<bind>
<opcode="fadd(9) " fcode="fadd"/>
<opset="tmp_11/15 tmp_12/16 "/>
</bind>
</comp>

<comp id="250" class="1004" name="grp_fu_250">
<pin_list>
<pin id="251" dir="0" index="0" bw="32" slack="0"/>
<pin id="252" dir="0" index="1" bw="32" slack="2"/>
<pin id="253" dir="1" index="2" bw="32" slack="1"/>
</pin_list>
<bind>
<opcode="fmul(13) " fcode="fmul"/>
<opset="tmp_4/5 tmp_3/6 "/>
</bind>
</comp>

<comp id="255" class="1004" name="grp_fu_255">
<pin_list>
<pin id="256" dir="0" index="0" bw="32" slack="0"/>
<pin id="257" dir="0" index="1" bw="32" slack="2"/>
<pin id="258" dir="1" index="2" bw="32" slack="1"/>
</pin_list>
<bind>
<opcode="fmul(13) " fcode="fmul"/>
<opset="tmp_5/5 tmp_6/6 "/>
</bind>
</comp>

<comp id="260" class="1004" name="grp_fu_260">
<pin_list>
<pin id="261" dir="0" index="0" bw="1" slack="0"/>
<pin id="262" dir="0" index="1" bw="32" slack="0"/>
<pin id="263" dir="0" index="2" bw="32" slack="0"/>
<pin id="264" dir="1" index="3" bw="32" slack="1"/>
</pin_list>
<bind>
<opcode="select(49) " fcode="select"/>
<opset="real_i_load_phi/5 real_i_load_1_phi/14 "/>
</bind>
</comp>

<comp id="267" class="1004" name="exitcond_fu_267">
<pin_list>
<pin id="268" dir="0" index="0" bw="7" slack="0"/>
<pin id="269" dir="0" index="1" bw="7" slack="0"/>
<pin id="270" dir="1" index="2" bw="1" slack="2147483647"/>
</pin_list>
<bind>
<opcode="icmp(45) " fcode="icmp"/>
<opset="exitcond/2 "/>
</bind>
</comp>

<comp id="273" class="1004" name="j_fu_273">
<pin_list>
<pin id="274" dir="0" index="0" bw="7" slack="0"/>
<pin id="275" dir="0" index="1" bw="1" slack="0"/>
<pin id="276" dir="1" index="2" bw="7" slack="0"/>
</pin_list>
<bind>
<opcode="add(8) " fcode="add"/>
<opset="j/2 "/>
</bind>
</comp>

<comp id="279" class="1004" name="tmp_s_fu_279">
<pin_list>
<pin id="280" dir="0" index="0" bw="10" slack="0"/>
<pin id="281" dir="1" index="1" bw="64" slack="0"/>
</pin_list>
<bind>
<opcode="zext(34) " fcode="zext"/>
<opset="tmp_s/2 "/>
</bind>
</comp>

<comp id="285" class="1004" name="i_cast_fu_285">
<pin_list>
<pin id="286" dir="0" index="0" bw="7" slack="1"/>
<pin id="287" dir="1" index="1" bw="32" slack="1"/>
</pin_list>
<bind>
<opcode="zext(34) " fcode="zext"/>
<opset="i_cast/3 "/>
</bind>
</comp>

<comp id="289" class="1004" name="tmp_18_fu_289">
<pin_list>
<pin id="290" dir="0" index="0" bw="22" slack="0"/>
<pin id="291" dir="0" index="1" bw="32" slack="0"/>
<pin id="292" dir="0" index="2" bw="5" slack="0"/>
<pin id="293" dir="0" index="3" bw="6" slack="0"/>
<pin id="294" dir="1" index="4" bw="22" slack="0"/>
</pin_list>
<bind>
<opcode="partselect(1002) " fcode="partselect"/>
<opset="tmp_18/4 "/>
</bind>
</comp>

<comp id="299" class="1004" name="icmp_fu_299">
<pin_list>
<pin id="300" dir="0" index="0" bw="22" slack="0"/>
<pin id="301" dir="0" index="1" bw="22" slack="0"/>
<pin id="302" dir="1" index="2" bw="1" slack="1"/>
</pin_list>
<bind>
<opcode="icmp(45) " fcode="icmp"/>
<opset="icmp/4 "/>
</bind>
</comp>

<comp id="305" class="1004" name="i_lower_fu_305">
<pin_list>
<pin id="306" dir="0" index="0" bw="8" slack="0"/>
<pin id="307" dir="0" index="1" bw="32" slack="0"/>
<pin id="308" dir="1" index="2" bw="32" slack="0"/>
</pin_list>
<bind>
<opcode="add(8) " fcode="add"/>
<opset="i_lower/4 "/>
</bind>
</comp>

<comp id="311" class="1004" name="tmp_2_fu_311">
<pin_list>
<pin id="312" dir="0" index="0" bw="32" slack="0"/>
<pin id="313" dir="1" index="1" bw="64" slack="0"/>
</pin_list>
<bind>
<opcode="sext(35) " fcode="sext"/>
<opset="tmp_2/4 "/>
</bind>
</comp>

<comp id="316" class="1004" name="newIndex8_fu_316">
<pin_list>
<pin id="317" dir="0" index="0" bw="31" slack="0"/>
<pin id="318" dir="0" index="1" bw="32" slack="0"/>
<pin id="319" dir="0" index="2" bw="1" slack="0"/>
<pin id="320" dir="0" index="3" bw="6" slack="0"/>
<pin id="321" dir="1" index="4" bw="31" slack="0"/>
</pin_list>
<bind>
<opcode="partselect(1002) " fcode="partselect"/>
<opset="newIndex8/4 "/>
</bind>
</comp>

<comp id="326" class="1004" name="newIndex4_fu_326">
<pin_list>
<pin id="327" dir="0" index="0" bw="31" slack="0"/>
<pin id="328" dir="1" index="1" bw="64" slack="0"/>
</pin_list>
<bind>
<opcode="zext(34) " fcode="zext"/>
<opset="newIndex4/4 "/>
</bind>
</comp>

<comp id="334" class="1004" name="tmp_19_fu_334">
<pin_list>
<pin id="335" dir="0" index="0" bw="32" slack="1"/>
<pin id="336" dir="1" index="1" bw="1" slack="0"/>
</pin_list>
<bind>
<opcode="trunc(33) " fcode="trunc"/>
<opset="tmp_19/5 "/>
</bind>
</comp>

<comp id="339" class="1004" name="i_2_fu_339">
<pin_list>
<pin id="340" dir="0" index="0" bw="32" slack="1"/>
<pin id="341" dir="0" index="1" bw="9" slack="0"/>
<pin id="342" dir="1" index="2" bw="32" slack="1"/>
</pin_list>
<bind>
<opcode="add(8) " fcode="add"/>
<opset="i_2/5 "/>
</bind>
</comp>

<comp id="345" class="1004" name="tmp_7_fu_345">
<pin_list>
<pin id="346" dir="0" index="0" bw="32" slack="9"/>
<pin id="347" dir="1" index="1" bw="64" slack="0"/>
</pin_list>
<bind>
<opcode="sext(35) " fcode="sext"/>
<opset="tmp_7/13 "/>
</bind>
</comp>

<comp id="350" class="1004" name="newIndex_fu_350">
<pin_list>
<pin id="351" dir="0" index="0" bw="31" slack="0"/>
<pin id="352" dir="0" index="1" bw="32" slack="9"/>
<pin id="353" dir="0" index="2" bw="1" slack="0"/>
<pin id="354" dir="0" index="3" bw="6" slack="0"/>
<pin id="355" dir="1" index="4" bw="31" slack="0"/>
</pin_list>
<bind>
<opcode="partselect(1002) " fcode="partselect"/>
<opset="newIndex/13 "/>
</bind>
</comp>

<comp id="360" class="1004" name="newIndex3_fu_360">
<pin_list>
<pin id="361" dir="0" index="0" bw="31" slack="0"/>
<pin id="362" dir="1" index="1" bw="64" slack="0"/>
</pin_list>
<bind>
<opcode="zext(34) " fcode="zext"/>
<opset="newIndex3/13 "/>
</bind>
</comp>

<comp id="368" class="1004" name="k_1_fu_368">
<pin_list>
<pin id="369" dir="0" index="0" bw="10" slack="3"/>
<pin id="370" dir="0" index="1" bw="5" slack="0"/>
<pin id="371" dir="1" index="2" bw="10" slack="1"/>
</pin_list>
<bind>
<opcode="add(8) " fcode="add"/>
<opset="k_1/22 "/>
</bind>
</comp>

<comp id="377" class="1005" name="j_reg_377">
<pin_list>
<pin id="378" dir="0" index="0" bw="7" slack="0"/>
<pin id="379" dir="1" index="1" bw="7" slack="0"/>
</pin_list>
<bind>
<opset="j "/>
</bind>
</comp>

<comp id="382" class="1005" name="W_real48_addr_reg_382">
<pin_list>
<pin id="383" dir="0" index="0" bw="9" slack="1"/>
<pin id="384" dir="1" index="1" bw="9" slack="1"/>
</pin_list>
<bind>
<opset="W_real48_addr "/>
</bind>
</comp>

<comp id="387" class="1005" name="W_imag40_addr_reg_387">
<pin_list>
<pin id="388" dir="0" index="0" bw="9" slack="1"/>
<pin id="389" dir="1" index="1" bw="9" slack="1"/>
</pin_list>
<bind>
<opset="W_imag40_addr "/>
</bind>
</comp>

<comp id="392" class="1005" name="i_cast_reg_392">
<pin_list>
<pin id="393" dir="0" index="0" bw="32" slack="1"/>
<pin id="394" dir="1" index="1" bw="32" slack="1"/>
</pin_list>
<bind>
<opset="i_cast "/>
</bind>
</comp>

<comp id="397" class="1005" name="c_reg_397">
<pin_list>
<pin id="398" dir="0" index="0" bw="32" slack="2"/>
<pin id="399" dir="1" index="1" bw="32" slack="2"/>
</pin_list>
<bind>
<opset="c "/>
</bind>
</comp>

<comp id="403" class="1005" name="s_reg_403">
<pin_list>
<pin id="404" dir="0" index="0" bw="32" slack="2"/>
<pin id="405" dir="1" index="1" bw="32" slack="2"/>
</pin_list>
<bind>
<opset="s "/>
</bind>
</comp>

<comp id="409" class="1005" name="icmp_reg_409">
<pin_list>
<pin id="410" dir="0" index="0" bw="1" slack="1"/>
<pin id="411" dir="1" index="1" bw="1" slack="2147483647"/>
</pin_list>
<bind>
<opset="icmp "/>
</bind>
</comp>

<comp id="413" class="1005" name="tmp_2_reg_413">
<pin_list>
<pin id="414" dir="0" index="0" bw="64" slack="16"/>
<pin id="415" dir="1" index="1" bw="64" slack="16"/>
</pin_list>
<bind>
<opset="tmp_2 "/>
</bind>
</comp>

<comp id="418" class="1005" name="real_i_addr_reg_418">
<pin_list>
<pin id="419" dir="0" index="0" bw="9" slack="1"/>
<pin id="420" dir="1" index="1" bw="9" slack="1"/>
</pin_list>
<bind>
<opset="real_i_addr "/>
</bind>
</comp>

<comp id="423" class="1005" name="real_i1_addr_reg_423">
<pin_list>
<pin id="424" dir="0" index="0" bw="9" slack="1"/>
<pin id="425" dir="1" index="1" bw="9" slack="1"/>
</pin_list>
<bind>
<opset="real_i1_addr "/>
</bind>
</comp>

<comp id="428" class="1005" name="imag_i_addr_reg_428">
<pin_list>
<pin id="429" dir="0" index="0" bw="10" slack="1"/>
<pin id="430" dir="1" index="1" bw="10" slack="1"/>
</pin_list>
<bind>
<opset="imag_i_addr "/>
</bind>
</comp>

<comp id="433" class="1005" name="real_o_addr_reg_433">
<pin_list>
<pin id="434" dir="0" index="0" bw="9" slack="16"/>
<pin id="435" dir="1" index="1" bw="9" slack="16"/>
</pin_list>
<bind>
<opset="real_o_addr "/>
</bind>
</comp>

<comp id="438" class="1005" name="real_o2_addr_reg_438">
<pin_list>
<pin id="439" dir="0" index="0" bw="9" slack="16"/>
<pin id="440" dir="1" index="1" bw="9" slack="16"/>
</pin_list>
<bind>
<opset="real_o2_addr "/>
</bind>
</comp>

<comp id="443" class="1005" name="tmp_19_reg_443">
<pin_list>
<pin id="444" dir="0" index="0" bw="1" slack="8"/>
<pin id="445" dir="1" index="1" bw="1" slack="9"/>
</pin_list>
<bind>
<opset="tmp_19 "/>
</bind>
</comp>

<comp id="448" class="1005" name="real_i_load_phi_reg_448">
<pin_list>
<pin id="449" dir="0" index="0" bw="32" slack="1"/>
<pin id="450" dir="1" index="1" bw="32" slack="1"/>
</pin_list>
<bind>
<opset="real_i_load_phi "/>
</bind>
</comp>

<comp id="454" class="1005" name="imag_i_load_reg_454">
<pin_list>
<pin id="455" dir="0" index="0" bw="32" slack="1"/>
<pin id="456" dir="1" index="1" bw="32" slack="1"/>
</pin_list>
<bind>
<opset="imag_i_load "/>
</bind>
</comp>

<comp id="460" class="1005" name="i_2_reg_460">
<pin_list>
<pin id="461" dir="0" index="0" bw="32" slack="1"/>
<pin id="462" dir="1" index="1" bw="32" slack="1"/>
</pin_list>
<bind>
<opset="i_2 "/>
</bind>
</comp>

<comp id="465" class="1005" name="tmp_4_reg_465">
<pin_list>
<pin id="466" dir="0" index="0" bw="32" slack="2"/>
<pin id="467" dir="1" index="1" bw="32" slack="2"/>
</pin_list>
<bind>
<opset="tmp_4 "/>
</bind>
</comp>

<comp id="470" class="1005" name="tmp_5_reg_470">
<pin_list>
<pin id="471" dir="0" index="0" bw="32" slack="2"/>
<pin id="472" dir="1" index="1" bw="32" slack="2"/>
</pin_list>
<bind>
<opset="tmp_5 "/>
</bind>
</comp>

<comp id="475" class="1005" name="tmp_3_reg_475">
<pin_list>
<pin id="476" dir="0" index="0" bw="32" slack="1"/>
<pin id="477" dir="1" index="1" bw="32" slack="1"/>
</pin_list>
<bind>
<opset="tmp_3 "/>
</bind>
</comp>

<comp id="480" class="1005" name="tmp_6_reg_480">
<pin_list>
<pin id="481" dir="0" index="0" bw="32" slack="1"/>
<pin id="482" dir="1" index="1" bw="32" slack="1"/>
</pin_list>
<bind>
<opset="tmp_6 "/>
</bind>
</comp>

<comp id="485" class="1005" name="tmp_7_reg_485">
<pin_list>
<pin id="486" dir="0" index="0" bw="64" slack="8"/>
<pin id="487" dir="1" index="1" bw="64" slack="8"/>
</pin_list>
<bind>
<opset="tmp_7 "/>
</bind>
</comp>

<comp id="490" class="1005" name="real_i_addr_3_reg_490">
<pin_list>
<pin id="491" dir="0" index="0" bw="9" slack="1"/>
<pin id="492" dir="1" index="1" bw="9" slack="1"/>
</pin_list>
<bind>
<opset="real_i_addr_3 "/>
</bind>
</comp>

<comp id="495" class="1005" name="real_i1_addr_3_reg_495">
<pin_list>
<pin id="496" dir="0" index="0" bw="9" slack="1"/>
<pin id="497" dir="1" index="1" bw="9" slack="1"/>
</pin_list>
<bind>
<opset="real_i1_addr_3 "/>
</bind>
</comp>

<comp id="500" class="1005" name="imag_i_addr_3_reg_500">
<pin_list>
<pin id="501" dir="0" index="0" bw="10" slack="1"/>
<pin id="502" dir="1" index="1" bw="10" slack="1"/>
</pin_list>
<bind>
<opset="imag_i_addr_3 "/>
</bind>
</comp>

<comp id="505" class="1005" name="real_o_addr_3_reg_505">
<pin_list>
<pin id="506" dir="0" index="0" bw="9" slack="8"/>
<pin id="507" dir="1" index="1" bw="9" slack="8"/>
</pin_list>
<bind>
<opset="real_o_addr_3 "/>
</bind>
</comp>

<comp id="510" class="1005" name="real_o2_addr_3_reg_510">
<pin_list>
<pin id="511" dir="0" index="0" bw="9" slack="8"/>
<pin id="512" dir="1" index="1" bw="9" slack="8"/>
</pin_list>
<bind>
<opset="real_o2_addr_3 "/>
</bind>
</comp>

<comp id="515" class="1005" name="temp_R_reg_515">
<pin_list>
<pin id="516" dir="0" index="0" bw="32" slack="1"/>
<pin id="517" dir="1" index="1" bw="32" slack="1"/>
</pin_list>
<bind>
<opset="temp_R "/>
</bind>
</comp>

<comp id="521" class="1005" name="temp_I_reg_521">
<pin_list>
<pin id="522" dir="0" index="0" bw="32" slack="1"/>
<pin id="523" dir="1" index="1" bw="32" slack="1"/>
</pin_list>
<bind>
<opset="temp_I "/>
</bind>
</comp>

<comp id="527" class="1005" name="real_i_load_1_phi_reg_527">
<pin_list>
<pin id="528" dir="0" index="0" bw="32" slack="1"/>
<pin id="529" dir="1" index="1" bw="32" slack="1"/>
</pin_list>
<bind>
<opset="real_i_load_1_phi "/>
</bind>
</comp>

<comp id="533" class="1005" name="imag_i_load_1_reg_533">
<pin_list>
<pin id="534" dir="0" index="0" bw="32" slack="1"/>
<pin id="535" dir="1" index="1" bw="32" slack="1"/>
</pin_list>
<bind>
<opset="imag_i_load_1 "/>
</bind>
</comp>

<comp id="539" class="1005" name="tmp_8_reg_539">
<pin_list>
<pin id="540" dir="0" index="0" bw="32" slack="1"/>
<pin id="541" dir="1" index="1" bw="32" slack="1"/>
</pin_list>
<bind>
<opset="tmp_8 "/>
</bind>
</comp>

<comp id="545" class="1005" name="tmp_10_reg_545">
<pin_list>
<pin id="546" dir="0" index="0" bw="32" slack="1"/>
<pin id="547" dir="1" index="1" bw="32" slack="1"/>
</pin_list>
<bind>
<opset="tmp_10 "/>
</bind>
</comp>

<comp id="550" class="1005" name="tmp_11_reg_550">
<pin_list>
<pin id="551" dir="0" index="0" bw="32" slack="2"/>
<pin id="552" dir="1" index="1" bw="32" slack="2"/>
</pin_list>
<bind>
<opset="tmp_11 "/>
</bind>
</comp>

<comp id="556" class="1005" name="tmp_12_reg_556">
<pin_list>
<pin id="557" dir="0" index="0" bw="32" slack="1"/>
<pin id="558" dir="1" index="1" bw="32" slack="1"/>
</pin_list>
<bind>
<opset="tmp_12 "/>
</bind>
</comp>

<comp id="561" class="1005" name="k_1_reg_561">
<pin_list>
<pin id="562" dir="0" index="0" bw="10" slack="1"/>
<pin id="563" dir="1" index="1" bw="10" slack="1"/>
</pin_list>
<bind>
<opset="k_1 "/>
</bind>
</comp>

</comp_list>

<net_list>
<net id="69"><net_src comp="12" pin="0"/><net_sink comp="64" pin=0"/></net>

<net id="70"><net_src comp="24" pin="0"/><net_sink comp="64" pin=1"/></net>

<net id="75"><net_src comp="64" pin="3"/><net_sink comp="71" pin=0"/></net>

<net id="81"><net_src comp="14" pin="0"/><net_sink comp="76" pin=0"/></net>

<net id="82"><net_src comp="24" pin="0"/><net_sink comp="76" pin=1"/></net>

<net id="87"><net_src comp="76" pin="3"/><net_sink comp="83" pin=0"/></net>

<net id="93"><net_src comp="0" pin="0"/><net_sink comp="88" pin=0"/></net>

<net id="94"><net_src comp="24" pin="0"/><net_sink comp="88" pin=1"/></net>

<net id="100"><net_src comp="2" pin="0"/><net_sink comp="95" pin=0"/></net>

<net id="101"><net_src comp="24" pin="0"/><net_sink comp="95" pin=1"/></net>

<net id="106"><net_src comp="95" pin="3"/><net_sink comp="102" pin=0"/></net>

<net id="111"><net_src comp="88" pin="3"/><net_sink comp="107" pin=0"/></net>

<net id="117"><net_src comp="4" pin="0"/><net_sink comp="112" pin=0"/></net>

<net id="118"><net_src comp="24" pin="0"/><net_sink comp="112" pin=1"/></net>

<net id="123"><net_src comp="112" pin="3"/><net_sink comp="119" pin=0"/></net>

<net id="129"><net_src comp="6" pin="0"/><net_sink comp="124" pin=0"/></net>

<net id="130"><net_src comp="24" pin="0"/><net_sink comp="124" pin=1"/></net>

<net id="136"><net_src comp="8" pin="0"/><net_sink comp="131" pin=0"/></net>

<net id="137"><net_src comp="24" pin="0"/><net_sink comp="131" pin=1"/></net>

<net id="143"><net_src comp="0" pin="0"/><net_sink comp="138" pin=0"/></net>

<net id="144"><net_src comp="24" pin="0"/><net_sink comp="138" pin=1"/></net>

<net id="150"><net_src comp="2" pin="0"/><net_sink comp="145" pin=0"/></net>

<net id="151"><net_src comp="24" pin="0"/><net_sink comp="145" pin=1"/></net>

<net id="152"><net_src comp="145" pin="3"/><net_sink comp="102" pin=0"/></net>

<net id="153"><net_src comp="138" pin="3"/><net_sink comp="107" pin=0"/></net>

<net id="159"><net_src comp="4" pin="0"/><net_sink comp="154" pin=0"/></net>

<net id="160"><net_src comp="24" pin="0"/><net_sink comp="154" pin=1"/></net>

<net id="161"><net_src comp="154" pin="3"/><net_sink comp="119" pin=0"/></net>

<net id="167"><net_src comp="6" pin="0"/><net_sink comp="162" pin=0"/></net>

<net id="168"><net_src comp="24" pin="0"/><net_sink comp="162" pin=1"/></net>

<net id="174"><net_src comp="8" pin="0"/><net_sink comp="169" pin=0"/></net>

<net id="175"><net_src comp="24" pin="0"/><net_sink comp="169" pin=1"/></net>

<net id="189"><net_src comp="10" pin="0"/><net_sink comp="184" pin=0"/></net>

<net id="190"><net_src comp="24" pin="0"/><net_sink comp="184" pin=1"/></net>

<net id="195"><net_src comp="184" pin="3"/><net_sink comp="191" pin=0"/></net>

<net id="201"><net_src comp="10" pin="0"/><net_sink comp="196" pin=0"/></net>

<net id="202"><net_src comp="24" pin="0"/><net_sink comp="196" pin=1"/></net>

<net id="203"><net_src comp="196" pin="3"/><net_sink comp="191" pin=0"/></net>

<net id="207"><net_src comp="16" pin="0"/><net_sink comp="204" pin=0"/></net>

<net id="214"><net_src comp="204" pin="1"/><net_sink comp="208" pin=0"/></net>

<net id="215"><net_src comp="208" pin="4"/><net_sink comp="204" pin=0"/></net>

<net id="219"><net_src comp="18" pin="0"/><net_sink comp="216" pin=0"/></net>

<net id="226"><net_src comp="216" pin="1"/><net_sink comp="220" pin=0"/></net>

<net id="227"><net_src comp="220" pin="4"/><net_sink comp="216" pin=0"/></net>

<net id="237"><net_src comp="231" pin="4"/><net_sink comp="228" pin=0"/></net>

<net id="254"><net_src comp="119" pin="2"/><net_sink comp="250" pin=0"/></net>

<net id="259"><net_src comp="119" pin="2"/><net_sink comp="255" pin=0"/></net>

<net id="265"><net_src comp="102" pin="2"/><net_sink comp="260" pin=1"/></net>

<net id="266"><net_src comp="107" pin="2"/><net_sink comp="260" pin=2"/></net>

<net id="271"><net_src comp="220" pin="4"/><net_sink comp="267" pin=0"/></net>

<net id="272"><net_src comp="20" pin="0"/><net_sink comp="267" pin=1"/></net>

<net id="277"><net_src comp="220" pin="4"/><net_sink comp="273" pin=0"/></net>

<net id="278"><net_src comp="22" pin="0"/><net_sink comp="273" pin=1"/></net>

<net id="282"><net_src comp="208" pin="4"/><net_sink comp="279" pin=0"/></net>

<net id="283"><net_src comp="279" pin="1"/><net_sink comp="64" pin=2"/></net>

<net id="284"><net_src comp="279" pin="1"/><net_sink comp="76" pin=2"/></net>

<net id="288"><net_src comp="216" pin="1"/><net_sink comp="285" pin=0"/></net>

<net id="295"><net_src comp="44" pin="0"/><net_sink comp="289" pin=0"/></net>

<net id="296"><net_src comp="231" pin="4"/><net_sink comp="289" pin=1"/></net>

<net id="297"><net_src comp="46" pin="0"/><net_sink comp="289" pin=2"/></net>

<net id="298"><net_src comp="48" pin="0"/><net_sink comp="289" pin=3"/></net>

<net id="303"><net_src comp="289" pin="4"/><net_sink comp="299" pin=0"/></net>

<net id="304"><net_src comp="50" pin="0"/><net_sink comp="299" pin=1"/></net>

<net id="309"><net_src comp="52" pin="0"/><net_sink comp="305" pin=0"/></net>

<net id="310"><net_src comp="231" pin="4"/><net_sink comp="305" pin=1"/></net>

<net id="314"><net_src comp="305" pin="2"/><net_sink comp="311" pin=0"/></net>

<net id="315"><net_src comp="311" pin="1"/><net_sink comp="112" pin=2"/></net>

<net id="322"><net_src comp="54" pin="0"/><net_sink comp="316" pin=0"/></net>

<net id="323"><net_src comp="305" pin="2"/><net_sink comp="316" pin=1"/></net>

<net id="324"><net_src comp="38" pin="0"/><net_sink comp="316" pin=2"/></net>

<net id="325"><net_src comp="48" pin="0"/><net_sink comp="316" pin=3"/></net>

<net id="329"><net_src comp="316" pin="4"/><net_sink comp="326" pin=0"/></net>

<net id="330"><net_src comp="326" pin="1"/><net_sink comp="88" pin=2"/></net>

<net id="331"><net_src comp="326" pin="1"/><net_sink comp="95" pin=2"/></net>

<net id="332"><net_src comp="326" pin="1"/><net_sink comp="124" pin=2"/></net>

<net id="333"><net_src comp="326" pin="1"/><net_sink comp="131" pin=2"/></net>

<net id="337"><net_src comp="228" pin="1"/><net_sink comp="334" pin=0"/></net>

<net id="338"><net_src comp="334" pin="1"/><net_sink comp="260" pin=0"/></net>

<net id="343"><net_src comp="228" pin="1"/><net_sink comp="339" pin=0"/></net>

<net id="344"><net_src comp="56" pin="0"/><net_sink comp="339" pin=1"/></net>

<net id="348"><net_src comp="228" pin="1"/><net_sink comp="345" pin=0"/></net>

<net id="349"><net_src comp="345" pin="1"/><net_sink comp="154" pin=2"/></net>

<net id="356"><net_src comp="54" pin="0"/><net_sink comp="350" pin=0"/></net>

<net id="357"><net_src comp="228" pin="1"/><net_sink comp="350" pin=1"/></net>

<net id="358"><net_src comp="38" pin="0"/><net_sink comp="350" pin=2"/></net>

<net id="359"><net_src comp="48" pin="0"/><net_sink comp="350" pin=3"/></net>

<net id="363"><net_src comp="350" pin="4"/><net_sink comp="360" pin=0"/></net>

<net id="364"><net_src comp="360" pin="1"/><net_sink comp="138" pin=2"/></net>

<net id="365"><net_src comp="360" pin="1"/><net_sink comp="145" pin=2"/></net>

<net id="366"><net_src comp="360" pin="1"/><net_sink comp="162" pin=2"/></net>

<net id="367"><net_src comp="360" pin="1"/><net_sink comp="169" pin=2"/></net>

<net id="372"><net_src comp="204" pin="1"/><net_sink comp="368" pin=0"/></net>

<net id="373"><net_src comp="62" pin="0"/><net_sink comp="368" pin=1"/></net>

<net id="380"><net_src comp="273" pin="2"/><net_sink comp="377" pin=0"/></net>

<net id="381"><net_src comp="377" pin="1"/><net_sink comp="220" pin=2"/></net>

<net id="385"><net_src comp="64" pin="3"/><net_sink comp="382" pin=0"/></net>

<net id="386"><net_src comp="382" pin="1"/><net_sink comp="71" pin=0"/></net>

<net id="390"><net_src comp="76" pin="3"/><net_sink comp="387" pin=0"/></net>

<net id="391"><net_src comp="387" pin="1"/><net_sink comp="83" pin=0"/></net>

<net id="395"><net_src comp="285" pin="1"/><net_sink comp="392" pin=0"/></net>

<net id="396"><net_src comp="392" pin="1"/><net_sink comp="231" pin=0"/></net>

<net id="400"><net_src comp="71" pin="2"/><net_sink comp="397" pin=0"/></net>

<net id="401"><net_src comp="397" pin="1"/><net_sink comp="255" pin=1"/></net>

<net id="402"><net_src comp="397" pin="1"/><net_sink comp="250" pin=1"/></net>

<net id="406"><net_src comp="83" pin="2"/><net_sink comp="403" pin=0"/></net>

<net id="407"><net_src comp="403" pin="1"/><net_sink comp="250" pin=1"/></net>

<net id="408"><net_src comp="403" pin="1"/><net_sink comp="255" pin=1"/></net>

<net id="412"><net_src comp="299" pin="2"/><net_sink comp="409" pin=0"/></net>

<net id="416"><net_src comp="311" pin="1"/><net_sink comp="413" pin=0"/></net>

<net id="417"><net_src comp="413" pin="1"/><net_sink comp="184" pin=2"/></net>

<net id="421"><net_src comp="88" pin="3"/><net_sink comp="418" pin=0"/></net>

<net id="422"><net_src comp="418" pin="1"/><net_sink comp="107" pin=0"/></net>

<net id="426"><net_src comp="95" pin="3"/><net_sink comp="423" pin=0"/></net>

<net id="427"><net_src comp="423" pin="1"/><net_sink comp="102" pin=0"/></net>

<net id="431"><net_src comp="112" pin="3"/><net_sink comp="428" pin=0"/></net>

<net id="432"><net_src comp="428" pin="1"/><net_sink comp="119" pin=0"/></net>

<net id="436"><net_src comp="124" pin="3"/><net_sink comp="433" pin=0"/></net>

<net id="437"><net_src comp="433" pin="1"/><net_sink comp="176" pin=0"/></net>

<net id="441"><net_src comp="131" pin="3"/><net_sink comp="438" pin=0"/></net>

<net id="442"><net_src comp="438" pin="1"/><net_sink comp="180" pin=0"/></net>

<net id="446"><net_src comp="334" pin="1"/><net_sink comp="443" pin=0"/></net>

<net id="447"><net_src comp="443" pin="1"/><net_sink comp="260" pin=0"/></net>

<net id="451"><net_src comp="260" pin="3"/><net_sink comp="448" pin=0"/></net>

<net id="452"><net_src comp="448" pin="1"/><net_sink comp="250" pin=0"/></net>

<net id="453"><net_src comp="448" pin="1"/><net_sink comp="255" pin=0"/></net>

<net id="457"><net_src comp="119" pin="2"/><net_sink comp="454" pin=0"/></net>

<net id="458"><net_src comp="454" pin="1"/><net_sink comp="250" pin=0"/></net>

<net id="459"><net_src comp="454" pin="1"/><net_sink comp="255" pin=0"/></net>

<net id="463"><net_src comp="339" pin="2"/><net_sink comp="460" pin=0"/></net>

<net id="464"><net_src comp="460" pin="1"/><net_sink comp="231" pin=2"/></net>

<net id="468"><net_src comp="250" pin="2"/><net_sink comp="465" pin=0"/></net>

<net id="469"><net_src comp="465" pin="1"/><net_sink comp="238" pin=1"/></net>

<net id="473"><net_src comp="255" pin="2"/><net_sink comp="470" pin=0"/></net>

<net id="474"><net_src comp="470" pin="1"/><net_sink comp="242" pin=0"/></net>

<net id="478"><net_src comp="250" pin="2"/><net_sink comp="475" pin=0"/></net>

<net id="479"><net_src comp="475" pin="1"/><net_sink comp="238" pin=0"/></net>

<net id="483"><net_src comp="255" pin="2"/><net_sink comp="480" pin=0"/></net>

<net id="484"><net_src comp="480" pin="1"/><net_sink comp="242" pin=1"/></net>

<net id="488"><net_src comp="345" pin="1"/><net_sink comp="485" pin=0"/></net>

<net id="489"><net_src comp="485" pin="1"/><net_sink comp="196" pin=2"/></net>

<net id="493"><net_src comp="138" pin="3"/><net_sink comp="490" pin=0"/></net>

<net id="494"><net_src comp="490" pin="1"/><net_sink comp="107" pin=0"/></net>

<net id="498"><net_src comp="145" pin="3"/><net_sink comp="495" pin=0"/></net>

<net id="499"><net_src comp="495" pin="1"/><net_sink comp="102" pin=0"/></net>

<net id="503"><net_src comp="154" pin="3"/><net_sink comp="500" pin=0"/></net>

<net id="504"><net_src comp="500" pin="1"/><net_sink comp="119" pin=0"/></net>

<net id="508"><net_src comp="162" pin="3"/><net_sink comp="505" pin=0"/></net>

<net id="509"><net_src comp="505" pin="1"/><net_sink comp="176" pin=0"/></net>

<net id="513"><net_src comp="169" pin="3"/><net_sink comp="510" pin=0"/></net>

<net id="514"><net_src comp="510" pin="1"/><net_sink comp="180" pin=0"/></net>

<net id="518"><net_src comp="238" pin="2"/><net_sink comp="515" pin=0"/></net>

<net id="519"><net_src comp="515" pin="1"/><net_sink comp="238" pin=1"/></net>

<net id="520"><net_src comp="515" pin="1"/><net_sink comp="246" pin=1"/></net>

<net id="524"><net_src comp="242" pin="2"/><net_sink comp="521" pin=0"/></net>

<net id="525"><net_src comp="521" pin="1"/><net_sink comp="242" pin=1"/></net>

<net id="526"><net_src comp="521" pin="1"/><net_sink comp="246" pin=1"/></net>

<net id="530"><net_src comp="260" pin="3"/><net_sink comp="527" pin=0"/></net>

<net id="531"><net_src comp="527" pin="1"/><net_sink comp="238" pin=0"/></net>

<net id="532"><net_src comp="527" pin="1"/><net_sink comp="246" pin=0"/></net>

<net id="536"><net_src comp="119" pin="2"/><net_sink comp="533" pin=0"/></net>

<net id="537"><net_src comp="533" pin="1"/><net_sink comp="242" pin=0"/></net>

<net id="538"><net_src comp="533" pin="1"/><net_sink comp="246" pin=0"/></net>

<net id="542"><net_src comp="238" pin="2"/><net_sink comp="539" pin=0"/></net>

<net id="543"><net_src comp="539" pin="1"/><net_sink comp="176" pin=1"/></net>

<net id="544"><net_src comp="539" pin="1"/><net_sink comp="180" pin=1"/></net>

<net id="548"><net_src comp="242" pin="2"/><net_sink comp="545" pin=0"/></net>

<net id="549"><net_src comp="545" pin="1"/><net_sink comp="191" pin=1"/></net>

<net id="553"><net_src comp="246" pin="2"/><net_sink comp="550" pin=0"/></net>

<net id="554"><net_src comp="550" pin="1"/><net_sink comp="176" pin=1"/></net>

<net id="555"><net_src comp="550" pin="1"/><net_sink comp="180" pin=1"/></net>

<net id="559"><net_src comp="246" pin="2"/><net_sink comp="556" pin=0"/></net>

<net id="560"><net_src comp="556" pin="1"/><net_sink comp="191" pin=1"/></net>

<net id="564"><net_src comp="368" pin="2"/><net_sink comp="561" pin=0"/></net>

<net id="565"><net_src comp="561" pin="1"/><net_sink comp="208" pin=2"/></net>

</net_list>

</model> 
---------------- Datapath Model END ------------------

* FSMD analyzer results:
  - Output states:
	Port: W_real48 | {}
	Port: W_imag40 | {}
  - Chain level:
	State 1
	State 2
		exitcond : 1
		j : 1
		stg_28 : 2
		tmp_s : 1
		W_real48_addr : 2
		c : 3
		W_imag40_addr : 2
		s : 3
	State 3
	State 4
		tmp_18 : 1
		icmp : 2
		stg_46 : 3
		i_lower : 1
		tmp_2 : 2
		newIndex8 : 2
		newIndex4 : 3
		real_i_addr : 4
		real_i1_addr : 4
		real_i1_load : 5
		real_i_load12 : 5
		imag_i_addr : 3
		imag_i_load : 4
		real_o_addr : 4
		real_o2_addr : 4
	State 5
		real_i_load_phi : 1
		tmp_4 : 1
		tmp_5 : 1
	State 6
	State 7
	State 8
	State 9
	State 10
	State 11
	State 12
	State 13
		newIndex3 : 1
		real_i_addr_3 : 2
		real_i1_addr_3 : 2
		real_i1_load_3 : 3
		real_i_load : 3
		imag_i_addr_3 : 1
		imag_i_load_1 : 2
		real_o_addr_3 : 2
		real_o2_addr_3 : 2
	State 14
		real_i_load_1_phi : 1
	State 15
	State 16
	State 17
	State 18
	State 19
	State 20
		stg_130 : 1
	State 21
		stg_143 : 1
		empty : 1
	State 22


============================================================
+ Verbose Summary: Datapath Resource usage 
============================================================

* Functional unit list:
|----------|------------------|---------|---------|---------|
| Operation|  Functional Unit |  DSP48E |    FF   |   LUT   |
|----------|------------------|---------|---------|---------|
|          |    grp_fu_238    |    2    |   205   |   390   |
|   fadd   |    grp_fu_242    |    2    |   205   |   390   |
|          |    grp_fu_246    |    2    |   205   |   390   |
|----------|------------------|---------|---------|---------|
|   fmul   |    grp_fu_250    |    3    |   143   |   321   |
|          |    grp_fu_255    |    3    |   143   |   321   |
|----------|------------------|---------|---------|---------|
|          |     j_fu_273     |    0    |    0    |    7    |
|    add   |  i_lower_fu_305  |    0    |    0    |    32   |
|          |    i_2_fu_339    |    0    |    0    |    32   |
|          |    k_1_fu_368    |    0    |    0    |    10   |
|----------|------------------|---------|---------|---------|
|  select  |    grp_fu_260    |    0    |    0    |    32   |
|----------|------------------|---------|---------|---------|
|   icmp   |  exitcond_fu_267 |    0    |    0    |    3    |
|          |    icmp_fu_299   |    0    |    0    |    8    |
|----------|------------------|---------|---------|---------|
|          |   tmp_s_fu_279   |    0    |    0    |    0    |
|   zext   |   i_cast_fu_285  |    0    |    0    |    0    |
|          | newIndex4_fu_326 |    0    |    0    |    0    |
|          | newIndex3_fu_360 |    0    |    0    |    0    |
|----------|------------------|---------|---------|---------|
|          |   tmp_18_fu_289  |    0    |    0    |    0    |
|partselect| newIndex8_fu_316 |    0    |    0    |    0    |
|          |  newIndex_fu_350 |    0    |    0    |    0    |
|----------|------------------|---------|---------|---------|
|   sext   |   tmp_2_fu_311   |    0    |    0    |    0    |
|          |   tmp_7_fu_345   |    0    |    0    |    0    |
|----------|------------------|---------|---------|---------|
|   trunc  |   tmp_19_fu_334  |    0    |    0    |    0    |
|----------|------------------|---------|---------|---------|
|   Total  |                  |    12   |   901   |   1936  |
|----------|------------------|---------|---------|---------|

Memories:
N/A

* Register list:
+-------------------------+--------+
|                         |   FF   |
+-------------------------+--------+
|  W_imag40_addr_reg_387  |    9   |
|  W_real48_addr_reg_382  |    9   |
|        c_reg_397        |   32   |
|        i2_reg_228       |   32   |
|       i_2_reg_460       |   32   |
|      i_cast_reg_392     |   32   |
|        i_reg_216        |    7   |
|       icmp_reg_409      |    1   |
|  imag_i_addr_3_reg_500  |   10   |
|   imag_i_addr_reg_428   |   10   |
|  imag_i_load_1_reg_533  |   32   |
|   imag_i_load_reg_454   |   32   |
|        j_reg_377        |    7   |
|       k_1_reg_561       |   10   |
|        k_reg_204        |   10   |
|  real_i1_addr_3_reg_495 |    9   |
|   real_i1_addr_reg_423  |    9   |
|  real_i_addr_3_reg_490  |    9   |
|   real_i_addr_reg_418   |    9   |
|real_i_load_1_phi_reg_527|   32   |
| real_i_load_phi_reg_448 |   32   |
|  real_o2_addr_3_reg_510 |    9   |
|   real_o2_addr_reg_438  |    9   |
|  real_o_addr_3_reg_505  |    9   |
|   real_o_addr_reg_433   |    9   |
|        s_reg_403        |   32   |
|      temp_I_reg_521     |   32   |
|      temp_R_reg_515     |   32   |
|      tmp_10_reg_545     |   32   |
|      tmp_11_reg_550     |   32   |
|      tmp_12_reg_556     |   32   |
|      tmp_19_reg_443     |    1   |
|      tmp_2_reg_413      |   64   |
|      tmp_3_reg_475      |   32   |
|      tmp_4_reg_465      |   32   |
|      tmp_5_reg_470      |   32   |
|      tmp_6_reg_480      |   32   |
|      tmp_7_reg_485      |   64   |
|      tmp_8_reg_539      |   32   |
+-------------------------+--------+
|          Total          |   882  |
+-------------------------+--------+

* Multiplexer (MUX) list: 
|-------------------|------|------|------|--------||---------||---------|
|        Comp       |  Pin | Size |  BW  | S x BW ||  Delay  ||   LUT   |
|-------------------|------|------|------|--------||---------||---------|
|  grp_access_fu_71 |  p0  |   2  |   9  |   18   ||    9    |
|  grp_access_fu_83 |  p0  |   2  |   9  |   18   ||    9    |
| grp_access_fu_102 |  p0  |   4  |   9  |   36   ||    9    |
| grp_access_fu_107 |  p0  |   4  |   9  |   36   ||    9    |
| grp_access_fu_119 |  p0  |   4  |  10  |   40   ||    10   |
| grp_access_fu_176 |  p0  |   2  |   9  |   18   ||    9    |
| grp_access_fu_176 |  p1  |   2  |  32  |   64   ||    32   |
| grp_access_fu_180 |  p0  |   2  |   9  |   18   ||    9    |
| grp_access_fu_180 |  p1  |   2  |  32  |   64   ||    32   |
| grp_access_fu_191 |  p0  |   2  |  10  |   20   ||    10   |
| grp_access_fu_191 |  p1  |   2  |  32  |   64   ||    32   |
|     k_reg_204     |  p0  |   2  |  10  |   20   ||    10   |
|     i_reg_216     |  p0  |   2  |   7  |   14   ||    7    |
|     grp_fu_238    |  p0  |   2  |  32  |   64   ||    32   |
|     grp_fu_238    |  p1  |   2  |  32  |   64   ||    32   |
|     grp_fu_242    |  p0  |   2  |  32  |   64   ||    32   |
|     grp_fu_242    |  p1  |   2  |  32  |   64   ||    32   |
|     grp_fu_246    |  p0  |   2  |  32  |   64   ||    32   |
|     grp_fu_246    |  p1  |   2  |  32  |   64   ||    32   |
|     grp_fu_250    |  p0  |   3  |  32  |   96   ||    32   |
|     grp_fu_250    |  p1  |   2  |  32  |   64   ||    32   |
|     grp_fu_255    |  p0  |   3  |  32  |   96   ||    32   |
|     grp_fu_255    |  p1  |   2  |  32  |   64   ||    32   |
|     grp_fu_260    |  p0  |   2  |   1  |    2   ||    1    |
|-------------------|------|------|------|--------||---------||---------|
|       Total       |      |      |      |  1136  ||  37.704 ||   508   |
|-------------------|------|------|------|--------||---------||---------|



* Summary:
+-----------+--------+--------+--------+--------+
|           | DSP48E |  Delay |   FF   |   LUT  |
+-----------+--------+--------+--------+--------+
|  Function |   12   |    -   |   901  |  1936  |
|   Memory  |    -   |    -   |    -   |    -   |
|Multiplexer|    -   |   37   |    -   |   508  |
|  Register |    -   |    -   |   882  |    -   |
+-----------+--------+--------+--------+--------+
|   Total   |   12   |   37   |  1783  |  2444  |
+-----------+--------+--------+--------+--------+
