

================================================================
== Vivado HLS Report for 'ofdm_receiver_fft'
================================================================
* Date:           Sun Nov 13 23:40:56 2016

* Version:        2015.4 (Build 1412921 on Wed Nov 18 09:58:55 AM 2015)
* Project:        qpsk_decode
* Solution:       solution1
* Product family: zynq
* Target device:  xc7z020clg484-1


================================================================
== Performance Estimates
================================================================
+ Timing (ns): 
    * Summary: 
    +--------+-------+----------+------------+
    |  Clock | Target| Estimated| Uncertainty|
    +--------+-------+----------+------------+
    |ap_clk  |  10.00|      8.41|        1.25|
    +--------+-------+----------+------------+

+ Latency (clock cycles): 
    * Summary: 
    +------+------+------+------+----------+
    |   Latency   |   Interval  | Pipeline |
    |  min |  max |  min |  max |   Type   |
    +------+------+------+------+----------+
    |  4146|  4146|  1026|  1026| dataflow |
    +------+------+------+------+----------+

    + Detail: 
        * Instance: 
        +------------------------------------------+-------------------------------+------+------+------+------+----------+
        |                                          |                               |   Latency   |   Interval  | Pipeline |
        |                 Instance                 |             Module            |  min |  max |  min |  max |   Type   |
        +------------------------------------------+-------------------------------+------+------+------+------+----------+
        |grp_ofdm_receiver_bit_reverse_fu_224      |ofdm_receiver_bit_reverse      |   515|   515|   516|   516| dataflow |
        |grp_ofdm_receiver_fft_stage_first_fu_279  |ofdm_receiver_fft_stage_first  |   529|   529|   529|   529|   none   |
        |grp_ofdm_receiver_fft_stages12_fu_387     |ofdm_receiver_fft_stages12     |     9|     9|     9|     9|   none   |
        |grp_ofdm_receiver_fft_stages13_fu_373     |ofdm_receiver_fft_stages13     |    17|    17|    17|    17|   none   |
        |grp_ofdm_receiver_fft_stages14_fu_359     |ofdm_receiver_fft_stages14     |    33|    33|    33|    33|   none   |
        |grp_ofdm_receiver_fft_stages15_fu_345     |ofdm_receiver_fft_stages15     |    65|    65|    65|    65|   none   |
        |grp_ofdm_receiver_fft_stages16_fu_331     |ofdm_receiver_fft_stages16     |   129|   129|   129|   129|   none   |
        |grp_ofdm_receiver_fft_stages17_fu_317     |ofdm_receiver_fft_stages17     |   257|   257|   257|   257|   none   |
        |grp_ofdm_receiver_fft_stages18_fu_303     |ofdm_receiver_fft_stages18     |   513|   513|   513|   513|   none   |
        |grp_ofdm_receiver_fft_stages19_fu_289     |ofdm_receiver_fft_stages19     |  1025|  1025|  1025|  1025|   none   |
        |grp_ofdm_receiver_fft_stage_last_fu_246   |ofdm_receiver_fft_stage_last   |   528|   528|   528|   528|   none   |
        |grp_ofdm_receiver_bit_reverse20_fu_260    |ofdm_receiver_bit_reverse20    |   515|   515|   516|   516| dataflow |
        +------------------------------------------+-------------------------------+------+------+------+------+----------+

        * Loop: 
        N/A



================================================================
== Utilization Estimates
================================================================
* Summary: 
+-----------------+---------+-------+--------+-------+
|       Name      | BRAM_18K| DSP48E|   FF   |  LUT  |
+-----------------+---------+-------+--------+-------+
|DSP              |        -|      -|       -|      -|
|Expression       |        -|      -|       0|     11|
|FIFO             |        -|      -|       -|      -|
|Instance         |       22|    138|   20929|  41721|
|Memory           |      102|      -|       0|      0|
|Multiplexer      |        -|      -|       -|     66|
|Register         |        -|      -|      46|      -|
+-----------------+---------+-------+--------+-------+
|Total            |      124|    138|   20975|  41798|
+-----------------+---------+-------+--------+-------+
|Available        |      280|    220|  106400|  53200|
+-----------------+---------+-------+--------+-------+
|Utilization (%)  |       44|     62|      19|     78|
+-----------------+---------+-------+--------+-------+

+ Detail: 
    * Instance: 
    +----------------------------------+-------------------------------+---------+-------+------+------+
    |             Instance             |             Module            | BRAM_18K| DSP48E|  FF  |  LUT |
    +----------------------------------+-------------------------------+---------+-------+------+------+
    |ofdm_receiver_bit_reverse_U0      |ofdm_receiver_bit_reverse      |        2|      0|   974|  7443|
    |ofdm_receiver_bit_reverse20_U0    |ofdm_receiver_bit_reverse20    |        2|      0|   345|  4161|
    |ofdm_receiver_fft_stage_first_U0  |ofdm_receiver_fft_stage_first  |        0|     18|  3003|  4036|
    |ofdm_receiver_fft_stage_last_U0   |ofdm_receiver_fft_stage_last   |        2|     24|  3423|  4563|
    |ofdm_receiver_fft_stages12_U0     |ofdm_receiver_fft_stages12     |        2|     12|  1641|  2682|
    |ofdm_receiver_fft_stages13_U0     |ofdm_receiver_fft_stages13     |        2|     12|  1643|  2684|
    |ofdm_receiver_fft_stages14_U0     |ofdm_receiver_fft_stages14     |        2|     12|  1645|  2686|
    |ofdm_receiver_fft_stages15_U0     |ofdm_receiver_fft_stages15     |        2|     12|  1647|  2689|
    |ofdm_receiver_fft_stages16_U0     |ofdm_receiver_fft_stages16     |        2|     12|  1649|  2691|
    |ofdm_receiver_fft_stages17_U0     |ofdm_receiver_fft_stages17     |        2|     12|  1651|  2693|
    |ofdm_receiver_fft_stages18_U0     |ofdm_receiver_fft_stages18     |        2|     12|  1653|  2695|
    |ofdm_receiver_fft_stages19_U0     |ofdm_receiver_fft_stages19     |        2|     12|  1655|  2698|
    +----------------------------------+-------------------------------+---------+-------+------+------+
    |Total                             |                               |       22|    138| 20929| 41721|
    +----------------------------------+-------------------------------+---------+-------+------+------+

    * DSP48: 
    N/A

    * Memory: 
    +---------------+-------------------------------+---------+---+----+------+-----+------+-------------+
    |     Memory    |             Module            | BRAM_18K| FF| LUT| Words| Bits| Banks| W*Bits*Banks|
    +---------------+-------------------------------+---------+---+----+------+-----+------+-------------+
    |Stage0_I_U     |ofdm_receiver_fft_Stage0_I     |        4|  0|   0|  1024|   32|     2|        65536|
    |Stage10_I_U    |ofdm_receiver_fft_Stage0_I     |        4|  0|   0|  1024|   32|     2|        65536|
    |Stage0_R_0_U   |ofdm_receiver_fft_Stage0_R_0   |        4|  0|   0|   512|   32|     2|        32768|
    |Stage0_R_1_U   |ofdm_receiver_fft_Stage0_R_0   |        4|  0|   0|   512|   32|     2|        32768|
    |Stage9_R_0_U   |ofdm_receiver_fft_Stage0_R_0   |        4|  0|   0|   512|   32|     2|        32768|
    |Stage9_R_1_U   |ofdm_receiver_fft_Stage0_R_0   |        4|  0|   0|   512|   32|     2|        32768|
    |Stage10_R_0_U  |ofdm_receiver_fft_Stage10_R_0  |        4|  0|   0|   512|   32|     2|        32768|
    |Stage10_R_1_U  |ofdm_receiver_fft_Stage10_R_0  |        4|  0|   0|   512|   32|     2|        32768|
    |Stage1_I_U     |ofdm_receiver_fft_Stage1_I     |        4|  0|   0|  1024|   32|     2|        65536|
    |Stage1_R_0_U   |ofdm_receiver_fft_Stage1_R_0   |        4|  0|   0|   512|   32|     2|        32768|
    |Stage1_R_1_U   |ofdm_receiver_fft_Stage1_R_1   |        2|  0|   0|   512|   32|     2|        32768|
    |Stage2_R_0_U   |ofdm_receiver_fft_Stage1_R_1   |        2|  0|   0|   512|   32|     2|        32768|
    |Stage2_R_1_U   |ofdm_receiver_fft_Stage1_R_1   |        2|  0|   0|   512|   32|     2|        32768|
    |Stage3_R_0_U   |ofdm_receiver_fft_Stage1_R_1   |        2|  0|   0|   512|   32|     2|        32768|
    |Stage3_R_1_U   |ofdm_receiver_fft_Stage1_R_1   |        2|  0|   0|   512|   32|     2|        32768|
    |Stage4_R_0_U   |ofdm_receiver_fft_Stage1_R_1   |        2|  0|   0|   512|   32|     2|        32768|
    |Stage4_R_1_U   |ofdm_receiver_fft_Stage1_R_1   |        2|  0|   0|   512|   32|     2|        32768|
    |Stage5_R_0_U   |ofdm_receiver_fft_Stage1_R_1   |        2|  0|   0|   512|   32|     2|        32768|
    |Stage5_R_1_U   |ofdm_receiver_fft_Stage1_R_1   |        2|  0|   0|   512|   32|     2|        32768|
    |Stage6_R_0_U   |ofdm_receiver_fft_Stage1_R_1   |        2|  0|   0|   512|   32|     2|        32768|
    |Stage6_R_1_U   |ofdm_receiver_fft_Stage1_R_1   |        2|  0|   0|   512|   32|     2|        32768|
    |Stage7_R_0_U   |ofdm_receiver_fft_Stage1_R_1   |        2|  0|   0|   512|   32|     2|        32768|
    |Stage7_R_1_U   |ofdm_receiver_fft_Stage1_R_1   |        2|  0|   0|   512|   32|     2|        32768|
    |Stage8_R_0_U   |ofdm_receiver_fft_Stage1_R_1   |        2|  0|   0|   512|   32|     2|        32768|
    |Stage8_R_1_U   |ofdm_receiver_fft_Stage1_R_1   |        2|  0|   0|   512|   32|     2|        32768|
    |Stage2_I_U     |ofdm_receiver_fft_Stage2_I     |        4|  0|   0|  1024|   32|     2|        65536|
    |Stage3_I_U     |ofdm_receiver_fft_Stage2_I     |        4|  0|   0|  1024|   32|     2|        65536|
    |Stage4_I_U     |ofdm_receiver_fft_Stage2_I     |        4|  0|   0|  1024|   32|     2|        65536|
    |Stage5_I_U     |ofdm_receiver_fft_Stage2_I     |        4|  0|   0|  1024|   32|     2|        65536|
    |Stage6_I_U     |ofdm_receiver_fft_Stage2_I     |        4|  0|   0|  1024|   32|     2|        65536|
    |Stage7_I_U     |ofdm_receiver_fft_Stage2_I     |        4|  0|   0|  1024|   32|     2|        65536|
    |Stage8_I_U     |ofdm_receiver_fft_Stage2_I     |        4|  0|   0|  1024|   32|     2|        65536|
    |Stage9_I_U     |ofdm_receiver_fft_Stage9_I     |        4|  0|   0|  1024|   32|     2|        65536|
    +---------------+-------------------------------+---------+---+----+------+-----+------+-------------+
    |Total          |                               |      102|  0|   0| 22528| 1056|    66|      1441792|
    +---------------+-------------------------------+---------+---+----+------+-----+------+-------------+

    * FIFO: 
    N/A

    * Expression: 
    +-------------------------------------------+----------+-------+---+----+------------+------------+
    |               Variable Name               | Operation| DSP48E| FF| LUT| Bitwidth P0| Bitwidth P1|
    +-------------------------------------------+----------+-------+---+----+------------+------------+
    |ofdm_receiver_bit_reverse20_U0_ap_start    |    and   |      0|  0|   1|           1|           1|
    |ofdm_receiver_fft_stage_first_U0_ap_start  |    and   |      0|  0|   1|           1|           1|
    |ofdm_receiver_fft_stage_last_U0_ap_start   |    and   |      0|  0|   1|           1|           1|
    |ofdm_receiver_fft_stages12_U0_ap_start     |    and   |      0|  0|   1|           1|           1|
    |ofdm_receiver_fft_stages13_U0_ap_start     |    and   |      0|  0|   1|           1|           1|
    |ofdm_receiver_fft_stages14_U0_ap_start     |    and   |      0|  0|   1|           1|           1|
    |ofdm_receiver_fft_stages15_U0_ap_start     |    and   |      0|  0|   1|           1|           1|
    |ofdm_receiver_fft_stages16_U0_ap_start     |    and   |      0|  0|   1|           1|           1|
    |ofdm_receiver_fft_stages17_U0_ap_start     |    and   |      0|  0|   1|           1|           1|
    |ofdm_receiver_fft_stages18_U0_ap_start     |    and   |      0|  0|   1|           1|           1|
    |ofdm_receiver_fft_stages19_U0_ap_start     |    and   |      0|  0|   1|           1|           1|
    +-------------------------------------------+----------+-------+---+----+------------+------------+
    |Total                                      |          |      0|  0|  11|          11|          11|
    +-------------------------------------------+----------+-------+---+----+------------+------------+

    * Multiplexer: 
    +--------------------------------------------------------------------+----+-----------+-----+-----------+
    |                                Name                                | LUT| Input Size| Bits| Total Bits|
    +--------------------------------------------------------------------+----+-----------+-----+-----------+
    |ap_chn_write_ofdm_receiver_bit_reverse_U0_Stage0_I                  |   1|          2|    1|          2|
    |ap_chn_write_ofdm_receiver_bit_reverse_U0_Stage0_R_0                |   1|          2|    1|          2|
    |ap_chn_write_ofdm_receiver_bit_reverse_U0_Stage0_R_1                |   1|          2|    1|          2|
    |ap_chn_write_ofdm_receiver_fft_stage_first_U0_Stage1_I              |   1|          2|    1|          2|
    |ap_chn_write_ofdm_receiver_fft_stage_first_U0_Stage1_R_0            |   1|          2|    1|          2|
    |ap_chn_write_ofdm_receiver_fft_stage_first_U0_Stage1_R_1            |   1|          2|    1|          2|
    |ap_chn_write_ofdm_receiver_fft_stage_last_U0_Stage10_I              |   1|          2|    1|          2|
    |ap_chn_write_ofdm_receiver_fft_stage_last_U0_Stage10_R_0            |   1|          2|    1|          2|
    |ap_chn_write_ofdm_receiver_fft_stage_last_U0_Stage10_R_1            |   1|          2|    1|          2|
    |ap_chn_write_ofdm_receiver_fft_stages12_U0_Stage2_I                 |   1|          2|    1|          2|
    |ap_chn_write_ofdm_receiver_fft_stages12_U0_Stage2_R_0               |   1|          2|    1|          2|
    |ap_chn_write_ofdm_receiver_fft_stages12_U0_Stage2_R_1               |   1|          2|    1|          2|
    |ap_chn_write_ofdm_receiver_fft_stages13_U0_Stage3_I                 |   1|          2|    1|          2|
    |ap_chn_write_ofdm_receiver_fft_stages13_U0_Stage3_R_0               |   1|          2|    1|          2|
    |ap_chn_write_ofdm_receiver_fft_stages13_U0_Stage3_R_1               |   1|          2|    1|          2|
    |ap_chn_write_ofdm_receiver_fft_stages14_U0_Stage4_I                 |   1|          2|    1|          2|
    |ap_chn_write_ofdm_receiver_fft_stages14_U0_Stage4_R_0               |   1|          2|    1|          2|
    |ap_chn_write_ofdm_receiver_fft_stages14_U0_Stage4_R_1               |   1|          2|    1|          2|
    |ap_chn_write_ofdm_receiver_fft_stages15_U0_Stage5_I                 |   1|          2|    1|          2|
    |ap_chn_write_ofdm_receiver_fft_stages15_U0_Stage5_R_0               |   1|          2|    1|          2|
    |ap_chn_write_ofdm_receiver_fft_stages15_U0_Stage5_R_1               |   1|          2|    1|          2|
    |ap_chn_write_ofdm_receiver_fft_stages16_U0_Stage6_I                 |   1|          2|    1|          2|
    |ap_chn_write_ofdm_receiver_fft_stages16_U0_Stage6_R_0               |   1|          2|    1|          2|
    |ap_chn_write_ofdm_receiver_fft_stages16_U0_Stage6_R_1               |   1|          2|    1|          2|
    |ap_chn_write_ofdm_receiver_fft_stages17_U0_Stage7_I                 |   1|          2|    1|          2|
    |ap_chn_write_ofdm_receiver_fft_stages17_U0_Stage7_R_0               |   1|          2|    1|          2|
    |ap_chn_write_ofdm_receiver_fft_stages17_U0_Stage7_R_1               |   1|          2|    1|          2|
    |ap_chn_write_ofdm_receiver_fft_stages18_U0_Stage8_I                 |   1|          2|    1|          2|
    |ap_chn_write_ofdm_receiver_fft_stages18_U0_Stage8_R_0               |   1|          2|    1|          2|
    |ap_chn_write_ofdm_receiver_fft_stages18_U0_Stage8_R_1               |   1|          2|    1|          2|
    |ap_chn_write_ofdm_receiver_fft_stages19_U0_Stage9_I                 |   1|          2|    1|          2|
    |ap_chn_write_ofdm_receiver_fft_stages19_U0_Stage9_R_0               |   1|          2|    1|          2|
    |ap_chn_write_ofdm_receiver_fft_stages19_U0_Stage9_R_1               |   1|          2|    1|          2|
    |ap_sig_ready_ofdm_receiver_bit_reverse_U0_imag_o_pipo_status        |   1|          2|    1|          2|
    |ap_sig_ready_ofdm_receiver_bit_reverse_U0_real_o_0_pipo_status      |   1|          2|    1|          2|
    |ap_sig_ready_ofdm_receiver_bit_reverse_U0_real_o_1_pipo_status      |   1|          2|    1|          2|
    |ap_sig_ready_ofdm_receiver_fft_stage_first_U0_imag_o_pipo_status    |   1|          2|    1|          2|
    |ap_sig_ready_ofdm_receiver_fft_stage_first_U0_real_o_0_pipo_status  |   1|          2|    1|          2|
    |ap_sig_ready_ofdm_receiver_fft_stage_first_U0_real_o_1_pipo_status  |   1|          2|    1|          2|
    |ap_sig_ready_ofdm_receiver_fft_stage_last_U0_imag_o_pipo_status     |   1|          2|    1|          2|
    |ap_sig_ready_ofdm_receiver_fft_stage_last_U0_real_o_0_pipo_status   |   1|          2|    1|          2|
    |ap_sig_ready_ofdm_receiver_fft_stage_last_U0_real_o_1_pipo_status   |   1|          2|    1|          2|
    |ap_sig_ready_ofdm_receiver_fft_stages12_U0_imag_o_pipo_status       |   1|          2|    1|          2|
    |ap_sig_ready_ofdm_receiver_fft_stages12_U0_real_o2_pipo_status      |   1|          2|    1|          2|
    |ap_sig_ready_ofdm_receiver_fft_stages12_U0_real_o_pipo_status       |   1|          2|    1|          2|
    |ap_sig_ready_ofdm_receiver_fft_stages13_U0_imag_o_pipo_status       |   1|          2|    1|          2|
    |ap_sig_ready_ofdm_receiver_fft_stages13_U0_real_o2_pipo_status      |   1|          2|    1|          2|
    |ap_sig_ready_ofdm_receiver_fft_stages13_U0_real_o_pipo_status       |   1|          2|    1|          2|
    |ap_sig_ready_ofdm_receiver_fft_stages14_U0_imag_o_pipo_status       |   1|          2|    1|          2|
    |ap_sig_ready_ofdm_receiver_fft_stages14_U0_real_o2_pipo_status      |   1|          2|    1|          2|
    |ap_sig_ready_ofdm_receiver_fft_stages14_U0_real_o_pipo_status       |   1|          2|    1|          2|
    |ap_sig_ready_ofdm_receiver_fft_stages15_U0_imag_o_pipo_status       |   1|          2|    1|          2|
    |ap_sig_ready_ofdm_receiver_fft_stages15_U0_real_o2_pipo_status      |   1|          2|    1|          2|
    |ap_sig_ready_ofdm_receiver_fft_stages15_U0_real_o_pipo_status       |   1|          2|    1|          2|
    |ap_sig_ready_ofdm_receiver_fft_stages16_U0_imag_o_pipo_status       |   1|          2|    1|          2|
    |ap_sig_ready_ofdm_receiver_fft_stages16_U0_real_o2_pipo_status      |   1|          2|    1|          2|
    |ap_sig_ready_ofdm_receiver_fft_stages16_U0_real_o_pipo_status       |   1|          2|    1|          2|
    |ap_sig_ready_ofdm_receiver_fft_stages17_U0_imag_o_pipo_status       |   1|          2|    1|          2|
    |ap_sig_ready_ofdm_receiver_fft_stages17_U0_real_o2_pipo_status      |   1|          2|    1|          2|
    |ap_sig_ready_ofdm_receiver_fft_stages17_U0_real_o_pipo_status       |   1|          2|    1|          2|
    |ap_sig_ready_ofdm_receiver_fft_stages18_U0_imag_o_pipo_status       |   1|          2|    1|          2|
    |ap_sig_ready_ofdm_receiver_fft_stages18_U0_real_o2_pipo_status      |   1|          2|    1|          2|
    |ap_sig_ready_ofdm_receiver_fft_stages18_U0_real_o_pipo_status       |   1|          2|    1|          2|
    |ap_sig_ready_ofdm_receiver_fft_stages19_U0_imag_o_pipo_status       |   1|          2|    1|          2|
    |ap_sig_ready_ofdm_receiver_fft_stages19_U0_real_o2_pipo_status      |   1|          2|    1|          2|
    |ap_sig_ready_ofdm_receiver_fft_stages19_U0_real_o_pipo_status       |   1|          2|    1|          2|
    +--------------------------------------------------------------------+----+-----------+-----+-----------+
    |Total                                                               |  66|        132|   66|        132|
    +--------------------------------------------------------------------+----+-----------+-----+-----------+

    * Register: 
    +--------------------------------------------------------------------+---+----+-----+-----------+
    |                                Name                                | FF| LUT| Bits| Const Bits|
    +--------------------------------------------------------------------+---+----+-----+-----------+
    |ap_CS                                                               |  1|   0|    1|          0|
    |ap_reg_procdone_ofdm_receiver_bit_reverse20_U0                      |  1|   0|    1|          0|
    |ap_reg_procdone_ofdm_receiver_bit_reverse_U0                        |  1|   0|    1|          0|
    |ap_reg_procdone_ofdm_receiver_fft_stage_first_U0                    |  1|   0|    1|          0|
    |ap_reg_procdone_ofdm_receiver_fft_stage_last_U0                     |  1|   0|    1|          0|
    |ap_reg_procdone_ofdm_receiver_fft_stages12_U0                       |  1|   0|    1|          0|
    |ap_reg_procdone_ofdm_receiver_fft_stages13_U0                       |  1|   0|    1|          0|
    |ap_reg_procdone_ofdm_receiver_fft_stages14_U0                       |  1|   0|    1|          0|
    |ap_reg_procdone_ofdm_receiver_fft_stages15_U0                       |  1|   0|    1|          0|
    |ap_reg_procdone_ofdm_receiver_fft_stages16_U0                       |  1|   0|    1|          0|
    |ap_reg_procdone_ofdm_receiver_fft_stages17_U0                       |  1|   0|    1|          0|
    |ap_reg_procdone_ofdm_receiver_fft_stages18_U0                       |  1|   0|    1|          0|
    |ap_reg_procdone_ofdm_receiver_fft_stages19_U0                       |  1|   0|    1|          0|
    |ap_reg_ready_ofdm_receiver_bit_reverse_U0_imag_o_pipo_status        |  1|   0|    1|          0|
    |ap_reg_ready_ofdm_receiver_bit_reverse_U0_real_o_0_pipo_status      |  1|   0|    1|          0|
    |ap_reg_ready_ofdm_receiver_bit_reverse_U0_real_o_1_pipo_status      |  1|   0|    1|          0|
    |ap_reg_ready_ofdm_receiver_fft_stage_first_U0_imag_o_pipo_status    |  1|   0|    1|          0|
    |ap_reg_ready_ofdm_receiver_fft_stage_first_U0_real_o_0_pipo_status  |  1|   0|    1|          0|
    |ap_reg_ready_ofdm_receiver_fft_stage_first_U0_real_o_1_pipo_status  |  1|   0|    1|          0|
    |ap_reg_ready_ofdm_receiver_fft_stage_last_U0_imag_o_pipo_status     |  1|   0|    1|          0|
    |ap_reg_ready_ofdm_receiver_fft_stage_last_U0_real_o_0_pipo_status   |  1|   0|    1|          0|
    |ap_reg_ready_ofdm_receiver_fft_stage_last_U0_real_o_1_pipo_status   |  1|   0|    1|          0|
    |ap_reg_ready_ofdm_receiver_fft_stages12_U0_imag_o_pipo_status       |  1|   0|    1|          0|
    |ap_reg_ready_ofdm_receiver_fft_stages12_U0_real_o2_pipo_status      |  1|   0|    1|          0|
    |ap_reg_ready_ofdm_receiver_fft_stages12_U0_real_o_pipo_status       |  1|   0|    1|          0|
    |ap_reg_ready_ofdm_receiver_fft_stages13_U0_imag_o_pipo_status       |  1|   0|    1|          0|
    |ap_reg_ready_ofdm_receiver_fft_stages13_U0_real_o2_pipo_status      |  1|   0|    1|          0|
    |ap_reg_ready_ofdm_receiver_fft_stages13_U0_real_o_pipo_status       |  1|   0|    1|          0|
    |ap_reg_ready_ofdm_receiver_fft_stages14_U0_imag_o_pipo_status       |  1|   0|    1|          0|
    |ap_reg_ready_ofdm_receiver_fft_stages14_U0_real_o2_pipo_status      |  1|   0|    1|          0|
    |ap_reg_ready_ofdm_receiver_fft_stages14_U0_real_o_pipo_status       |  1|   0|    1|          0|
    |ap_reg_ready_ofdm_receiver_fft_stages15_U0_imag_o_pipo_status       |  1|   0|    1|          0|
    |ap_reg_ready_ofdm_receiver_fft_stages15_U0_real_o2_pipo_status      |  1|   0|    1|          0|
    |ap_reg_ready_ofdm_receiver_fft_stages15_U0_real_o_pipo_status       |  1|   0|    1|          0|
    |ap_reg_ready_ofdm_receiver_fft_stages16_U0_imag_o_pipo_status       |  1|   0|    1|          0|
    |ap_reg_ready_ofdm_receiver_fft_stages16_U0_real_o2_pipo_status      |  1|   0|    1|          0|
    |ap_reg_ready_ofdm_receiver_fft_stages16_U0_real_o_pipo_status       |  1|   0|    1|          0|
    |ap_reg_ready_ofdm_receiver_fft_stages17_U0_imag_o_pipo_status       |  1|   0|    1|          0|
    |ap_reg_ready_ofdm_receiver_fft_stages17_U0_real_o2_pipo_status      |  1|   0|    1|          0|
    |ap_reg_ready_ofdm_receiver_fft_stages17_U0_real_o_pipo_status       |  1|   0|    1|          0|
    |ap_reg_ready_ofdm_receiver_fft_stages18_U0_imag_o_pipo_status       |  1|   0|    1|          0|
    |ap_reg_ready_ofdm_receiver_fft_stages18_U0_real_o2_pipo_status      |  1|   0|    1|          0|
    |ap_reg_ready_ofdm_receiver_fft_stages18_U0_real_o_pipo_status       |  1|   0|    1|          0|
    |ap_reg_ready_ofdm_receiver_fft_stages19_U0_imag_o_pipo_status       |  1|   0|    1|          0|
    |ap_reg_ready_ofdm_receiver_fft_stages19_U0_real_o2_pipo_status      |  1|   0|    1|          0|
    |ap_reg_ready_ofdm_receiver_fft_stages19_U0_real_o_pipo_status       |  1|   0|    1|          0|
    +--------------------------------------------------------------------+---+----+-----+-----------+
    |Total                                                               | 46|   0|   46|          0|
    +--------------------------------------------------------------------+---+----+-----+-----------+



================================================================
== Interface
================================================================
* Summary: 
+-------------------+-----+-----+------------+-------------------+--------------+
|     RTL Ports     | Dir | Bits|  Protocol  |   Source Object   |    C Type    |
+-------------------+-----+-----+------------+-------------------+--------------+
|ap_clk             |  in |    1| ap_ctrl_hs | ofdm_receiver_fft | return value |
|ap_rst             |  in |    1| ap_ctrl_hs | ofdm_receiver_fft | return value |
|ap_done            | out |    1| ap_ctrl_hs | ofdm_receiver_fft | return value |
|ap_start           |  in |    1| ap_ctrl_hs | ofdm_receiver_fft | return value |
|ap_idle            | out |    1| ap_ctrl_hs | ofdm_receiver_fft | return value |
|ap_ready           | out |    1| ap_ctrl_hs | ofdm_receiver_fft | return value |
|real_i_0_address0  | out |    9|  ap_memory |      real_i_0     |     array    |
|real_i_0_ce0       | out |    1|  ap_memory |      real_i_0     |     array    |
|real_i_0_d0        | out |   32|  ap_memory |      real_i_0     |     array    |
|real_i_0_q0        |  in |   32|  ap_memory |      real_i_0     |     array    |
|real_i_0_we0       | out |    1|  ap_memory |      real_i_0     |     array    |
|real_i_0_address1  | out |    9|  ap_memory |      real_i_0     |     array    |
|real_i_0_ce1       | out |    1|  ap_memory |      real_i_0     |     array    |
|real_i_0_d1        | out |   32|  ap_memory |      real_i_0     |     array    |
|real_i_0_q1        |  in |   32|  ap_memory |      real_i_0     |     array    |
|real_i_0_we1       | out |    1|  ap_memory |      real_i_0     |     array    |
|real_i_1_address0  | out |    9|  ap_memory |      real_i_1     |     array    |
|real_i_1_ce0       | out |    1|  ap_memory |      real_i_1     |     array    |
|real_i_1_d0        | out |   32|  ap_memory |      real_i_1     |     array    |
|real_i_1_q0        |  in |   32|  ap_memory |      real_i_1     |     array    |
|real_i_1_we0       | out |    1|  ap_memory |      real_i_1     |     array    |
|real_i_1_address1  | out |    9|  ap_memory |      real_i_1     |     array    |
|real_i_1_ce1       | out |    1|  ap_memory |      real_i_1     |     array    |
|real_i_1_d1        | out |   32|  ap_memory |      real_i_1     |     array    |
|real_i_1_q1        |  in |   32|  ap_memory |      real_i_1     |     array    |
|real_i_1_we1       | out |    1|  ap_memory |      real_i_1     |     array    |
|imag_i_0_address0  | out |    9|  ap_memory |      imag_i_0     |     array    |
|imag_i_0_ce0       | out |    1|  ap_memory |      imag_i_0     |     array    |
|imag_i_0_d0        | out |   32|  ap_memory |      imag_i_0     |     array    |
|imag_i_0_q0        |  in |   32|  ap_memory |      imag_i_0     |     array    |
|imag_i_0_we0       | out |    1|  ap_memory |      imag_i_0     |     array    |
|imag_i_0_address1  | out |    9|  ap_memory |      imag_i_0     |     array    |
|imag_i_0_ce1       | out |    1|  ap_memory |      imag_i_0     |     array    |
|imag_i_0_d1        | out |   32|  ap_memory |      imag_i_0     |     array    |
|imag_i_0_q1        |  in |   32|  ap_memory |      imag_i_0     |     array    |
|imag_i_0_we1       | out |    1|  ap_memory |      imag_i_0     |     array    |
|imag_i_1_address0  | out |    9|  ap_memory |      imag_i_1     |     array    |
|imag_i_1_ce0       | out |    1|  ap_memory |      imag_i_1     |     array    |
|imag_i_1_d0        | out |   32|  ap_memory |      imag_i_1     |     array    |
|imag_i_1_q0        |  in |   32|  ap_memory |      imag_i_1     |     array    |
|imag_i_1_we0       | out |    1|  ap_memory |      imag_i_1     |     array    |
|imag_i_1_address1  | out |    9|  ap_memory |      imag_i_1     |     array    |
|imag_i_1_ce1       | out |    1|  ap_memory |      imag_i_1     |     array    |
|imag_i_1_d1        | out |   32|  ap_memory |      imag_i_1     |     array    |
|imag_i_1_q1        |  in |   32|  ap_memory |      imag_i_1     |     array    |
|imag_i_1_we1       | out |    1|  ap_memory |      imag_i_1     |     array    |
|real_o_0_address0  | out |    9|  ap_memory |      real_o_0     |     array    |
|real_o_0_ce0       | out |    1|  ap_memory |      real_o_0     |     array    |
|real_o_0_d0        | out |   32|  ap_memory |      real_o_0     |     array    |
|real_o_0_q0        |  in |   32|  ap_memory |      real_o_0     |     array    |
|real_o_0_we0       | out |    1|  ap_memory |      real_o_0     |     array    |
|real_o_0_address1  | out |    9|  ap_memory |      real_o_0     |     array    |
|real_o_0_ce1       | out |    1|  ap_memory |      real_o_0     |     array    |
|real_o_0_d1        | out |   32|  ap_memory |      real_o_0     |     array    |
|real_o_0_q1        |  in |   32|  ap_memory |      real_o_0     |     array    |
|real_o_0_we1       | out |    1|  ap_memory |      real_o_0     |     array    |
|real_o_1_address0  | out |    9|  ap_memory |      real_o_1     |     array    |
|real_o_1_ce0       | out |    1|  ap_memory |      real_o_1     |     array    |
|real_o_1_d0        | out |   32|  ap_memory |      real_o_1     |     array    |
|real_o_1_q0        |  in |   32|  ap_memory |      real_o_1     |     array    |
|real_o_1_we0       | out |    1|  ap_memory |      real_o_1     |     array    |
|real_o_1_address1  | out |    9|  ap_memory |      real_o_1     |     array    |
|real_o_1_ce1       | out |    1|  ap_memory |      real_o_1     |     array    |
|real_o_1_d1        | out |   32|  ap_memory |      real_o_1     |     array    |
|real_o_1_q1        |  in |   32|  ap_memory |      real_o_1     |     array    |
|real_o_1_we1       | out |    1|  ap_memory |      real_o_1     |     array    |
|imag_o_0_address0  | out |    9|  ap_memory |      imag_o_0     |     array    |
|imag_o_0_ce0       | out |    1|  ap_memory |      imag_o_0     |     array    |
|imag_o_0_d0        | out |   32|  ap_memory |      imag_o_0     |     array    |
|imag_o_0_q0        |  in |   32|  ap_memory |      imag_o_0     |     array    |
|imag_o_0_we0       | out |    1|  ap_memory |      imag_o_0     |     array    |
|imag_o_0_address1  | out |    9|  ap_memory |      imag_o_0     |     array    |
|imag_o_0_ce1       | out |    1|  ap_memory |      imag_o_0     |     array    |
|imag_o_0_d1        | out |   32|  ap_memory |      imag_o_0     |     array    |
|imag_o_0_q1        |  in |   32|  ap_memory |      imag_o_0     |     array    |
|imag_o_0_we1       | out |    1|  ap_memory |      imag_o_0     |     array    |
|imag_o_1_address0  | out |    9|  ap_memory |      imag_o_1     |     array    |
|imag_o_1_ce0       | out |    1|  ap_memory |      imag_o_1     |     array    |
|imag_o_1_d0        | out |   32|  ap_memory |      imag_o_1     |     array    |
|imag_o_1_q0        |  in |   32|  ap_memory |      imag_o_1     |     array    |
|imag_o_1_we0       | out |    1|  ap_memory |      imag_o_1     |     array    |
|imag_o_1_address1  | out |    9|  ap_memory |      imag_o_1     |     array    |
|imag_o_1_ce1       | out |    1|  ap_memory |      imag_o_1     |     array    |
|imag_o_1_d1        | out |   32|  ap_memory |      imag_o_1     |     array    |
|imag_o_1_q1        |  in |   32|  ap_memory |      imag_o_1     |     array    |
|imag_o_1_we1       | out |    1|  ap_memory |      imag_o_1     |     array    |
+-------------------+-----+-----+------------+-------------------+--------------+

