

================================================================
== Vivado HLS Report for 'ofdm_receiver_fft_stages14'
================================================================
* Date:           Sun Nov 13 23:40:47 2016

* Version:        2015.4 (Build 1412921 on Wed Nov 18 09:58:55 AM 2015)
* Project:        qpsk_decode
* Solution:       solution1
* Product family: zynq
* Target device:  xc7z020clg484-1


================================================================
== Performance Estimates
================================================================
+ Timing (ns): 
    * Summary: 
    +--------+-------+----------+------------+
    |  Clock | Target| Estimated| Uncertainty|
    +--------+-------+----------+------------+
    |ap_clk  |  10.00|      8.41|        1.25|
    +--------+-------+----------+------------+

+ Latency (clock cycles): 
    * Summary: 
    +-----+-----+-----+-----+---------+
    |  Latency  |  Interval | Pipeline|
    | min | max | min | max |   Type  |
    +-----+-----+-----+-----+---------+
    |   33|   33|   33|   33|   none  |
    +-----+-----+-----+-----+---------+

    + Detail: 
        * Instance: 
        N/A

        * Loop: 
        +-------------+-----+-----+----------+-----------+-----------+------+----------+
        |             |  Latency  | Iteration|  Initiation Interval  | Trip |          |
        |  Loop Name  | min | max |  Latency |  achieved |   target  | Count| Pipelined|
        +-------------+-----+-----+----------+-----------+-----------+------+----------+
        |- butterfly  |   32|   32|         4|          -|          -|     8|    no    |
        | + DFTpts    |    0|    0|        18|          2|          1|     0|    yes   |
        +-------------+-----+-----+----------+-----------+-----------+------+----------+



================================================================
== Utilization Estimates
================================================================
* Summary: 
+-----------------+---------+-------+--------+-------+
|       Name      | BRAM_18K| DSP48E|   FF   |  LUT  |
+-----------------+---------+-------+--------+-------+
|DSP              |        -|      -|       -|      -|
|Expression       |        -|      -|       0|    121|
|FIFO             |        -|      -|       -|      -|
|Instance         |        -|     12|     901|   1812|
|Memory           |        2|      -|       0|      0|
|Multiplexer      |        -|      -|       -|    555|
|Register         |        -|      -|     744|    198|
+-----------------+---------+-------+--------+-------+
|Total            |        2|     12|    1645|   2686|
+-----------------+---------+-------+--------+-------+
|Available        |      280|    220|  106400|  53200|
+-----------------+---------+-------+--------+-------+
|Utilization (%)  |    ~0   |      5|       1|      5|
+-----------------+---------+-------+--------+-------+

+ Detail: 
    * Instance: 
    +----------------------------------------------------+------------------------------------------------+---------+-------+-----+-----+
    |                      Instance                      |                     Module                     | BRAM_18K| DSP48E|  FF | LUT |
    +----------------------------------------------------+------------------------------------------------+---------+-------+-----+-----+
    |ofdm_receiver_fadd_32ns_32ns_32_5_full_dsp_U56      |ofdm_receiver_fadd_32ns_32ns_32_5_full_dsp      |        0|      2|  205|  390|
    |ofdm_receiver_faddfsub_32ns_32ns_32_5_full_dsp_U55  |ofdm_receiver_faddfsub_32ns_32ns_32_5_full_dsp  |        0|      2|  205|  390|
    |ofdm_receiver_fmul_32ns_32ns_32_4_max_dsp_U57       |ofdm_receiver_fmul_32ns_32ns_32_4_max_dsp       |        0|      3|  143|  321|
    |ofdm_receiver_fmul_32ns_32ns_32_4_max_dsp_U58       |ofdm_receiver_fmul_32ns_32ns_32_4_max_dsp       |        0|      3|  143|  321|
    |ofdm_receiver_fsub_32ns_32ns_32_5_full_dsp_U54      |ofdm_receiver_fsub_32ns_32ns_32_5_full_dsp      |        0|      2|  205|  390|
    +----------------------------------------------------+------------------------------------------------+---------+-------+-----+-----+
    |Total                                               |                                                |        0|     12|  901| 1812|
    +----------------------------------------------------+------------------------------------------------+---------+-------+-----+-----+

    * DSP48: 
    N/A

    * Memory: 
    +------------+-------------------------------------+---------+---+----+------+-----+------+-------------+
    |   Memory   |                Module               | BRAM_18K| FF| LUT| Words| Bits| Banks| W*Bits*Banks|
    +------------+-------------------------------------+---------+---+----+------+-----+------+-------------+
    |W_imag43_U  |ofdm_receiver_fft_stages12_W_imag45  |        1|  0|   0|   512|   32|     1|        16384|
    |W_real51_U  |ofdm_receiver_fft_stages12_W_real53  |        1|  0|   0|   512|   32|     1|        16384|
    +------------+-------------------------------------+---------+---+----+------+-----+------+-------------+
    |Total       |                                     |        2|  0|   0|  1024|   64|     2|        32768|
    +------------+-------------------------------------+---------+---+----+------+-----+------+-------------+

    * FIFO: 
    N/A

    * Expression: 
    +--------------------+----------+-------+---+----+------------+------------+
    |    Variable Name   | Operation| DSP48E| FF| LUT| Bitwidth P0| Bitwidth P1|
    +--------------------+----------+-------+---+----+------------+------------+
    |i_2_fu_339_p2       |     +    |      0|  0|  32|          32|           5|
    |i_lower_fu_305_p2   |     +    |      0|  0|  32|           4|          32|
    |j_fu_273_p2         |     +    |      0|  0|   4|           4|           1|
    |k_1_fu_368_p2       |     +    |      0|  0|  10|          10|           7|
    |grp_fu_260_p3       |  Select  |      0|  0|  32|           1|          32|
    |exitcond_fu_267_p2  |   icmp   |      0|  0|   2|           4|           5|
    |icmp_fu_299_p2      |   icmp   |      0|  0|   8|          22|           1|
    |ap_sig_bdd_320      |    or    |      0|  0|   1|           1|           1|
    +--------------------+----------+-------+---+----+------------+------------+
    |Total               |          |      0|  0| 121|          78|          84|
    +--------------------+----------+-------+---+----+------------+------------+

    * Multiplexer: 
    +-----------------------+----+-----------+-----+-----------+
    |          Name         | LUT| Input Size| Bits| Total Bits|
    +-----------------------+----+-----------+-----+-----------+
    |ap_NS_fsm              |   1|          7|    1|          7|
    |ap_reg_ppiten_pp0_it8  |   1|          2|    1|          2|
    |grp_fu_238_p0          |  32|          3|   32|         96|
    |grp_fu_238_p1          |  32|          3|   32|         96|
    |grp_fu_242_opcode      |   2|          3|    2|          6|
    |grp_fu_242_p0          |  32|          3|   32|         96|
    |grp_fu_242_p1          |  32|          3|   32|         96|
    |grp_fu_246_p0          |  32|          3|   32|         96|
    |grp_fu_246_p1          |  32|          3|   32|         96|
    |grp_fu_250_p0          |  32|          3|   32|         96|
    |grp_fu_250_p1          |  32|          3|   32|         96|
    |grp_fu_255_p0          |  32|          3|   32|         96|
    |grp_fu_255_p1          |  32|          3|   32|         96|
    |grp_fu_260_p0          |   1|          3|    1|          3|
    |i2_phi_fu_231_p4       |  32|          2|   32|         64|
    |i2_reg_228             |  32|          2|   32|         64|
    |i_reg_216              |   4|          2|    4|          8|
    |imag_i_address0        |  10|          3|   10|         30|
    |imag_o_address0        |  10|          3|   10|         30|
    |imag_o_d0              |  32|          3|   32|         96|
    |k_reg_204              |  10|          2|   10|         20|
    |real_i1_address0       |   9|          3|    9|         27|
    |real_i_address0        |   9|          3|    9|         27|
    |real_o2_address0       |   9|          3|    9|         27|
    |real_o2_d0             |  32|          3|   32|         96|
    |real_o_address0        |   9|          3|    9|         27|
    |real_o_d0              |  32|          3|   32|         96|
    +-----------------------+----+-----------+-----+-----------+
    |Total                  | 555|         80|  555|       1590|
    +-----------------------+----+-----------+-----+-----------+

    * Register: 
    +---------------------------+----+----+-----+-----------+
    |            Name           | FF | LUT| Bits| Const Bits|
    +---------------------------+----+----+-----+-----------+
    |ap_CS_fsm                  |   6|   0|    6|          0|
    |ap_done_reg                |   1|   0|    1|          0|
    |ap_reg_ppiten_pp0_it0      |   1|   0|    1|          0|
    |ap_reg_ppiten_pp0_it1      |   1|   0|    1|          0|
    |ap_reg_ppiten_pp0_it2      |   1|   0|    1|          0|
    |ap_reg_ppiten_pp0_it3      |   1|   0|    1|          0|
    |ap_reg_ppiten_pp0_it4      |   1|   0|    1|          0|
    |ap_reg_ppiten_pp0_it5      |   1|   0|    1|          0|
    |ap_reg_ppiten_pp0_it6      |   1|   0|    1|          0|
    |ap_reg_ppiten_pp0_it7      |   1|   0|    1|          0|
    |ap_reg_ppiten_pp0_it8      |   1|   0|    1|          0|
    |c_reg_397                  |  32|   0|   32|          0|
    |i2_reg_228                 |  32|   0|   32|          0|
    |i_2_reg_460                |  32|   0|   32|          0|
    |i_reg_216                  |   4|   0|    4|          0|
    |icmp_reg_409               |   1|   0|    1|          0|
    |imag_i_load_1_reg_533      |  32|   0|   32|          0|
    |j_reg_377                  |   4|   0|    4|          0|
    |k_reg_204                  |  10|   0|   10|          0|
    |real_i_load_1_phi_reg_527  |  32|   0|   32|          0|
    |real_i_load_phi_reg_448    |  32|   0|   32|          0|
    |real_o2_addr_6_reg_510     |   9|   0|    9|          0|
    |real_o2_addr_reg_438       |   9|   0|    9|          0|
    |real_o_addr_6_reg_505      |   9|   0|    9|          0|
    |real_o_addr_reg_433        |   9|   0|    9|          0|
    |s_reg_403                  |  32|   0|   32|          0|
    |temp_I_reg_521             |  32|   0|   32|          0|
    |temp_R_reg_515             |  32|   0|   32|          0|
    |tmp_10_reg_545             |  32|   0|   32|          0|
    |tmp_11_reg_550             |  32|   0|   32|          0|
    |tmp_12_reg_556             |  32|   0|   32|          0|
    |tmp_25_reg_443             |   1|   0|    1|          0|
    |tmp_2_reg_413              |  64|   0|   64|          0|
    |tmp_3_reg_475              |  32|   0|   32|          0|
    |tmp_4_reg_465              |  32|   0|   32|          0|
    |tmp_5_reg_470              |  32|   0|   32|          0|
    |tmp_6_reg_480              |  32|   0|   32|          0|
    |tmp_7_reg_485              |  64|   0|   64|          0|
    |tmp_8_reg_539              |  32|   0|   32|          0|
    |i2_reg_228                 |   0|  32|   32|          0|
    |icmp_reg_409               |   0|   1|    1|          0|
    |real_o2_addr_6_reg_510     |   0|   9|    9|          0|
    |real_o2_addr_reg_438       |   0|   9|    9|          0|
    |real_o_addr_6_reg_505      |   0|   9|    9|          0|
    |real_o_addr_reg_433        |   0|   9|    9|          0|
    |tmp_25_reg_443             |   0|   1|    1|          0|
    |tmp_2_reg_413              |   0|  64|   64|          0|
    |tmp_7_reg_485              |   0|  64|   64|          0|
    +---------------------------+----+----+-----+-----------+
    |Total                      | 744| 198|  942|          0|
    +---------------------------+----+----+-----+-----------+



================================================================
== Interface
================================================================
* Summary: 
+------------------+-----+-----+------------+----------------------------+--------------+
|     RTL Ports    | Dir | Bits|  Protocol  |        Source Object       |    C Type    |
+------------------+-----+-----+------------+----------------------------+--------------+
|ap_clk            |  in |    1| ap_ctrl_hs | ofdm_receiver_fft_stages14 | return value |
|ap_rst            |  in |    1| ap_ctrl_hs | ofdm_receiver_fft_stages14 | return value |
|ap_start          |  in |    1| ap_ctrl_hs | ofdm_receiver_fft_stages14 | return value |
|ap_done           | out |    1| ap_ctrl_hs | ofdm_receiver_fft_stages14 | return value |
|ap_continue       |  in |    1| ap_ctrl_hs | ofdm_receiver_fft_stages14 | return value |
|ap_idle           | out |    1| ap_ctrl_hs | ofdm_receiver_fft_stages14 | return value |
|ap_ready          | out |    1| ap_ctrl_hs | ofdm_receiver_fft_stages14 | return value |
|real_i_address0   | out |    9|  ap_memory |           real_i           |     array    |
|real_i_ce0        | out |    1|  ap_memory |           real_i           |     array    |
|real_i_q0         |  in |   32|  ap_memory |           real_i           |     array    |
|real_i1_address0  | out |    9|  ap_memory |           real_i1          |     array    |
|real_i1_ce0       | out |    1|  ap_memory |           real_i1          |     array    |
|real_i1_q0        |  in |   32|  ap_memory |           real_i1          |     array    |
|imag_i_address0   | out |   10|  ap_memory |           imag_i           |     array    |
|imag_i_ce0        | out |    1|  ap_memory |           imag_i           |     array    |
|imag_i_q0         |  in |   32|  ap_memory |           imag_i           |     array    |
|real_o_address0   | out |    9|  ap_memory |           real_o           |     array    |
|real_o_ce0        | out |    1|  ap_memory |           real_o           |     array    |
|real_o_we0        | out |    1|  ap_memory |           real_o           |     array    |
|real_o_d0         | out |   32|  ap_memory |           real_o           |     array    |
|real_o2_address0  | out |    9|  ap_memory |           real_o2          |     array    |
|real_o2_ce0       | out |    1|  ap_memory |           real_o2          |     array    |
|real_o2_we0       | out |    1|  ap_memory |           real_o2          |     array    |
|real_o2_d0        | out |   32|  ap_memory |           real_o2          |     array    |
|imag_o_address0   | out |   10|  ap_memory |           imag_o           |     array    |
|imag_o_ce0        | out |    1|  ap_memory |           imag_o           |     array    |
|imag_o_we0        | out |    1|  ap_memory |           imag_o           |     array    |
|imag_o_d0         | out |   32|  ap_memory |           imag_o           |     array    |
+------------------+-----+-----+------------+----------------------------+--------------+

