; ModuleID = 'D:/Projects/vivado/Project_2/HLS/phasedetector/phasedetector/phasedectector_optimized3/.autopilot/db/a.o.2.bc'
target datalayout = "e-p:64:64:64-i1:8:8-i8:8:8-i16:16:16-i32:32:32-i64:64:64-f32:32:32-f64:64:64-v64:64:64-v128:128:128-a0:0:64-s0:64:64-f80:128:128-n8:16:32:64-S128"
target triple = "x86_64-w64-mingw32"

@shift_reg_V_7_2 = internal unnamed_addr global i19 0
@shift_reg_V_7_1 = internal unnamed_addr global i19 0
@shift_reg_V_7_0 = internal unnamed_addr global i19 0
@shift_reg_V_6_3 = internal unnamed_addr global i19 0
@shift_reg_V_6_2 = internal unnamed_addr global i19 0
@shift_reg_V_6_1 = internal unnamed_addr global i19 0
@shift_reg_V_6_0 = internal unnamed_addr global i19 0
@shift_reg_V_5_3 = internal unnamed_addr global i19 0
@shift_reg_V_5_2 = internal unnamed_addr global i19 0
@shift_reg_V_5_1 = internal unnamed_addr global i19 0
@shift_reg_V_5_0 = internal unnamed_addr global i19 0
@shift_reg_V_4_3 = internal unnamed_addr global i19 0
@shift_reg_V_4_2 = internal unnamed_addr global i19 0
@shift_reg_V_4_1 = internal unnamed_addr global i19 0
@shift_reg_V_4_0 = internal unnamed_addr global i19 0
@shift_reg_V_371_3 = internal unnamed_addr global i19 0
@shift_reg_V_371_2 = internal unnamed_addr global i19 0
@shift_reg_V_371_1 = internal unnamed_addr global i19 0
@shift_reg_V_371_0 = internal unnamed_addr global i19 0
@shift_reg_V_3_7_2 = internal unnamed_addr global i19 0
@shift_reg_V_3_7_1 = internal unnamed_addr global i19 0
@shift_reg_V_3_7_0 = internal unnamed_addr global i19 0
@shift_reg_V_3_6_3 = internal unnamed_addr global i19 0
@shift_reg_V_3_6_2 = internal unnamed_addr global i19 0
@shift_reg_V_3_6_1 = internal unnamed_addr global i19 0
@shift_reg_V_3_6_0 = internal unnamed_addr global i19 0
@shift_reg_V_3_5_3 = internal unnamed_addr global i19 0
@shift_reg_V_3_5_2 = internal unnamed_addr global i19 0
@shift_reg_V_3_5_1 = internal unnamed_addr global i19 0
@shift_reg_V_3_5_0 = internal unnamed_addr global i19 0
@shift_reg_V_3_4_3 = internal unnamed_addr global i19 0
@shift_reg_V_3_4_2 = internal unnamed_addr global i19 0
@shift_reg_V_3_4_1 = internal unnamed_addr global i19 0
@shift_reg_V_3_4_0 = internal unnamed_addr global i19 0
@shift_reg_V_3_3_3 = internal unnamed_addr global i19 0
@shift_reg_V_3_3_2 = internal unnamed_addr global i19 0
@shift_reg_V_3_3_1 = internal unnamed_addr global i19 0
@shift_reg_V_3_3_0 = internal unnamed_addr global i19 0
@shift_reg_V_3_2_3 = internal unnamed_addr global i19 0
@shift_reg_V_3_2_2 = internal unnamed_addr global i19 0
@shift_reg_V_3_2_1 = internal unnamed_addr global i19 0
@shift_reg_V_3_2_0 = internal unnamed_addr global i19 0
@shift_reg_V_3_1_3 = internal unnamed_addr global i19 0
@shift_reg_V_3_1_2 = internal unnamed_addr global i19 0
@shift_reg_V_3_1_1 = internal unnamed_addr global i19 0
@shift_reg_V_3_1_0 = internal unnamed_addr global i19 0
@shift_reg_V_3_0_3 = internal unnamed_addr global i19 0
@shift_reg_V_3_0_2 = internal unnamed_addr global i19 0
@shift_reg_V_3_0_1 = internal unnamed_addr global i19 0
@shift_reg_V_3_0_0 = internal unnamed_addr global i19 0
@shift_reg_V_270_3 = internal unnamed_addr global i19 0
@shift_reg_V_270_2 = internal unnamed_addr global i19 0
@shift_reg_V_270_1 = internal unnamed_addr global i19 0
@shift_reg_V_270_0 = internal unnamed_addr global i19 0
@shift_reg_V_2_7_2 = internal unnamed_addr global i19 0
@shift_reg_V_2_7_1 = internal unnamed_addr global i19 0
@shift_reg_V_2_7_0 = internal unnamed_addr global i19 0
@shift_reg_V_2_6_3 = internal unnamed_addr global i19 0
@shift_reg_V_2_6_2 = internal unnamed_addr global i19 0
@shift_reg_V_2_6_1 = internal unnamed_addr global i19 0
@shift_reg_V_2_6_0 = internal unnamed_addr global i19 0
@shift_reg_V_2_5_3 = internal unnamed_addr global i19 0
@shift_reg_V_2_5_2 = internal unnamed_addr global i19 0
@shift_reg_V_2_5_1 = internal unnamed_addr global i19 0
@shift_reg_V_2_5_0 = internal unnamed_addr global i19 0
@shift_reg_V_2_4_3 = internal unnamed_addr global i19 0
@shift_reg_V_2_4_2 = internal unnamed_addr global i19 0
@shift_reg_V_2_4_1 = internal unnamed_addr global i19 0
@shift_reg_V_2_4_0 = internal unnamed_addr global i19 0
@shift_reg_V_2_3_3 = internal unnamed_addr global i19 0
@shift_reg_V_2_3_2 = internal unnamed_addr global i19 0
@shift_reg_V_2_3_1 = internal unnamed_addr global i19 0
@shift_reg_V_2_3_0 = internal unnamed_addr global i19 0
@shift_reg_V_2_2_3 = internal unnamed_addr global i19 0
@shift_reg_V_2_2_2 = internal unnamed_addr global i19 0
@shift_reg_V_2_2_1 = internal unnamed_addr global i19 0
@shift_reg_V_2_2_0 = internal unnamed_addr global i19 0
@shift_reg_V_2_1_3 = internal unnamed_addr global i19 0
@shift_reg_V_2_1_2 = internal unnamed_addr global i19 0
@shift_reg_V_2_1_1 = internal unnamed_addr global i19 0
@shift_reg_V_2_1_0 = internal unnamed_addr global i19 0
@shift_reg_V_2_0_3 = internal unnamed_addr global i19 0
@shift_reg_V_2_0_2 = internal unnamed_addr global i19 0
@shift_reg_V_2_0_1 = internal unnamed_addr global i19 0
@shift_reg_V_2_0_0 = internal unnamed_addr global i19 0
@shift_reg_V_169_3 = internal unnamed_addr global i19 0
@shift_reg_V_169_2 = internal unnamed_addr global i19 0
@shift_reg_V_169_1 = internal unnamed_addr global i19 0
@shift_reg_V_169_0 = internal unnamed_addr global i19 0
@shift_reg_V_1_7_2 = internal unnamed_addr global i19 0
@shift_reg_V_1_7_1 = internal unnamed_addr global i19 0
@shift_reg_V_1_7_0 = internal unnamed_addr global i19 0
@shift_reg_V_1_6_3 = internal unnamed_addr global i19 0
@shift_reg_V_1_6_2 = internal unnamed_addr global i19 0
@shift_reg_V_1_6_1 = internal unnamed_addr global i19 0
@shift_reg_V_1_6_0 = internal unnamed_addr global i19 0
@shift_reg_V_1_5_3 = internal unnamed_addr global i19 0
@shift_reg_V_1_5_2 = internal unnamed_addr global i19 0
@shift_reg_V_1_5_1 = internal unnamed_addr global i19 0
@shift_reg_V_1_5_0 = internal unnamed_addr global i19 0
@shift_reg_V_1_4_3 = internal unnamed_addr global i19 0
@shift_reg_V_1_4_2 = internal unnamed_addr global i19 0
@shift_reg_V_1_4_1 = internal unnamed_addr global i19 0
@shift_reg_V_1_4_0 = internal unnamed_addr global i19 0
@shift_reg_V_1_3_3 = internal unnamed_addr global i19 0
@shift_reg_V_1_3_2 = internal unnamed_addr global i19 0
@shift_reg_V_1_3_1 = internal unnamed_addr global i19 0
@shift_reg_V_1_3_0 = internal unnamed_addr global i19 0
@shift_reg_V_1_2_3 = internal unnamed_addr global i19 0
@shift_reg_V_1_2_2 = internal unnamed_addr global i19 0
@shift_reg_V_1_2_1 = internal unnamed_addr global i19 0
@shift_reg_V_1_2_0 = internal unnamed_addr global i19 0
@shift_reg_V_1_1_3 = internal unnamed_addr global i19 0
@shift_reg_V_1_1_2 = internal unnamed_addr global i19 0
@shift_reg_V_1_1_1 = internal unnamed_addr global i19 0
@shift_reg_V_1_1_0 = internal unnamed_addr global i19 0
@shift_reg_V_1_0_3 = internal unnamed_addr global i19 0
@shift_reg_V_1_0_2 = internal unnamed_addr global i19 0
@shift_reg_V_1_0_1 = internal unnamed_addr global i19 0
@shift_reg_V_1_0_0 = internal unnamed_addr global i19 0
@shift_reg_V_0_3 = internal unnamed_addr global i19 0
@shift_reg_V_0_2 = internal unnamed_addr global i19 0
@shift_reg_V_0_1 = internal unnamed_addr global i19 0
@shift_reg_V_0_0 = internal unnamed_addr global i19 0
@phasedetector_str = internal unnamed_addr constant [14 x i8] c"phasedetector\00"
@llvm_global_ctors_1 = appending global [3 x void ()*] [void ()* @_GLOBAL__I_a, void ()* @_GLOBAL__I_a11, void ()* @_GLOBAL__I_a20]
@llvm_global_ctors_0 = appending global [3 x i32] [i32 65535, i32 65535, i32 65535]
@angles_V = constant [16 x i22] [i22 12867, i22 7596, i22 4013, i22 2037, i22 1022, i22 511, i22 255, i22 127, i22 63, i22 31, i22 15, i22 7, i22 3, i22 1, i22 0, i22 0]
@p_str13 = private unnamed_addr constant [1 x i8] zeroinitializer, align 1
@p_str = private unnamed_addr constant [1 x i8] zeroinitializer, align 1

define void @phasedetector(float %I, float %Q, float* %R, float* %theta) nounwind uwtable {
_ifconv:
  call void (...)* @_ssdm_op_SpecBitsMap(float %I) nounwind, !map !7
  call void (...)* @_ssdm_op_SpecBitsMap(float %Q) nounwind, !map !13
  call void (...)* @_ssdm_op_SpecBitsMap(float* %R) nounwind, !map !17
  call void (...)* @_ssdm_op_SpecBitsMap(float* %theta) nounwind, !map !23
  call void (...)* @_ssdm_op_SpecTopModule([14 x i8]* @phasedetector_str) nounwind
  %Q_read = call float @_ssdm_op_Read.ap_auto.float(float %Q) nounwind
  %I_read = call float @_ssdm_op_Read.ap_auto.float(float %I) nounwind
  call void (...)* @_ssdm_op_SpecPipeline(i32 1, i32 1, i32 1, i32 0, [1 x i8]* @p_str13) nounwind
  %d_assign = fpext float %I_read to double
  %ireg_V = bitcast double %d_assign to i64
  %tmp_4 = trunc i64 %ireg_V to i63
  %isneg = call i1 @_ssdm_op_BitSelect.i1.i64.i32(i64 %ireg_V, i32 63)
  %exp_tmp_V = call i11 @_ssdm_op_PartSelect.i11.i64.i32.i32(i64 %ireg_V, i32 52, i32 62)
  %tmp_2 = zext i11 %exp_tmp_V to i12
  %tmp_14 = trunc i64 %ireg_V to i52
  %tmp = call i53 @_ssdm_op_BitConcatenate.i53.i1.i52(i1 true, i52 %tmp_14)
  %p_Result_s = zext i53 %tmp to i54
  %man_V_1 = sub i54 0, %p_Result_s
  %man_V_2 = select i1 %isneg, i54 %man_V_1, i54 %p_Result_s
  %tmp_7 = icmp eq i63 %tmp_4, 0
  %F2 = sub i12 1075, %tmp_2
  %tmp_9 = icmp sgt i12 %F2, 12
  %tmp_s = add i12 -12, %F2
  %tmp_1 = sub i12 12, %F2
  %sh_amt = select i1 %tmp_9, i12 %tmp_s, i12 %tmp_1
  %sh_amt_cast = sext i12 %sh_amt to i32
  %tmp_3 = icmp eq i12 %F2, 12
  %tmp_22 = trunc i54 %man_V_2 to i19
  %tmp_5 = icmp ult i12 %sh_amt, 54
  %tmp_6 = icmp ult i12 %sh_amt, 19
  %tmp_8 = zext i32 %sh_amt_cast to i54
  %tmp_10 = ashr i54 %man_V_2, %tmp_8
  %tmp_27 = trunc i54 %tmp_10 to i19
  %storemerge1 = select i1 %isneg, i19 -1, i19 0
  %tmp_11 = sext i19 %tmp_22 to i32
  %tmp_12 = shl i32 %tmp_11, %sh_amt_cast
  %tmp_30 = trunc i32 %tmp_12 to i19
  %sel_tmp1 = xor i1 %tmp_7, true
  %sel_tmp2 = and i1 %tmp_3, %sel_tmp1
  %sel_tmp6_demorgan = or i1 %tmp_7, %tmp_3
  %sel_tmp6 = xor i1 %sel_tmp6_demorgan, true
  %sel_tmp7 = and i1 %tmp_9, %sel_tmp6
  %sel_tmp8 = xor i1 %tmp_5, true
  %sel_tmp9 = and i1 %sel_tmp7, %sel_tmp8
  %sel_tmp = and i1 %sel_tmp7, %tmp_5
  %sel_tmp21_demorgan = or i1 %sel_tmp6_demorgan, %tmp_9
  %sel_tmp3 = xor i1 %sel_tmp21_demorgan, true
  %sel_tmp4 = and i1 %tmp_6, %sel_tmp3
  %newSel = select i1 %sel_tmp4, i19 %tmp_30, i19 %tmp_27
  %or_cond = or i1 %sel_tmp4, %sel_tmp
  %newSel1 = select i1 %sel_tmp9, i19 %storemerge1, i19 %tmp_22
  %or_cond1 = or i1 %sel_tmp9, %sel_tmp2
  %newSel2 = select i1 %or_cond, i19 %newSel, i19 %newSel1
  %or_cond2 = or i1 %or_cond, %or_cond1
  %newSel3 = select i1 %or_cond2, i19 %newSel2, i19 0
  %d_assign_1 = fpext float %Q_read to double
  %ireg_V_1 = bitcast double %d_assign_1 to i64
  %tmp_33 = trunc i64 %ireg_V_1 to i63
  %isneg_1 = call i1 @_ssdm_op_BitSelect.i1.i64.i32(i64 %ireg_V_1, i32 63)
  %exp_tmp_V_1 = call i11 @_ssdm_op_PartSelect.i11.i64.i32.i32(i64 %ireg_V_1, i32 52, i32 62)
  %tmp_13 = zext i11 %exp_tmp_V_1 to i12
  %tmp_35 = trunc i64 %ireg_V_1 to i52
  %tmp_15 = call i53 @_ssdm_op_BitConcatenate.i53.i1.i52(i1 true, i52 %tmp_35)
  %p_Result_1 = zext i53 %tmp_15 to i54
  %man_V_4 = sub i54 0, %p_Result_1
  %man_V_5 = select i1 %isneg_1, i54 %man_V_4, i54 %p_Result_1
  %tmp_16 = icmp eq i63 %tmp_33, 0
  %F2_1 = sub i12 1075, %tmp_13
  %tmp_17 = icmp sgt i12 %F2_1, 12
  %tmp_18 = add i12 -12, %F2_1
  %tmp_19 = sub i12 12, %F2_1
  %sh_amt_1 = select i1 %tmp_17, i12 %tmp_18, i12 %tmp_19
  %sh_amt_1_cast = sext i12 %sh_amt_1 to i32
  %tmp_20 = icmp eq i12 %F2_1, 12
  %tmp_36 = trunc i54 %man_V_5 to i19
  %tmp_21 = icmp ult i12 %sh_amt_1, 54
  %tmp_23 = icmp ult i12 %sh_amt_1, 19
  %tmp_24 = zext i32 %sh_amt_1_cast to i54
  %tmp_25 = ashr i54 %man_V_5, %tmp_24
  %tmp_37 = trunc i54 %tmp_25 to i19
  %storemerge = select i1 %isneg_1, i19 -1, i19 0
  %tmp_26 = sext i19 %tmp_36 to i32
  %tmp_28 = shl i32 %tmp_26, %sh_amt_1_cast
  %tmp_38 = trunc i32 %tmp_28 to i19
  %sel_tmp5 = xor i1 %tmp_16, true
  %sel_tmp10 = and i1 %tmp_20, %sel_tmp5
  %sel_tmp30_demorgan = or i1 %tmp_16, %tmp_20
  %sel_tmp11 = xor i1 %sel_tmp30_demorgan, true
  %sel_tmp12 = and i1 %tmp_17, %sel_tmp11
  %sel_tmp13 = xor i1 %tmp_21, true
  %sel_tmp14 = and i1 %sel_tmp12, %sel_tmp13
  %sel_tmp15 = and i1 %sel_tmp12, %tmp_21
  %sel_tmp45_demorgan = or i1 %sel_tmp30_demorgan, %tmp_17
  %sel_tmp16 = xor i1 %sel_tmp45_demorgan, true
  %sel_tmp17 = and i1 %tmp_23, %sel_tmp16
  %newSel4 = select i1 %sel_tmp17, i19 %tmp_38, i19 %tmp_37
  %or_cond3 = or i1 %sel_tmp17, %sel_tmp15
  %newSel5 = select i1 %sel_tmp14, i19 %storemerge, i19 %tmp_36
  %or_cond4 = or i1 %sel_tmp14, %sel_tmp10
  %newSel6 = select i1 %or_cond3, i19 %newSel4, i19 %newSel5
  %or_cond5 = or i1 %or_cond3, %or_cond4
  %newSel7 = select i1 %or_cond5, i19 %newSel6, i19 0
  %fir_ret = call fastcc { i19, i19 } @phasedetector_fir(i19 %newSel3, i19 %newSel7) nounwind
  %x_V = extractvalue { i19, i19 } %fir_ret, 0
  %y_V = extractvalue { i19, i19 } %fir_ret, 1
  %this_assign_6 = call i21 @_ssdm_op_BitConcatenate.i21.i19.i2(i19 %x_V, i2 0)
  %this_assign = call i21 @_ssdm_op_BitConcatenate.i21.i19.i2(i19 %y_V, i2 0)
  %call_ret = call fastcc { i22, i22 } @phasedetector_cordiccart2pol(i21 %this_assign_6, i21 %this_assign) nounwind
  %r_V = extractvalue { i22, i22 } %call_ret, 0
  %t_V = extractvalue { i22, i22 } %call_ret, 1
  %tmp_29 = icmp eq i22 %r_V, 0
  %dp_s = sext i22 %r_V to i32
  %dp_1 = sitofp i32 %dp_s to float
  %res_V_3 = bitcast float %dp_1 to i32
  %exp_V = call i8 @_ssdm_op_PartSelect.i8.i32.i32.i32(i32 %res_V_3, i32 23, i32 30)
  %exp_V_4 = add i8 -14, %exp_V
  %p_Result_2 = call i32 @llvm.part.set.i32.i8(i32 %res_V_3, i8 %exp_V_4, i32 23, i32 30) nounwind
  %dp = bitcast i32 %p_Result_2 to float
  %p_0_i = select i1 %tmp_29, float 0.000000e+00, float %dp
  call void @_ssdm_op_Write.ap_auto.floatP(float* %R, float %p_0_i) nounwind
  %tmp_31 = icmp eq i22 %t_V, 0
  %dp_4 = sext i22 %t_V to i32
  %dp_3 = sitofp i32 %dp_4 to float
  %res_V_4 = bitcast float %dp_3 to i32
  %exp_V_2 = call i8 @_ssdm_op_PartSelect.i8.i32.i32.i32(i32 %res_V_4, i32 23, i32 30)
  %exp_V_5 = add i8 -14, %exp_V_2
  %p_Result_3 = call i32 @llvm.part.set.i32.i8(i32 %res_V_4, i8 %exp_V_5, i32 23, i32 30) nounwind
  %dp_2 = bitcast i32 %p_Result_3 to float
  %p_0_i1 = select i1 %tmp_31, float 0.000000e+00, float %dp_2
  call void @_ssdm_op_Write.ap_auto.floatP(float* %theta, float %p_0_i1) nounwind
  ret void
}

declare i32 @llvm.part.set.i32.i8(i32, i8, i32, i32) nounwind readnone

declare i64 @llvm.part.select.i64(i64, i32, i32) nounwind readnone

declare i36 @llvm.part.select.i36(i36, i32, i32) nounwind readnone

declare i32 @llvm.part.select.i32(i32, i32, i32) nounwind readnone

declare i22 @llvm.part.select.i22(i22, i32, i32) nounwind readnone

declare void @llvm.dbg.value(metadata, i64, metadata) nounwind readnone

define internal fastcc { i19, i19 } @phasedetector_fir(i19 %I_V, i19 %Q_V) {
  %Q_V_read = call i19 @_ssdm_op_Read.ap_auto.i19(i19 %Q_V)
  %I_V_read = call i19 @_ssdm_op_Read.ap_auto.i19(i19 %I_V)
  %shift_reg_V_3_6_3_load = load i19* @shift_reg_V_3_6_3, align 8
  %tmp_101_i = sub i19 0, %shift_reg_V_3_6_3_load
  %shift_reg_V_3_5_3_load = load i19* @shift_reg_V_3_5_3, align 4
  store i19 %shift_reg_V_3_5_3_load, i19* @shift_reg_V_3_6_3, align 8
  %tmp_101_1_i = sub i19 %tmp_101_i, %shift_reg_V_3_5_3_load
  %shift_reg_V_3_4_3_load = load i19* @shift_reg_V_3_4_3, align 16
  store i19 %shift_reg_V_3_4_3_load, i19* @shift_reg_V_3_5_3, align 4
  %tmp_101_2_i = sub i19 %tmp_101_1_i, %shift_reg_V_3_4_3_load
  %shift_reg_V_3_3_3_load = load i19* @shift_reg_V_3_3_3, align 4
  store i19 %shift_reg_V_3_3_3_load, i19* @shift_reg_V_3_4_3, align 16
  %shift_reg_V_3_2_3_load = load i19* @shift_reg_V_3_2_3, align 8
  store i19 %shift_reg_V_3_2_3_load, i19* @shift_reg_V_3_3_3, align 4
  %shift_reg_V_3_1_3_load = load i19* @shift_reg_V_3_1_3, align 4
  store i19 %shift_reg_V_3_1_3_load, i19* @shift_reg_V_3_2_3, align 8
  %tmp = add i19 %shift_reg_V_3_3_3_load, %shift_reg_V_3_2_3_load
  %tmp1 = add i19 %shift_reg_V_3_1_3_load, %tmp_101_2_i
  %tmp_98_5_i = add i19 %tmp1, %tmp
  %shift_reg_V_3_0_3_load = load i19* @shift_reg_V_3_0_3, align 16
  store i19 %shift_reg_V_3_0_3_load, i19* @shift_reg_V_3_1_3, align 4
  %tmp_101_6_i = sub i19 %tmp_98_5_i, %shift_reg_V_3_0_3_load
  %shift_reg_V_3_7_2_load = load i19* @shift_reg_V_3_7_2, align 4
  store i19 %shift_reg_V_3_7_2_load, i19* @shift_reg_V_3_0_3, align 16
  %tmp_101_7_i = sub i19 %tmp_101_6_i, %shift_reg_V_3_7_2_load
  %shift_reg_V_3_6_2_load = load i19* @shift_reg_V_3_6_2, align 8
  store i19 %shift_reg_V_3_6_2_load, i19* @shift_reg_V_3_7_2, align 4
  %shift_reg_V_3_5_2_load = load i19* @shift_reg_V_3_5_2, align 4
  store i19 %shift_reg_V_3_5_2_load, i19* @shift_reg_V_3_6_2, align 8
  %shift_reg_V_3_4_2_load = load i19* @shift_reg_V_3_4_2, align 16
  store i19 %shift_reg_V_3_4_2_load, i19* @shift_reg_V_3_5_2, align 4
  %shift_reg_V_3_3_2_load = load i19* @shift_reg_V_3_3_2, align 4
  store i19 %shift_reg_V_3_3_2_load, i19* @shift_reg_V_3_4_2, align 16
  %shift_reg_V_3_2_2_load = load i19* @shift_reg_V_3_2_2, align 8
  store i19 %shift_reg_V_3_2_2_load, i19* @shift_reg_V_3_3_2, align 4
  %tmp3 = add i19 %shift_reg_V_3_5_2_load, %shift_reg_V_3_4_2_load
  %tmp2 = add i19 %tmp3, %shift_reg_V_3_6_2_load
  %tmp5 = add i19 %shift_reg_V_3_2_2_load, %tmp_101_7_i
  %tmp4 = add i19 %tmp5, %shift_reg_V_3_3_2_load
  %tmp_98_2_i = add i19 %tmp4, %tmp2
  %shift_reg_V_3_1_2_load = load i19* @shift_reg_V_3_1_2, align 4
  store i19 %shift_reg_V_3_1_2_load, i19* @shift_reg_V_3_2_2, align 8
  %tmp_101_i_13 = sub i19 %tmp_98_2_i, %shift_reg_V_3_1_2_load
  %shift_reg_V_3_0_2_load = load i19* @shift_reg_V_3_0_2, align 16
  store i19 %shift_reg_V_3_0_2_load, i19* @shift_reg_V_3_1_2, align 4
  %tmp_101_3_i = sub i19 %tmp_101_i_13, %shift_reg_V_3_0_2_load
  %shift_reg_V_3_7_1_load = load i19* @shift_reg_V_3_7_1, align 4
  store i19 %shift_reg_V_3_7_1_load, i19* @shift_reg_V_3_0_2, align 16
  %tmp_101_4_i = sub i19 %tmp_101_3_i, %shift_reg_V_3_7_1_load
  %shift_reg_V_3_6_1_load = load i19* @shift_reg_V_3_6_1, align 8
  store i19 %shift_reg_V_3_6_1_load, i19* @shift_reg_V_3_7_1, align 4
  %tmp_101_5_i = sub i19 %tmp_101_4_i, %shift_reg_V_3_6_1_load
  %shift_reg_V_3_5_1_load = load i19* @shift_reg_V_3_5_1, align 4
  store i19 %shift_reg_V_3_5_1_load, i19* @shift_reg_V_3_6_1, align 8
  %tmp_98_6_i = add i19 %shift_reg_V_3_5_1_load, %tmp_101_5_i
  %shift_reg_V_3_4_1_load = load i19* @shift_reg_V_3_4_1, align 16
  store i19 %shift_reg_V_3_4_1_load, i19* @shift_reg_V_3_5_1, align 4
  %tmp_101_8_i = sub i19 %tmp_98_6_i, %shift_reg_V_3_4_1_load
  %shift_reg_V_3_3_1_load = load i19* @shift_reg_V_3_3_1, align 4
  store i19 %shift_reg_V_3_3_1_load, i19* @shift_reg_V_3_4_1, align 16
  %shift_reg_V_3_2_1_load = load i19* @shift_reg_V_3_2_1, align 8
  store i19 %shift_reg_V_3_2_1_load, i19* @shift_reg_V_3_3_1, align 4
  %tmp6 = add i19 %shift_reg_V_3_2_1_load, %tmp_101_8_i
  %tmp_98_10_i = add i19 %tmp6, %shift_reg_V_3_3_1_load
  %shift_reg_V_3_1_1_load = load i19* @shift_reg_V_3_1_1, align 4
  store i19 %shift_reg_V_3_1_1_load, i19* @shift_reg_V_3_2_1, align 8
  %tmp_101_9_i = sub i19 %tmp_98_10_i, %shift_reg_V_3_1_1_load
  %shift_reg_V_3_0_1_load = load i19* @shift_reg_V_3_0_1, align 16
  store i19 %shift_reg_V_3_0_1_load, i19* @shift_reg_V_3_1_1, align 4
  %tmp_101_10_i = sub i19 %tmp_101_9_i, %shift_reg_V_3_0_1_load
  %shift_reg_V_3_7_0_load = load i19* @shift_reg_V_3_7_0, align 4
  store i19 %shift_reg_V_3_7_0_load, i19* @shift_reg_V_3_0_1, align 16
  %tmp_101_11_i = sub i19 %tmp_101_10_i, %shift_reg_V_3_7_0_load
  %shift_reg_V_3_6_0_load = load i19* @shift_reg_V_3_6_0, align 8
  store i19 %shift_reg_V_3_6_0_load, i19* @shift_reg_V_3_7_0, align 4
  %shift_reg_V_3_5_0_load = load i19* @shift_reg_V_3_5_0, align 4
  store i19 %shift_reg_V_3_5_0_load, i19* @shift_reg_V_3_6_0, align 8
  %tmp7 = add i19 %shift_reg_V_3_5_0_load, %tmp_101_11_i
  %tmp_98_12_i = add i19 %tmp7, %shift_reg_V_3_6_0_load
  %shift_reg_V_3_4_0_load = load i19* @shift_reg_V_3_4_0, align 16
  store i19 %shift_reg_V_3_4_0_load, i19* @shift_reg_V_3_5_0, align 4
  %tmp_101_12_i = sub i19 %tmp_98_12_i, %shift_reg_V_3_4_0_load
  %shift_reg_V_3_3_0_load = load i19* @shift_reg_V_3_3_0, align 4
  store i19 %shift_reg_V_3_3_0_load, i19* @shift_reg_V_3_4_0, align 16
  %tmp_101_13_i = sub i19 %tmp_101_12_i, %shift_reg_V_3_3_0_load
  %shift_reg_V_3_2_0_load = load i19* @shift_reg_V_3_2_0, align 8
  store i19 %shift_reg_V_3_2_0_load, i19* @shift_reg_V_3_3_0, align 4
  %tmp_101_14_i = sub i19 %tmp_101_13_i, %shift_reg_V_3_2_0_load
  %shift_reg_V_3_1_0_load = load i19* @shift_reg_V_3_1_0, align 4
  store i19 %shift_reg_V_3_1_0_load, i19* @shift_reg_V_3_2_0, align 8
  %tmp_98_13_i = add i19 %shift_reg_V_3_1_0_load, %tmp_101_14_i
  %shift_reg_V_3_0_0_load = load i19* @shift_reg_V_3_0_0, align 16
  store i19 %shift_reg_V_3_0_0_load, i19* @shift_reg_V_3_1_0, align 4
  %tmp_101_15_i = sub i19 %tmp_98_13_i, %shift_reg_V_3_0_0_load
  store i19 %I_V_read, i19* @shift_reg_V_3_0_0, align 16
  %shift_reg_V_1_6_3_load = load i19* @shift_reg_V_1_6_3, align 8
  %shift_reg_V_1_5_3_load = load i19* @shift_reg_V_1_5_3, align 4
  store i19 %shift_reg_V_1_5_3_load, i19* @shift_reg_V_1_6_3, align 8
  %tmp_68_1_i = add i19 %shift_reg_V_1_6_3_load, %shift_reg_V_1_5_3_load
  %shift_reg_V_1_4_3_load = load i19* @shift_reg_V_1_4_3, align 16
  store i19 %shift_reg_V_1_4_3_load, i19* @shift_reg_V_1_5_3, align 4
  %tmp_71_2_i = sub i19 %tmp_68_1_i, %shift_reg_V_1_4_3_load
  %shift_reg_V_1_3_3_load = load i19* @shift_reg_V_1_3_3, align 4
  store i19 %shift_reg_V_1_3_3_load, i19* @shift_reg_V_1_4_3, align 16
  %tmp_68_3_i = add i19 %shift_reg_V_1_3_3_load, %tmp_71_2_i
  %shift_reg_V_1_2_3_load = load i19* @shift_reg_V_1_2_3, align 8
  store i19 %shift_reg_V_1_2_3_load, i19* @shift_reg_V_1_3_3, align 4
  %tmp_71_4_i = sub i19 %tmp_68_3_i, %shift_reg_V_1_2_3_load
  %shift_reg_V_1_1_3_load = load i19* @shift_reg_V_1_1_3, align 4
  store i19 %shift_reg_V_1_1_3_load, i19* @shift_reg_V_1_2_3, align 8
  %shift_reg_V_1_0_3_load = load i19* @shift_reg_V_1_0_3, align 16
  store i19 %shift_reg_V_1_0_3_load, i19* @shift_reg_V_1_1_3, align 4
  %shift_reg_V_1_7_2_load = load i19* @shift_reg_V_1_7_2, align 4
  store i19 %shift_reg_V_1_7_2_load, i19* @shift_reg_V_1_0_3, align 16
  %shift_reg_V_1_6_2_load = load i19* @shift_reg_V_1_6_2, align 8
  store i19 %shift_reg_V_1_6_2_load, i19* @shift_reg_V_1_7_2, align 4
  %tmp8 = add i19 %shift_reg_V_1_1_3_load, %shift_reg_V_1_0_3_load
  %tmp10 = add i19 %shift_reg_V_1_6_2_load, %tmp_71_4_i
  %tmp9 = add i19 %tmp10, %shift_reg_V_1_7_2_load
  %tmp_68_8_i = add i19 %tmp9, %tmp8
  %shift_reg_V_1_5_2_load = load i19* @shift_reg_V_1_5_2, align 4
  store i19 %shift_reg_V_1_5_2_load, i19* @shift_reg_V_1_6_2, align 8
  %tmp_71_9_i = sub i19 %tmp_68_8_i, %shift_reg_V_1_5_2_load
  %shift_reg_V_1_4_2_load = load i19* @shift_reg_V_1_4_2, align 16
  store i19 %shift_reg_V_1_4_2_load, i19* @shift_reg_V_1_5_2, align 4
  %tmp_68_i = add i19 %shift_reg_V_1_4_2_load, %tmp_71_9_i
  %shift_reg_V_1_3_2_load = load i19* @shift_reg_V_1_3_2, align 4
  store i19 %shift_reg_V_1_3_2_load, i19* @shift_reg_V_1_4_2, align 16
  %tmp_71_i = sub i19 %tmp_68_i, %shift_reg_V_1_3_2_load
  %shift_reg_V_1_2_2_load = load i19* @shift_reg_V_1_2_2, align 8
  store i19 %shift_reg_V_1_2_2_load, i19* @shift_reg_V_1_3_2, align 4
  %tmp_71_1_i = sub i19 %tmp_71_i, %shift_reg_V_1_2_2_load
  %shift_reg_V_1_1_2_load = load i19* @shift_reg_V_1_1_2, align 4
  store i19 %shift_reg_V_1_1_2_load, i19* @shift_reg_V_1_2_2, align 8
  %tmp_68_2_i = add i19 %shift_reg_V_1_1_2_load, %tmp_71_1_i
  %shift_reg_V_1_0_2_load = load i19* @shift_reg_V_1_0_2, align 16
  store i19 %shift_reg_V_1_0_2_load, i19* @shift_reg_V_1_1_2, align 4
  %tmp_71_3_i = sub i19 %tmp_68_2_i, %shift_reg_V_1_0_2_load
  %shift_reg_V_1_7_1_load = load i19* @shift_reg_V_1_7_1, align 4
  store i19 %shift_reg_V_1_7_1_load, i19* @shift_reg_V_1_0_2, align 16
  %shift_reg_V_1_6_1_load = load i19* @shift_reg_V_1_6_1, align 8
  store i19 %shift_reg_V_1_6_1_load, i19* @shift_reg_V_1_7_1, align 4
  %tmp11 = add i19 %shift_reg_V_1_6_1_load, %tmp_71_3_i
  %tmp_68_9_i = add i19 %tmp11, %shift_reg_V_1_7_1_load
  %shift_reg_V_1_5_1_load = load i19* @shift_reg_V_1_5_1, align 4
  store i19 %shift_reg_V_1_5_1_load, i19* @shift_reg_V_1_6_1, align 8
  %tmp_71_5_i = sub i19 %tmp_68_9_i, %shift_reg_V_1_5_1_load
  %shift_reg_V_1_4_1_load = load i19* @shift_reg_V_1_4_1, align 16
  store i19 %shift_reg_V_1_4_1_load, i19* @shift_reg_V_1_5_1, align 4
  %tmp_68_10_i = add i19 %shift_reg_V_1_4_1_load, %tmp_71_5_i
  %shift_reg_V_1_3_1_load = load i19* @shift_reg_V_1_3_1, align 4
  store i19 %shift_reg_V_1_3_1_load, i19* @shift_reg_V_1_4_1, align 16
  %tmp_71_6_i = sub i19 %tmp_68_10_i, %shift_reg_V_1_3_1_load
  %shift_reg_V_1_2_1_load = load i19* @shift_reg_V_1_2_1, align 8
  store i19 %shift_reg_V_1_2_1_load, i19* @shift_reg_V_1_3_1, align 4
  %tmp_68_11_i = add i19 %shift_reg_V_1_2_1_load, %tmp_71_6_i
  %shift_reg_V_1_1_1_load = load i19* @shift_reg_V_1_1_1, align 4
  store i19 %shift_reg_V_1_1_1_load, i19* @shift_reg_V_1_2_1, align 8
  %tmp_71_7_i = sub i19 %tmp_68_11_i, %shift_reg_V_1_1_1_load
  %shift_reg_V_1_0_1_load = load i19* @shift_reg_V_1_0_1, align 16
  store i19 %shift_reg_V_1_0_1_load, i19* @shift_reg_V_1_1_1, align 4
  %tmp_71_8_i = sub i19 %tmp_71_7_i, %shift_reg_V_1_0_1_load
  %shift_reg_V_1_7_0_load = load i19* @shift_reg_V_1_7_0, align 4
  store i19 %shift_reg_V_1_7_0_load, i19* @shift_reg_V_1_0_1, align 16
  %tmp_71_10_i = sub i19 %tmp_71_8_i, %shift_reg_V_1_7_0_load
  %shift_reg_V_1_6_0_load = load i19* @shift_reg_V_1_6_0, align 8
  store i19 %shift_reg_V_1_6_0_load, i19* @shift_reg_V_1_7_0, align 4
  %tmp_71_11_i = sub i19 %tmp_71_10_i, %shift_reg_V_1_6_0_load
  %shift_reg_V_1_5_0_load = load i19* @shift_reg_V_1_5_0, align 4
  store i19 %shift_reg_V_1_5_0_load, i19* @shift_reg_V_1_6_0, align 8
  %tmp_68_12_i = add i19 %shift_reg_V_1_5_0_load, %tmp_71_11_i
  %shift_reg_V_1_4_0_load = load i19* @shift_reg_V_1_4_0, align 16
  store i19 %shift_reg_V_1_4_0_load, i19* @shift_reg_V_1_5_0, align 4
  %tmp_71_12_i = sub i19 %tmp_68_12_i, %shift_reg_V_1_4_0_load
  %shift_reg_V_1_3_0_load = load i19* @shift_reg_V_1_3_0, align 4
  store i19 %shift_reg_V_1_3_0_load, i19* @shift_reg_V_1_4_0, align 16
  %tmp_68_13_i = add i19 %shift_reg_V_1_3_0_load, %tmp_71_12_i
  %shift_reg_V_1_2_0_load = load i19* @shift_reg_V_1_2_0, align 8
  store i19 %shift_reg_V_1_2_0_load, i19* @shift_reg_V_1_3_0, align 4
  %tmp_71_13_i = sub i19 %tmp_68_13_i, %shift_reg_V_1_2_0_load
  %shift_reg_V_1_1_0_load = load i19* @shift_reg_V_1_1_0, align 4
  store i19 %shift_reg_V_1_1_0_load, i19* @shift_reg_V_1_2_0, align 8
  %tmp_68_14_i = add i19 %shift_reg_V_1_1_0_load, %tmp_71_13_i
  %shift_reg_V_1_0_0_load = load i19* @shift_reg_V_1_0_0, align 16
  store i19 %shift_reg_V_1_0_0_load, i19* @shift_reg_V_1_1_0, align 4
  %tmp_71_14_i = sub i19 %tmp_68_14_i, %shift_reg_V_1_0_0_load
  store i19 %Q_V_read, i19* @shift_reg_V_1_0_0, align 16
  %p_Val2_s = sub i19 %tmp_71_14_i, %Q_V_read
  %shift_reg_V_2_6_3_load = load i19* @shift_reg_V_2_6_3, align 8
  %tmp_86_i = sub i19 0, %shift_reg_V_2_6_3_load
  %shift_reg_V_2_5_3_load = load i19* @shift_reg_V_2_5_3, align 4
  store i19 %shift_reg_V_2_5_3_load, i19* @shift_reg_V_2_6_3, align 8
  %tmp_86_1_i = sub i19 %tmp_86_i, %shift_reg_V_2_5_3_load
  %shift_reg_V_2_4_3_load = load i19* @shift_reg_V_2_4_3, align 16
  store i19 %shift_reg_V_2_4_3_load, i19* @shift_reg_V_2_5_3, align 4
  %tmp_86_2_i = sub i19 %tmp_86_1_i, %shift_reg_V_2_4_3_load
  %shift_reg_V_2_3_3_load = load i19* @shift_reg_V_2_3_3, align 4
  store i19 %shift_reg_V_2_3_3_load, i19* @shift_reg_V_2_4_3, align 16
  %shift_reg_V_2_2_3_load = load i19* @shift_reg_V_2_2_3, align 8
  store i19 %shift_reg_V_2_2_3_load, i19* @shift_reg_V_2_3_3, align 4
  %shift_reg_V_2_1_3_load = load i19* @shift_reg_V_2_1_3, align 4
  store i19 %shift_reg_V_2_1_3_load, i19* @shift_reg_V_2_2_3, align 8
  %tmp12 = add i19 %shift_reg_V_2_3_3_load, %shift_reg_V_2_2_3_load
  %tmp13 = add i19 %shift_reg_V_2_1_3_load, %tmp_86_2_i
  %tmp_83_5_i = add i19 %tmp13, %tmp12
  %shift_reg_V_2_0_3_load = load i19* @shift_reg_V_2_0_3, align 16
  store i19 %shift_reg_V_2_0_3_load, i19* @shift_reg_V_2_1_3, align 4
  %tmp_86_6_i = sub i19 %tmp_83_5_i, %shift_reg_V_2_0_3_load
  %shift_reg_V_2_7_2_load = load i19* @shift_reg_V_2_7_2, align 4
  store i19 %shift_reg_V_2_7_2_load, i19* @shift_reg_V_2_0_3, align 16
  %tmp_86_7_i = sub i19 %tmp_86_6_i, %shift_reg_V_2_7_2_load
  %shift_reg_V_2_6_2_load = load i19* @shift_reg_V_2_6_2, align 8
  store i19 %shift_reg_V_2_6_2_load, i19* @shift_reg_V_2_7_2, align 4
  %shift_reg_V_2_5_2_load = load i19* @shift_reg_V_2_5_2, align 4
  store i19 %shift_reg_V_2_5_2_load, i19* @shift_reg_V_2_6_2, align 8
  %shift_reg_V_2_4_2_load = load i19* @shift_reg_V_2_4_2, align 16
  store i19 %shift_reg_V_2_4_2_load, i19* @shift_reg_V_2_5_2, align 4
  %shift_reg_V_2_3_2_load = load i19* @shift_reg_V_2_3_2, align 4
  store i19 %shift_reg_V_2_3_2_load, i19* @shift_reg_V_2_4_2, align 16
  %shift_reg_V_2_2_2_load = load i19* @shift_reg_V_2_2_2, align 8
  store i19 %shift_reg_V_2_2_2_load, i19* @shift_reg_V_2_3_2, align 4
  %tmp15 = add i19 %shift_reg_V_2_5_2_load, %shift_reg_V_2_4_2_load
  %tmp14 = add i19 %tmp15, %shift_reg_V_2_6_2_load
  %tmp17 = add i19 %shift_reg_V_2_2_2_load, %tmp_86_7_i
  %tmp16 = add i19 %tmp17, %shift_reg_V_2_3_2_load
  %tmp_83_2_i = add i19 %tmp16, %tmp14
  %shift_reg_V_2_1_2_load = load i19* @shift_reg_V_2_1_2, align 4
  store i19 %shift_reg_V_2_1_2_load, i19* @shift_reg_V_2_2_2, align 8
  %tmp_86_i_14 = sub i19 %tmp_83_2_i, %shift_reg_V_2_1_2_load
  %shift_reg_V_2_0_2_load = load i19* @shift_reg_V_2_0_2, align 16
  store i19 %shift_reg_V_2_0_2_load, i19* @shift_reg_V_2_1_2, align 4
  %tmp_86_3_i = sub i19 %tmp_86_i_14, %shift_reg_V_2_0_2_load
  %shift_reg_V_2_7_1_load = load i19* @shift_reg_V_2_7_1, align 4
  store i19 %shift_reg_V_2_7_1_load, i19* @shift_reg_V_2_0_2, align 16
  %tmp_86_4_i = sub i19 %tmp_86_3_i, %shift_reg_V_2_7_1_load
  %shift_reg_V_2_6_1_load = load i19* @shift_reg_V_2_6_1, align 8
  store i19 %shift_reg_V_2_6_1_load, i19* @shift_reg_V_2_7_1, align 4
  %tmp_86_5_i = sub i19 %tmp_86_4_i, %shift_reg_V_2_6_1_load
  %shift_reg_V_2_5_1_load = load i19* @shift_reg_V_2_5_1, align 4
  store i19 %shift_reg_V_2_5_1_load, i19* @shift_reg_V_2_6_1, align 8
  %tmp_83_6_i = add i19 %shift_reg_V_2_5_1_load, %tmp_86_5_i
  %shift_reg_V_2_4_1_load = load i19* @shift_reg_V_2_4_1, align 16
  store i19 %shift_reg_V_2_4_1_load, i19* @shift_reg_V_2_5_1, align 4
  %tmp_86_8_i = sub i19 %tmp_83_6_i, %shift_reg_V_2_4_1_load
  %shift_reg_V_2_3_1_load = load i19* @shift_reg_V_2_3_1, align 4
  store i19 %shift_reg_V_2_3_1_load, i19* @shift_reg_V_2_4_1, align 16
  %shift_reg_V_2_2_1_load = load i19* @shift_reg_V_2_2_1, align 8
  store i19 %shift_reg_V_2_2_1_load, i19* @shift_reg_V_2_3_1, align 4
  %tmp18 = add i19 %shift_reg_V_2_2_1_load, %tmp_86_8_i
  %tmp_83_10_i = add i19 %tmp18, %shift_reg_V_2_3_1_load
  %shift_reg_V_2_1_1_load = load i19* @shift_reg_V_2_1_1, align 4
  store i19 %shift_reg_V_2_1_1_load, i19* @shift_reg_V_2_2_1, align 8
  %tmp_86_9_i = sub i19 %tmp_83_10_i, %shift_reg_V_2_1_1_load
  %shift_reg_V_2_0_1_load = load i19* @shift_reg_V_2_0_1, align 16
  store i19 %shift_reg_V_2_0_1_load, i19* @shift_reg_V_2_1_1, align 4
  %tmp_86_10_i = sub i19 %tmp_86_9_i, %shift_reg_V_2_0_1_load
  %shift_reg_V_2_7_0_load = load i19* @shift_reg_V_2_7_0, align 4
  store i19 %shift_reg_V_2_7_0_load, i19* @shift_reg_V_2_0_1, align 16
  %tmp_86_11_i = sub i19 %tmp_86_10_i, %shift_reg_V_2_7_0_load
  %shift_reg_V_2_6_0_load = load i19* @shift_reg_V_2_6_0, align 8
  store i19 %shift_reg_V_2_6_0_load, i19* @shift_reg_V_2_7_0, align 4
  %shift_reg_V_2_5_0_load = load i19* @shift_reg_V_2_5_0, align 4
  store i19 %shift_reg_V_2_5_0_load, i19* @shift_reg_V_2_6_0, align 8
  %tmp19 = add i19 %shift_reg_V_2_5_0_load, %tmp_86_11_i
  %tmp_83_12_i = add i19 %tmp19, %shift_reg_V_2_6_0_load
  %shift_reg_V_2_4_0_load = load i19* @shift_reg_V_2_4_0, align 16
  store i19 %shift_reg_V_2_4_0_load, i19* @shift_reg_V_2_5_0, align 4
  %tmp_86_12_i = sub i19 %tmp_83_12_i, %shift_reg_V_2_4_0_load
  %shift_reg_V_2_3_0_load = load i19* @shift_reg_V_2_3_0, align 4
  store i19 %shift_reg_V_2_3_0_load, i19* @shift_reg_V_2_4_0, align 16
  %tmp_86_13_i = sub i19 %tmp_86_12_i, %shift_reg_V_2_3_0_load
  %shift_reg_V_2_2_0_load = load i19* @shift_reg_V_2_2_0, align 8
  store i19 %shift_reg_V_2_2_0_load, i19* @shift_reg_V_2_3_0, align 4
  %tmp_86_14_i = sub i19 %tmp_86_13_i, %shift_reg_V_2_2_0_load
  %shift_reg_V_2_1_0_load = load i19* @shift_reg_V_2_1_0, align 4
  store i19 %shift_reg_V_2_1_0_load, i19* @shift_reg_V_2_2_0, align 8
  %tmp_83_13_i = add i19 %shift_reg_V_2_1_0_load, %tmp_86_14_i
  %shift_reg_V_2_0_0_load = load i19* @shift_reg_V_2_0_0, align 16
  store i19 %shift_reg_V_2_0_0_load, i19* @shift_reg_V_2_1_0, align 4
  %tmp_86_15_i = sub i19 %tmp_83_13_i, %shift_reg_V_2_0_0_load
  store i19 %Q_V_read, i19* @shift_reg_V_2_0_0, align 16
  %shift_reg_V_6_3_load = load i19* @shift_reg_V_6_3, align 8
  %shift_reg_V_5_3_load = load i19* @shift_reg_V_5_3, align 4
  store i19 %shift_reg_V_5_3_load, i19* @shift_reg_V_6_3, align 8
  %tmp_53_1_i = add i19 %shift_reg_V_6_3_load, %shift_reg_V_5_3_load
  %shift_reg_V_4_3_load = load i19* @shift_reg_V_4_3, align 16
  store i19 %shift_reg_V_4_3_load, i19* @shift_reg_V_5_3, align 4
  %tmp_56_2_i = sub i19 %tmp_53_1_i, %shift_reg_V_4_3_load
  %shift_reg_V_371_3_load = load i19* @shift_reg_V_371_3, align 4
  store i19 %shift_reg_V_371_3_load, i19* @shift_reg_V_4_3, align 16
  %tmp_53_3_i = add i19 %shift_reg_V_371_3_load, %tmp_56_2_i
  %shift_reg_V_270_3_load = load i19* @shift_reg_V_270_3, align 8
  store i19 %shift_reg_V_270_3_load, i19* @shift_reg_V_371_3, align 4
  %tmp_56_4_i = sub i19 %tmp_53_3_i, %shift_reg_V_270_3_load
  %shift_reg_V_169_3_load = load i19* @shift_reg_V_169_3, align 4
  store i19 %shift_reg_V_169_3_load, i19* @shift_reg_V_270_3, align 8
  %shift_reg_V_0_3_load = load i19* @shift_reg_V_0_3, align 16
  store i19 %shift_reg_V_0_3_load, i19* @shift_reg_V_169_3, align 4
  %shift_reg_V_7_2_load = load i19* @shift_reg_V_7_2, align 4
  store i19 %shift_reg_V_7_2_load, i19* @shift_reg_V_0_3, align 16
  %shift_reg_V_6_2_load = load i19* @shift_reg_V_6_2, align 8
  store i19 %shift_reg_V_6_2_load, i19* @shift_reg_V_7_2, align 4
  %tmp20 = add i19 %shift_reg_V_169_3_load, %shift_reg_V_0_3_load
  %tmp22 = add i19 %shift_reg_V_6_2_load, %tmp_56_4_i
  %tmp21 = add i19 %tmp22, %shift_reg_V_7_2_load
  %tmp_53_8_i = add i19 %tmp21, %tmp20
  %shift_reg_V_5_2_load = load i19* @shift_reg_V_5_2, align 4
  store i19 %shift_reg_V_5_2_load, i19* @shift_reg_V_6_2, align 8
  %tmp_56_9_i = sub i19 %tmp_53_8_i, %shift_reg_V_5_2_load
  %shift_reg_V_4_2_load = load i19* @shift_reg_V_4_2, align 16
  store i19 %shift_reg_V_4_2_load, i19* @shift_reg_V_5_2, align 4
  %tmp_53_i = add i19 %shift_reg_V_4_2_load, %tmp_56_9_i
  %shift_reg_V_371_2_load = load i19* @shift_reg_V_371_2, align 4
  store i19 %shift_reg_V_371_2_load, i19* @shift_reg_V_4_2, align 16
  %tmp_56_i = sub i19 %tmp_53_i, %shift_reg_V_371_2_load
  %shift_reg_V_270_2_load = load i19* @shift_reg_V_270_2, align 8
  store i19 %shift_reg_V_270_2_load, i19* @shift_reg_V_371_2, align 4
  %tmp_56_1_i = sub i19 %tmp_56_i, %shift_reg_V_270_2_load
  %shift_reg_V_169_2_load = load i19* @shift_reg_V_169_2, align 4
  store i19 %shift_reg_V_169_2_load, i19* @shift_reg_V_270_2, align 8
  %tmp_53_2_i = add i19 %shift_reg_V_169_2_load, %tmp_56_1_i
  %shift_reg_V_0_2_load = load i19* @shift_reg_V_0_2, align 16
  store i19 %shift_reg_V_0_2_load, i19* @shift_reg_V_169_2, align 4
  %tmp_56_3_i = sub i19 %tmp_53_2_i, %shift_reg_V_0_2_load
  %shift_reg_V_7_1_load = load i19* @shift_reg_V_7_1, align 4
  store i19 %shift_reg_V_7_1_load, i19* @shift_reg_V_0_2, align 16
  %shift_reg_V_6_1_load = load i19* @shift_reg_V_6_1, align 8
  store i19 %shift_reg_V_6_1_load, i19* @shift_reg_V_7_1, align 4
  %tmp23 = add i19 %shift_reg_V_6_1_load, %tmp_56_3_i
  %tmp_53_9_i = add i19 %tmp23, %shift_reg_V_7_1_load
  %shift_reg_V_5_1_load = load i19* @shift_reg_V_5_1, align 4
  store i19 %shift_reg_V_5_1_load, i19* @shift_reg_V_6_1, align 8
  %tmp_56_5_i = sub i19 %tmp_53_9_i, %shift_reg_V_5_1_load
  %shift_reg_V_4_1_load = load i19* @shift_reg_V_4_1, align 16
  store i19 %shift_reg_V_4_1_load, i19* @shift_reg_V_5_1, align 4
  %tmp_53_10_i = add i19 %shift_reg_V_4_1_load, %tmp_56_5_i
  %shift_reg_V_371_1_load = load i19* @shift_reg_V_371_1, align 4
  store i19 %shift_reg_V_371_1_load, i19* @shift_reg_V_4_1, align 16
  %tmp_56_6_i = sub i19 %tmp_53_10_i, %shift_reg_V_371_1_load
  %shift_reg_V_270_1_load = load i19* @shift_reg_V_270_1, align 8
  store i19 %shift_reg_V_270_1_load, i19* @shift_reg_V_371_1, align 4
  %tmp_53_11_i = add i19 %shift_reg_V_270_1_load, %tmp_56_6_i
  %shift_reg_V_169_1_load = load i19* @shift_reg_V_169_1, align 4
  store i19 %shift_reg_V_169_1_load, i19* @shift_reg_V_270_1, align 8
  %tmp_56_7_i = sub i19 %tmp_53_11_i, %shift_reg_V_169_1_load
  %shift_reg_V_0_1_load = load i19* @shift_reg_V_0_1, align 16
  store i19 %shift_reg_V_0_1_load, i19* @shift_reg_V_169_1, align 4
  %tmp_56_8_i = sub i19 %tmp_56_7_i, %shift_reg_V_0_1_load
  %shift_reg_V_7_0_load = load i19* @shift_reg_V_7_0, align 4
  store i19 %shift_reg_V_7_0_load, i19* @shift_reg_V_0_1, align 16
  %tmp_56_10_i = sub i19 %tmp_56_8_i, %shift_reg_V_7_0_load
  %shift_reg_V_6_0_load = load i19* @shift_reg_V_6_0, align 8
  store i19 %shift_reg_V_6_0_load, i19* @shift_reg_V_7_0, align 4
  %tmp_56_11_i = sub i19 %tmp_56_10_i, %shift_reg_V_6_0_load
  %shift_reg_V_5_0_load = load i19* @shift_reg_V_5_0, align 4
  store i19 %shift_reg_V_5_0_load, i19* @shift_reg_V_6_0, align 8
  %tmp_53_12_i = add i19 %shift_reg_V_5_0_load, %tmp_56_11_i
  %shift_reg_V_4_0_load = load i19* @shift_reg_V_4_0, align 16
  store i19 %shift_reg_V_4_0_load, i19* @shift_reg_V_5_0, align 4
  %tmp_56_12_i = sub i19 %tmp_53_12_i, %shift_reg_V_4_0_load
  %shift_reg_V_371_0_load = load i19* @shift_reg_V_371_0, align 4
  store i19 %shift_reg_V_371_0_load, i19* @shift_reg_V_4_0, align 16
  %tmp_53_13_i = add i19 %shift_reg_V_371_0_load, %tmp_56_12_i
  %shift_reg_V_270_0_load = load i19* @shift_reg_V_270_0, align 8
  store i19 %shift_reg_V_270_0_load, i19* @shift_reg_V_371_0, align 4
  %tmp_56_13_i = sub i19 %tmp_53_13_i, %shift_reg_V_270_0_load
  %shift_reg_V_169_0_load = load i19* @shift_reg_V_169_0, align 4
  store i19 %shift_reg_V_169_0_load, i19* @shift_reg_V_270_0, align 8
  %tmp_53_14_i = add i19 %shift_reg_V_169_0_load, %tmp_56_13_i
  %shift_reg_V_0_0_load = load i19* @shift_reg_V_0_0, align 16
  store i19 %shift_reg_V_0_0_load, i19* @shift_reg_V_169_0, align 4
  store i19 %I_V_read, i19* @shift_reg_V_0_0, align 16
  %tmp24 = add i19 %p_Val2_s, %I_V_read
  %ssdm_int_V_write_assign = add i19 %tmp24, %tmp_101_15_i
  %tmp_56_14_i = sub i19 %shift_reg_V_0_0_load, %tmp_53_14_i
  %tmp25 = add i19 %tmp_56_14_i, %I_V_read
  %tmp26 = add i19 %tmp_86_15_i, %Q_V_read
  %ssdm_int_V_write_assign_1 = add i19 %tmp26, %tmp25
  %mrv = insertvalue { i19, i19 } undef, i19 %ssdm_int_V_write_assign, 0
  %mrv_1 = insertvalue { i19, i19 } %mrv, i19 %ssdm_int_V_write_assign_1, 1
  ret { i19, i19 } %mrv_1
}

define internal fastcc { i22, i22, i22 } @phasedetector_correctQuadrant(i21 %x_V_read, i21 %y_V_read) readnone {
_ifconv:
  %y_V_read_1 = call i21 @_ssdm_op_Read.ap_auto.i21(i21 %y_V_read)
  %x_V_read_1 = call i21 @_ssdm_op_Read.ap_auto.i21(i21 %x_V_read)
  %y_V_read_cast2 = sext i21 %y_V_read_1 to i22
  %x_V_read_cast1 = sext i21 %x_V_read_1 to i22
  call void (...)* @_ssdm_op_SpecPipeline(i32 1, i32 1, i32 1, i32 0, [1 x i8]* @p_str) nounwind
  %tmp = call i1 @_ssdm_op_BitSelect.i1.i21.i32(i21 %x_V_read_1, i32 20)
  %tmp_39 = call i1 @_ssdm_op_BitSelect.i1.i21.i32(i21 %y_V_read_1, i32 20)
  %p_Val2_s = sub i21 0, %y_V_read_1
  %ssdm_int_V_read_assign = select i1 %tmp_39, i21 %p_Val2_s, i21 %y_V_read_1
  %p_Val2_2 = sub i22 0, %x_V_read_cast1
  %ssdm_int_V_read_assign_1 = select i1 %tmp_39, i22 %x_V_read_cast1, i22 %p_Val2_2
  %tmp_40 = call i1 @_ssdm_op_BitSelect.i1.i22.i32(i22 %ssdm_int_V_read_assign_1, i32 21)
  %theta_V = select i1 %tmp_40, i16 -25736, i16 25735
  %ssdm_int_V_read_assign_2 = select i1 %tmp, i21 %ssdm_int_V_read_assign, i21 %x_V_read_1
  %ssdm_int_V_write_assign_1_cast = zext i21 %ssdm_int_V_read_assign_2 to i22
  %ssdm_int_V_read_assign_3 = select i1 %tmp, i22 %ssdm_int_V_read_assign_1, i22 %y_V_read_cast2
  %ssdm_int_V_write_assign = select i1 %tmp, i16 %theta_V, i16 0
  %ssdm_int_V_write_assign_cast = sext i16 %ssdm_int_V_write_assign to i22
  %mrv = insertvalue { i22, i22, i22 } undef, i22 %ssdm_int_V_write_assign_cast, 0
  %mrv_1 = insertvalue { i22, i22, i22 } %mrv, i22 %ssdm_int_V_write_assign_1_cast, 1
  %mrv_2 = insertvalue { i22, i22, i22 } %mrv_1, i22 %ssdm_int_V_read_assign_3, 2
  ret { i22, i22, i22 } %mrv_2
}

define internal fastcc { i22, i22 } @phasedetector_cordiccart2pol(i21 %x_V, i21 %y_V) readnone {
_ifconv:
  %y_V_read = call i21 @_ssdm_op_Read.ap_auto.i21(i21 %y_V)
  %x_V_read = call i21 @_ssdm_op_Read.ap_auto.i21(i21 %x_V)
  %call_ret2 = call fastcc { i22, i22, i22 } @phasedetector_correctQuadrant(i21 %x_V_read, i21 %y_V_read)
  %call_ret = extractvalue { i22, i22, i22 } %call_ret2, 0
  %x_V_buf_ret = extractvalue { i22, i22, i22 } %call_ret2, 1
  %y_V_buf_ret = extractvalue { i22, i22, i22 } %call_ret2, 2
  %tmp_42 = call i1 @_ssdm_op_BitSelect.i1.i22.i32(i22 %y_V_buf_ret, i32 21)
  %tmp_44 = call i1 @_ssdm_op_BitSelect.i1.i22.i32(i22 %y_V_buf_ret, i32 21)
  %tmp_45_cast_cast = select i1 %tmp_44, i16 -12867, i16 12867
  %tmp_s = add i22 %x_V_buf_ret, %y_V_buf_ret
  %tmp_34 = sub i22 %x_V_buf_ret, %y_V_buf_ret
  %p_Val2_1 = select i1 %tmp_42, i22 %tmp_34, i22 %tmp_s
  %tmp_35 = sub i22 %y_V_buf_ret, %x_V_buf_ret
  %p_Val2_2 = select i1 %tmp_42, i22 %tmp_s, i22 %tmp_35
  %tmp_46 = call i1 @_ssdm_op_BitSelect.i1.i22.i32(i22 %p_Val2_2, i32 21)
  %tmp_48 = call i1 @_ssdm_op_BitSelect.i1.i22.i32(i22 %p_Val2_2, i32 21)
  %tmp_51_cast_cast = select i1 %tmp_48, i16 -7596, i16 7596
  %tmp_36 = call i21 @_ssdm_op_PartSelect.i21.i22.i32.i32(i22 %p_Val2_2, i32 1, i32 21)
  %tmp = zext i21 %tmp_36 to i22
  %p_Val2_42_1 = sext i21 %tmp_36 to i22
  %tmp_131_1 = sub i22 %p_Val2_1, %p_Val2_42_1
  %tmp_136_1 = add i22 %p_Val2_1, %tmp
  %p_Val2_45_1 = select i1 %tmp_46, i22 %tmp_131_1, i22 %tmp_136_1
  %tmp_37 = call i21 @_ssdm_op_PartSelect.i21.i22.i32.i32(i22 %p_Val2_1, i32 1, i32 21)
  %p_Val2_47_1 = sext i21 %tmp_37 to i22
  %tmp_142_1 = add i22 %p_Val2_47_1, %p_Val2_2
  %tmp_147_1 = sub i22 %p_Val2_2, %p_Val2_47_1
  %p_Val2_49_1 = select i1 %tmp_46, i22 %tmp_142_1, i22 %tmp_147_1
  %tmp_50 = call i1 @_ssdm_op_BitSelect.i1.i22.i32(i22 %p_Val2_49_1, i32 21)
  %tmp_52 = call i1 @_ssdm_op_BitSelect.i1.i22.i32(i22 %p_Val2_49_1, i32 21)
  %tmp_60_cast_cast = select i1 %tmp_52, i14 -4013, i14 4013
  %tmp_38 = call i20 @_ssdm_op_PartSelect.i20.i22.i32.i32(i22 %p_Val2_49_1, i32 2, i32 21)
  %tmp_27 = zext i20 %tmp_38 to i22
  %p_Val2_42_2 = sext i20 %tmp_38 to i22
  %tmp_131_2 = sub i22 %p_Val2_45_1, %p_Val2_42_2
  %tmp_136_2 = add i22 %p_Val2_45_1, %tmp_27
  %p_Val2_45_2 = select i1 %tmp_50, i22 %tmp_131_2, i22 %tmp_136_2
  %tmp_39 = call i20 @_ssdm_op_PartSelect.i20.i22.i32.i32(i22 %p_Val2_45_1, i32 2, i32 21)
  %p_Val2_47_2 = sext i20 %tmp_39 to i22
  %tmp_142_2 = add i22 %p_Val2_47_2, %p_Val2_49_1
  %tmp_147_2 = sub i22 %p_Val2_49_1, %p_Val2_47_2
  %p_Val2_49_2 = select i1 %tmp_50, i22 %tmp_142_2, i22 %tmp_147_2
  %tmp_54 = call i1 @_ssdm_op_BitSelect.i1.i22.i32(i22 %p_Val2_49_2, i32 21)
  %tmp_56 = call i1 @_ssdm_op_BitSelect.i1.i22.i32(i22 %p_Val2_49_2, i32 21)
  %tmp_69_cast_cast = select i1 %tmp_56, i13 -2037, i13 2037
  %tmp_40 = call i19 @_ssdm_op_PartSelect.i19.i22.i32.i32(i22 %p_Val2_49_2, i32 3, i32 21)
  %tmp_28 = zext i19 %tmp_40 to i22
  %p_Val2_42_3 = sext i19 %tmp_40 to i22
  %tmp_131_3 = sub i22 %p_Val2_45_2, %p_Val2_42_3
  %tmp_136_3 = add i22 %p_Val2_45_2, %tmp_28
  %p_Val2_45_3 = select i1 %tmp_54, i22 %tmp_131_3, i22 %tmp_136_3
  %tmp_41 = call i19 @_ssdm_op_PartSelect.i19.i22.i32.i32(i22 %p_Val2_45_2, i32 3, i32 21)
  %p_Val2_47_3 = sext i19 %tmp_41 to i22
  %tmp_142_3 = add i22 %p_Val2_47_3, %p_Val2_49_2
  %tmp_147_3 = sub i22 %p_Val2_49_2, %p_Val2_47_3
  %p_Val2_49_3 = select i1 %tmp_54, i22 %tmp_142_3, i22 %tmp_147_3
  %tmp_58 = call i1 @_ssdm_op_BitSelect.i1.i22.i32(i22 %p_Val2_49_3, i32 21)
  %tmp_60 = call i1 @_ssdm_op_BitSelect.i1.i22.i32(i22 %p_Val2_49_3, i32 21)
  %tmp_78_cast_cast = select i1 %tmp_60, i13 -1022, i13 1022
  %tmp_43 = call i18 @_ssdm_op_PartSelect.i18.i22.i32.i32(i22 %p_Val2_49_3, i32 4, i32 21)
  %tmp_29 = zext i18 %tmp_43 to i22
  %p_Val2_42_4 = sext i18 %tmp_43 to i22
  %tmp_131_4 = sub i22 %p_Val2_45_3, %p_Val2_42_4
  %tmp_136_4 = add i22 %p_Val2_45_3, %tmp_29
  %p_Val2_45_4 = select i1 %tmp_58, i22 %tmp_131_4, i22 %tmp_136_4
  %tmp_45 = call i18 @_ssdm_op_PartSelect.i18.i22.i32.i32(i22 %p_Val2_45_3, i32 4, i32 21)
  %p_Val2_47_4 = sext i18 %tmp_45 to i22
  %tmp_142_4 = add i22 %p_Val2_47_4, %p_Val2_49_3
  %tmp_147_4 = sub i22 %p_Val2_49_3, %p_Val2_47_4
  %p_Val2_49_4 = select i1 %tmp_58, i22 %tmp_142_4, i22 %tmp_147_4
  %tmp_62 = call i1 @_ssdm_op_BitSelect.i1.i22.i32(i22 %p_Val2_49_4, i32 21)
  %tmp_64 = call i1 @_ssdm_op_BitSelect.i1.i22.i32(i22 %p_Val2_49_4, i32 21)
  %tmp_87_cast_cast = select i1 %tmp_64, i11 -511, i11 511
  %tmp_47 = call i17 @_ssdm_op_PartSelect.i17.i22.i32.i32(i22 %p_Val2_49_4, i32 5, i32 21)
  %tmp_30 = zext i17 %tmp_47 to i22
  %p_Val2_42_5 = sext i17 %tmp_47 to i22
  %tmp_131_5 = sub i22 %p_Val2_45_4, %p_Val2_42_5
  %tmp_136_5 = add i22 %p_Val2_45_4, %tmp_30
  %p_Val2_45_5 = select i1 %tmp_62, i22 %tmp_131_5, i22 %tmp_136_5
  %tmp_49 = call i17 @_ssdm_op_PartSelect.i17.i22.i32.i32(i22 %p_Val2_45_4, i32 5, i32 21)
  %p_Val2_47_5 = sext i17 %tmp_49 to i22
  %tmp_142_5 = add i22 %p_Val2_47_5, %p_Val2_49_4
  %tmp_147_5 = sub i22 %p_Val2_49_4, %p_Val2_47_5
  %p_Val2_49_5 = select i1 %tmp_62, i22 %tmp_142_5, i22 %tmp_147_5
  %tmp_66 = call i1 @_ssdm_op_BitSelect.i1.i22.i32(i22 %p_Val2_49_5, i32 21)
  %tmp_68 = call i1 @_ssdm_op_BitSelect.i1.i22.i32(i22 %p_Val2_49_5, i32 21)
  %tmp_96_cast_cast = select i1 %tmp_68, i10 -255, i10 255
  %tmp_51 = call i16 @_ssdm_op_PartSelect.i16.i22.i32.i32(i22 %p_Val2_49_5, i32 6, i32 21)
  %tmp_31 = zext i16 %tmp_51 to i22
  %p_Val2_42_6 = sext i16 %tmp_51 to i22
  %tmp_131_6 = sub i22 %p_Val2_45_5, %p_Val2_42_6
  %tmp_136_6 = add i22 %p_Val2_45_5, %tmp_31
  %p_Val2_45_6 = select i1 %tmp_66, i22 %tmp_131_6, i22 %tmp_136_6
  %tmp_53 = call i16 @_ssdm_op_PartSelect.i16.i22.i32.i32(i22 %p_Val2_45_5, i32 6, i32 21)
  %p_Val2_47_6 = sext i16 %tmp_53 to i22
  %tmp_142_6 = add i22 %p_Val2_47_6, %p_Val2_49_5
  %tmp_147_6 = sub i22 %p_Val2_49_5, %p_Val2_47_6
  %p_Val2_49_6 = select i1 %tmp_66, i22 %tmp_142_6, i22 %tmp_147_6
  %tmp_70 = call i1 @_ssdm_op_BitSelect.i1.i22.i32(i22 %p_Val2_49_6, i32 21)
  %tmp_73 = call i1 @_ssdm_op_BitSelect.i1.i22.i32(i22 %p_Val2_49_6, i32 21)
  %tmp_105_cast_cast = select i1 %tmp_73, i10 -127, i10 127
  %tmp_55 = call i15 @_ssdm_op_PartSelect.i15.i22.i32.i32(i22 %p_Val2_49_6, i32 7, i32 21)
  %tmp_32 = zext i15 %tmp_55 to i22
  %p_Val2_42_7 = sext i15 %tmp_55 to i22
  %tmp_131_7 = sub i22 %p_Val2_45_6, %p_Val2_42_7
  %tmp_136_7 = add i22 %p_Val2_45_6, %tmp_32
  %p_Val2_45_7 = select i1 %tmp_70, i22 %tmp_131_7, i22 %tmp_136_7
  %tmp_57 = call i15 @_ssdm_op_PartSelect.i15.i22.i32.i32(i22 %p_Val2_45_6, i32 7, i32 21)
  %p_Val2_47_7 = sext i15 %tmp_57 to i22
  %tmp_142_7 = add i22 %p_Val2_47_7, %p_Val2_49_6
  %tmp_147_7 = sub i22 %p_Val2_49_6, %p_Val2_47_7
  %p_Val2_49_7 = select i1 %tmp_70, i22 %tmp_142_7, i22 %tmp_147_7
  %tmp_75 = call i1 @_ssdm_op_BitSelect.i1.i22.i32(i22 %p_Val2_49_7, i32 21)
  %tmp_78 = call i1 @_ssdm_op_BitSelect.i1.i22.i32(i22 %p_Val2_49_7, i32 21)
  %tmp_114_cast_cast = select i1 %tmp_78, i8 -63, i8 63
  %tmp_59 = call i14 @_ssdm_op_PartSelect.i14.i22.i32.i32(i22 %p_Val2_49_7, i32 8, i32 21)
  %tmp_33 = zext i14 %tmp_59 to i22
  %p_Val2_42_8 = sext i14 %tmp_59 to i22
  %tmp_131_8 = sub i22 %p_Val2_45_7, %p_Val2_42_8
  %tmp_136_8 = add i22 %p_Val2_45_7, %tmp_33
  %p_Val2_45_8 = select i1 %tmp_75, i22 %tmp_131_8, i22 %tmp_136_8
  %tmp_61 = call i14 @_ssdm_op_PartSelect.i14.i22.i32.i32(i22 %p_Val2_45_7, i32 8, i32 21)
  %p_Val2_47_8 = sext i14 %tmp_61 to i22
  %tmp_142_8 = add i22 %p_Val2_47_8, %p_Val2_49_7
  %tmp_147_8 = sub i22 %p_Val2_49_7, %p_Val2_47_8
  %p_Val2_49_8 = select i1 %tmp_75, i22 %tmp_142_8, i22 %tmp_147_8
  %tmp_82 = call i1 @_ssdm_op_BitSelect.i1.i22.i32(i22 %p_Val2_49_8, i32 21)
  %tmp_85 = call i1 @_ssdm_op_BitSelect.i1.i22.i32(i22 %p_Val2_49_8, i32 21)
  %tmp_123_cast_cast = select i1 %tmp_85, i8 -31, i8 31
  %tmp_63 = call i13 @_ssdm_op_PartSelect.i13.i22.i32.i32(i22 %p_Val2_49_8, i32 9, i32 21)
  %tmp_65 = zext i13 %tmp_63 to i22
  %p_Val2_42_9 = sext i13 %tmp_63 to i22
  %tmp_131_9 = sub i22 %p_Val2_45_8, %p_Val2_42_9
  %tmp_136_9 = add i22 %p_Val2_45_8, %tmp_65
  %p_Val2_45_9 = select i1 %tmp_82, i22 %tmp_131_9, i22 %tmp_136_9
  %tmp_67 = call i13 @_ssdm_op_PartSelect.i13.i22.i32.i32(i22 %p_Val2_45_8, i32 9, i32 21)
  %p_Val2_47_9 = sext i13 %tmp_67 to i22
  %tmp_142_9 = add i22 %p_Val2_47_9, %p_Val2_49_8
  %tmp_147_9 = sub i22 %p_Val2_49_8, %p_Val2_47_9
  %p_Val2_49_9 = select i1 %tmp_82, i22 %tmp_142_9, i22 %tmp_147_9
  %tmp_86 = call i1 @_ssdm_op_BitSelect.i1.i22.i32(i22 %p_Val2_49_9, i32 21)
  %tmp_87 = call i1 @_ssdm_op_BitSelect.i1.i22.i32(i22 %p_Val2_49_9, i32 21)
  %tmp_132_cast_cast = select i1 %tmp_87, i6 -15, i6 15
  %tmp_69 = call i12 @_ssdm_op_PartSelect.i12.i22.i32.i32(i22 %p_Val2_49_9, i32 10, i32 21)
  %tmp_71 = zext i12 %tmp_69 to i22
  %tmp_72 = sext i12 %tmp_69 to i22
  %tmp_131_s = sub i22 %p_Val2_45_9, %tmp_72
  %tmp_136_s = add i22 %p_Val2_45_9, %tmp_71
  %p_Val2_45_s = select i1 %tmp_86, i22 %tmp_131_s, i22 %tmp_136_s
  %tmp_74 = call i12 @_ssdm_op_PartSelect.i12.i22.i32.i32(i22 %p_Val2_45_9, i32 10, i32 21)
  %tmp_76 = sext i12 %tmp_74 to i22
  %tmp_142_s = add i22 %tmp_76, %p_Val2_49_9
  %tmp_147_s = sub i22 %p_Val2_49_9, %tmp_76
  %p_Val2_49_s = select i1 %tmp_86, i22 %tmp_142_s, i22 %tmp_147_s
  %tmp_88 = call i1 @_ssdm_op_BitSelect.i1.i22.i32(i22 %p_Val2_49_s, i32 21)
  %tmp_89 = call i1 @_ssdm_op_BitSelect.i1.i22.i32(i22 %p_Val2_49_s, i32 21)
  %tmp_144_cast_cast = select i1 %tmp_89, i6 -7, i6 7
  %tmp3 = add i16 %tmp_51_cast_cast, %tmp_45_cast_cast
  %tmp3_cast = sext i16 %tmp3 to i22
  %tmp2 = add i22 %call_ret, %tmp3_cast
  %tmp5 = add i13 %tmp_78_cast_cast, %tmp_69_cast_cast
  %tmp5_cast = sext i13 %tmp5 to i14
  %tmp4 = add i14 %tmp_60_cast_cast, %tmp5_cast
  %tmp4_cast = sext i14 %tmp4 to i22
  %tmp1 = add i22 %tmp2, %tmp4_cast
  %tmp8 = add i10 %tmp_105_cast_cast, %tmp_96_cast_cast
  %tmp8_cast = sext i10 %tmp8 to i11
  %tmp7 = add i11 %tmp_87_cast_cast, %tmp8_cast
  %tmp10 = add i8 %tmp_123_cast_cast, %tmp_114_cast_cast
  %tmp11 = add i6 %tmp_144_cast_cast, %tmp_132_cast_cast
  %tmp11_cast = sext i6 %tmp11 to i8
  %tmp9 = add i8 %tmp10, %tmp11_cast
  %tmp9_cast = sext i8 %tmp9 to i11
  %tmp6 = add i11 %tmp7, %tmp9_cast
  %tmp6_cast = sext i11 %tmp6 to i22
  %p_Val2_40_s = add i22 %tmp1, %tmp6_cast
  %tmp_77 = call i11 @_ssdm_op_PartSelect.i11.i22.i32.i32(i22 %p_Val2_49_s, i32 11, i32 21)
  %tmp_79 = zext i11 %tmp_77 to i22
  %p_Val2_42_s = sext i11 %tmp_77 to i22
  %tmp_131_10 = sub i22 %p_Val2_45_s, %p_Val2_42_s
  %tmp_136_10 = add i22 %p_Val2_45_s, %tmp_79
  %p_Val2_45_10 = select i1 %tmp_88, i22 %tmp_131_10, i22 %tmp_136_10
  %OP1_V_cast = sext i22 %p_Val2_45_10 to i36
  %p_Val2_s = mul i36 %OP1_V_cast, 9949
  %ssdm_int_V_write_assign = call i22 @_ssdm_op_PartSelect.i22.i36.i32.i32(i36 %p_Val2_s, i32 14, i32 35)
  %mrv = insertvalue { i22, i22 } undef, i22 %ssdm_int_V_write_assign, 0
  %mrv_1 = insertvalue { i22, i22 } %mrv, i22 %p_Val2_40_s, 1
  ret { i22, i22 } %mrv_1
}

define weak void @_ssdm_op_Write.ap_auto.floatP(float*, float) {
entry:
  store float %1, float* %0
  ret void
}

define weak void @_ssdm_op_SpecTopModule(...) {
entry:
  ret void
}

define weak void @_ssdm_op_SpecPipeline(...) nounwind {
entry:
  ret void
}

define weak void @_ssdm_op_SpecBitsMap(...) {
entry:
  ret void
}

define weak i21 @_ssdm_op_Read.ap_auto.i21(i21) {
entry:
  ret i21 %0
}

define weak i19 @_ssdm_op_Read.ap_auto.i19(i19) {
entry:
  ret i19 %0
}

define weak float @_ssdm_op_Read.ap_auto.float(float) {
entry:
  ret float %0
}

define weak i8 @_ssdm_op_PartSelect.i8.i32.i32.i32(i32, i32, i32) nounwind readnone {
entry:
  %empty = call i32 @llvm.part.select.i32(i32 %0, i32 %1, i32 %2)
  %empty_15 = trunc i32 %empty to i8
  ret i8 %empty_15
}

declare i63 @_ssdm_op_PartSelect.i63.i64.i32.i32(i64, i32, i32) nounwind readnone

declare i52 @_ssdm_op_PartSelect.i52.i64.i32.i32(i64, i32, i32) nounwind readnone

define weak i22 @_ssdm_op_PartSelect.i22.i36.i32.i32(i36, i32, i32) nounwind readnone {
entry:
  %empty = call i36 @llvm.part.select.i36(i36 %0, i32 %1, i32 %2)
  %empty_16 = trunc i36 %empty to i22
  ret i22 %empty_16
}

define weak i21 @_ssdm_op_PartSelect.i21.i22.i32.i32(i22, i32, i32) nounwind readnone {
entry:
  %empty = call i22 @llvm.part.select.i22(i22 %0, i32 %1, i32 %2)
  %empty_17 = trunc i22 %empty to i21
  ret i21 %empty_17
}

define weak i20 @_ssdm_op_PartSelect.i20.i22.i32.i32(i22, i32, i32) nounwind readnone {
entry:
  %empty = call i22 @llvm.part.select.i22(i22 %0, i32 %1, i32 %2)
  %empty_18 = trunc i22 %empty to i20
  ret i20 %empty_18
}

declare i19 @_ssdm_op_PartSelect.i19.i54.i32.i32(i54, i32, i32) nounwind readnone

declare i19 @_ssdm_op_PartSelect.i19.i32.i32.i32(i32, i32, i32) nounwind readnone

define weak i19 @_ssdm_op_PartSelect.i19.i22.i32.i32(i22, i32, i32) nounwind readnone {
entry:
  %empty = call i22 @llvm.part.select.i22(i22 %0, i32 %1, i32 %2)
  %empty_19 = trunc i22 %empty to i19
  ret i19 %empty_19
}

define weak i18 @_ssdm_op_PartSelect.i18.i22.i32.i32(i22, i32, i32) nounwind readnone {
entry:
  %empty = call i22 @llvm.part.select.i22(i22 %0, i32 %1, i32 %2)
  %empty_20 = trunc i22 %empty to i18
  ret i18 %empty_20
}

define weak i17 @_ssdm_op_PartSelect.i17.i22.i32.i32(i22, i32, i32) nounwind readnone {
entry:
  %empty = call i22 @llvm.part.select.i22(i22 %0, i32 %1, i32 %2)
  %empty_21 = trunc i22 %empty to i17
  ret i17 %empty_21
}

define weak i16 @_ssdm_op_PartSelect.i16.i22.i32.i32(i22, i32, i32) nounwind readnone {
entry:
  %empty = call i22 @llvm.part.select.i22(i22 %0, i32 %1, i32 %2)
  %empty_22 = trunc i22 %empty to i16
  ret i16 %empty_22
}

define weak i15 @_ssdm_op_PartSelect.i15.i22.i32.i32(i22, i32, i32) nounwind readnone {
entry:
  %empty = call i22 @llvm.part.select.i22(i22 %0, i32 %1, i32 %2)
  %empty_23 = trunc i22 %empty to i15
  ret i15 %empty_23
}

define weak i14 @_ssdm_op_PartSelect.i14.i22.i32.i32(i22, i32, i32) nounwind readnone {
entry:
  %empty = call i22 @llvm.part.select.i22(i22 %0, i32 %1, i32 %2)
  %empty_24 = trunc i22 %empty to i14
  ret i14 %empty_24
}

define weak i13 @_ssdm_op_PartSelect.i13.i22.i32.i32(i22, i32, i32) nounwind readnone {
entry:
  %empty = call i22 @llvm.part.select.i22(i22 %0, i32 %1, i32 %2)
  %empty_25 = trunc i22 %empty to i13
  ret i13 %empty_25
}

define weak i12 @_ssdm_op_PartSelect.i12.i22.i32.i32(i22, i32, i32) nounwind readnone {
entry:
  %empty = call i22 @llvm.part.select.i22(i22 %0, i32 %1, i32 %2)
  %empty_26 = trunc i22 %empty to i12
  ret i12 %empty_26
}

define weak i11 @_ssdm_op_PartSelect.i11.i64.i32.i32(i64, i32, i32) nounwind readnone {
entry:
  %empty = call i64 @llvm.part.select.i64(i64 %0, i32 %1, i32 %2)
  %empty_27 = trunc i64 %empty to i11
  ret i11 %empty_27
}

define weak i11 @_ssdm_op_PartSelect.i11.i22.i32.i32(i22, i32, i32) nounwind readnone {
entry:
  %empty = call i22 @llvm.part.select.i22(i22 %0, i32 %1, i32 %2)
  %empty_28 = trunc i22 %empty to i11
  ret i11 %empty_28
}

declare i16 @_ssdm_op_HSub(...)

declare i16 @_ssdm_op_HMul(...)

declare i16 @_ssdm_op_HDiv(...)

declare i16 @_ssdm_op_HAdd(...)

define weak i1 @_ssdm_op_BitSelect.i1.i64.i32(i64, i32) nounwind readnone {
entry:
  %empty = zext i32 %1 to i64
  %empty_29 = shl i64 1, %empty
  %empty_30 = and i64 %0, %empty_29
  %empty_31 = icmp ne i64 %empty_30, 0
  ret i1 %empty_31
}

define weak i1 @_ssdm_op_BitSelect.i1.i22.i32(i22, i32) nounwind readnone {
entry:
  %empty = trunc i32 %1 to i22
  %empty_32 = shl i22 1, %empty
  %empty_33 = and i22 %0, %empty_32
  %empty_34 = icmp ne i22 %empty_33, 0
  ret i1 %empty_34
}

define weak i1 @_ssdm_op_BitSelect.i1.i21.i32(i21, i32) nounwind readnone {
entry:
  %empty = trunc i32 %1 to i21
  %empty_35 = shl i21 1, %empty
  %empty_36 = and i21 %0, %empty_35
  %empty_37 = icmp ne i21 %empty_36, 0
  ret i1 %empty_37
}

define weak i53 @_ssdm_op_BitConcatenate.i53.i1.i52(i1, i52) nounwind readnone {
entry:
  %empty = zext i1 %0 to i53
  %empty_38 = zext i52 %1 to i53
  %empty_39 = shl i53 %empty, 52
  %empty_40 = or i53 %empty_39, %empty_38
  ret i53 %empty_40
}

define weak i21 @_ssdm_op_BitConcatenate.i21.i19.i2(i19, i2) nounwind readnone {
entry:
  %empty = zext i19 %0 to i21
  %empty_41 = zext i2 %1 to i21
  %empty_42 = shl i21 %empty, 2
  %empty_43 = or i21 %empty_42, %empty_41
  ret i21 %empty_43
}

declare void @_GLOBAL__I_a20() nounwind

declare void @_GLOBAL__I_a11() nounwind

declare void @_GLOBAL__I_a() nounwind

!hls.encrypted.func = !{}
!llvm.map.gv = !{!0}

!0 = metadata !{metadata !1, [3 x i32]* @llvm_global_ctors_0}
!1 = metadata !{metadata !2}
!2 = metadata !{i32 0, i32 31, metadata !3}
!3 = metadata !{metadata !4}
!4 = metadata !{metadata !"llvm.global_ctors.0", metadata !5, metadata !"", i32 0, i32 31}
!5 = metadata !{metadata !6}
!6 = metadata !{i32 0, i32 2, i32 1}
!7 = metadata !{metadata !8}
!8 = metadata !{i32 0, i32 31, metadata !9}
!9 = metadata !{metadata !10}
!10 = metadata !{metadata !"I", metadata !11, metadata !"float", i32 0, i32 31}
!11 = metadata !{metadata !12}
!12 = metadata !{i32 0, i32 0, i32 0}
!13 = metadata !{metadata !14}
!14 = metadata !{i32 0, i32 31, metadata !15}
!15 = metadata !{metadata !16}
!16 = metadata !{metadata !"Q", metadata !11, metadata !"float", i32 0, i32 31}
!17 = metadata !{metadata !18}
!18 = metadata !{i32 0, i32 31, metadata !19}
!19 = metadata !{metadata !20}
!20 = metadata !{metadata !"R", metadata !21, metadata !"float", i32 0, i32 31}
!21 = metadata !{metadata !22}
!22 = metadata !{i32 0, i32 0, i32 1}
!23 = metadata !{metadata !24}
!24 = metadata !{i32 0, i32 31, metadata !25}
!25 = metadata !{metadata !26}
!26 = metadata !{metadata !"theta", metadata !21, metadata !"float", i32 0, i32 31}
