

================================================================
== Vivado HLS Report for 'fft'
================================================================
* Date:           Sun Nov 13 23:55:07 2016

* Version:        2015.4 (Build 1412921 on Wed Nov 18 09:58:55 AM 2015)
* Project:        fft
* Solution:       solution1
* Product family: zynq
* Target device:  xc7z020clg484-1


================================================================
== Performance Estimates
================================================================
+ Timing (ns): 
    * Summary: 
    +--------+-------+----------+------------+
    |  Clock | Target| Estimated| Uncertainty|
    +--------+-------+----------+------------+
    |ap_clk  |  10.00|      8.41|        1.25|
    +--------+-------+----------+------------+

+ Latency (clock cycles): 
    * Summary: 
    +-------+-----------+-------+-----------+---------+
    |      Latency      |      Interval     | Pipeline|
    |  min  |    max    |  min  |    max    |   Type  |
    +-------+-----------+-------+-----------+---------+
    |  13365|  125858839|  13366|  125858840|   none  |
    +-------+-----------+-------+-----------+---------+

    + Detail: 
        * Instance: 
        N/A

        * Loop: 
        +--------------+-----+-----------+--------------+-----------+-----------+----------+----------+
        |              |     Latency     |   Iteration  |  Initiation Interval  |   Trip   |          |
        |   Loop Name  | min |    max    |    Latency   |  achieved |   target  |   Count  | Pipelined|
        +--------------+-----+-----------+--------------+-----------+-----------+----------+----------+
        |- stages      |   50|  125844500| 5 ~ 12584450 |          -|          -|        10|    no    |
        | + butterfly  |    3|   12584448|   3 ~ 24579  |          -|          -|  1 ~ 512 |    no    |
        |  ++ DFTpts   |    0|      24576|            24|          -|          -| 0 ~ 1024 |    no    |
        +--------------+-----+-----------+--------------+-----------+-----------+----------+----------+

============================================================
+ Verbose Summary: Synthesis Manager
============================================================
InlineROM: 1
ExposeGlobal: 0
============================================================
+ Verbose Summary: CDFG Model
============================================================
IsTopModel: 1
ResetActiveHigh: 1
IsCombinational: 0
IsDatapathOnly: 0
HasWiredReturn: 1
HasMFsm: 0
HasVarLatency: 1
IsPipeline: 0
IsRtlPipelined: 0
IsInstanceOverlapped: 0
IsDontTouch: 0
HasImplIP: 0
IsGatedGlobalClock: 0


============================================================
+ Verbose Summary: Schedule
============================================================
* Number of FSM states: 29
* Pipeline: 0
* Dataflow Pipeline: 0

* FSM state transitions: 
1 --> 
	2  / true
2 --> 
	3  / true
3 --> 
	4  / (!exitcond)
4 --> 
	5  / (!exitcond1)
	3  / (exitcond1)
5 --> 
	6  / true
6 --> 
	7  / (icmp)
	4  / (!icmp)
7 --> 
	8  / true
8 --> 
	9  / true
9 --> 
	10  / true
10 --> 
	11  / true
11 --> 
	12  / true
12 --> 
	13  / true
13 --> 
	14  / true
14 --> 
	15  / true
15 --> 
	16  / true
16 --> 
	17  / true
17 --> 
	18  / true
18 --> 
	19  / true
19 --> 
	20  / true
20 --> 
	21  / true
21 --> 
	22  / true
22 --> 
	23  / true
23 --> 
	24  / true
24 --> 
	25  / true
25 --> 
	26  / true
26 --> 
	27  / true
27 --> 
	28  / true
28 --> 
	29  / true
29 --> 
	6  / true
* FSM state operations: 

 <State 1>: 0.00ns
ST_1: stg_30 [2/2] 0.00ns
:3  call fastcc void @fft_bit_reverse([1024 x float]* %X_R, [1024 x float]* %X_I) nounwind


 <State 2>: 1.57ns
ST_2: stg_31 [1/1] 0.00ns
:0  call void (...)* @_ssdm_op_SpecBitsMap([1024 x float]* %X_R) nounwind, !map !7

ST_2: stg_32 [1/1] 0.00ns
:1  call void (...)* @_ssdm_op_SpecBitsMap([1024 x float]* %X_I) nounwind, !map !13

ST_2: stg_33 [1/1] 0.00ns
:2  call void (...)* @_ssdm_op_SpecTopModule([4 x i8]* @fft_str) nounwind

ST_2: stg_34 [1/2] 0.00ns
:3  call fastcc void @fft_bit_reverse([1024 x float]* %X_R, [1024 x float]* %X_I) nounwind

ST_2: stg_35 [1/1] 1.57ns
:4  br label %1


 <State 3>: 1.88ns
ST_3: step [1/1] 0.00ns
:0  %step = phi i32 [ 512, %0 ], [ %step_1, %8 ]

ST_3: stage [1/1] 0.00ns
:1  %stage = phi i4 [ 1, %0 ], [ %stage_1, %8 ]

ST_3: stage_cast2 [1/1] 0.00ns
:2  %stage_cast2 = zext i4 %stage to i11

ST_3: exitcond [1/1] 1.88ns
:3  %exitcond = icmp eq i4 %stage, -5

ST_3: stg_40 [1/1] 0.00ns
:4  call void (...)* @_ssdm_op_SpecLoopTripCount(i64 10, i64 10, i64 10)

ST_3: stg_41 [1/1] 0.00ns
:5  br i1 %exitcond, label %9, label %2

ST_3: stg_42 [1/1] 0.00ns
:0  call void (...)* @_ssdm_op_SpecLoopName([7 x i8]* @p_str) nounwind

ST_3: tmp_8 [1/1] 0.00ns
:1  %tmp_8 = call i32 (...)* @_ssdm_op_SpecRegionBegin([7 x i8]* @p_str) nounwind

ST_3: DFTpts [1/1] 1.18ns
:2  %DFTpts = shl i11 1, %stage_cast2

ST_3: DFTpts_cast [1/1] 0.00ns
:3  %DFTpts_cast = zext i11 %DFTpts to i32

ST_3: p_lshr_f_cast [1/1] 0.00ns
:4  %p_lshr_f_cast = call i10 @_ssdm_op_PartSelect.i10.i11.i32.i32(i11 %DFTpts, i32 1, i32 10)

ST_3: numBF [1/1] 0.00ns
:5  %numBF = zext i10 %p_lshr_f_cast to i32

ST_3: stg_48 [1/1] 1.57ns
:6  br label %3

ST_3: stg_49 [1/1] 0.00ns
:0  ret void


 <State 4>: 6.25ns
ST_4: i [1/1] 0.00ns
:0  %i = phi i10 [ 0, %2 ], [ %j, %7 ]

ST_4: k [1/1] 0.00ns
:1  %k = phi i32 [ 0, %2 ], [ %k_1, %7 ]

ST_4: i_cast1 [1/1] 0.00ns
:2  %i_cast1 = zext i10 %i to i32

ST_4: stg_53 [1/1] 0.00ns
:3  call void (...)* @_ssdm_op_SpecLoopTripCount(i64 1, i64 512, i64 256)

ST_4: exitcond1 [1/1] 2.07ns
:4  %exitcond1 = icmp eq i10 %i, %p_lshr_f_cast

ST_4: j [1/1] 1.84ns
:5  %j = add i10 %i, 1

ST_4: stg_56 [1/1] 0.00ns
:6  br i1 %exitcond1, label %8, label %4

ST_4: tmp_5 [1/1] 0.00ns
:2  %tmp_5 = sext i32 %k to i64

ST_4: W_real_addr [1/1] 0.00ns
:3  %W_real_addr = getelementptr inbounds [512 x float]* @W_real, i64 0, i64 %tmp_5

ST_4: c [2/2] 2.39ns
:4  %c = load float* %W_real_addr, align 4

ST_4: W_imag_addr [1/1] 0.00ns
:5  %W_imag_addr = getelementptr inbounds [512 x float]* @W_imag, i64 0, i64 %tmp_5

ST_4: s [2/2] 2.39ns
:6  %s = load float* %W_imag_addr, align 4

ST_4: tmp_12 [1/1] 0.00ns
:0  %tmp_12 = call i1 @_ssdm_op_BitSelect.i1.i32.i32(i32 %step, i32 31)

ST_4: p_neg1 [1/1] 2.44ns
:1  %p_neg1 = sub i32 0, %step

ST_4: p_lshr1 [1/1] 0.00ns
:2  %p_lshr1 = call i31 @_ssdm_op_PartSelect.i31.i32.i32.i32(i32 %p_neg1, i32 1, i32 31)

ST_4: tmp [1/1] 0.00ns
:3  %tmp = zext i31 %p_lshr1 to i32

ST_4: p_neg_t1 [1/1] 2.44ns
:4  %p_neg_t1 = sub i32 0, %tmp

ST_4: p_lshr_f1 [1/1] 0.00ns
:5  %p_lshr_f1 = call i31 @_ssdm_op_PartSelect.i31.i32.i32.i32(i32 %step, i32 1, i32 31)

ST_4: tmp_15 [1/1] 0.00ns
:6  %tmp_15 = zext i31 %p_lshr_f1 to i32

ST_4: step_1 [1/1] 1.37ns
:7  %step_1 = select i1 %tmp_12, i32 %p_neg_t1, i32 %tmp_15

ST_4: empty_9 [1/1] 0.00ns
:8  %empty_9 = call i32 (...)* @_ssdm_op_SpecRegionEnd([7 x i8]* @p_str, i32 %tmp_8) nounwind

ST_4: stage_1 [1/1] 0.80ns
:9  %stage_1 = add i4 %stage, 1

ST_4: stg_72 [1/1] 0.00ns
:10  br label %1


 <State 5>: 2.39ns
ST_5: stg_73 [1/1] 0.00ns
:0  call void (...)* @_ssdm_op_SpecLoopName([10 x i8]* @p_str3) nounwind

ST_5: tmp_13 [1/1] 0.00ns
:1  %tmp_13 = call i32 (...)* @_ssdm_op_SpecRegionBegin([10 x i8]* @p_str3) nounwind

ST_5: c [1/2] 2.39ns
:4  %c = load float* %W_real_addr, align 4

ST_5: s [1/2] 2.39ns
:6  %s = load float* %W_imag_addr, align 4

ST_5: stg_77 [1/1] 1.57ns
:7  br label %5


 <State 6>: 5.15ns
ST_6: i2 [1/1] 0.00ns
:0  %i2 = phi i32 [ %i_cast1, %4 ], [ %i_1, %6 ]

ST_6: tmp_16 [1/1] 0.00ns
:1  %tmp_16 = call i22 @_ssdm_op_PartSelect.i22.i32.i32.i32(i32 %i2, i32 10, i32 31)

ST_6: icmp [1/1] 2.37ns
:2  %icmp = icmp slt i22 %tmp_16, 1

ST_6: stg_81 [1/1] 0.00ns
:3  br i1 %icmp, label %6, label %7

ST_6: i_lower [1/1] 2.44ns
:3  %i_lower = add nsw i32 %i2, %numBF

ST_6: tmp_9 [1/1] 0.00ns
:4  %tmp_9 = sext i32 %i_lower to i64

ST_6: X_R_addr [1/1] 0.00ns
:5  %X_R_addr = getelementptr [1024 x float]* %X_R, i64 0, i64 %tmp_9

ST_6: X_R_load [2/2] 2.71ns
:6  %X_R_load = load float* %X_R_addr, align 4

ST_6: X_I_addr [1/1] 0.00ns
:8  %X_I_addr = getelementptr [1024 x float]* %X_I, i64 0, i64 %tmp_9

ST_6: X_I_load [2/2] 2.71ns
:9  %X_I_load = load float* %X_I_addr, align 4

ST_6: tmp_4 [1/1] 0.00ns
:15  %tmp_4 = sext i32 %i2 to i64

ST_6: X_R_addr_1 [1/1] 0.00ns
:16  %X_R_addr_1 = getelementptr [1024 x float]* %X_R, i64 0, i64 %tmp_4

ST_6: X_I_addr_1 [1/1] 0.00ns
:20  %X_I_addr_1 = getelementptr [1024 x float]* %X_I, i64 0, i64 %tmp_4

ST_6: i_1 [1/1] 2.44ns
:31  %i_1 = add nsw i32 %DFTpts_cast, %i2

ST_6: k_1 [1/1] 2.44ns
:0  %k_1 = add nsw i32 %step, %k

ST_6: empty_8 [1/1] 0.00ns
:1  %empty_8 = call i32 (...)* @_ssdm_op_SpecRegionEnd([10 x i8]* @p_str3, i32 %tmp_13) nounwind

ST_6: stg_94 [1/1] 0.00ns
:2  br label %3


 <State 7>: 8.41ns
ST_7: X_R_load [1/2] 2.71ns
:6  %X_R_load = load float* %X_R_addr, align 4

ST_7: tmp_s [4/4] 5.70ns
:7  %tmp_s = fmul float %X_R_load, %c

ST_7: X_I_load [1/2] 2.71ns
:9  %X_I_load = load float* %X_I_addr, align 4

ST_7: tmp_1 [4/4] 5.70ns
:10  %tmp_1 = fmul float %X_I_load, %s

ST_7: tmp_2 [4/4] 5.70ns
:12  %tmp_2 = fmul float %X_I_load, %c

ST_7: tmp_3 [4/4] 5.70ns
:13  %tmp_3 = fmul float %X_R_load, %s


 <State 8>: 5.70ns
ST_8: tmp_s [3/4] 5.70ns
:7  %tmp_s = fmul float %X_R_load, %c

ST_8: tmp_1 [3/4] 5.70ns
:10  %tmp_1 = fmul float %X_I_load, %s

ST_8: tmp_2 [3/4] 5.70ns
:12  %tmp_2 = fmul float %X_I_load, %c

ST_8: tmp_3 [3/4] 5.70ns
:13  %tmp_3 = fmul float %X_R_load, %s


 <State 9>: 5.70ns
ST_9: tmp_s [2/4] 5.70ns
:7  %tmp_s = fmul float %X_R_load, %c

ST_9: tmp_1 [2/4] 5.70ns
:10  %tmp_1 = fmul float %X_I_load, %s

ST_9: tmp_2 [2/4] 5.70ns
:12  %tmp_2 = fmul float %X_I_load, %c

ST_9: tmp_3 [2/4] 5.70ns
:13  %tmp_3 = fmul float %X_R_load, %s


 <State 10>: 5.70ns
ST_10: tmp_s [1/4] 5.70ns
:7  %tmp_s = fmul float %X_R_load, %c

ST_10: tmp_1 [1/4] 5.70ns
:10  %tmp_1 = fmul float %X_I_load, %s

ST_10: tmp_2 [1/4] 5.70ns
:12  %tmp_2 = fmul float %X_I_load, %c

ST_10: tmp_3 [1/4] 5.70ns
:13  %tmp_3 = fmul float %X_R_load, %s


 <State 11>: 7.26ns
ST_11: temp_R [5/5] 7.26ns
:11  %temp_R = fsub float %tmp_s, %tmp_1

ST_11: temp_I [5/5] 7.26ns
:14  %temp_I = fadd float %tmp_2, %tmp_3


 <State 12>: 7.26ns
ST_12: temp_R [4/5] 7.26ns
:11  %temp_R = fsub float %tmp_s, %tmp_1

ST_12: temp_I [4/5] 7.26ns
:14  %temp_I = fadd float %tmp_2, %tmp_3


 <State 13>: 7.26ns
ST_13: temp_R [3/5] 7.26ns
:11  %temp_R = fsub float %tmp_s, %tmp_1

ST_13: temp_I [3/5] 7.26ns
:14  %temp_I = fadd float %tmp_2, %tmp_3


 <State 14>: 7.26ns
ST_14: temp_R [2/5] 7.26ns
:11  %temp_R = fsub float %tmp_s, %tmp_1

ST_14: temp_I [2/5] 7.26ns
:14  %temp_I = fadd float %tmp_2, %tmp_3

ST_14: X_R_load_1 [2/2] 2.71ns
:17  %X_R_load_1 = load float* %X_R_addr_1, align 4

ST_14: X_I_load_1 [2/2] 2.71ns
:21  %X_I_load_1 = load float* %X_I_addr_1, align 4


 <State 15>: 7.26ns
ST_15: temp_R [1/5] 7.26ns
:11  %temp_R = fsub float %tmp_s, %tmp_1

ST_15: temp_I [1/5] 7.26ns
:14  %temp_I = fadd float %tmp_2, %tmp_3

ST_15: X_R_load_1 [1/2] 2.71ns
:17  %X_R_load_1 = load float* %X_R_addr_1, align 4

ST_15: X_I_load_1 [1/2] 2.71ns
:21  %X_I_load_1 = load float* %X_I_addr_1, align 4


 <State 16>: 7.26ns
ST_16: tmp_6 [5/5] 7.26ns
:18  %tmp_6 = fsub float %X_R_load_1, %temp_R

ST_16: tmp_7 [5/5] 7.26ns
:22  %tmp_7 = fsub float %X_I_load_1, %temp_I


 <State 17>: 7.26ns
ST_17: tmp_6 [4/5] 7.26ns
:18  %tmp_6 = fsub float %X_R_load_1, %temp_R

ST_17: tmp_7 [4/5] 7.26ns
:22  %tmp_7 = fsub float %X_I_load_1, %temp_I


 <State 18>: 7.26ns
ST_18: tmp_6 [3/5] 7.26ns
:18  %tmp_6 = fsub float %X_R_load_1, %temp_R

ST_18: tmp_7 [3/5] 7.26ns
:22  %tmp_7 = fsub float %X_I_load_1, %temp_I


 <State 19>: 7.26ns
ST_19: tmp_6 [2/5] 7.26ns
:18  %tmp_6 = fsub float %X_R_load_1, %temp_R

ST_19: tmp_7 [2/5] 7.26ns
:22  %tmp_7 = fsub float %X_I_load_1, %temp_I


 <State 20>: 7.26ns
ST_20: tmp_6 [1/5] 7.26ns
:18  %tmp_6 = fsub float %X_R_load_1, %temp_R

ST_20: tmp_7 [1/5] 7.26ns
:22  %tmp_7 = fsub float %X_I_load_1, %temp_I


 <State 21>: 2.71ns
ST_21: stg_137 [1/1] 2.71ns
:19  store float %tmp_6, float* %X_R_addr, align 4

ST_21: stg_138 [1/1] 2.71ns
:23  store float %tmp_7, float* %X_I_addr, align 4


 <State 22>: 2.71ns
ST_22: X_R_load_2 [2/2] 2.71ns
:24  %X_R_load_2 = load float* %X_R_addr_1, align 4

ST_22: X_I_load_2 [2/2] 2.71ns
:27  %X_I_load_2 = load float* %X_I_addr_1, align 4


 <State 23>: 2.71ns
ST_23: X_R_load_2 [1/2] 2.71ns
:24  %X_R_load_2 = load float* %X_R_addr_1, align 4

ST_23: X_I_load_2 [1/2] 2.71ns
:27  %X_I_load_2 = load float* %X_I_addr_1, align 4


 <State 24>: 7.26ns
ST_24: tmp_10 [5/5] 7.26ns
:25  %tmp_10 = fadd float %X_R_load_2, %temp_R

ST_24: tmp_11 [5/5] 7.26ns
:28  %tmp_11 = fadd float %X_I_load_2, %temp_I


 <State 25>: 7.26ns
ST_25: tmp_10 [4/5] 7.26ns
:25  %tmp_10 = fadd float %X_R_load_2, %temp_R

ST_25: tmp_11 [4/5] 7.26ns
:28  %tmp_11 = fadd float %X_I_load_2, %temp_I


 <State 26>: 7.26ns
ST_26: tmp_10 [3/5] 7.26ns
:25  %tmp_10 = fadd float %X_R_load_2, %temp_R

ST_26: tmp_11 [3/5] 7.26ns
:28  %tmp_11 = fadd float %X_I_load_2, %temp_I


 <State 27>: 7.26ns
ST_27: tmp_10 [2/5] 7.26ns
:25  %tmp_10 = fadd float %X_R_load_2, %temp_R

ST_27: tmp_11 [2/5] 7.26ns
:28  %tmp_11 = fadd float %X_I_load_2, %temp_I


 <State 28>: 7.26ns
ST_28: tmp_10 [1/5] 7.26ns
:25  %tmp_10 = fadd float %X_R_load_2, %temp_R

ST_28: tmp_11 [1/5] 7.26ns
:28  %tmp_11 = fadd float %X_I_load_2, %temp_I


 <State 29>: 2.71ns
ST_29: stg_153 [1/1] 0.00ns
:0  call void (...)* @_ssdm_op_SpecLoopName([7 x i8]* @p_str4) nounwind

ST_29: tmp_14 [1/1] 0.00ns
:1  %tmp_14 = call i32 (...)* @_ssdm_op_SpecRegionBegin([7 x i8]* @p_str4) nounwind

ST_29: stg_155 [1/1] 0.00ns
:2  call void (...)* @_ssdm_op_SpecLoopTripCount(i32 0, i32 1024, i32 512, [1 x i8]* @p_str1) nounwind

ST_29: stg_156 [1/1] 2.71ns
:26  store float %tmp_10, float* %X_R_addr_1, align 4

ST_29: stg_157 [1/1] 2.71ns
:29  store float %tmp_11, float* %X_I_addr_1, align 4

ST_29: empty [1/1] 0.00ns
:30  %empty = call i32 (...)* @_ssdm_op_SpecRegionEnd([7 x i8]* @p_str4, i32 %tmp_14) nounwind

ST_29: stg_159 [1/1] 0.00ns
:32  br label %5



============================================================
+ Verbose Summary: Binding
============================================================
N/A
* FSMD analyzer results:
  - Output states:
  - Chain level:
	State 1
	State 2
	State 3
	State 4
	State 5
	State 6
	State 7
	State 8
	State 9
	State 10
	State 11
	State 12
	State 13
	State 14
	State 15
	State 16
	State 17
	State 18
	State 19
	State 20
	State 21
	State 22
	State 23
	State 24
	State 25
	State 26
	State 27
	State 28
	State 29


============================================================
+ Verbose Summary: Datapath Resource usage 
============================================================
N/A
