; ModuleID = 'D:/Projects/vivado/project_3/dft_256_precomputed/dft/dft_opt4/.autopilot/db/a.o.2.bc'
target datalayout = "e-p:64:64:64-i1:8:8-i8:8:8-i16:16:16-i32:32:32-i64:64:64-f32:32:32-f64:64:64-v64:64:64-v128:128:128-a0:0:64-s0:64:64-f80:128:128-n8:16:32:64-S128"
target triple = "x86_64-w64-mingw32"

@sct_1 = internal unnamed_addr constant [128 x float] [float 0xBF992146A0000000, float 0xBFB2D527E0000000, float 0xBFBF5653C0000000, float 0xBFC5E21540000000, float 0xBFCC0B8060000000, float 0xBFD111D360000000, float 0xBFD4135DA0000000, float 0xBFD7088500000000, float 0xBFD9EF7800000000, float 0xBFDCC66D40000000, float 0xBFDF8BA400000000, float 0xBFE11EB420000000, float 0xBFE26D04E0000000, float 0xBFE3AFFB00000000, float 0xBFE4E6CB20000000, float 0xBFE610B840000000, float 0xBFE72D0800000000, float 0xBFE83B0E60000000, float 0xBFE93A2160000000, float 0xBFEA29A800000000, float 0xBFEB090B40000000, float 0xBFEBD7C0C0000000, float 0xBFEC954A80000000, float 0xBFED413560000000, float 0xBFEDDB1420000000, float 0xBFEE628880000000, float 0xBFEED740C0000000, float 0xBFEF38F360000000, float 0xBFEF8765C0000000, float 0xBFEFC26560000000, float 0xBFEFE9CCC0000000, float 0xBFEFFD88C0000000, float 0xBFEFFD88C0000000, float 0xBFEFE9CCC0000000, float 0xBFEFC26560000000, float 0xBFEF8765C0000000, float 0xBFEF38F360000000, float 0xBFEED740C0000000, float 0xBFEE628880000000, float 0xBFEDDB1420000000, float 0xBFED413560000000, float 0xBFEC954A80000000, float 0xBFEBD7C0C0000000, float 0xBFEB090B40000000, float 0xBFEA29A800000000, float 0xBFE93A2160000000, float 0xBFE83B0E60000000, float 0xBFE72D0800000000, float 0xBFE610B840000000, float 0xBFE4E6CB20000000, float 0xBFE3AFFB00000000, float 0xBFE26D04E0000000, float 0xBFE11EB420000000, float 0xBFDF8BA400000000, float 0xBFDCC66D40000000, float 0xBFD9EF7800000000, float 0xBFD7088500000000, float 0xBFD4135DA0000000, float 0xBFD111D360000000, float 0xBFCC0B8060000000, float 0xBFC5E21540000000, float 0xBFBF5653C0000000, float 0xBFB2D527E0000000, float 0xBF992146A0000000, float 0x3F992146A0000000, float 0x3FB2D527E0000000, float 0x3FBF5653C0000000, float 0x3FC5E21540000000, float 0x3FCC0B8060000000, float 0x3FD111D360000000, float 0x3FD4135DA0000000, float 0x3FD7088500000000, float 0x3FD9EF7800000000, float 0x3FDCC66D40000000, float 0x3FDF8BA400000000, float 0x3FE11EB420000000, float 0x3FE26D04E0000000, float 0x3FE3AFFB00000000, float 0x3FE4E6CB20000000, float 0x3FE610B840000000, float 0x3FE72D0800000000, float 0x3FE83B0E60000000, float 0x3FE93A2160000000, float 0x3FEA29A800000000, float 0x3FEB090B40000000, float 0x3FEBD7C0C0000000, float 0x3FEC954A80000000, float 0x3FED413560000000, float 0x3FEDDB1420000000, float 0x3FEE628880000000, float 0x3FEED740C0000000, float 0x3FEF38F360000000, float 0x3FEF8765C0000000, float 0x3FEFC26560000000, float 0x3FEFE9CCC0000000, float 0x3FEFFD88C0000000, float 0x3FEFFD88C0000000, float 0x3FEFE9CCC0000000, float 0x3FEFC26560000000, float 0x3FEF8765C0000000, float 0x3FEF38F360000000, float 0x3FEED740C0000000, float 0x3FEE628880000000, float 0x3FEDDB1420000000, float 0x3FED413560000000, float 0x3FEC954A80000000, float 0x3FEBD7C0C0000000, float 0x3FEB090B40000000, float 0x3FEA29A800000000, float 0x3FE93A2160000000, float 0x3FE83B0E60000000, float 0x3FE72D0800000000, float 0x3FE610B840000000, float 0x3FE4E6CB20000000, float 0x3FE3AFFB00000000, float 0x3FE26D04E0000000, float 0x3FE11EB420000000, float 0x3FDF8BA400000000, float 0x3FDCC66D40000000, float 0x3FD9EF7800000000, float 0x3FD7088500000000, float 0x3FD4135DA0000000, float 0x3FD111D360000000, float 0x3FCC0B8060000000, float 0x3FC5E21540000000, float 0x3FBF5653C0000000, float 0x3FB2D527E0000000, float 0x3F992146A0000000]
@sct_0 = internal unnamed_addr constant [128 x float] [float 0.000000e+00, float 0xBFA91F70E0000000, float 0xBFB917A460000000, float 0xBFC2C80C80000000, float 0xBFC8F8B580000000, float 0xBFCF19F800000000, float 0xBFD2940780000000, float 0xBFD58F9B20000000, float 0xBFD87DE0E0000000, float 0xBFDB5D0FA0000000, float 0xBFDE2B5E60000000, float 0xBFE0738820000000, float 0xBFE1C73AC0000000, float 0xBFE30FF760000000, float 0xBFE44CF280000000, float 0xBFE57D6940000000, float 0xBFE6A09EE0000000, float 0xBFE7B5DEE0000000, float 0xBFE8BC7F80000000, float 0xBFE9B3E140000000, float 0xBFEA9B6700000000, float 0xBFEB728420000000, float 0xBFEC38B260000000, float 0xBFECED7A60000000, float 0xBFED906CC0000000, float 0xBFEE2120E0000000, float 0xBFEE9F40A0000000, float 0xBFEF0A7E80000000, float 0xBFEF629740000000, float 0xBFEFA75680000000, float 0xBFEFD88E40000000, float 0xBFEFF620E0000000, float -1.000000e+00, float 0xBFEFF620E0000000, float 0xBFEFD88E40000000, float 0xBFEFA75680000000, float 0xBFEF629740000000, float 0xBFEF0A7E80000000, float 0xBFEE9F40A0000000, float 0xBFEE2120E0000000, float 0xBFED906CC0000000, float 0xBFECED7A60000000, float 0xBFEC38B260000000, float 0xBFEB728420000000, float 0xBFEA9B6700000000, float 0xBFE9B3E140000000, float 0xBFE8BC7F80000000, float 0xBFE7B5DEE0000000, float 0xBFE6A09EE0000000, float 0xBFE57D6940000000, float 0xBFE44CF280000000, float 0xBFE30FF760000000, float 0xBFE1C73AC0000000, float 0xBFE0738820000000, float 0xBFDE2B5E60000000, float 0xBFDB5D0FA0000000, float 0xBFD87DE0E0000000, float 0xBFD58F9B20000000, float 0xBFD2940780000000, float 0xBFCF19F800000000, float 0xBFC8F8B580000000, float 0xBFC2C80C80000000, float 0xBFB917A460000000, float 0xBFA91F70E0000000, float -0.000000e+00, float 0x3FA91F70E0000000, float 0x3FB917A460000000, float 0x3FC2C80C80000000, float 0x3FC8F8B580000000, float 0x3FCF19F800000000, float 0x3FD2940780000000, float 0x3FD58F9B20000000, float 0x3FD87DE0E0000000, float 0x3FDB5D0FA0000000, float 0x3FDE2B5E60000000, float 0x3FE0738820000000, float 0x3FE1C73AC0000000, float 0x3FE30FF760000000, float 0x3FE44CF280000000, float 0x3FE57D6940000000, float 0x3FE6A09EE0000000, float 0x3FE7B5DEE0000000, float 0x3FE8BC7F80000000, float 0x3FE9B3E140000000, float 0x3FEA9B6700000000, float 0x3FEB728420000000, float 0x3FEC38B260000000, float 0x3FECED7A60000000, float 0x3FED906CC0000000, float 0x3FEE2120E0000000, float 0x3FEE9F40A0000000, float 0x3FEF0A7E80000000, float 0x3FEF629740000000, float 0x3FEFA75680000000, float 0x3FEFD88E40000000, float 0x3FEFF620E0000000, float 1.000000e+00, float 0x3FEFF620E0000000, float 0x3FEFD88E40000000, float 0x3FEFA75680000000, float 0x3FEF629740000000, float 0x3FEF0A7E80000000, float 0x3FEE9F40A0000000, float 0x3FEE2120E0000000, float 0x3FED906CC0000000, float 0x3FECED7A60000000, float 0x3FEC38B260000000, float 0x3FEB728420000000, float 0x3FEA9B6700000000, float 0x3FE9B3E140000000, float 0x3FE8BC7F80000000, float 0x3FE7B5DEE0000000, float 0x3FE6A09EE0000000, float 0x3FE57D6940000000, float 0x3FE44CF280000000, float 0x3FE30FF760000000, float 0x3FE1C73AC0000000, float 0x3FE0738820000000, float 0x3FDE2B5E60000000, float 0x3FDB5D0FA0000000, float 0x3FD87DE0E0000000, float 0x3FD58F9B20000000, float 0x3FD2940780000000, float 0x3FCF19F800000000, float 0x3FC8F8B580000000, float 0x3FC2C80C80000000, float 0x3FB917A460000000, float 0x3FA91F70E0000000]
@llvm_global_ctors_1 = appending global [1 x void ()*] [void ()* @_GLOBAL__I_a]
@llvm_global_ctors_0 = appending global [1 x i32] [i32 65535]
@dft_str = internal unnamed_addr constant [4 x i8] c"dft\00"
@cct_1 = internal unnamed_addr constant [128 x float] [float 0x3FEFFD88C0000000, float 0x3FEFE9CCC0000000, float 0x3FEFC26560000000, float 0x3FEF8765C0000000, float 0x3FEF38F360000000, float 0x3FEED740C0000000, float 0x3FEE628880000000, float 0x3FEDDB1420000000, float 0x3FED413560000000, float 0x3FEC954A80000000, float 0x3FEBD7C0C0000000, float 0x3FEB090B40000000, float 0x3FEA29A800000000, float 0x3FE93A2160000000, float 0x3FE83B0E60000000, float 0x3FE72D0800000000, float 0x3FE610B840000000, float 0x3FE4E6CB20000000, float 0x3FE3AFFB00000000, float 0x3FE26D04E0000000, float 0x3FE11EB420000000, float 0x3FDF8BA400000000, float 0x3FDCC66D40000000, float 0x3FD9EF7800000000, float 0x3FD7088500000000, float 0x3FD4135DA0000000, float 0x3FD111D360000000, float 0x3FCC0B8060000000, float 0x3FC5E21540000000, float 0x3FBF5653C0000000, float 0x3FB2D527E0000000, float 0x3F992146A0000000, float 0xBF992146A0000000, float 0xBFB2D527E0000000, float 0xBFBF5653C0000000, float 0xBFC5E21540000000, float 0xBFCC0B8060000000, float 0xBFD111D360000000, float 0xBFD4135DA0000000, float 0xBFD7088500000000, float 0xBFD9EF7800000000, float 0xBFDCC66D40000000, float 0xBFDF8BA400000000, float 0xBFE11EB420000000, float 0xBFE26D04E0000000, float 0xBFE3AFFB00000000, float 0xBFE4E6CB20000000, float 0xBFE610B840000000, float 0xBFE72D0800000000, float 0xBFE83B0E60000000, float 0xBFE93A2160000000, float 0xBFEA29A800000000, float 0xBFEB090B40000000, float 0xBFEBD7C0C0000000, float 0xBFEC954A80000000, float 0xBFED413560000000, float 0xBFEDDB1420000000, float 0xBFEE628880000000, float 0xBFEED740C0000000, float 0xBFEF38F360000000, float 0xBFEF8765C0000000, float 0xBFEFC26560000000, float 0xBFEFE9CCC0000000, float 0xBFEFFD88C0000000, float 0xBFEFFD88C0000000, float 0xBFEFE9CCC0000000, float 0xBFEFC26560000000, float 0xBFEF8765C0000000, float 0xBFEF38F360000000, float 0xBFEED740C0000000, float 0xBFEE628880000000, float 0xBFEDDB1420000000, float 0xBFED413560000000, float 0xBFEC954A80000000, float 0xBFEBD7C0C0000000, float 0xBFEB090B40000000, float 0xBFEA29A800000000, float 0xBFE93A2160000000, float 0xBFE83B0E60000000, float 0xBFE72D0800000000, float 0xBFE610B840000000, float 0xBFE4E6CB20000000, float 0xBFE3AFFB00000000, float 0xBFE26D04E0000000, float 0xBFE11EB420000000, float 0xBFDF8BA400000000, float 0xBFDCC66D40000000, float 0xBFD9EF7800000000, float 0xBFD7088500000000, float 0xBFD4135DA0000000, float 0xBFD111D360000000, float 0xBFCC0B8060000000, float 0xBFC5E21540000000, float 0xBFBF5653C0000000, float 0xBFB2D527E0000000, float 0xBF992146A0000000, float 0x3F992146A0000000, float 0x3FB2D527E0000000, float 0x3FBF5653C0000000, float 0x3FC5E21540000000, float 0x3FCC0B8060000000, float 0x3FD111D360000000, float 0x3FD4135DA0000000, float 0x3FD7088500000000, float 0x3FD9EF7800000000, float 0x3FDCC66D40000000, float 0x3FDF8BA400000000, float 0x3FE11EB420000000, float 0x3FE26D04E0000000, float 0x3FE3AFFB00000000, float 0x3FE4E6CB20000000, float 0x3FE610B840000000, float 0x3FE72D0800000000, float 0x3FE83B0E60000000, float 0x3FE93A2160000000, float 0x3FEA29A800000000, float 0x3FEB090B40000000, float 0x3FEBD7C0C0000000, float 0x3FEC954A80000000, float 0x3FED413560000000, float 0x3FEDDB1420000000, float 0x3FEE628880000000, float 0x3FEED740C0000000, float 0x3FEF38F360000000, float 0x3FEF8765C0000000, float 0x3FEFC26560000000, float 0x3FEFE9CCC0000000, float 0x3FEFFD88C0000000]
@cct_0 = internal unnamed_addr constant [128 x float] [float 1.000000e+00, float 0x3FEFF620E0000000, float 0x3FEFD88E40000000, float 0x3FEFA75680000000, float 0x3FEF629740000000, float 0x3FEF0A7E80000000, float 0x3FEE9F40A0000000, float 0x3FEE2120E0000000, float 0x3FED906CC0000000, float 0x3FECED7A60000000, float 0x3FEC38B260000000, float 0x3FEB728420000000, float 0x3FEA9B6700000000, float 0x3FE9B3E140000000, float 0x3FE8BC7F80000000, float 0x3FE7B5DEE0000000, float 0x3FE6A09EE0000000, float 0x3FE57D6940000000, float 0x3FE44CF280000000, float 0x3FE30FF760000000, float 0x3FE1C73AC0000000, float 0x3FE0738820000000, float 0x3FDE2B5E60000000, float 0x3FDB5D0FA0000000, float 0x3FD87DE0E0000000, float 0x3FD58F9B20000000, float 0x3FD2940780000000, float 0x3FCF19F800000000, float 0x3FC8F8B580000000, float 0x3FC2C80C80000000, float 0x3FB917A460000000, float 0x3FA91F70E0000000, float 0.000000e+00, float 0xBFA91F70E0000000, float 0xBFB917A460000000, float 0xBFC2C80C80000000, float 0xBFC8F8B580000000, float 0xBFCF19F800000000, float 0xBFD2940780000000, float 0xBFD58F9B20000000, float 0xBFD87DE0E0000000, float 0xBFDB5D0FA0000000, float 0xBFDE2B5E60000000, float 0xBFE0738820000000, float 0xBFE1C73AC0000000, float 0xBFE30FF760000000, float 0xBFE44CF280000000, float 0xBFE57D6940000000, float 0xBFE6A09EE0000000, float 0xBFE7B5DEE0000000, float 0xBFE8BC7F80000000, float 0xBFE9B3E140000000, float 0xBFEA9B6700000000, float 0xBFEB728420000000, float 0xBFEC38B260000000, float 0xBFECED7A60000000, float 0xBFED906CC0000000, float 0xBFEE2120E0000000, float 0xBFEE9F40A0000000, float 0xBFEF0A7E80000000, float 0xBFEF629740000000, float 0xBFEFA75680000000, float 0xBFEFD88E40000000, float 0xBFEFF620E0000000, float -1.000000e+00, float 0xBFEFF620E0000000, float 0xBFEFD88E40000000, float 0xBFEFA75680000000, float 0xBFEF629740000000, float 0xBFEF0A7E80000000, float 0xBFEE9F40A0000000, float 0xBFEE2120E0000000, float 0xBFED906CC0000000, float 0xBFECED7A60000000, float 0xBFEC38B260000000, float 0xBFEB728420000000, float 0xBFEA9B6700000000, float 0xBFE9B3E140000000, float 0xBFE8BC7F80000000, float 0xBFE7B5DEE0000000, float 0xBFE6A09EE0000000, float 0xBFE57D6940000000, float 0xBFE44CF280000000, float 0xBFE30FF760000000, float 0xBFE1C73AC0000000, float 0xBFE0738820000000, float 0xBFDE2B5E60000000, float 0xBFDB5D0FA0000000, float 0xBFD87DE0E0000000, float 0xBFD58F9B20000000, float 0xBFD2940780000000, float 0xBFCF19F800000000, float 0xBFC8F8B580000000, float 0xBFC2C80C80000000, float 0xBFB917A460000000, float 0xBFA91F70E0000000, float -0.000000e+00, float 0x3FA91F70E0000000, float 0x3FB917A460000000, float 0x3FC2C80C80000000, float 0x3FC8F8B580000000, float 0x3FCF19F800000000, float 0x3FD2940780000000, float 0x3FD58F9B20000000, float 0x3FD87DE0E0000000, float 0x3FDB5D0FA0000000, float 0x3FDE2B5E60000000, float 0x3FE0738820000000, float 0x3FE1C73AC0000000, float 0x3FE30FF760000000, float 0x3FE44CF280000000, float 0x3FE57D6940000000, float 0x3FE6A09EE0000000, float 0x3FE7B5DEE0000000, float 0x3FE8BC7F80000000, float 0x3FE9B3E140000000, float 0x3FEA9B6700000000, float 0x3FEB728420000000, float 0x3FEC38B260000000, float 0x3FECED7A60000000, float 0x3FED906CC0000000, float 0x3FEE2120E0000000, float 0x3FEE9F40A0000000, float 0x3FEF0A7E80000000, float 0x3FEF629740000000, float 0x3FEFA75680000000, float 0x3FEFD88E40000000, float 0x3FEFF620E0000000]
@p_str3 = private unnamed_addr constant [9 x i8] c"Loop_Col\00", align 1
@p_str2 = private unnamed_addr constant [9 x i8] c"Loop_Row\00", align 1

declare i9 @llvm.part.select.i9(i9, i32, i32) nounwind readnone

declare i8 @llvm.part.select.i8(i8, i32, i32) nounwind readnone

declare i17 @llvm.part.select.i17(i17, i32, i32) nounwind readnone

declare void @llvm.dbg.value(metadata, i64, metadata) nounwind readnone

define void @dft([128 x float]* %real_i_0, [128 x float]* %real_i_1, [128 x float]* %imag_i_0, [128 x float]* %imag_i_1, [128 x float]* %real_o_0, [128 x float]* %real_o_1, [128 x float]* %imag_o_0, [128 x float]* %imag_o_1) {
  call void (...)* @_ssdm_op_SpecBitsMap([128 x float]* %real_i_1), !map !7
  call void (...)* @_ssdm_op_SpecBitsMap([128 x float]* %real_i_0), !map !13
  call void (...)* @_ssdm_op_SpecBitsMap([128 x float]* %imag_i_1), !map !19
  call void (...)* @_ssdm_op_SpecBitsMap([128 x float]* %imag_i_0), !map !23
  call void (...)* @_ssdm_op_SpecBitsMap([128 x float]* %real_o_1), !map !27
  call void (...)* @_ssdm_op_SpecBitsMap([128 x float]* %real_o_0), !map !31
  call void (...)* @_ssdm_op_SpecBitsMap([128 x float]* %imag_o_1), !map !35
  call void (...)* @_ssdm_op_SpecBitsMap([128 x float]* %imag_o_0), !map !39
  call void (...)* @_ssdm_op_SpecTopModule([4 x i8]* @dft_str) nounwind
  br label %1

; <label>:1                                       ; preds = %6, %0
  %i = phi i9 [ 0, %0 ], [ %i_1, %6 ]
  %i_cast3_cast8 = zext i9 %i to i17
  %tmp_3 = trunc i9 %i to i8
  %exitcond1 = icmp eq i9 %i, -256
  %empty = call i32 (...)* @_ssdm_op_SpecLoopTripCount(i64 256, i64 256, i64 256) nounwind
  %i_1 = add i9 1, %i
  br i1 %exitcond1, label %7, label %2

; <label>:2                                       ; preds = %1
  call void (...)* @_ssdm_op_SpecLoopName([9 x i8]* @p_str2) nounwind
  %tmp = call i32 (...)* @_ssdm_op_SpecRegionBegin([9 x i8]* @p_str2) nounwind
  br label %3

; <label>:3                                       ; preds = %branch6_ifconv, %2
  %real_o_tmp = phi float [ 0.000000e+00, %2 ], [ %real_o_tmp_1_1, %branch6_ifconv ]
  %imag_o_tmp = phi float [ 0.000000e+00, %2 ], [ %imag_o_tmp_1_1, %branch6_ifconv ]
  %j = phi i9 [ 0, %2 ], [ %j_1_1, %branch6_ifconv ]
  %empty_8 = call i32 (...)* @_ssdm_op_SpecLoopTripCount(i64 128, i64 128, i64 128) nounwind
  %exitcond = icmp eq i9 %j, -256
  br i1 %exitcond, label %4, label %branch6_ifconv

branch6_ifconv:                                   ; preds = %3
  call void (...)* @_ssdm_op_SpecLoopName([9 x i8]* @p_str3) nounwind
  %tmp_8 = trunc i9 %j to i8
  %tmp_2 = mul i8 %tmp_3, %tmp_8
  %newIndex4 = call i8 @_ssdm_op_PartSelect.i8.i9.i32.i32(i9 %j, i32 1, i32 8)
  %newIndex1 = zext i8 %newIndex4 to i64
  %real_i_0_addr = getelementptr [128 x float]* %real_i_0, i64 0, i64 %newIndex1
  %real_i_0_load = load float* %real_i_0_addr, align 4
  %index_cast = call i7 @_ssdm_op_PartSelect.i7.i8.i32.i32(i8 %tmp_2, i32 1, i32 7)
  %newIndex5 = zext i7 %index_cast to i64
  %cct_0_addr = getelementptr [128 x float]* @cct_0, i64 0, i64 %newIndex5
  %cct_0_load = load float* %cct_0_addr, align 8
  %tmp_5 = fmul float %real_i_0_load, %cct_0_load
  %imag_i_0_addr = getelementptr [128 x float]* %imag_i_0, i64 0, i64 %newIndex1
  %imag_i_0_load = load float* %imag_i_0_addr, align 4
  %sct_0_addr = getelementptr [128 x float]* @sct_0, i64 0, i64 %newIndex5
  %sct_0_load = load float* %sct_0_addr, align 8
  %tmp_6 = fmul float %imag_i_0_load, %sct_0_load
  %tmp_7 = fsub float %tmp_5, %tmp_6
  %real_o_tmp_1 = fadd float %real_o_tmp, %tmp_7
  %tmp_9 = fmul float %real_i_0_load, %sct_0_load
  %tmp_s = fmul float %imag_i_0_load, %cct_0_load
  %tmp_1 = fadd float %tmp_9, %tmp_s
  %imag_o_tmp_1 = fadd float %imag_o_tmp, %tmp_1
  %j_1_s = or i8 %tmp_8, 1
  %j_1_cast_cast = zext i8 %j_1_s to i17
  %tmp_2_1 = mul i17 %i_cast3_cast8, %j_1_cast_cast
  %real_i_1_addr = getelementptr [128 x float]* %real_i_1, i64 0, i64 %newIndex1
  %real_i_1_load = load float* %real_i_1_addr, align 4
  %tmp_10 = trunc i17 %tmp_2_1 to i1
  %index_1_cast = call i7 @_ssdm_op_PartSelect.i7.i17.i32.i32(i17 %tmp_2_1, i32 1, i32 7)
  %newIndex7 = zext i7 %index_1_cast to i64
  %cct_0_addr_1 = getelementptr [128 x float]* @cct_0, i64 0, i64 %newIndex7
  %cct_1_addr = getelementptr [128 x float]* @cct_1, i64 0, i64 %newIndex7
  %cct_1_load = load float* %cct_1_addr, align 4
  %cct_0_load_1 = load float* %cct_0_addr_1, align 4
  %cct_load_1_phi = select i1 %tmp_10, float %cct_1_load, float %cct_0_load_1
  %tmp_5_1 = fmul float %real_i_1_load, %cct_load_1_phi
  %imag_i_1_addr = getelementptr [128 x float]* %imag_i_1, i64 0, i64 %newIndex1
  %imag_i_1_load = load float* %imag_i_1_addr, align 4
  %sct_0_addr_1 = getelementptr [128 x float]* @sct_0, i64 0, i64 %newIndex7
  %sct_1_addr = getelementptr [128 x float]* @sct_1, i64 0, i64 %newIndex7
  %sct_1_load = load float* %sct_1_addr, align 4
  %sct_0_load_1 = load float* %sct_0_addr_1, align 4
  %sct_load_1_phi = select i1 %tmp_10, float %sct_1_load, float %sct_0_load_1
  %tmp_6_1 = fmul float %imag_i_1_load, %sct_load_1_phi
  %tmp_7_1 = fsub float %tmp_5_1, %tmp_6_1
  %real_o_tmp_1_1 = fadd float %real_o_tmp_1, %tmp_7_1
  %tmp_9_1 = fmul float %real_i_1_load, %sct_load_1_phi
  %tmp_1_9 = fmul float %imag_i_1_load, %cct_load_1_phi
  %tmp_1_1 = fadd float %tmp_9_1, %tmp_1_9
  %imag_o_tmp_1_1 = fadd float %imag_o_tmp_1, %tmp_1_1
  %j_1_1 = add i9 2, %j
  br label %3

; <label>:4                                       ; preds = %3
  %tmp_4 = trunc i9 %i to i1
  %newIndex3 = call i8 @_ssdm_op_PartSelect.i8.i9.i32.i32(i9 %i, i32 1, i32 8)
  %newIndex = zext i8 %newIndex3 to i64
  %real_o_0_addr = getelementptr [128 x float]* %real_o_0, i64 0, i64 %newIndex
  %real_o_1_addr = getelementptr [128 x float]* %real_o_1, i64 0, i64 %newIndex
  br i1 %tmp_4, label %branch19, label %branch08

; <label>:5                                       ; preds = %branch19, %branch08
  %imag_o_0_addr = getelementptr [128 x float]* %imag_o_0, i64 0, i64 %newIndex
  %imag_o_1_addr = getelementptr [128 x float]* %imag_o_1, i64 0, i64 %newIndex
  br i1 %tmp_4, label %branch17, label %branch06

; <label>:6                                       ; preds = %branch17, %branch06
  %empty_10 = call i32 (...)* @_ssdm_op_SpecRegionEnd([9 x i8]* @p_str2, i32 %tmp) nounwind
  br label %1

; <label>:7                                       ; preds = %1
  ret void

branch06:                                         ; preds = %5
  store float %imag_o_tmp, float* %imag_o_0_addr, align 4
  br label %6

branch17:                                         ; preds = %5
  store float %imag_o_tmp, float* %imag_o_1_addr, align 4
  br label %6

branch08:                                         ; preds = %4
  store float %real_o_tmp, float* %real_o_0_addr, align 4
  br label %5

branch19:                                         ; preds = %4
  store float %real_o_tmp, float* %real_o_1_addr, align 4
  br label %5
}

define weak void @_ssdm_op_SpecTopModule(...) {
entry:
  ret void
}

define weak i32 @_ssdm_op_SpecRegionEnd(...) {
entry:
  ret i32 0
}

define weak i32 @_ssdm_op_SpecRegionBegin(...) {
entry:
  ret i32 0
}

define weak i32 @_ssdm_op_SpecLoopTripCount(...) {
entry:
  ret i32 0
}

define weak void @_ssdm_op_SpecLoopName(...) nounwind {
entry:
  ret void
}

define weak void @_ssdm_op_SpecBitsMap(...) {
entry:
  ret void
}

define weak i8 @_ssdm_op_PartSelect.i8.i9.i32.i32(i9, i32, i32) nounwind readnone {
entry:
  %empty = call i9 @llvm.part.select.i9(i9 %0, i32 %1, i32 %2)
  %empty_11 = trunc i9 %empty to i8
  ret i8 %empty_11
}

define weak i7 @_ssdm_op_PartSelect.i7.i8.i32.i32(i8, i32, i32) nounwind readnone {
entry:
  %empty = call i8 @llvm.part.select.i8(i8 %0, i32 %1, i32 %2)
  %empty_12 = trunc i8 %empty to i7
  ret i7 %empty_12
}

define weak i7 @_ssdm_op_PartSelect.i7.i17.i32.i32(i17, i32, i32) nounwind readnone {
entry:
  %empty = call i17 @llvm.part.select.i17(i17 %0, i32 %1, i32 %2)
  %empty_13 = trunc i17 %empty to i7
  ret i7 %empty_13
}

declare i1 @_ssdm_op_PartSelect.i1.i9.i32.i32(i9, i32, i32) nounwind readnone

declare i1 @_ssdm_op_PartSelect.i1.i17.i32.i32(i17, i32, i32) nounwind readnone

declare i16 @_ssdm_op_HSub(...)

declare i16 @_ssdm_op_HMul(...)

declare i16 @_ssdm_op_HDiv(...)

declare i16 @_ssdm_op_HAdd(...)

declare void @_GLOBAL__I_a() nounwind

!hls.encrypted.func = !{}
!llvm.map.gv = !{!0}

!0 = metadata !{metadata !1, [1 x i32]* @llvm_global_ctors_0}
!1 = metadata !{metadata !2}
!2 = metadata !{i32 0, i32 31, metadata !3}
!3 = metadata !{metadata !4}
!4 = metadata !{metadata !"llvm.global_ctors.0", metadata !5, metadata !"", i32 0, i32 31}
!5 = metadata !{metadata !6}
!6 = metadata !{i32 0, i32 0, i32 1}
!7 = metadata !{metadata !8}
!8 = metadata !{i32 0, i32 31, metadata !9}
!9 = metadata !{metadata !10}
!10 = metadata !{metadata !"real_i", metadata !11, metadata !"float", i32 0, i32 31}
!11 = metadata !{metadata !12}
!12 = metadata !{i32 1, i32 255, i32 2}
!13 = metadata !{metadata !14}
!14 = metadata !{i32 0, i32 31, metadata !15}
!15 = metadata !{metadata !16}
!16 = metadata !{metadata !"real_i", metadata !17, metadata !"float", i32 0, i32 31}
!17 = metadata !{metadata !18}
!18 = metadata !{i32 0, i32 254, i32 2}
!19 = metadata !{metadata !20}
!20 = metadata !{i32 0, i32 31, metadata !21}
!21 = metadata !{metadata !22}
!22 = metadata !{metadata !"imag_i", metadata !11, metadata !"float", i32 0, i32 31}
!23 = metadata !{metadata !24}
!24 = metadata !{i32 0, i32 31, metadata !25}
!25 = metadata !{metadata !26}
!26 = metadata !{metadata !"imag_i", metadata !17, metadata !"float", i32 0, i32 31}
!27 = metadata !{metadata !28}
!28 = metadata !{i32 0, i32 31, metadata !29}
!29 = metadata !{metadata !30}
!30 = metadata !{metadata !"real_o", metadata !11, metadata !"float", i32 0, i32 31}
!31 = metadata !{metadata !32}
!32 = metadata !{i32 0, i32 31, metadata !33}
!33 = metadata !{metadata !34}
!34 = metadata !{metadata !"real_o", metadata !17, metadata !"float", i32 0, i32 31}
!35 = metadata !{metadata !36}
!36 = metadata !{i32 0, i32 31, metadata !37}
!37 = metadata !{metadata !38}
!38 = metadata !{metadata !"imag_o", metadata !11, metadata !"float", i32 0, i32 31}
!39 = metadata !{metadata !40}
!40 = metadata !{i32 0, i32 31, metadata !41}
!41 = metadata !{metadata !42}
!42 = metadata !{metadata !"imag_o", metadata !17, metadata !"float", i32 0, i32 31}
