; ModuleID = 'D:/Projects/vivado/project_3/dft_256_precomputed/dft/dft_opt4/.autopilot/db/a.o.3.bc'
target datalayout = "e-p:64:64:64-i1:8:8-i8:8:8-i16:16:16-i32:32:32-i64:64:64-f32:32:32-f64:64:64-v64:64:64-v128:128:128-a0:0:64-s0:64:64-f80:128:128-n8:16:32:64-S128"
target triple = "x86_64-w64-mingw32"

@sct_1 = internal unnamed_addr constant [128 x float] [float 0xBF992146A0000000, float 0xBFB2D527E0000000, float 0xBFBF5653C0000000, float 0xBFC5E21540000000, float 0xBFCC0B8060000000, float 0xBFD111D360000000, float 0xBFD4135DA0000000, float 0xBFD7088500000000, float 0xBFD9EF7800000000, float 0xBFDCC66D40000000, float 0xBFDF8BA400000000, float 0xBFE11EB420000000, float 0xBFE26D04E0000000, float 0xBFE3AFFB00000000, float 0xBFE4E6CB20000000, float 0xBFE610B840000000, float 0xBFE72D0800000000, float 0xBFE83B0E60000000, float 0xBFE93A2160000000, float 0xBFEA29A800000000, float 0xBFEB090B40000000, float 0xBFEBD7C0C0000000, float 0xBFEC954A80000000, float 0xBFED413560000000, float 0xBFEDDB1420000000, float 0xBFEE628880000000, float 0xBFEED740C0000000, float 0xBFEF38F360000000, float 0xBFEF8765C0000000, float 0xBFEFC26560000000, float 0xBFEFE9CCC0000000, float 0xBFEFFD88C0000000, float 0xBFEFFD88C0000000, float 0xBFEFE9CCC0000000, float 0xBFEFC26560000000, float 0xBFEF8765C0000000, float 0xBFEF38F360000000, float 0xBFEED740C0000000, float 0xBFEE628880000000, float 0xBFEDDB1420000000, float 0xBFED413560000000, float 0xBFEC954A80000000, float 0xBFEBD7C0C0000000, float 0xBFEB090B40000000, float 0xBFEA29A800000000, float 0xBFE93A2160000000, float 0xBFE83B0E60000000, float 0xBFE72D0800000000, float 0xBFE610B840000000, float 0xBFE4E6CB20000000, float 0xBFE3AFFB00000000, float 0xBFE26D04E0000000, float 0xBFE11EB420000000, float 0xBFDF8BA400000000, float 0xBFDCC66D40000000, float 0xBFD9EF7800000000, float 0xBFD7088500000000, float 0xBFD4135DA0000000, float 0xBFD111D360000000, float 0xBFCC0B8060000000, float 0xBFC5E21540000000, float 0xBFBF5653C0000000, float 0xBFB2D527E0000000, float 0xBF992146A0000000, float 0x3F992146A0000000, float 0x3FB2D527E0000000, float 0x3FBF5653C0000000, float 0x3FC5E21540000000, float 0x3FCC0B8060000000, float 0x3FD111D360000000, float 0x3FD4135DA0000000, float 0x3FD7088500000000, float 0x3FD9EF7800000000, float 0x3FDCC66D40000000, float 0x3FDF8BA400000000, float 0x3FE11EB420000000, float 0x3FE26D04E0000000, float 0x3FE3AFFB00000000, float 0x3FE4E6CB20000000, float 0x3FE610B840000000, float 0x3FE72D0800000000, float 0x3FE83B0E60000000, float 0x3FE93A2160000000, float 0x3FEA29A800000000, float 0x3FEB090B40000000, float 0x3FEBD7C0C0000000, float 0x3FEC954A80000000, float 0x3FED413560000000, float 0x3FEDDB1420000000, float 0x3FEE628880000000, float 0x3FEED740C0000000, float 0x3FEF38F360000000, float 0x3FEF8765C0000000, float 0x3FEFC26560000000, float 0x3FEFE9CCC0000000, float 0x3FEFFD88C0000000, float 0x3FEFFD88C0000000, float 0x3FEFE9CCC0000000, float 0x3FEFC26560000000, float 0x3FEF8765C0000000, float 0x3FEF38F360000000, float 0x3FEED740C0000000, float 0x3FEE628880000000, float 0x3FEDDB1420000000, float 0x3FED413560000000, float 0x3FEC954A80000000, float 0x3FEBD7C0C0000000, float 0x3FEB090B40000000, float 0x3FEA29A800000000, float 0x3FE93A2160000000, float 0x3FE83B0E60000000, float 0x3FE72D0800000000, float 0x3FE610B840000000, float 0x3FE4E6CB20000000, float 0x3FE3AFFB00000000, float 0x3FE26D04E0000000, float 0x3FE11EB420000000, float 0x3FDF8BA400000000, float 0x3FDCC66D40000000, float 0x3FD9EF7800000000, float 0x3FD7088500000000, float 0x3FD4135DA0000000, float 0x3FD111D360000000, float 0x3FCC0B8060000000, float 0x3FC5E21540000000, float 0x3FBF5653C0000000, float 0x3FB2D527E0000000, float 0x3F992146A0000000] ; [#uses=1 type=[128 x float]*]
@sct_0 = internal unnamed_addr constant [128 x float] [float 0.000000e+00, float 0xBFA91F70E0000000, float 0xBFB917A460000000, float 0xBFC2C80C80000000, float 0xBFC8F8B580000000, float 0xBFCF19F800000000, float 0xBFD2940780000000, float 0xBFD58F9B20000000, float 0xBFD87DE0E0000000, float 0xBFDB5D0FA0000000, float 0xBFDE2B5E60000000, float 0xBFE0738820000000, float 0xBFE1C73AC0000000, float 0xBFE30FF760000000, float 0xBFE44CF280000000, float 0xBFE57D6940000000, float 0xBFE6A09EE0000000, float 0xBFE7B5DEE0000000, float 0xBFE8BC7F80000000, float 0xBFE9B3E140000000, float 0xBFEA9B6700000000, float 0xBFEB728420000000, float 0xBFEC38B260000000, float 0xBFECED7A60000000, float 0xBFED906CC0000000, float 0xBFEE2120E0000000, float 0xBFEE9F40A0000000, float 0xBFEF0A7E80000000, float 0xBFEF629740000000, float 0xBFEFA75680000000, float 0xBFEFD88E40000000, float 0xBFEFF620E0000000, float -1.000000e+00, float 0xBFEFF620E0000000, float 0xBFEFD88E40000000, float 0xBFEFA75680000000, float 0xBFEF629740000000, float 0xBFEF0A7E80000000, float 0xBFEE9F40A0000000, float 0xBFEE2120E0000000, float 0xBFED906CC0000000, float 0xBFECED7A60000000, float 0xBFEC38B260000000, float 0xBFEB728420000000, float 0xBFEA9B6700000000, float 0xBFE9B3E140000000, float 0xBFE8BC7F80000000, float 0xBFE7B5DEE0000000, float 0xBFE6A09EE0000000, float 0xBFE57D6940000000, float 0xBFE44CF280000000, float 0xBFE30FF760000000, float 0xBFE1C73AC0000000, float 0xBFE0738820000000, float 0xBFDE2B5E60000000, float 0xBFDB5D0FA0000000, float 0xBFD87DE0E0000000, float 0xBFD58F9B20000000, float 0xBFD2940780000000, float 0xBFCF19F800000000, float 0xBFC8F8B580000000, float 0xBFC2C80C80000000, float 0xBFB917A460000000, float 0xBFA91F70E0000000, float -0.000000e+00, float 0x3FA91F70E0000000, float 0x3FB917A460000000, float 0x3FC2C80C80000000, float 0x3FC8F8B580000000, float 0x3FCF19F800000000, float 0x3FD2940780000000, float 0x3FD58F9B20000000, float 0x3FD87DE0E0000000, float 0x3FDB5D0FA0000000, float 0x3FDE2B5E60000000, float 0x3FE0738820000000, float 0x3FE1C73AC0000000, float 0x3FE30FF760000000, float 0x3FE44CF280000000, float 0x3FE57D6940000000, float 0x3FE6A09EE0000000, float 0x3FE7B5DEE0000000, float 0x3FE8BC7F80000000, float 0x3FE9B3E140000000, float 0x3FEA9B6700000000, float 0x3FEB728420000000, float 0x3FEC38B260000000, float 0x3FECED7A60000000, float 0x3FED906CC0000000, float 0x3FEE2120E0000000, float 0x3FEE9F40A0000000, float 0x3FEF0A7E80000000, float 0x3FEF629740000000, float 0x3FEFA75680000000, float 0x3FEFD88E40000000, float 0x3FEFF620E0000000, float 1.000000e+00, float 0x3FEFF620E0000000, float 0x3FEFD88E40000000, float 0x3FEFA75680000000, float 0x3FEF629740000000, float 0x3FEF0A7E80000000, float 0x3FEE9F40A0000000, float 0x3FEE2120E0000000, float 0x3FED906CC0000000, float 0x3FECED7A60000000, float 0x3FEC38B260000000, float 0x3FEB728420000000, float 0x3FEA9B6700000000, float 0x3FE9B3E140000000, float 0x3FE8BC7F80000000, float 0x3FE7B5DEE0000000, float 0x3FE6A09EE0000000, float 0x3FE57D6940000000, float 0x3FE44CF280000000, float 0x3FE30FF760000000, float 0x3FE1C73AC0000000, float 0x3FE0738820000000, float 0x3FDE2B5E60000000, float 0x3FDB5D0FA0000000, float 0x3FD87DE0E0000000, float 0x3FD58F9B20000000, float 0x3FD2940780000000, float 0x3FCF19F800000000, float 0x3FC8F8B580000000, float 0x3FC2C80C80000000, float 0x3FB917A460000000, float 0x3FA91F70E0000000] ; [#uses=2 type=[128 x float]*]
@llvm_global_ctors_1 = appending global [1 x void ()*] [void ()* @_GLOBAL__I_a] ; [#uses=0 type=[1 x void ()*]*]
@llvm_global_ctors_0 = appending global [1 x i32] [i32 65535] ; [#uses=0 type=[1 x i32]*]
@dft_str = internal unnamed_addr constant [4 x i8] c"dft\00" ; [#uses=1 type=[4 x i8]*]
@cct_1 = internal unnamed_addr constant [128 x float] [float 0x3FEFFD88C0000000, float 0x3FEFE9CCC0000000, float 0x3FEFC26560000000, float 0x3FEF8765C0000000, float 0x3FEF38F360000000, float 0x3FEED740C0000000, float 0x3FEE628880000000, float 0x3FEDDB1420000000, float 0x3FED413560000000, float 0x3FEC954A80000000, float 0x3FEBD7C0C0000000, float 0x3FEB090B40000000, float 0x3FEA29A800000000, float 0x3FE93A2160000000, float 0x3FE83B0E60000000, float 0x3FE72D0800000000, float 0x3FE610B840000000, float 0x3FE4E6CB20000000, float 0x3FE3AFFB00000000, float 0x3FE26D04E0000000, float 0x3FE11EB420000000, float 0x3FDF8BA400000000, float 0x3FDCC66D40000000, float 0x3FD9EF7800000000, float 0x3FD7088500000000, float 0x3FD4135DA0000000, float 0x3FD111D360000000, float 0x3FCC0B8060000000, float 0x3FC5E21540000000, float 0x3FBF5653C0000000, float 0x3FB2D527E0000000, float 0x3F992146A0000000, float 0xBF992146A0000000, float 0xBFB2D527E0000000, float 0xBFBF5653C0000000, float 0xBFC5E21540000000, float 0xBFCC0B8060000000, float 0xBFD111D360000000, float 0xBFD4135DA0000000, float 0xBFD7088500000000, float 0xBFD9EF7800000000, float 0xBFDCC66D40000000, float 0xBFDF8BA400000000, float 0xBFE11EB420000000, float 0xBFE26D04E0000000, float 0xBFE3AFFB00000000, float 0xBFE4E6CB20000000, float 0xBFE610B840000000, float 0xBFE72D0800000000, float 0xBFE83B0E60000000, float 0xBFE93A2160000000, float 0xBFEA29A800000000, float 0xBFEB090B40000000, float 0xBFEBD7C0C0000000, float 0xBFEC954A80000000, float 0xBFED413560000000, float 0xBFEDDB1420000000, float 0xBFEE628880000000, float 0xBFEED740C0000000, float 0xBFEF38F360000000, float 0xBFEF8765C0000000, float 0xBFEFC26560000000, float 0xBFEFE9CCC0000000, float 0xBFEFFD88C0000000, float 0xBFEFFD88C0000000, float 0xBFEFE9CCC0000000, float 0xBFEFC26560000000, float 0xBFEF8765C0000000, float 0xBFEF38F360000000, float 0xBFEED740C0000000, float 0xBFEE628880000000, float 0xBFEDDB1420000000, float 0xBFED413560000000, float 0xBFEC954A80000000, float 0xBFEBD7C0C0000000, float 0xBFEB090B40000000, float 0xBFEA29A800000000, float 0xBFE93A2160000000, float 0xBFE83B0E60000000, float 0xBFE72D0800000000, float 0xBFE610B840000000, float 0xBFE4E6CB20000000, float 0xBFE3AFFB00000000, float 0xBFE26D04E0000000, float 0xBFE11EB420000000, float 0xBFDF8BA400000000, float 0xBFDCC66D40000000, float 0xBFD9EF7800000000, float 0xBFD7088500000000, float 0xBFD4135DA0000000, float 0xBFD111D360000000, float 0xBFCC0B8060000000, float 0xBFC5E21540000000, float 0xBFBF5653C0000000, float 0xBFB2D527E0000000, float 0xBF992146A0000000, float 0x3F992146A0000000, float 0x3FB2D527E0000000, float 0x3FBF5653C0000000, float 0x3FC5E21540000000, float 0x3FCC0B8060000000, float 0x3FD111D360000000, float 0x3FD4135DA0000000, float 0x3FD7088500000000, float 0x3FD9EF7800000000, float 0x3FDCC66D40000000, float 0x3FDF8BA400000000, float 0x3FE11EB420000000, float 0x3FE26D04E0000000, float 0x3FE3AFFB00000000, float 0x3FE4E6CB20000000, float 0x3FE610B840000000, float 0x3FE72D0800000000, float 0x3FE83B0E60000000, float 0x3FE93A2160000000, float 0x3FEA29A800000000, float 0x3FEB090B40000000, float 0x3FEBD7C0C0000000, float 0x3FEC954A80000000, float 0x3FED413560000000, float 0x3FEDDB1420000000, float 0x3FEE628880000000, float 0x3FEED740C0000000, float 0x3FEF38F360000000, float 0x3FEF8765C0000000, float 0x3FEFC26560000000, float 0x3FEFE9CCC0000000, float 0x3FEFFD88C0000000] ; [#uses=1 type=[128 x float]*]
@cct_0 = internal unnamed_addr constant [128 x float] [float 1.000000e+00, float 0x3FEFF620E0000000, float 0x3FEFD88E40000000, float 0x3FEFA75680000000, float 0x3FEF629740000000, float 0x3FEF0A7E80000000, float 0x3FEE9F40A0000000, float 0x3FEE2120E0000000, float 0x3FED906CC0000000, float 0x3FECED7A60000000, float 0x3FEC38B260000000, float 0x3FEB728420000000, float 0x3FEA9B6700000000, float 0x3FE9B3E140000000, float 0x3FE8BC7F80000000, float 0x3FE7B5DEE0000000, float 0x3FE6A09EE0000000, float 0x3FE57D6940000000, float 0x3FE44CF280000000, float 0x3FE30FF760000000, float 0x3FE1C73AC0000000, float 0x3FE0738820000000, float 0x3FDE2B5E60000000, float 0x3FDB5D0FA0000000, float 0x3FD87DE0E0000000, float 0x3FD58F9B20000000, float 0x3FD2940780000000, float 0x3FCF19F800000000, float 0x3FC8F8B580000000, float 0x3FC2C80C80000000, float 0x3FB917A460000000, float 0x3FA91F70E0000000, float 0.000000e+00, float 0xBFA91F70E0000000, float 0xBFB917A460000000, float 0xBFC2C80C80000000, float 0xBFC8F8B580000000, float 0xBFCF19F800000000, float 0xBFD2940780000000, float 0xBFD58F9B20000000, float 0xBFD87DE0E0000000, float 0xBFDB5D0FA0000000, float 0xBFDE2B5E60000000, float 0xBFE0738820000000, float 0xBFE1C73AC0000000, float 0xBFE30FF760000000, float 0xBFE44CF280000000, float 0xBFE57D6940000000, float 0xBFE6A09EE0000000, float 0xBFE7B5DEE0000000, float 0xBFE8BC7F80000000, float 0xBFE9B3E140000000, float 0xBFEA9B6700000000, float 0xBFEB728420000000, float 0xBFEC38B260000000, float 0xBFECED7A60000000, float 0xBFED906CC0000000, float 0xBFEE2120E0000000, float 0xBFEE9F40A0000000, float 0xBFEF0A7E80000000, float 0xBFEF629740000000, float 0xBFEFA75680000000, float 0xBFEFD88E40000000, float 0xBFEFF620E0000000, float -1.000000e+00, float 0xBFEFF620E0000000, float 0xBFEFD88E40000000, float 0xBFEFA75680000000, float 0xBFEF629740000000, float 0xBFEF0A7E80000000, float 0xBFEE9F40A0000000, float 0xBFEE2120E0000000, float 0xBFED906CC0000000, float 0xBFECED7A60000000, float 0xBFEC38B260000000, float 0xBFEB728420000000, float 0xBFEA9B6700000000, float 0xBFE9B3E140000000, float 0xBFE8BC7F80000000, float 0xBFE7B5DEE0000000, float 0xBFE6A09EE0000000, float 0xBFE57D6940000000, float 0xBFE44CF280000000, float 0xBFE30FF760000000, float 0xBFE1C73AC0000000, float 0xBFE0738820000000, float 0xBFDE2B5E60000000, float 0xBFDB5D0FA0000000, float 0xBFD87DE0E0000000, float 0xBFD58F9B20000000, float 0xBFD2940780000000, float 0xBFCF19F800000000, float 0xBFC8F8B580000000, float 0xBFC2C80C80000000, float 0xBFB917A460000000, float 0xBFA91F70E0000000, float -0.000000e+00, float 0x3FA91F70E0000000, float 0x3FB917A460000000, float 0x3FC2C80C80000000, float 0x3FC8F8B580000000, float 0x3FCF19F800000000, float 0x3FD2940780000000, float 0x3FD58F9B20000000, float 0x3FD87DE0E0000000, float 0x3FDB5D0FA0000000, float 0x3FDE2B5E60000000, float 0x3FE0738820000000, float 0x3FE1C73AC0000000, float 0x3FE30FF760000000, float 0x3FE44CF280000000, float 0x3FE57D6940000000, float 0x3FE6A09EE0000000, float 0x3FE7B5DEE0000000, float 0x3FE8BC7F80000000, float 0x3FE9B3E140000000, float 0x3FEA9B6700000000, float 0x3FEB728420000000, float 0x3FEC38B260000000, float 0x3FECED7A60000000, float 0x3FED906CC0000000, float 0x3FEE2120E0000000, float 0x3FEE9F40A0000000, float 0x3FEF0A7E80000000, float 0x3FEF629740000000, float 0x3FEFA75680000000, float 0x3FEFD88E40000000, float 0x3FEFF620E0000000] ; [#uses=2 type=[128 x float]*]
@p_str3 = private unnamed_addr constant [9 x i8] c"Loop_Col\00", align 1 ; [#uses=1 type=[9 x i8]*]
@p_str2 = private unnamed_addr constant [9 x i8] c"Loop_Row\00", align 1 ; [#uses=3 type=[9 x i8]*]

; [#uses=1]
declare i9 @llvm.part.select.i9(i9, i32, i32) nounwind readnone

; [#uses=1]
declare i8 @llvm.part.select.i8(i8, i32, i32) nounwind readnone

; [#uses=1]
declare i17 @llvm.part.select.i17(i17, i32, i32) nounwind readnone

; [#uses=9]
declare void @llvm.dbg.value(metadata, i64, metadata) nounwind readnone

; [#uses=0]
define void @dft([128 x float]* %real_i_0, [128 x float]* %real_i_1, [128 x float]* %imag_i_0, [128 x float]* %imag_i_1, [128 x float]* %real_o_0, [128 x float]* %real_o_1, [128 x float]* %imag_o_0, [128 x float]* %imag_o_1) {
  call void (...)* @_ssdm_op_SpecBitsMap([128 x float]* %real_i_1), !map !7
  call void (...)* @_ssdm_op_SpecBitsMap([128 x float]* %real_i_0), !map !13
  call void (...)* @_ssdm_op_SpecBitsMap([128 x float]* %imag_i_1), !map !19
  call void (...)* @_ssdm_op_SpecBitsMap([128 x float]* %imag_i_0), !map !23
  call void (...)* @_ssdm_op_SpecBitsMap([128 x float]* %real_o_1), !map !27
  call void (...)* @_ssdm_op_SpecBitsMap([128 x float]* %real_o_0), !map !31
  call void (...)* @_ssdm_op_SpecBitsMap([128 x float]* %imag_o_1), !map !35
  call void (...)* @_ssdm_op_SpecBitsMap([128 x float]* %imag_o_0), !map !39
  call void (...)* @_ssdm_op_SpecTopModule([4 x i8]* @dft_str) nounwind
  call void @llvm.dbg.value(metadata !{[128 x float]* %real_i_0}, i64 0, metadata !43), !dbg !57 ; [debug line = 12:16] [debug variable = real_i[0]]
  call void @llvm.dbg.value(metadata !{[128 x float]* %real_i_1}, i64 0, metadata !58), !dbg !57 ; [debug line = 12:16] [debug variable = real_i[1]]
  call void @llvm.dbg.value(metadata !{[128 x float]* %imag_i_0}, i64 0, metadata !59), !dbg !61 ; [debug line = 12:53] [debug variable = imag_i[0]]
  call void @llvm.dbg.value(metadata !{[128 x float]* %imag_i_1}, i64 0, metadata !62), !dbg !61 ; [debug line = 12:53] [debug variable = imag_i[1]]
  call void @llvm.dbg.value(metadata !{[128 x float]* %real_o_0}, i64 0, metadata !63), !dbg !65 ; [debug line = 12:90] [debug variable = real_o[0]]
  call void @llvm.dbg.value(metadata !{[128 x float]* %real_o_1}, i64 0, metadata !66), !dbg !65 ; [debug line = 12:90] [debug variable = real_o[1]]
  call void @llvm.dbg.value(metadata !{[128 x float]* %imag_o_0}, i64 0, metadata !67), !dbg !69 ; [debug line = 12:127] [debug variable = imag_o[0]]
  call void @llvm.dbg.value(metadata !{[128 x float]* %imag_o_1}, i64 0, metadata !70), !dbg !69 ; [debug line = 12:127] [debug variable = imag_o[1]]
  br label %1, !dbg !71                           ; [debug line = 24:25]

; <label>:1                                       ; preds = %6, %0
  %i = phi i9 [ 0, %0 ], [ %i_1, %6 ]             ; [#uses=6 type=i9]
  %i_cast3_cast8 = zext i9 %i to i17, !dbg !71    ; [#uses=1 type=i17] [debug line = 24:25]
  %tmp_3 = trunc i9 %i to i8                      ; [#uses=1 type=i8]
  %exitcond1 = icmp eq i9 %i, -256, !dbg !71      ; [#uses=1 type=i1] [debug line = 24:25]
  %empty = call i32 (...)* @_ssdm_op_SpecLoopTripCount(i64 256, i64 256, i64 256) nounwind ; [#uses=0 type=i32]
  %i_1 = add i9 1, %i, !dbg !74                   ; [#uses=1 type=i9] [debug line = 24:54]
  br i1 %exitcond1, label %7, label %2, !dbg !71  ; [debug line = 24:25]

; <label>:2                                       ; preds = %1
  call void (...)* @_ssdm_op_SpecLoopName([9 x i8]* @p_str2) nounwind, !dbg !75 ; [debug line = 24:60]
  %tmp = call i32 (...)* @_ssdm_op_SpecRegionBegin([9 x i8]* @p_str2) nounwind, !dbg !75 ; [#uses=1 type=i32] [debug line = 24:60]
  br label %3, !dbg !77                           ; [debug line = 28:26]

; <label>:3                                       ; preds = %branch6_ifconv, %2
  %real_o_tmp = phi float [ 0.000000e+00, %2 ], [ %real_o_tmp_1_1, %branch6_ifconv ] ; [#uses=3 type=float]
  %imag_o_tmp = phi float [ 0.000000e+00, %2 ], [ %imag_o_tmp_1_1, %branch6_ifconv ] ; [#uses=3 type=float]
  %j = phi i9 [ 0, %2 ], [ %j_1_1, %branch6_ifconv ] ; [#uses=4 type=i9]
  %empty_8 = call i32 (...)* @_ssdm_op_SpecLoopTripCount(i64 128, i64 128, i64 128) nounwind ; [#uses=0 type=i32]
  %exitcond = icmp eq i9 %j, -256, !dbg !77       ; [#uses=1 type=i1] [debug line = 28:26]
  br i1 %exitcond, label %4, label %branch6_ifconv, !dbg !77 ; [debug line = 28:26]

branch6_ifconv:                                   ; preds = %3
  call void (...)* @_ssdm_op_SpecLoopName([9 x i8]* @p_str3) nounwind, !dbg !79 ; [debug line = 28:61]
  %tmp_8 = trunc i9 %j to i8                      ; [#uses=2 type=i8]
  %tmp_2 = mul i8 %tmp_3, %tmp_8                  ; [#uses=1 type=i8]
  %newIndex4 = call i8 @_ssdm_op_PartSelect.i8.i9.i32.i32(i9 %j, i32 1, i32 8) ; [#uses=1 type=i8]
  %newIndex1 = zext i8 %newIndex4 to i64          ; [#uses=4 type=i64]
  %real_i_0_addr = getelementptr [128 x float]* %real_i_0, i64 0, i64 %newIndex1 ; [#uses=1 type=float*]
  %real_i_0_load = load float* %real_i_0_addr, align 4, !dbg !81 ; [#uses=2 type=float] [debug line = 31:4]
  %index_cast = call i7 @_ssdm_op_PartSelect.i7.i8.i32.i32(i8 %tmp_2, i32 1, i32 7) ; [#uses=1 type=i7]
  %newIndex5 = zext i7 %index_cast to i64         ; [#uses=2 type=i64]
  %cct_0_addr = getelementptr [128 x float]* @cct_0, i64 0, i64 %newIndex5, !dbg !81 ; [#uses=1 type=float*] [debug line = 31:4]
  %cct_0_load = load float* %cct_0_addr, align 8, !dbg !81 ; [#uses=2 type=float] [debug line = 31:4]
  %tmp_5 = fmul float %real_i_0_load, %cct_0_load, !dbg !81 ; [#uses=1 type=float] [debug line = 31:4]
  %imag_i_0_addr = getelementptr [128 x float]* %imag_i_0, i64 0, i64 %newIndex1 ; [#uses=1 type=float*]
  %imag_i_0_load = load float* %imag_i_0_addr, align 4, !dbg !81 ; [#uses=2 type=float] [debug line = 31:4]
  %sct_0_addr = getelementptr [128 x float]* @sct_0, i64 0, i64 %newIndex5, !dbg !81 ; [#uses=1 type=float*] [debug line = 31:4]
  %sct_0_load = load float* %sct_0_addr, align 8, !dbg !81 ; [#uses=2 type=float] [debug line = 31:4]
  %tmp_6 = fmul float %imag_i_0_load, %sct_0_load, !dbg !81 ; [#uses=1 type=float] [debug line = 31:4]
  %tmp_7 = fsub float %tmp_5, %tmp_6, !dbg !81    ; [#uses=1 type=float] [debug line = 31:4]
  %real_o_tmp_1 = fadd float %real_o_tmp, %tmp_7, !dbg !81 ; [#uses=1 type=float] [debug line = 31:4]
  %tmp_9 = fmul float %real_i_0_load, %sct_0_load, !dbg !82 ; [#uses=1 type=float] [debug line = 32:4]
  %tmp_s = fmul float %imag_i_0_load, %cct_0_load, !dbg !82 ; [#uses=1 type=float] [debug line = 32:4]
  %tmp_1 = fadd float %tmp_9, %tmp_s, !dbg !82    ; [#uses=1 type=float] [debug line = 32:4]
  %imag_o_tmp_1 = fadd float %imag_o_tmp, %tmp_1, !dbg !82 ; [#uses=1 type=float] [debug line = 32:4]
  %j_1_s = or i8 %tmp_8, 1, !dbg !83              ; [#uses=1 type=i8] [debug line = 28:55]
  %j_1_cast_cast = zext i8 %j_1_s to i17, !dbg !84 ; [#uses=1 type=i17] [debug line = 30:41]
  %tmp_2_1 = mul i17 %i_cast3_cast8, %j_1_cast_cast, !dbg !84 ; [#uses=2 type=i17] [debug line = 30:41]
  %real_i_1_addr = getelementptr [128 x float]* %real_i_1, i64 0, i64 %newIndex1 ; [#uses=1 type=float*]
  %real_i_1_load = load float* %real_i_1_addr, align 4, !dbg !81 ; [#uses=2 type=float] [debug line = 31:4]
  %tmp_10 = trunc i17 %tmp_2_1 to i1              ; [#uses=2 type=i1]
  %index_1_cast = call i7 @_ssdm_op_PartSelect.i7.i17.i32.i32(i17 %tmp_2_1, i32 1, i32 7) ; [#uses=1 type=i7]
  %newIndex7 = zext i7 %index_1_cast to i64       ; [#uses=4 type=i64]
  %cct_0_addr_1 = getelementptr [128 x float]* @cct_0, i64 0, i64 %newIndex7, !dbg !81 ; [#uses=1 type=float*] [debug line = 31:4]
  %cct_1_addr = getelementptr [128 x float]* @cct_1, i64 0, i64 %newIndex7, !dbg !81 ; [#uses=1 type=float*] [debug line = 31:4]
  %cct_1_load = load float* %cct_1_addr, align 4, !dbg !81 ; [#uses=1 type=float] [debug line = 31:4]
  %cct_0_load_1 = load float* %cct_0_addr_1, align 4, !dbg !81 ; [#uses=1 type=float] [debug line = 31:4]
  %cct_load_1_phi = select i1 %tmp_10, float %cct_1_load, float %cct_0_load_1, !dbg !81 ; [#uses=2 type=float] [debug line = 31:4]
  %tmp_5_1 = fmul float %real_i_1_load, %cct_load_1_phi, !dbg !81 ; [#uses=1 type=float] [debug line = 31:4]
  %imag_i_1_addr = getelementptr [128 x float]* %imag_i_1, i64 0, i64 %newIndex1 ; [#uses=1 type=float*]
  %imag_i_1_load = load float* %imag_i_1_addr, align 4, !dbg !81 ; [#uses=2 type=float] [debug line = 31:4]
  %sct_0_addr_1 = getelementptr [128 x float]* @sct_0, i64 0, i64 %newIndex7, !dbg !81 ; [#uses=1 type=float*] [debug line = 31:4]
  %sct_1_addr = getelementptr [128 x float]* @sct_1, i64 0, i64 %newIndex7, !dbg !81 ; [#uses=1 type=float*] [debug line = 31:4]
  %sct_1_load = load float* %sct_1_addr, align 4, !dbg !81 ; [#uses=1 type=float] [debug line = 31:4]
  %sct_0_load_1 = load float* %sct_0_addr_1, align 4, !dbg !81 ; [#uses=1 type=float] [debug line = 31:4]
  %sct_load_1_phi = select i1 %tmp_10, float %sct_1_load, float %sct_0_load_1, !dbg !81 ; [#uses=2 type=float] [debug line = 31:4]
  %tmp_6_1 = fmul float %imag_i_1_load, %sct_load_1_phi, !dbg !81 ; [#uses=1 type=float] [debug line = 31:4]
  %tmp_7_1 = fsub float %tmp_5_1, %tmp_6_1, !dbg !81 ; [#uses=1 type=float] [debug line = 31:4]
  %real_o_tmp_1_1 = fadd float %real_o_tmp_1, %tmp_7_1, !dbg !81 ; [#uses=1 type=float] [debug line = 31:4]
  %tmp_9_1 = fmul float %real_i_1_load, %sct_load_1_phi, !dbg !82 ; [#uses=1 type=float] [debug line = 32:4]
  %tmp_1_9 = fmul float %imag_i_1_load, %cct_load_1_phi, !dbg !82 ; [#uses=1 type=float] [debug line = 32:4]
  %tmp_1_1 = fadd float %tmp_9_1, %tmp_1_9, !dbg !82 ; [#uses=1 type=float] [debug line = 32:4]
  %imag_o_tmp_1_1 = fadd float %imag_o_tmp_1, %tmp_1_1, !dbg !82 ; [#uses=1 type=float] [debug line = 32:4]
  %j_1_1 = add i9 2, %j, !dbg !83                 ; [#uses=1 type=i9] [debug line = 28:55]
  br label %3, !dbg !83                           ; [debug line = 28:55]

; <label>:4                                       ; preds = %3
  %tmp_4 = trunc i9 %i to i1                      ; [#uses=2 type=i1]
  %newIndex3 = call i8 @_ssdm_op_PartSelect.i8.i9.i32.i32(i9 %i, i32 1, i32 8) ; [#uses=1 type=i8]
  %newIndex = zext i8 %newIndex3 to i64           ; [#uses=4 type=i64]
  %real_o_0_addr = getelementptr [128 x float]* %real_o_0, i64 0, i64 %newIndex, !dbg !85 ; [#uses=1 type=float*] [debug line = 34:3]
  %real_o_1_addr = getelementptr [128 x float]* %real_o_1, i64 0, i64 %newIndex, !dbg !85 ; [#uses=1 type=float*] [debug line = 34:3]
  br i1 %tmp_4, label %branch19, label %branch08, !dbg !85 ; [debug line = 34:3]

; <label>:5                                       ; preds = %branch19, %branch08
  %imag_o_0_addr = getelementptr [128 x float]* %imag_o_0, i64 0, i64 %newIndex, !dbg !86 ; [#uses=1 type=float*] [debug line = 35:3]
  %imag_o_1_addr = getelementptr [128 x float]* %imag_o_1, i64 0, i64 %newIndex, !dbg !86 ; [#uses=1 type=float*] [debug line = 35:3]
  br i1 %tmp_4, label %branch17, label %branch06, !dbg !86 ; [debug line = 35:3]

; <label>:6                                       ; preds = %branch17, %branch06
  %empty_10 = call i32 (...)* @_ssdm_op_SpecRegionEnd([9 x i8]* @p_str2, i32 %tmp) nounwind, !dbg !87 ; [#uses=0 type=i32] [debug line = 36:2]
  call void @llvm.dbg.value(metadata !{i9 %i_1}, i64 0, metadata !88), !dbg !74 ; [debug line = 24:54] [debug variable = i]
  br label %1, !dbg !74                           ; [debug line = 24:54]

; <label>:7                                       ; preds = %1
  ret void, !dbg !90                              ; [debug line = 37:1]

branch06:                                         ; preds = %5
  store float %imag_o_tmp, float* %imag_o_0_addr, align 4, !dbg !86 ; [debug line = 35:3]
  br label %6, !dbg !86                           ; [debug line = 35:3]

branch17:                                         ; preds = %5
  store float %imag_o_tmp, float* %imag_o_1_addr, align 4, !dbg !86 ; [debug line = 35:3]
  br label %6, !dbg !86                           ; [debug line = 35:3]

branch08:                                         ; preds = %4
  store float %real_o_tmp, float* %real_o_0_addr, align 4, !dbg !85 ; [debug line = 34:3]
  br label %5, !dbg !85                           ; [debug line = 34:3]

branch19:                                         ; preds = %4
  store float %real_o_tmp, float* %real_o_1_addr, align 4, !dbg !85 ; [debug line = 34:3]
  br label %5, !dbg !85                           ; [debug line = 34:3]
}

; [#uses=1]
define weak void @_ssdm_op_SpecTopModule(...) {
entry:
  ret void
}

; [#uses=1]
define weak i32 @_ssdm_op_SpecRegionEnd(...) {
entry:
  ret i32 0
}

; [#uses=1]
define weak i32 @_ssdm_op_SpecRegionBegin(...) {
entry:
  ret i32 0
}

; [#uses=2]
define weak i32 @_ssdm_op_SpecLoopTripCount(...) {
entry:
  ret i32 0
}

; [#uses=2]
define weak void @_ssdm_op_SpecLoopName(...) nounwind {
entry:
  ret void
}

; [#uses=8]
define weak void @_ssdm_op_SpecBitsMap(...) {
entry:
  ret void
}

; [#uses=2]
define weak i8 @_ssdm_op_PartSelect.i8.i9.i32.i32(i9, i32, i32) nounwind readnone {
entry:
  %empty = call i9 @llvm.part.select.i9(i9 %0, i32 %1, i32 %2) ; [#uses=1 type=i9]
  %empty_11 = trunc i9 %empty to i8               ; [#uses=1 type=i8]
  ret i8 %empty_11
}

; [#uses=1]
define weak i7 @_ssdm_op_PartSelect.i7.i8.i32.i32(i8, i32, i32) nounwind readnone {
entry:
  %empty = call i8 @llvm.part.select.i8(i8 %0, i32 %1, i32 %2) ; [#uses=1 type=i8]
  %empty_12 = trunc i8 %empty to i7               ; [#uses=1 type=i7]
  ret i7 %empty_12
}

; [#uses=1]
define weak i7 @_ssdm_op_PartSelect.i7.i17.i32.i32(i17, i32, i32) nounwind readnone {
entry:
  %empty = call i17 @llvm.part.select.i17(i17 %0, i32 %1, i32 %2) ; [#uses=1 type=i17]
  %empty_13 = trunc i17 %empty to i7              ; [#uses=1 type=i7]
  ret i7 %empty_13
}

; [#uses=0]
declare i1 @_ssdm_op_PartSelect.i1.i9.i32.i32(i9, i32, i32) nounwind readnone

; [#uses=0]
declare i1 @_ssdm_op_PartSelect.i1.i17.i32.i32(i17, i32, i32) nounwind readnone

; [#uses=0]
declare i16 @_ssdm_op_HSub(...)

; [#uses=0]
declare i16 @_ssdm_op_HMul(...)

; [#uses=0]
declare i16 @_ssdm_op_HDiv(...)

; [#uses=0]
declare i16 @_ssdm_op_HAdd(...)

; [#uses=1]
declare void @_GLOBAL__I_a() nounwind

!hls.encrypted.func = !{}
!llvm.map.gv = !{!0}

!0 = metadata !{metadata !1, [1 x i32]* @llvm_global_ctors_0}
!1 = metadata !{metadata !2}
!2 = metadata !{i32 0, i32 31, metadata !3}
!3 = metadata !{metadata !4}
!4 = metadata !{metadata !"llvm.global_ctors.0", metadata !5, metadata !"", i32 0, i32 31}
!5 = metadata !{metadata !6}
!6 = metadata !{i32 0, i32 0, i32 1}
!7 = metadata !{metadata !8}
!8 = metadata !{i32 0, i32 31, metadata !9}
!9 = metadata !{metadata !10}
!10 = metadata !{metadata !"real_i", metadata !11, metadata !"float", i32 0, i32 31}
!11 = metadata !{metadata !12}
!12 = metadata !{i32 1, i32 255, i32 2}
!13 = metadata !{metadata !14}
!14 = metadata !{i32 0, i32 31, metadata !15}
!15 = metadata !{metadata !16}
!16 = metadata !{metadata !"real_i", metadata !17, metadata !"float", i32 0, i32 31}
!17 = metadata !{metadata !18}
!18 = metadata !{i32 0, i32 254, i32 2}
!19 = metadata !{metadata !20}
!20 = metadata !{i32 0, i32 31, metadata !21}
!21 = metadata !{metadata !22}
!22 = metadata !{metadata !"imag_i", metadata !11, metadata !"float", i32 0, i32 31}
!23 = metadata !{metadata !24}
!24 = metadata !{i32 0, i32 31, metadata !25}
!25 = metadata !{metadata !26}
!26 = metadata !{metadata !"imag_i", metadata !17, metadata !"float", i32 0, i32 31}
!27 = metadata !{metadata !28}
!28 = metadata !{i32 0, i32 31, metadata !29}
!29 = metadata !{metadata !30}
!30 = metadata !{metadata !"real_o", metadata !11, metadata !"float", i32 0, i32 31}
!31 = metadata !{metadata !32}
!32 = metadata !{i32 0, i32 31, metadata !33}
!33 = metadata !{metadata !34}
!34 = metadata !{metadata !"real_o", metadata !17, metadata !"float", i32 0, i32 31}
!35 = metadata !{metadata !36}
!36 = metadata !{i32 0, i32 31, metadata !37}
!37 = metadata !{metadata !38}
!38 = metadata !{metadata !"imag_o", metadata !11, metadata !"float", i32 0, i32 31}
!39 = metadata !{metadata !40}
!40 = metadata !{i32 0, i32 31, metadata !41}
!41 = metadata !{metadata !42}
!42 = metadata !{metadata !"imag_o", metadata !17, metadata !"float", i32 0, i32 31}
!43 = metadata !{i32 790531, metadata !44, metadata !"real_i[0]", null, i32 12, metadata !50, i32 0, i32 0} ; [ DW_TAG_arg_variable_field ]
!44 = metadata !{i32 786689, metadata !45, metadata !"real_i", null, i32 12, metadata !54, i32 0, i32 0} ; [ DW_TAG_arg_variable ]
!45 = metadata !{i32 786478, i32 0, metadata !46, metadata !"dft", metadata !"dft", metadata !"_Z3dftPfS_S_S_", metadata !46, i32 12, metadata !47, i1 false, i1 true, i32 0, i32 0, null, i32 256, i1 false, null, null, null, metadata !52, i32 13} ; [ DW_TAG_subprogram ]
!46 = metadata !{i32 786473, metadata !"dft.cpp", metadata !"d:/Projects/vivado/project_3/dft_256_precomputed", null} ; [ DW_TAG_file_type ]
!47 = metadata !{i32 786453, i32 0, metadata !"", i32 0, i32 0, i64 0, i64 0, i64 0, i32 0, null, metadata !48, i32 0, i32 0} ; [ DW_TAG_subroutine_type ]
!48 = metadata !{null, metadata !49, metadata !49, metadata !49, metadata !49}
!49 = metadata !{i32 786447, null, metadata !"", null, i32 0, i64 64, i64 64, i64 0, i32 0, metadata !50} ; [ DW_TAG_pointer_type ]
!50 = metadata !{i32 786454, null, metadata !"DTYPE", metadata !46, i32 10, i64 0, i64 0, i64 0, i32 0, metadata !51} ; [ DW_TAG_typedef ]
!51 = metadata !{i32 786468, null, metadata !"float", null, i32 0, i64 32, i64 32, i64 0, i32 0, i32 4} ; [ DW_TAG_base_type ]
!52 = metadata !{metadata !53}
!53 = metadata !{i32 786468}                      ; [ DW_TAG_base_type ]
!54 = metadata !{i32 786433, null, metadata !"", null, i32 0, i64 0, i64 0, i32 0, i32 0, metadata !50, metadata !55, i32 0, i32 0} ; [ DW_TAG_array_type ]
!55 = metadata !{metadata !56}
!56 = metadata !{i32 786465, i64 0, i64 255}      ; [ DW_TAG_subrange_type ]
!57 = metadata !{i32 12, i32 16, metadata !45, null}
!58 = metadata !{i32 790531, metadata !44, metadata !"real_i[1]", null, i32 12, metadata !50, i32 0, i32 0} ; [ DW_TAG_arg_variable_field ]
!59 = metadata !{i32 790531, metadata !60, metadata !"imag_i[0]", null, i32 12, metadata !50, i32 0, i32 0} ; [ DW_TAG_arg_variable_field ]
!60 = metadata !{i32 786689, metadata !45, metadata !"imag_i", null, i32 12, metadata !54, i32 0, i32 0} ; [ DW_TAG_arg_variable ]
!61 = metadata !{i32 12, i32 53, metadata !45, null}
!62 = metadata !{i32 790531, metadata !60, metadata !"imag_i[1]", null, i32 12, metadata !50, i32 0, i32 0} ; [ DW_TAG_arg_variable_field ]
!63 = metadata !{i32 790531, metadata !64, metadata !"real_o[0]", null, i32 12, metadata !50, i32 0, i32 0} ; [ DW_TAG_arg_variable_field ]
!64 = metadata !{i32 786689, metadata !45, metadata !"real_o", null, i32 12, metadata !54, i32 0, i32 0} ; [ DW_TAG_arg_variable ]
!65 = metadata !{i32 12, i32 90, metadata !45, null}
!66 = metadata !{i32 790531, metadata !64, metadata !"real_o[1]", null, i32 12, metadata !50, i32 0, i32 0} ; [ DW_TAG_arg_variable_field ]
!67 = metadata !{i32 790531, metadata !68, metadata !"imag_o[0]", null, i32 12, metadata !50, i32 0, i32 0} ; [ DW_TAG_arg_variable_field ]
!68 = metadata !{i32 786689, metadata !45, metadata !"imag_o", null, i32 12, metadata !54, i32 0, i32 0} ; [ DW_TAG_arg_variable ]
!69 = metadata !{i32 12, i32 127, metadata !45, null}
!70 = metadata !{i32 790531, metadata !68, metadata !"imag_o[1]", null, i32 12, metadata !50, i32 0, i32 0} ; [ DW_TAG_arg_variable_field ]
!71 = metadata !{i32 24, i32 25, metadata !72, null}
!72 = metadata !{i32 786443, metadata !73, i32 24, i32 12, metadata !46, i32 1} ; [ DW_TAG_lexical_block ]
!73 = metadata !{i32 786443, metadata !45, i32 13, i32 1, metadata !46, i32 0} ; [ DW_TAG_lexical_block ]
!74 = metadata !{i32 24, i32 54, metadata !72, null}
!75 = metadata !{i32 24, i32 60, metadata !76, null}
!76 = metadata !{i32 786443, metadata !72, i32 24, i32 59, metadata !46, i32 2} ; [ DW_TAG_lexical_block ]
!77 = metadata !{i32 28, i32 26, metadata !78, null}
!78 = metadata !{i32 786443, metadata !76, i32 28, i32 13, metadata !46, i32 3} ; [ DW_TAG_lexical_block ]
!79 = metadata !{i32 28, i32 61, metadata !80, null}
!80 = metadata !{i32 786443, metadata !78, i32 28, i32 60, metadata !46, i32 4} ; [ DW_TAG_lexical_block ]
!81 = metadata !{i32 31, i32 4, metadata !80, null}
!82 = metadata !{i32 32, i32 4, metadata !80, null}
!83 = metadata !{i32 28, i32 55, metadata !78, null}
!84 = metadata !{i32 30, i32 41, metadata !80, null}
!85 = metadata !{i32 34, i32 3, metadata !76, null}
!86 = metadata !{i32 35, i32 3, metadata !76, null}
!87 = metadata !{i32 36, i32 2, metadata !76, null}
!88 = metadata !{i32 786688, metadata !72, metadata !"i", metadata !46, i32 24, metadata !89, i32 0, i32 0} ; [ DW_TAG_auto_variable ]
!89 = metadata !{i32 786468, null, metadata !"int", null, i32 0, i64 32, i64 32, i64 0, i32 0, i32 5} ; [ DW_TAG_base_type ]
!90 = metadata !{i32 37, i32 1, metadata !73, null}
