

================================================================
== Vivado HLS Report for 'dft'
================================================================
* Date:           Sun Oct 30 12:37:46 2016

* Version:        2015.4 (Build 1412921 on Wed Nov 18 09:58:55 AM 2015)
* Project:        dft
* Solution:       dft_opt4
* Product family: zynq
* Target device:  xc7z020clg484-1


================================================================
== Performance Estimates
================================================================
+ Timing (ns): 
    * Summary: 
    +--------+-------+----------+------------+
    |  Clock | Target| Estimated| Uncertainty|
    +--------+-------+----------+------------+
    |ap_clk  |  10.00|      8.41|        1.25|
    +--------+-------+----------+------------+

+ Latency (clock cycles): 
    * Summary: 
    +--------+--------+--------+--------+---------+
    |     Latency     |     Interval    | Pipeline|
    |   min  |   max  |   min  |   max  |   Type  |
    +--------+--------+--------+--------+---------+
    |  688641|  688641|  688642|  688642|   none  |
    +--------+--------+--------+--------+---------+

    + Detail: 
        * Instance: 
        N/A

        * Loop: 
        +-------------+--------+--------+----------+-----------+-----------+------+----------+
        |             |     Latency     | Iteration|  Initiation Interval  | Trip |          |
        |  Loop Name  |   min  |   max  |  Latency |  achieved |   target  | Count| Pipelined|
        +-------------+--------+--------+----------+-----------+-----------+------+----------+
        |- Loop_Row   |  688640|  688640|      2690|          -|          -|   256|    no    |
        | + Loop_Col  |    2688|    2688|        21|          -|          -|   128|    no    |
        +-------------+--------+--------+----------+-----------+-----------+------+----------+

============================================================
+ Verbose Summary: Synthesis Manager
============================================================
InlineROM: 1
ExposeGlobal: 0
============================================================
+ Verbose Summary: CDFG Model
============================================================
IsTopModel: 1
ResetActiveHigh: 1
IsCombinational: 0
IsDatapathOnly: 0
HasWiredReturn: 1
HasMFsm: 0
HasVarLatency: 1
IsPipeline: 0
IsRtlPipelined: 0
IsInstanceOverlapped: 0
IsDontTouch: 0
HasImplIP: 0
IsGatedGlobalClock: 0


============================================================
+ Verbose Summary: Schedule
============================================================
* Number of FSM states: 23
* Pipeline: 0
* Dataflow Pipeline: 0

* FSM state transitions: 
1 --> 
	2  / true
2 --> 
	3  / (!exitcond1)
3 --> 
	4  / (!exitcond)
	2  / (exitcond)
4 --> 
	5  / true
5 --> 
	6  / true
6 --> 
	7  / true
7 --> 
	8  / true
8 --> 
	9  / true
9 --> 
	10  / true
10 --> 
	11  / true
11 --> 
	12  / true
12 --> 
	13  / true
13 --> 
	14  / true
14 --> 
	15  / true
15 --> 
	16  / true
16 --> 
	17  / true
17 --> 
	18  / true
18 --> 
	19  / true
19 --> 
	20  / true
20 --> 
	21  / true
21 --> 
	22  / true
22 --> 
	23  / true
23 --> 
	3  / true
* FSM state operations: 

 <State 1>: 1.57ns
ST_1: stg_24 [1/1] 0.00ns
:0  call void (...)* @_ssdm_op_SpecBitsMap([128 x float]* %real_i_1), !map !7

ST_1: stg_25 [1/1] 0.00ns
:1  call void (...)* @_ssdm_op_SpecBitsMap([128 x float]* %real_i_0), !map !13

ST_1: stg_26 [1/1] 0.00ns
:2  call void (...)* @_ssdm_op_SpecBitsMap([128 x float]* %imag_i_1), !map !19

ST_1: stg_27 [1/1] 0.00ns
:3  call void (...)* @_ssdm_op_SpecBitsMap([128 x float]* %imag_i_0), !map !23

ST_1: stg_28 [1/1] 0.00ns
:4  call void (...)* @_ssdm_op_SpecBitsMap([128 x float]* %real_o_1), !map !27

ST_1: stg_29 [1/1] 0.00ns
:5  call void (...)* @_ssdm_op_SpecBitsMap([128 x float]* %real_o_0), !map !31

ST_1: stg_30 [1/1] 0.00ns
:6  call void (...)* @_ssdm_op_SpecBitsMap([128 x float]* %imag_o_1), !map !35

ST_1: stg_31 [1/1] 0.00ns
:7  call void (...)* @_ssdm_op_SpecBitsMap([128 x float]* %imag_o_0), !map !39

ST_1: stg_32 [1/1] 0.00ns
:8  call void (...)* @_ssdm_op_SpecTopModule([4 x i8]* @dft_str) nounwind

ST_1: stg_33 [1/1] 1.57ns
:9  br label %1


 <State 2>: 2.03ns
ST_2: i [1/1] 0.00ns
:0  %i = phi i9 [ 0, %0 ], [ %i_1, %6 ]

ST_2: i_cast3_cast8 [1/1] 0.00ns
:1  %i_cast3_cast8 = zext i9 %i to i17

ST_2: tmp_3 [1/1] 0.00ns
:2  %tmp_3 = trunc i9 %i to i8

ST_2: exitcond1 [1/1] 2.03ns
:3  %exitcond1 = icmp eq i9 %i, -256

ST_2: empty [1/1] 0.00ns
:4  %empty = call i32 (...)* @_ssdm_op_SpecLoopTripCount(i64 256, i64 256, i64 256) nounwind

ST_2: i_1 [1/1] 1.84ns
:5  %i_1 = add i9 1, %i

ST_2: stg_40 [1/1] 0.00ns
:6  br i1 %exitcond1, label %7, label %2

ST_2: stg_41 [1/1] 0.00ns
:0  call void (...)* @_ssdm_op_SpecLoopName([9 x i8]* @p_str2) nounwind

ST_2: tmp [1/1] 0.00ns
:1  %tmp = call i32 (...)* @_ssdm_op_SpecRegionBegin([9 x i8]* @p_str2) nounwind

ST_2: stg_43 [1/1] 1.57ns
:2  br label %3

ST_2: stg_44 [1/1] 0.00ns
:0  ret void


 <State 3>: 6.38ns
ST_3: real_o_tmp [1/1] 0.00ns
:0  %real_o_tmp = phi float [ 0.000000e+00, %2 ], [ %real_o_tmp_1_1, %branch6_ifconv ]

ST_3: imag_o_tmp [1/1] 0.00ns
:1  %imag_o_tmp = phi float [ 0.000000e+00, %2 ], [ %imag_o_tmp_1_1, %branch6_ifconv ]

ST_3: j [1/1] 0.00ns
:2  %j = phi i9 [ 0, %2 ], [ %j_1_1, %branch6_ifconv ]

ST_3: empty_8 [1/1] 0.00ns
:3  %empty_8 = call i32 (...)* @_ssdm_op_SpecLoopTripCount(i64 128, i64 128, i64 128) nounwind

ST_3: exitcond [1/1] 2.03ns
:4  %exitcond = icmp eq i9 %j, -256

ST_3: stg_50 [1/1] 0.00ns
:5  br i1 %exitcond, label %4, label %branch6_ifconv

ST_3: tmp_8 [1/1] 0.00ns
branch6_ifconv:1  %tmp_8 = trunc i9 %j to i8

ST_3: tmp_2 [1/1] 6.38ns
branch6_ifconv:2  %tmp_2 = mul i8 %tmp_3, %tmp_8

ST_3: newIndex4 [1/1] 0.00ns
branch6_ifconv:3  %newIndex4 = call i8 @_ssdm_op_PartSelect.i8.i9.i32.i32(i9 %j, i32 1, i32 8)

ST_3: index_cast [1/1] 0.00ns
branch6_ifconv:7  %index_cast = call i7 @_ssdm_op_PartSelect.i7.i8.i32.i32(i8 %tmp_2, i32 1, i32 7)

ST_3: j_1_s [1/1] 0.00ns
branch6_ifconv:23  %j_1_s = or i8 %tmp_8, 1

ST_3: j_1_cast_cast [1/1] 0.00ns
branch6_ifconv:24  %j_1_cast_cast = zext i8 %j_1_s to i17

ST_3: tmp_2_1 [1/1] 6.38ns
branch6_ifconv:25  %tmp_2_1 = mul i17 %i_cast3_cast8, %j_1_cast_cast

ST_3: tmp_10 [1/1] 0.00ns
branch6_ifconv:28  %tmp_10 = trunc i17 %tmp_2_1 to i1

ST_3: index_1_cast [1/1] 0.00ns
branch6_ifconv:29  %index_1_cast = call i7 @_ssdm_op_PartSelect.i7.i17.i32.i32(i17 %tmp_2_1, i32 1, i32 7)

ST_3: j_1_1 [1/1] 1.84ns
branch6_ifconv:51  %j_1_1 = add i9 2, %j

ST_3: tmp_4 [1/1] 0.00ns
:0  %tmp_4 = trunc i9 %i to i1

ST_3: newIndex3 [1/1] 0.00ns
:1  %newIndex3 = call i8 @_ssdm_op_PartSelect.i8.i9.i32.i32(i9 %i, i32 1, i32 8)

ST_3: newIndex [1/1] 0.00ns
:2  %newIndex = zext i8 %newIndex3 to i64

ST_3: real_o_0_addr [1/1] 0.00ns
:3  %real_o_0_addr = getelementptr [128 x float]* %real_o_0, i64 0, i64 %newIndex

ST_3: real_o_1_addr [1/1] 0.00ns
:4  %real_o_1_addr = getelementptr [128 x float]* %real_o_1, i64 0, i64 %newIndex

ST_3: stg_66 [1/1] 0.00ns
:5  br i1 %tmp_4, label %branch19, label %branch08

ST_3: stg_67 [1/1] 2.71ns
branch08:0  store float %real_o_tmp, float* %real_o_0_addr, align 4

ST_3: stg_68 [1/1] 0.00ns
branch08:1  br label %5

ST_3: stg_69 [1/1] 2.71ns
branch19:0  store float %real_o_tmp, float* %real_o_1_addr, align 4

ST_3: stg_70 [1/1] 0.00ns
branch19:1  br label %5

ST_3: imag_o_0_addr [1/1] 0.00ns
:0  %imag_o_0_addr = getelementptr [128 x float]* %imag_o_0, i64 0, i64 %newIndex

ST_3: imag_o_1_addr [1/1] 0.00ns
:1  %imag_o_1_addr = getelementptr [128 x float]* %imag_o_1, i64 0, i64 %newIndex

ST_3: stg_73 [1/1] 0.00ns
:2  br i1 %tmp_4, label %branch17, label %branch06

ST_3: stg_74 [1/1] 2.71ns
branch06:0  store float %imag_o_tmp, float* %imag_o_0_addr, align 4

ST_3: stg_75 [1/1] 0.00ns
branch06:1  br label %6

ST_3: stg_76 [1/1] 2.71ns
branch17:0  store float %imag_o_tmp, float* %imag_o_1_addr, align 4

ST_3: stg_77 [1/1] 0.00ns
branch17:1  br label %6

ST_3: empty_10 [1/1] 0.00ns
:0  %empty_10 = call i32 (...)* @_ssdm_op_SpecRegionEnd([9 x i8]* @p_str2, i32 %tmp) nounwind

ST_3: stg_79 [1/1] 0.00ns
:1  br label %1


 <State 4>: 2.71ns
ST_4: newIndex1 [1/1] 0.00ns
branch6_ifconv:4  %newIndex1 = zext i8 %newIndex4 to i64

ST_4: real_i_0_addr [1/1] 0.00ns
branch6_ifconv:5  %real_i_0_addr = getelementptr [128 x float]* %real_i_0, i64 0, i64 %newIndex1

ST_4: real_i_0_load [2/2] 2.71ns
branch6_ifconv:6  %real_i_0_load = load float* %real_i_0_addr, align 4

ST_4: newIndex5 [1/1] 0.00ns
branch6_ifconv:8  %newIndex5 = zext i7 %index_cast to i64

ST_4: cct_0_addr [1/1] 0.00ns
branch6_ifconv:9  %cct_0_addr = getelementptr [128 x float]* @cct_0, i64 0, i64 %newIndex5

ST_4: cct_0_load [2/2] 2.39ns
branch6_ifconv:10  %cct_0_load = load float* %cct_0_addr, align 8

ST_4: imag_i_0_addr [1/1] 0.00ns
branch6_ifconv:12  %imag_i_0_addr = getelementptr [128 x float]* %imag_i_0, i64 0, i64 %newIndex1

ST_4: imag_i_0_load [2/2] 2.71ns
branch6_ifconv:13  %imag_i_0_load = load float* %imag_i_0_addr, align 4

ST_4: sct_0_addr [1/1] 0.00ns
branch6_ifconv:14  %sct_0_addr = getelementptr [128 x float]* @sct_0, i64 0, i64 %newIndex5

ST_4: sct_0_load [2/2] 2.39ns
branch6_ifconv:15  %sct_0_load = load float* %sct_0_addr, align 8

ST_4: newIndex7 [1/1] 0.00ns
branch6_ifconv:30  %newIndex7 = zext i7 %index_1_cast to i64

ST_4: cct_0_addr_1 [1/1] 0.00ns
branch6_ifconv:31  %cct_0_addr_1 = getelementptr [128 x float]* @cct_0, i64 0, i64 %newIndex7

ST_4: cct_1_addr [1/1] 0.00ns
branch6_ifconv:32  %cct_1_addr = getelementptr [128 x float]* @cct_1, i64 0, i64 %newIndex7

ST_4: cct_1_load [2/2] 2.39ns
branch6_ifconv:33  %cct_1_load = load float* %cct_1_addr, align 4

ST_4: cct_0_load_1 [2/2] 2.39ns
branch6_ifconv:34  %cct_0_load_1 = load float* %cct_0_addr_1, align 4

ST_4: sct_0_addr_1 [1/1] 0.00ns
branch6_ifconv:39  %sct_0_addr_1 = getelementptr [128 x float]* @sct_0, i64 0, i64 %newIndex7

ST_4: sct_1_addr [1/1] 0.00ns
branch6_ifconv:40  %sct_1_addr = getelementptr [128 x float]* @sct_1, i64 0, i64 %newIndex7

ST_4: sct_1_load [2/2] 2.39ns
branch6_ifconv:41  %sct_1_load = load float* %sct_1_addr, align 4

ST_4: sct_0_load_1 [2/2] 2.39ns
branch6_ifconv:42  %sct_0_load_1 = load float* %sct_0_addr_1, align 4


 <State 5>: 8.41ns
ST_5: real_i_0_load [1/2] 2.71ns
branch6_ifconv:6  %real_i_0_load = load float* %real_i_0_addr, align 4

ST_5: cct_0_load [1/2] 2.39ns
branch6_ifconv:10  %cct_0_load = load float* %cct_0_addr, align 8

ST_5: tmp_5 [4/4] 5.70ns
branch6_ifconv:11  %tmp_5 = fmul float %real_i_0_load, %cct_0_load

ST_5: imag_i_0_load [1/2] 2.71ns
branch6_ifconv:13  %imag_i_0_load = load float* %imag_i_0_addr, align 4

ST_5: sct_0_load [1/2] 2.39ns
branch6_ifconv:15  %sct_0_load = load float* %sct_0_addr, align 8

ST_5: tmp_6 [4/4] 5.70ns
branch6_ifconv:16  %tmp_6 = fmul float %imag_i_0_load, %sct_0_load

ST_5: tmp_9 [4/4] 5.70ns
branch6_ifconv:19  %tmp_9 = fmul float %real_i_0_load, %sct_0_load

ST_5: tmp_s [4/4] 5.70ns
branch6_ifconv:20  %tmp_s = fmul float %imag_i_0_load, %cct_0_load

ST_5: real_i_1_addr [1/1] 0.00ns
branch6_ifconv:26  %real_i_1_addr = getelementptr [128 x float]* %real_i_1, i64 0, i64 %newIndex1

ST_5: real_i_1_load [2/2] 2.71ns
branch6_ifconv:27  %real_i_1_load = load float* %real_i_1_addr, align 4

ST_5: cct_1_load [1/2] 2.39ns
branch6_ifconv:33  %cct_1_load = load float* %cct_1_addr, align 4

ST_5: cct_0_load_1 [1/2] 2.39ns
branch6_ifconv:34  %cct_0_load_1 = load float* %cct_0_addr_1, align 4

ST_5: cct_load_1_phi [1/1] 1.37ns
branch6_ifconv:35  %cct_load_1_phi = select i1 %tmp_10, float %cct_1_load, float %cct_0_load_1

ST_5: imag_i_1_addr [1/1] 0.00ns
branch6_ifconv:37  %imag_i_1_addr = getelementptr [128 x float]* %imag_i_1, i64 0, i64 %newIndex1

ST_5: imag_i_1_load [2/2] 2.71ns
branch6_ifconv:38  %imag_i_1_load = load float* %imag_i_1_addr, align 4

ST_5: sct_1_load [1/2] 2.39ns
branch6_ifconv:41  %sct_1_load = load float* %sct_1_addr, align 4

ST_5: sct_0_load_1 [1/2] 2.39ns
branch6_ifconv:42  %sct_0_load_1 = load float* %sct_0_addr_1, align 4

ST_5: sct_load_1_phi [1/1] 1.37ns
branch6_ifconv:43  %sct_load_1_phi = select i1 %tmp_10, float %sct_1_load, float %sct_0_load_1


 <State 6>: 8.41ns
ST_6: tmp_5 [3/4] 5.70ns
branch6_ifconv:11  %tmp_5 = fmul float %real_i_0_load, %cct_0_load

ST_6: tmp_6 [3/4] 5.70ns
branch6_ifconv:16  %tmp_6 = fmul float %imag_i_0_load, %sct_0_load

ST_6: tmp_9 [3/4] 5.70ns
branch6_ifconv:19  %tmp_9 = fmul float %real_i_0_load, %sct_0_load

ST_6: tmp_s [3/4] 5.70ns
branch6_ifconv:20  %tmp_s = fmul float %imag_i_0_load, %cct_0_load

ST_6: real_i_1_load [1/2] 2.71ns
branch6_ifconv:27  %real_i_1_load = load float* %real_i_1_addr, align 4

ST_6: tmp_5_1 [4/4] 5.70ns
branch6_ifconv:36  %tmp_5_1 = fmul float %real_i_1_load, %cct_load_1_phi

ST_6: imag_i_1_load [1/2] 2.71ns
branch6_ifconv:38  %imag_i_1_load = load float* %imag_i_1_addr, align 4

ST_6: tmp_6_1 [4/4] 5.70ns
branch6_ifconv:44  %tmp_6_1 = fmul float %imag_i_1_load, %sct_load_1_phi

ST_6: tmp_9_1 [4/4] 5.70ns
branch6_ifconv:47  %tmp_9_1 = fmul float %real_i_1_load, %sct_load_1_phi

ST_6: tmp_1_9 [4/4] 5.70ns
branch6_ifconv:48  %tmp_1_9 = fmul float %imag_i_1_load, %cct_load_1_phi


 <State 7>: 5.70ns
ST_7: tmp_5 [2/4] 5.70ns
branch6_ifconv:11  %tmp_5 = fmul float %real_i_0_load, %cct_0_load

ST_7: tmp_6 [2/4] 5.70ns
branch6_ifconv:16  %tmp_6 = fmul float %imag_i_0_load, %sct_0_load

ST_7: tmp_9 [2/4] 5.70ns
branch6_ifconv:19  %tmp_9 = fmul float %real_i_0_load, %sct_0_load

ST_7: tmp_s [2/4] 5.70ns
branch6_ifconv:20  %tmp_s = fmul float %imag_i_0_load, %cct_0_load

ST_7: tmp_5_1 [3/4] 5.70ns
branch6_ifconv:36  %tmp_5_1 = fmul float %real_i_1_load, %cct_load_1_phi

ST_7: tmp_6_1 [3/4] 5.70ns
branch6_ifconv:44  %tmp_6_1 = fmul float %imag_i_1_load, %sct_load_1_phi

ST_7: tmp_9_1 [3/4] 5.70ns
branch6_ifconv:47  %tmp_9_1 = fmul float %real_i_1_load, %sct_load_1_phi

ST_7: tmp_1_9 [3/4] 5.70ns
branch6_ifconv:48  %tmp_1_9 = fmul float %imag_i_1_load, %cct_load_1_phi


 <State 8>: 5.70ns
ST_8: tmp_5 [1/4] 5.70ns
branch6_ifconv:11  %tmp_5 = fmul float %real_i_0_load, %cct_0_load

ST_8: tmp_6 [1/4] 5.70ns
branch6_ifconv:16  %tmp_6 = fmul float %imag_i_0_load, %sct_0_load

ST_8: tmp_9 [1/4] 5.70ns
branch6_ifconv:19  %tmp_9 = fmul float %real_i_0_load, %sct_0_load

ST_8: tmp_s [1/4] 5.70ns
branch6_ifconv:20  %tmp_s = fmul float %imag_i_0_load, %cct_0_load

ST_8: tmp_5_1 [2/4] 5.70ns
branch6_ifconv:36  %tmp_5_1 = fmul float %real_i_1_load, %cct_load_1_phi

ST_8: tmp_6_1 [2/4] 5.70ns
branch6_ifconv:44  %tmp_6_1 = fmul float %imag_i_1_load, %sct_load_1_phi

ST_8: tmp_9_1 [2/4] 5.70ns
branch6_ifconv:47  %tmp_9_1 = fmul float %real_i_1_load, %sct_load_1_phi

ST_8: tmp_1_9 [2/4] 5.70ns
branch6_ifconv:48  %tmp_1_9 = fmul float %imag_i_1_load, %cct_load_1_phi


 <State 9>: 7.26ns
ST_9: tmp_7 [5/5] 7.26ns
branch6_ifconv:17  %tmp_7 = fsub float %tmp_5, %tmp_6

ST_9: tmp_1 [5/5] 7.26ns
branch6_ifconv:21  %tmp_1 = fadd float %tmp_9, %tmp_s

ST_9: tmp_5_1 [1/4] 5.70ns
branch6_ifconv:36  %tmp_5_1 = fmul float %real_i_1_load, %cct_load_1_phi

ST_9: tmp_6_1 [1/4] 5.70ns
branch6_ifconv:44  %tmp_6_1 = fmul float %imag_i_1_load, %sct_load_1_phi

ST_9: tmp_9_1 [1/4] 5.70ns
branch6_ifconv:47  %tmp_9_1 = fmul float %real_i_1_load, %sct_load_1_phi

ST_9: tmp_1_9 [1/4] 5.70ns
branch6_ifconv:48  %tmp_1_9 = fmul float %imag_i_1_load, %cct_load_1_phi


 <State 10>: 7.26ns
ST_10: tmp_7 [4/5] 7.26ns
branch6_ifconv:17  %tmp_7 = fsub float %tmp_5, %tmp_6

ST_10: tmp_1 [4/5] 7.26ns
branch6_ifconv:21  %tmp_1 = fadd float %tmp_9, %tmp_s

ST_10: tmp_7_1 [5/5] 7.26ns
branch6_ifconv:45  %tmp_7_1 = fsub float %tmp_5_1, %tmp_6_1

ST_10: tmp_1_1 [5/5] 7.26ns
branch6_ifconv:49  %tmp_1_1 = fadd float %tmp_9_1, %tmp_1_9


 <State 11>: 7.26ns
ST_11: tmp_7 [3/5] 7.26ns
branch6_ifconv:17  %tmp_7 = fsub float %tmp_5, %tmp_6

ST_11: tmp_1 [3/5] 7.26ns
branch6_ifconv:21  %tmp_1 = fadd float %tmp_9, %tmp_s

ST_11: tmp_7_1 [4/5] 7.26ns
branch6_ifconv:45  %tmp_7_1 = fsub float %tmp_5_1, %tmp_6_1

ST_11: tmp_1_1 [4/5] 7.26ns
branch6_ifconv:49  %tmp_1_1 = fadd float %tmp_9_1, %tmp_1_9


 <State 12>: 7.26ns
ST_12: tmp_7 [2/5] 7.26ns
branch6_ifconv:17  %tmp_7 = fsub float %tmp_5, %tmp_6

ST_12: tmp_1 [2/5] 7.26ns
branch6_ifconv:21  %tmp_1 = fadd float %tmp_9, %tmp_s

ST_12: tmp_7_1 [3/5] 7.26ns
branch6_ifconv:45  %tmp_7_1 = fsub float %tmp_5_1, %tmp_6_1

ST_12: tmp_1_1 [3/5] 7.26ns
branch6_ifconv:49  %tmp_1_1 = fadd float %tmp_9_1, %tmp_1_9


 <State 13>: 7.26ns
ST_13: tmp_7 [1/5] 7.26ns
branch6_ifconv:17  %tmp_7 = fsub float %tmp_5, %tmp_6

ST_13: tmp_1 [1/5] 7.26ns
branch6_ifconv:21  %tmp_1 = fadd float %tmp_9, %tmp_s

ST_13: tmp_7_1 [2/5] 7.26ns
branch6_ifconv:45  %tmp_7_1 = fsub float %tmp_5_1, %tmp_6_1

ST_13: tmp_1_1 [2/5] 7.26ns
branch6_ifconv:49  %tmp_1_1 = fadd float %tmp_9_1, %tmp_1_9


 <State 14>: 7.26ns
ST_14: real_o_tmp_1 [5/5] 7.26ns
branch6_ifconv:18  %real_o_tmp_1 = fadd float %real_o_tmp, %tmp_7

ST_14: imag_o_tmp_1 [5/5] 7.26ns
branch6_ifconv:22  %imag_o_tmp_1 = fadd float %imag_o_tmp, %tmp_1

ST_14: tmp_7_1 [1/5] 7.26ns
branch6_ifconv:45  %tmp_7_1 = fsub float %tmp_5_1, %tmp_6_1

ST_14: tmp_1_1 [1/5] 7.26ns
branch6_ifconv:49  %tmp_1_1 = fadd float %tmp_9_1, %tmp_1_9


 <State 15>: 7.26ns
ST_15: real_o_tmp_1 [4/5] 7.26ns
branch6_ifconv:18  %real_o_tmp_1 = fadd float %real_o_tmp, %tmp_7

ST_15: imag_o_tmp_1 [4/5] 7.26ns
branch6_ifconv:22  %imag_o_tmp_1 = fadd float %imag_o_tmp, %tmp_1


 <State 16>: 7.26ns
ST_16: real_o_tmp_1 [3/5] 7.26ns
branch6_ifconv:18  %real_o_tmp_1 = fadd float %real_o_tmp, %tmp_7

ST_16: imag_o_tmp_1 [3/5] 7.26ns
branch6_ifconv:22  %imag_o_tmp_1 = fadd float %imag_o_tmp, %tmp_1


 <State 17>: 7.26ns
ST_17: real_o_tmp_1 [2/5] 7.26ns
branch6_ifconv:18  %real_o_tmp_1 = fadd float %real_o_tmp, %tmp_7

ST_17: imag_o_tmp_1 [2/5] 7.26ns
branch6_ifconv:22  %imag_o_tmp_1 = fadd float %imag_o_tmp, %tmp_1


 <State 18>: 7.26ns
ST_18: real_o_tmp_1 [1/5] 7.26ns
branch6_ifconv:18  %real_o_tmp_1 = fadd float %real_o_tmp, %tmp_7

ST_18: imag_o_tmp_1 [1/5] 7.26ns
branch6_ifconv:22  %imag_o_tmp_1 = fadd float %imag_o_tmp, %tmp_1


 <State 19>: 7.26ns
ST_19: real_o_tmp_1_1 [5/5] 7.26ns
branch6_ifconv:46  %real_o_tmp_1_1 = fadd float %real_o_tmp_1, %tmp_7_1

ST_19: imag_o_tmp_1_1 [5/5] 7.26ns
branch6_ifconv:50  %imag_o_tmp_1_1 = fadd float %imag_o_tmp_1, %tmp_1_1


 <State 20>: 7.26ns
ST_20: real_o_tmp_1_1 [4/5] 7.26ns
branch6_ifconv:46  %real_o_tmp_1_1 = fadd float %real_o_tmp_1, %tmp_7_1

ST_20: imag_o_tmp_1_1 [4/5] 7.26ns
branch6_ifconv:50  %imag_o_tmp_1_1 = fadd float %imag_o_tmp_1, %tmp_1_1


 <State 21>: 7.26ns
ST_21: real_o_tmp_1_1 [3/5] 7.26ns
branch6_ifconv:46  %real_o_tmp_1_1 = fadd float %real_o_tmp_1, %tmp_7_1

ST_21: imag_o_tmp_1_1 [3/5] 7.26ns
branch6_ifconv:50  %imag_o_tmp_1_1 = fadd float %imag_o_tmp_1, %tmp_1_1


 <State 22>: 7.26ns
ST_22: real_o_tmp_1_1 [2/5] 7.26ns
branch6_ifconv:46  %real_o_tmp_1_1 = fadd float %real_o_tmp_1, %tmp_7_1

ST_22: imag_o_tmp_1_1 [2/5] 7.26ns
branch6_ifconv:50  %imag_o_tmp_1_1 = fadd float %imag_o_tmp_1, %tmp_1_1


 <State 23>: 7.26ns
ST_23: stg_185 [1/1] 0.00ns
branch6_ifconv:0  call void (...)* @_ssdm_op_SpecLoopName([9 x i8]* @p_str3) nounwind

ST_23: real_o_tmp_1_1 [1/5] 7.26ns
branch6_ifconv:46  %real_o_tmp_1_1 = fadd float %real_o_tmp_1, %tmp_7_1

ST_23: imag_o_tmp_1_1 [1/5] 7.26ns
branch6_ifconv:50  %imag_o_tmp_1_1 = fadd float %imag_o_tmp_1, %tmp_1_1

ST_23: stg_188 [1/1] 0.00ns
branch6_ifconv:52  br label %3



============================================================
+ Verbose Summary: Binding
============================================================
N/A
* FSMD analyzer results:
  - Output states:
  - Chain level:
	State 1
	State 2
	State 3
	State 4
	State 5
	State 6
	State 7
	State 8
	State 9
	State 10
	State 11
	State 12
	State 13
	State 14
	State 15
	State 16
	State 17
	State 18
	State 19
	State 20
	State 21
	State 22
	State 23


============================================================
+ Verbose Summary: Datapath Resource usage 
============================================================
N/A
