

================================================================
== Vivado HLS Report for 'dft_Loop_Loop_Row_proc'
================================================================
* Date:           Tue Nov 01 19:28:01 2016

* Version:        2015.4 (Build 1412921 on Wed Nov 18 09:58:55 AM 2015)
* Project:        dft
* Solution:       dft_best3
* Product family: zynq
* Target device:  xc7z020clg484-1


================================================================
== Performance Estimates
================================================================
+ Timing (ns): 
    * Summary: 
    +--------+-------+----------+------------+
    |  Clock | Target| Estimated| Uncertainty|
    +--------+-------+----------+------------+
    |ap_clk  |  10.00|      7.26|        1.25|
    +--------+-------+----------+------------+

+ Latency (clock cycles): 
    * Summary: 
    +-------+-------+-------+-------+---------+
    |    Latency    |    Interval   | Pipeline|
    |  min  |  max  |  min  |  max  |   Type  |
    +-------+-------+-------+-------+---------+
    |  31553|  31553|  31553|  31553|   none  |
    +-------+-------+-------+-------+---------+

    + Detail: 
        * Instance: 
        +-----------------------------+------------------+-----+-----+-----+-----+----------+
        |                             |                  |  Latency  |  Interval | Pipeline |
        |           Instance          |      Module      | min | max | min | max |   Type   |
        +-----------------------------+------------------+-----+-----+-----+-----+----------+
        |grp_dft_loop_flow256_fu_518  |dft_loop_flow256  |   45|   45|   45|   45|   none   |
        |grp_dft_loop_flow128_fu_796  |dft_loop_flow128  |   40|   40|   40|   40|   none   |
        |grp_dft_loop_flow64_fu_832   |dft_loop_flow64   |   26|   26|   26|   26|   none   |
        |grp_dft_loop_flow32_fu_868   |dft_loop_flow32   |   18|   18|   18|   18|   none   |
        |grp_dft_loop_flow2_fu_904    |dft_loop_flow2    |    4|    4|    1|    1| function |
        |grp_dft_loop_flow4_fu_932    |dft_loop_flow4    |   11|   11|   11|   11|   none   |
        |grp_dft_loop_flow16_fu_984   |dft_loop_flow16   |   28|   28|   28|   28|   none   |
        |grp_dft_loop_flow8_fu_1020   |dft_loop_flow8    |   20|   20|   20|   20|   none   |
        +-----------------------------+------------------+-----+-----+-----+-----+----------+

        * Loop: 
        +------------+-------+-------+----------+-----------+-----------+------+----------+
        |            |    Latency    | Iteration|  Initiation Interval  | Trip |          |
        |  Loop Name |  min  |  max  |  Latency |  achieved |   target  | Count| Pipelined|
        +------------+-------+-------+----------+-----------+-----------+------+----------+
        |- Loop_Row  |  31552|  31552|       493|          -|          -|    64|    no    |
        +------------+-------+-------+----------+-----------+-----------+------+----------+



================================================================
== Utilization Estimates
================================================================
* Summary: 
+-----------------+---------+-------+--------+-------+
|       Name      | BRAM_18K| DSP48E|   FF   |  LUT  |
+-----------------+---------+-------+--------+-------+
|DSP              |        -|      -|       -|      -|
|Expression       |        -|      -|       0|     41|
|FIFO             |        -|      -|       -|      -|
|Instance         |        0|    208|   38268|  38854|
|Memory           |       32|      -|    1536|    112|
|Multiplexer      |        -|      -|       -|    508|
|Register         |        -|      -|    1057|      -|
+-----------------+---------+-------+--------+-------+
|Total            |       32|    208|   40861|  39515|
+-----------------+---------+-------+--------+-------+
|Available        |      280|    220|  106400|  53200|
+-----------------+---------+-------+--------+-------+
|Utilization (%)  |       11|     94|      38|     74|
+-----------------+---------+-------+--------+-------+

+ Detail: 
    * Instance: 
    +---------------------------------------+----------------------------------+---------+-------+-------+-------+
    |                Instance               |              Module              | BRAM_18K| DSP48E|   FF  |  LUT  |
    +---------------------------------------+----------------------------------+---------+-------+-------+-------+
    |dft_fadd_32ns_32ns_32_5_full_dsp_U359  |dft_fadd_32ns_32ns_32_5_full_dsp  |        0|      2|    205|    390|
    |dft_fadd_32ns_32ns_32_5_full_dsp_U360  |dft_fadd_32ns_32ns_32_5_full_dsp  |        0|      2|    205|    390|
    |grp_dft_loop_flow128_fu_796            |dft_loop_flow128                  |        0|     16|   2981|   3867|
    |grp_dft_loop_flow16_fu_984             |dft_loop_flow16                   |        0|      4|    802|    997|
    |grp_dft_loop_flow2_fu_904              |dft_loop_flow2                    |        0|      8|    825|   1560|
    |grp_dft_loop_flow256_fu_518            |dft_loop_flow256                  |        0|    136|  27013|  23080|
    |grp_dft_loop_flow32_fu_868             |dft_loop_flow32                   |        0|     16|   2446|   3191|
    |grp_dft_loop_flow4_fu_932              |dft_loop_flow4                    |        0|      4|    556|   1201|
    |grp_dft_loop_flow64_fu_832             |dft_loop_flow64                   |        0|     16|   2446|   3191|
    |grp_dft_loop_flow8_fu_1020             |dft_loop_flow8                    |        0|      4|    789|    987|
    +---------------------------------------+----------------------------------+---------+-------+-------+-------+
    |Total                                  |                                  |        0|    208|  38268|  38854|
    +---------------------------------------+----------------------------------+---------+-------+-------+-------+

    * DSP48: 
    N/A

    * Memory: 
    +-----------------+--------------------------------------+---------+----+----+------+-----+------+-------------+
    |      Memory     |                Module                | BRAM_18K| FF | LUT| Words| Bits| Banks| W*Bits*Banks|
    +-----------------+--------------------------------------+---------+----+----+------+-----+------+-------------+
    |imag_arr16_1_U   |dft_Loop_Loop_Row_proc_imag_arr16_1   |        0|  64|   2|     4|   32|     1|          128|
    |imag_arr16_3_U   |dft_Loop_Loop_Row_proc_imag_arr16_1   |        0|  64|   2|     4|   32|     1|          128|
    |imag_arr16_0_U   |dft_Loop_Loop_Row_proc_imag_arr16_1   |        0|  64|   2|     4|   32|     1|          128|
    |imag_arr16_2_U   |dft_Loop_Loop_Row_proc_imag_arr16_1   |        0|  64|   2|     4|   32|     1|          128|
    |real_arr16_1_U   |dft_Loop_Loop_Row_proc_imag_arr16_1   |        0|  64|   2|     4|   32|     1|          128|
    |real_arr16_3_U   |dft_Loop_Loop_Row_proc_imag_arr16_1   |        0|  64|   2|     4|   32|     1|          128|
    |real_arr16_0_U   |dft_Loop_Loop_Row_proc_imag_arr16_1   |        0|  64|   2|     4|   32|     1|          128|
    |real_arr16_2_U   |dft_Loop_Loop_Row_proc_imag_arr16_1   |        0|  64|   2|     4|   32|     1|          128|
    |real_arr128_0_U  |dft_Loop_Loop_Row_proc_real_arr128_0  |        2|   0|   0|    32|   32|     1|         1024|
    |imag_arr128_0_U  |dft_Loop_Loop_Row_proc_real_arr128_0  |        2|   0|   0|    32|   32|     1|         1024|
    |real_arr128_1_U  |dft_Loop_Loop_Row_proc_real_arr128_0  |        2|   0|   0|    32|   32|     1|         1024|
    |imag_arr128_1_U  |dft_Loop_Loop_Row_proc_real_arr128_0  |        2|   0|   0|    32|   32|     1|         1024|
    |real_arr128_2_U  |dft_Loop_Loop_Row_proc_real_arr128_0  |        2|   0|   0|    32|   32|     1|         1024|
    |imag_arr128_2_U  |dft_Loop_Loop_Row_proc_real_arr128_0  |        2|   0|   0|    32|   32|     1|         1024|
    |real_arr128_3_U  |dft_Loop_Loop_Row_proc_real_arr128_0  |        2|   0|   0|    32|   32|     1|         1024|
    |imag_arr128_3_U  |dft_Loop_Loop_Row_proc_real_arr128_0  |        2|   0|   0|    32|   32|     1|         1024|
    |real_arr256_0_U  |dft_Loop_Loop_Row_proc_real_arr256_0  |        2|   0|   0|    64|   32|     1|         2048|
    |imag_arr256_0_U  |dft_Loop_Loop_Row_proc_real_arr256_0  |        2|   0|   0|    64|   32|     1|         2048|
    |real_arr256_1_U  |dft_Loop_Loop_Row_proc_real_arr256_0  |        2|   0|   0|    64|   32|     1|         2048|
    |imag_arr256_1_U  |dft_Loop_Loop_Row_proc_real_arr256_0  |        2|   0|   0|    64|   32|     1|         2048|
    |real_arr256_2_U  |dft_Loop_Loop_Row_proc_real_arr256_0  |        2|   0|   0|    64|   32|     1|         2048|
    |imag_arr256_2_U  |dft_Loop_Loop_Row_proc_real_arr256_0  |        2|   0|   0|    64|   32|     1|         2048|
    |real_arr256_3_U  |dft_Loop_Loop_Row_proc_real_arr256_0  |        2|   0|   0|    64|   32|     1|         2048|
    |imag_arr256_3_U  |dft_Loop_Loop_Row_proc_real_arr256_0  |        2|   0|   0|    64|   32|     1|         2048|
    |real_arr32_0_U   |dft_Loop_Loop_Row_proc_real_arr32_0   |        0|  64|   4|     8|   32|     1|          256|
    |imag_arr32_0_U   |dft_Loop_Loop_Row_proc_real_arr32_0   |        0|  64|   4|     8|   32|     1|          256|
    |real_arr32_1_U   |dft_Loop_Loop_Row_proc_real_arr32_0   |        0|  64|   4|     8|   32|     1|          256|
    |imag_arr32_1_U   |dft_Loop_Loop_Row_proc_real_arr32_0   |        0|  64|   4|     8|   32|     1|          256|
    |real_arr32_2_U   |dft_Loop_Loop_Row_proc_real_arr32_0   |        0|  64|   4|     8|   32|     1|          256|
    |imag_arr32_2_U   |dft_Loop_Loop_Row_proc_real_arr32_0   |        0|  64|   4|     8|   32|     1|          256|
    |real_arr32_3_U   |dft_Loop_Loop_Row_proc_real_arr32_0   |        0|  64|   4|     8|   32|     1|          256|
    |imag_arr32_3_U   |dft_Loop_Loop_Row_proc_real_arr32_0   |        0|  64|   4|     8|   32|     1|          256|
    |real_arr64_0_U   |dft_Loop_Loop_Row_proc_real_arr64_0   |        0|  64|   8|    16|   32|     1|          512|
    |imag_arr64_0_U   |dft_Loop_Loop_Row_proc_real_arr64_0   |        0|  64|   8|    16|   32|     1|          512|
    |real_arr64_1_U   |dft_Loop_Loop_Row_proc_real_arr64_0   |        0|  64|   8|    16|   32|     1|          512|
    |imag_arr64_1_U   |dft_Loop_Loop_Row_proc_real_arr64_0   |        0|  64|   8|    16|   32|     1|          512|
    |real_arr64_2_U   |dft_Loop_Loop_Row_proc_real_arr64_0   |        0|  64|   8|    16|   32|     1|          512|
    |imag_arr64_2_U   |dft_Loop_Loop_Row_proc_real_arr64_0   |        0|  64|   8|    16|   32|     1|          512|
    |real_arr64_3_U   |dft_Loop_Loop_Row_proc_real_arr64_0   |        0|  64|   8|    16|   32|     1|          512|
    |imag_arr64_3_U   |dft_Loop_Loop_Row_proc_real_arr64_0   |        0|  64|   8|    16|   32|     1|          512|
    +-----------------+--------------------------------------+---------+----+----+------+-----+------+-------------+
    |Total            |                                      |       32|1536| 112|   992| 1280|    40|        31744|
    +-----------------+--------------------------------------+---------+----+----+------+-----+------+-------------+

    * FIFO: 
    N/A

    * Expression: 
    +---------------------+----------+-------+---+----+------------+------------+
    |    Variable Name    | Operation| DSP48E| FF| LUT| Bitwidth P0| Bitwidth P1|
    +---------------------+----------+-------+---+----+------------+------------+
    |tmp_27_3_fu_1163_p2  |     +    |      0|  0|   9|           9|           3|
    |exitcond_fu_1130_p2  |   icmp   |      0|  0|   4|           9|          10|
    |ap_sig_bdd_1916      |    or    |      0|  0|   1|           1|           1|
    |tmp_27_1_fu_1143_p2  |    or    |      0|  0|   9|           9|           2|
    |tmp_27_2_fu_1150_p2  |    or    |      0|  0|   9|           9|           2|
    |tmp_27_s_fu_1136_p2  |    or    |      0|  0|   9|           9|           1|
    +---------------------+----------+-------+---+----+------------+------------+
    |Total                |          |      0|  0|  41|          46|          19|
    +---------------------+----------+-------+---+----+------------+------------+

    * Multiplexer: 
    +--------------------------------------+----+-----------+-----+-----------+
    |                 Name                 | LUT| Input Size| Bits| Total Bits|
    +--------------------------------------+----+-----------+-----+-----------+
    |ap_NS_fsm                             |  90|         48|    1|         48|
    |grp_dft_loop_flow256_fu_518_i_V_read  |   9|          5|    9|         45|
    |i_V_reg_506                           |   9|          2|    9|         18|
    |imag_arr128_0_address0                |   5|          3|    5|         15|
    |imag_arr128_0_ce0                     |   1|          3|    1|          3|
    |imag_arr128_0_ce1                     |   1|          2|    1|          2|
    |imag_arr128_0_we0                     |   1|          2|    1|          2|
    |imag_arr128_1_address0                |   5|          3|    5|         15|
    |imag_arr128_1_ce0                     |   1|          3|    1|          3|
    |imag_arr128_1_ce1                     |   1|          2|    1|          2|
    |imag_arr128_1_we0                     |   1|          2|    1|          2|
    |imag_arr128_2_address0                |   5|          3|    5|         15|
    |imag_arr128_2_ce0                     |   1|          3|    1|          3|
    |imag_arr128_2_ce1                     |   1|          2|    1|          2|
    |imag_arr128_2_we0                     |   1|          2|    1|          2|
    |imag_arr128_3_address0                |   5|          3|    5|         15|
    |imag_arr128_3_ce0                     |   1|          3|    1|          3|
    |imag_arr128_3_ce1                     |   1|          2|    1|          2|
    |imag_arr128_3_we0                     |   1|          2|    1|          2|
    |imag_arr16_0_address0                 |   2|          3|    2|          6|
    |imag_arr16_0_ce0                      |   1|          3|    1|          3|
    |imag_arr16_0_we0                      |   1|          2|    1|          2|
    |imag_arr16_1_address0                 |   2|          3|    2|          6|
    |imag_arr16_1_ce0                      |   1|          3|    1|          3|
    |imag_arr16_1_we0                      |   1|          2|    1|          2|
    |imag_arr16_2_address0                 |   2|          3|    2|          6|
    |imag_arr16_2_ce0                      |   1|          3|    1|          3|
    |imag_arr16_2_we0                      |   1|          2|    1|          2|
    |imag_arr16_3_address0                 |   2|          3|    2|          6|
    |imag_arr16_3_ce0                      |   1|          3|    1|          3|
    |imag_arr16_3_we0                      |   1|          2|    1|          2|
    |imag_arr256_0_address0                |   6|          3|    6|         18|
    |imag_arr256_0_address1                |   6|          3|    6|         18|
    |imag_arr256_0_ce0                     |   1|          3|    1|          3|
    |imag_arr256_0_ce1                     |   1|          3|    1|          3|
    |imag_arr256_0_we0                     |   1|          2|    1|          2|
    |imag_arr256_0_we1                     |   1|          2|    1|          2|
    |imag_arr256_1_address0                |   6|          3|    6|         18|
    |imag_arr256_1_address1                |   6|          3|    6|         18|
    |imag_arr256_1_ce0                     |   1|          3|    1|          3|
    |imag_arr256_1_ce1                     |   1|          3|    1|          3|
    |imag_arr256_1_we0                     |   1|          2|    1|          2|
    |imag_arr256_1_we1                     |   1|          2|    1|          2|
    |imag_arr256_2_address0                |   6|          3|    6|         18|
    |imag_arr256_2_address1                |   6|          3|    6|         18|
    |imag_arr256_2_ce0                     |   1|          3|    1|          3|
    |imag_arr256_2_ce1                     |   1|          3|    1|          3|
    |imag_arr256_2_we0                     |   1|          2|    1|          2|
    |imag_arr256_2_we1                     |   1|          2|    1|          2|
    |imag_arr256_3_address0                |   6|          3|    6|         18|
    |imag_arr256_3_address1                |   6|          3|    6|         18|
    |imag_arr256_3_ce0                     |   1|          3|    1|          3|
    |imag_arr256_3_ce1                     |   1|          3|    1|          3|
    |imag_arr256_3_we0                     |   1|          2|    1|          2|
    |imag_arr256_3_we1                     |   1|          2|    1|          2|
    |imag_arr32_0_address0                 |   3|          3|    3|          9|
    |imag_arr32_0_ce0                      |   1|          3|    1|          3|
    |imag_arr32_0_we0                      |   1|          2|    1|          2|
    |imag_arr32_1_address0                 |   3|          3|    3|          9|
    |imag_arr32_1_ce0                      |   1|          3|    1|          3|
    |imag_arr32_1_we0                      |   1|          2|    1|          2|
    |imag_arr32_2_address0                 |   3|          3|    3|          9|
    |imag_arr32_2_ce0                      |   1|          3|    1|          3|
    |imag_arr32_2_we0                      |   1|          2|    1|          2|
    |imag_arr32_3_address0                 |   3|          3|    3|          9|
    |imag_arr32_3_ce0                      |   1|          3|    1|          3|
    |imag_arr32_3_we0                      |   1|          2|    1|          2|
    |imag_arr64_0_address0                 |   4|          3|    4|         12|
    |imag_arr64_0_ce0                      |   1|          3|    1|          3|
    |imag_arr64_0_ce1                      |   1|          2|    1|          2|
    |imag_arr64_0_we0                      |   1|          2|    1|          2|
    |imag_arr64_1_address0                 |   4|          3|    4|         12|
    |imag_arr64_1_ce0                      |   1|          3|    1|          3|
    |imag_arr64_1_ce1                      |   1|          2|    1|          2|
    |imag_arr64_1_we0                      |   1|          2|    1|          2|
    |imag_arr64_2_address0                 |   4|          3|    4|         12|
    |imag_arr64_2_ce0                      |   1|          3|    1|          3|
    |imag_arr64_2_ce1                      |   1|          2|    1|          2|
    |imag_arr64_2_we0                      |   1|          2|    1|          2|
    |imag_arr64_3_address0                 |   4|          3|    4|         12|
    |imag_arr64_3_ce0                      |   1|          3|    1|          3|
    |imag_arr64_3_ce1                      |   1|          2|    1|          2|
    |imag_arr64_3_we0                      |   1|          2|    1|          2|
    |imag_i_0_ce0                          |   1|          2|    1|          2|
    |imag_i_10_ce0                         |   1|          2|    1|          2|
    |imag_i_11_ce0                         |   1|          2|    1|          2|
    |imag_i_12_ce0                         |   1|          2|    1|          2|
    |imag_i_13_ce0                         |   1|          2|    1|          2|
    |imag_i_14_ce0                         |   1|          2|    1|          2|
    |imag_i_15_ce0                         |   1|          2|    1|          2|
    |imag_i_16_ce0                         |   1|          2|    1|          2|
    |imag_i_17_ce0                         |   1|          2|    1|          2|
    |imag_i_18_ce0                         |   1|          2|    1|          2|
    |imag_i_19_ce0                         |   1|          2|    1|          2|
    |imag_i_1_ce0                          |   1|          2|    1|          2|
    |imag_i_20_ce0                         |   1|          2|    1|          2|
    |imag_i_21_ce0                         |   1|          2|    1|          2|
    |imag_i_22_ce0                         |   1|          2|    1|          2|
    |imag_i_23_ce0                         |   1|          2|    1|          2|
    |imag_i_24_ce0                         |   1|          2|    1|          2|
    |imag_i_25_ce0                         |   1|          2|    1|          2|
    |imag_i_26_ce0                         |   1|          2|    1|          2|
    |imag_i_27_ce0                         |   1|          2|    1|          2|
    |imag_i_28_ce0                         |   1|          2|    1|          2|
    |imag_i_29_ce0                         |   1|          2|    1|          2|
    |imag_i_2_ce0                          |   1|          2|    1|          2|
    |imag_i_30_ce0                         |   1|          2|    1|          2|
    |imag_i_31_ce0                         |   1|          2|    1|          2|
    |imag_i_3_ce0                          |   1|          2|    1|          2|
    |imag_i_4_ce0                          |   1|          2|    1|          2|
    |imag_i_5_ce0                          |   1|          2|    1|          2|
    |imag_i_6_ce0                          |   1|          2|    1|          2|
    |imag_i_7_ce0                          |   1|          2|    1|          2|
    |imag_i_8_ce0                          |   1|          2|    1|          2|
    |imag_i_9_ce0                          |   1|          2|    1|          2|
    |imag_o_address0                       |   8|          5|    8|         40|
    |real_arr128_0_address0                |   5|          3|    5|         15|
    |real_arr128_0_ce0                     |   1|          3|    1|          3|
    |real_arr128_0_ce1                     |   1|          2|    1|          2|
    |real_arr128_0_we0                     |   1|          2|    1|          2|
    |real_arr128_1_address0                |   5|          3|    5|         15|
    |real_arr128_1_ce0                     |   1|          3|    1|          3|
    |real_arr128_1_ce1                     |   1|          2|    1|          2|
    |real_arr128_1_we0                     |   1|          2|    1|          2|
    |real_arr128_2_address0                |   5|          3|    5|         15|
    |real_arr128_2_ce0                     |   1|          3|    1|          3|
    |real_arr128_2_ce1                     |   1|          2|    1|          2|
    |real_arr128_2_we0                     |   1|          2|    1|          2|
    |real_arr128_3_address0                |   5|          3|    5|         15|
    |real_arr128_3_ce0                     |   1|          3|    1|          3|
    |real_arr128_3_ce1                     |   1|          2|    1|          2|
    |real_arr128_3_we0                     |   1|          2|    1|          2|
    |real_arr16_0_address0                 |   2|          3|    2|          6|
    |real_arr16_0_ce0                      |   1|          3|    1|          3|
    |real_arr16_0_we0                      |   1|          2|    1|          2|
    |real_arr16_1_address0                 |   2|          3|    2|          6|
    |real_arr16_1_ce0                      |   1|          3|    1|          3|
    |real_arr16_1_we0                      |   1|          2|    1|          2|
    |real_arr16_2_address0                 |   2|          3|    2|          6|
    |real_arr16_2_ce0                      |   1|          3|    1|          3|
    |real_arr16_2_we0                      |   1|          2|    1|          2|
    |real_arr16_3_address0                 |   2|          3|    2|          6|
    |real_arr16_3_ce0                      |   1|          3|    1|          3|
    |real_arr16_3_we0                      |   1|          2|    1|          2|
    |real_arr256_0_address0                |   6|          3|    6|         18|
    |real_arr256_0_address1                |   6|          3|    6|         18|
    |real_arr256_0_ce0                     |   1|          3|    1|          3|
    |real_arr256_0_ce1                     |   1|          3|    1|          3|
    |real_arr256_0_we0                     |   1|          2|    1|          2|
    |real_arr256_0_we1                     |   1|          2|    1|          2|
    |real_arr256_1_address0                |   6|          3|    6|         18|
    |real_arr256_1_address1                |   6|          3|    6|         18|
    |real_arr256_1_ce0                     |   1|          3|    1|          3|
    |real_arr256_1_ce1                     |   1|          3|    1|          3|
    |real_arr256_1_we0                     |   1|          2|    1|          2|
    |real_arr256_1_we1                     |   1|          2|    1|          2|
    |real_arr256_2_address0                |   6|          3|    6|         18|
    |real_arr256_2_address1                |   6|          3|    6|         18|
    |real_arr256_2_ce0                     |   1|          3|    1|          3|
    |real_arr256_2_ce1                     |   1|          3|    1|          3|
    |real_arr256_2_we0                     |   1|          2|    1|          2|
    |real_arr256_2_we1                     |   1|          2|    1|          2|
    |real_arr256_3_address0                |   6|          3|    6|         18|
    |real_arr256_3_address1                |   6|          3|    6|         18|
    |real_arr256_3_ce0                     |   1|          3|    1|          3|
    |real_arr256_3_ce1                     |   1|          3|    1|          3|
    |real_arr256_3_we0                     |   1|          2|    1|          2|
    |real_arr256_3_we1                     |   1|          2|    1|          2|
    |real_arr32_0_address0                 |   3|          3|    3|          9|
    |real_arr32_0_ce0                      |   1|          3|    1|          3|
    |real_arr32_0_we0                      |   1|          2|    1|          2|
    |real_arr32_1_address0                 |   3|          3|    3|          9|
    |real_arr32_1_ce0                      |   1|          3|    1|          3|
    |real_arr32_1_we0                      |   1|          2|    1|          2|
    |real_arr32_2_address0                 |   3|          3|    3|          9|
    |real_arr32_2_ce0                      |   1|          3|    1|          3|
    |real_arr32_2_we0                      |   1|          2|    1|          2|
    |real_arr32_3_address0                 |   3|          3|    3|          9|
    |real_arr32_3_ce0                      |   1|          3|    1|          3|
    |real_arr32_3_we0                      |   1|          2|    1|          2|
    |real_arr64_0_address0                 |   4|          3|    4|         12|
    |real_arr64_0_ce0                      |   1|          3|    1|          3|
    |real_arr64_0_ce1                      |   1|          2|    1|          2|
    |real_arr64_0_we0                      |   1|          2|    1|          2|
    |real_arr64_1_address0                 |   4|          3|    4|         12|
    |real_arr64_1_ce0                      |   1|          3|    1|          3|
    |real_arr64_1_ce1                      |   1|          2|    1|          2|
    |real_arr64_1_we0                      |   1|          2|    1|          2|
    |real_arr64_2_address0                 |   4|          3|    4|         12|
    |real_arr64_2_ce0                      |   1|          3|    1|          3|
    |real_arr64_2_ce1                      |   1|          2|    1|          2|
    |real_arr64_2_we0                      |   1|          2|    1|          2|
    |real_arr64_3_address0                 |   4|          3|    4|         12|
    |real_arr64_3_ce0                      |   1|          3|    1|          3|
    |real_arr64_3_ce1                      |   1|          2|    1|          2|
    |real_arr64_3_we0                      |   1|          2|    1|          2|
    |real_i_0_ce0                          |   1|          2|    1|          2|
    |real_i_10_ce0                         |   1|          2|    1|          2|
    |real_i_11_ce0                         |   1|          2|    1|          2|
    |real_i_12_ce0                         |   1|          2|    1|          2|
    |real_i_13_ce0                         |   1|          2|    1|          2|
    |real_i_14_ce0                         |   1|          2|    1|          2|
    |real_i_15_ce0                         |   1|          2|    1|          2|
    |real_i_16_ce0                         |   1|          2|    1|          2|
    |real_i_17_ce0                         |   1|          2|    1|          2|
    |real_i_18_ce0                         |   1|          2|    1|          2|
    |real_i_19_ce0                         |   1|          2|    1|          2|
    |real_i_1_ce0                          |   1|          2|    1|          2|
    |real_i_20_ce0                         |   1|          2|    1|          2|
    |real_i_21_ce0                         |   1|          2|    1|          2|
    |real_i_22_ce0                         |   1|          2|    1|          2|
    |real_i_23_ce0                         |   1|          2|    1|          2|
    |real_i_24_ce0                         |   1|          2|    1|          2|
    |real_i_25_ce0                         |   1|          2|    1|          2|
    |real_i_26_ce0                         |   1|          2|    1|          2|
    |real_i_27_ce0                         |   1|          2|    1|          2|
    |real_i_28_ce0                         |   1|          2|    1|          2|
    |real_i_29_ce0                         |   1|          2|    1|          2|
    |real_i_2_ce0                          |   1|          2|    1|          2|
    |real_i_30_ce0                         |   1|          2|    1|          2|
    |real_i_31_ce0                         |   1|          2|    1|          2|
    |real_i_3_ce0                          |   1|          2|    1|          2|
    |real_i_4_ce0                          |   1|          2|    1|          2|
    |real_i_5_ce0                          |   1|          2|    1|          2|
    |real_i_6_ce0                          |   1|          2|    1|          2|
    |real_i_7_ce0                          |   1|          2|    1|          2|
    |real_i_8_ce0                          |   1|          2|    1|          2|
    |real_i_9_ce0                          |   1|          2|    1|          2|
    |real_o_address0                       |   8|          5|    8|         40|
    +--------------------------------------+----+-----------+-----+-----------+
    |Total                                 | 508|        609|  419|       1215|
    +--------------------------------------+----+-----------+-----+-----------+

    * Register: 
    +---------------------------------------------------+----+----+-----+-----------+
    |                        Name                       | FF | LUT| Bits| Const Bits|
    +---------------------------------------------------+----+----+-----+-----------+
    |ap_CS_fsm                                          |  47|   0|   47|          0|
    |ap_done_reg                                        |   1|   0|    1|          0|
    |grp_dft_loop_flow128_fu_796_ap_start_ap_start_reg  |   1|   0|    1|          0|
    |grp_dft_loop_flow16_fu_984_ap_start_ap_start_reg   |   1|   0|    1|          0|
    |grp_dft_loop_flow256_fu_518_ap_start_ap_start_reg  |   1|   0|    1|          0|
    |grp_dft_loop_flow2_fu_904_ap_start_ap_start_reg    |   1|   0|    1|          0|
    |grp_dft_loop_flow32_fu_868_ap_start_ap_start_reg   |   1|   0|    1|          0|
    |grp_dft_loop_flow4_fu_932_ap_start_ap_start_reg    |   1|   0|    1|          0|
    |grp_dft_loop_flow64_fu_832_ap_start_ap_start_reg   |   1|   0|    1|          0|
    |grp_dft_loop_flow8_fu_1020_ap_start_ap_start_reg   |   1|   0|    1|          0|
    |i_V_reg_506                                        |   9|   0|    9|          0|
    |imag_arr2_0                                        |  32|   0|   32|          0|
    |imag_arr2_1                                        |  32|   0|   32|          0|
    |imag_arr4_0                                        |  32|   0|   32|          0|
    |imag_arr4_1                                        |  32|   0|   32|          0|
    |imag_arr4_2                                        |  32|   0|   32|          0|
    |imag_arr4_3                                        |  32|   0|   32|          0|
    |imag_arr8_0                                        |  32|   0|   32|          0|
    |imag_arr8_1                                        |  32|   0|   32|          0|
    |imag_arr8_2                                        |  32|   0|   32|          0|
    |imag_arr8_3                                        |  32|   0|   32|          0|
    |imag_arr8_4                                        |  32|   0|   32|          0|
    |imag_arr8_5                                        |  32|   0|   32|          0|
    |imag_arr8_6                                        |  32|   0|   32|          0|
    |imag_arr8_7                                        |  32|   0|   32|          0|
    |real_arr2_0                                        |  32|   0|   32|          0|
    |real_arr2_1                                        |  32|   0|   32|          0|
    |real_arr4_0                                        |  32|   0|   32|          0|
    |real_arr4_1                                        |  32|   0|   32|          0|
    |real_arr4_2                                        |  32|   0|   32|          0|
    |real_arr4_3                                        |  32|   0|   32|          0|
    |real_arr8_0                                        |  32|   0|   32|          0|
    |real_arr8_1                                        |  32|   0|   32|          0|
    |real_arr8_2                                        |  32|   0|   32|          0|
    |real_arr8_3                                        |  32|   0|   32|          0|
    |real_arr8_4                                        |  32|   0|   32|          0|
    |real_arr8_5                                        |  32|   0|   32|          0|
    |real_arr8_6                                        |  32|   0|   32|          0|
    |real_arr8_7                                        |  32|   0|   32|          0|
    |reg_1120                                           |  32|   0|   32|          0|
    |reg_1125                                           |  32|   0|   32|          0|
    |tmp_27_1_reg_1193                                  |   8|   0|    9|          1|
    |tmp_27_2_reg_1199                                  |   7|   0|    9|          2|
    |tmp_27_3_reg_1205                                  |   9|   0|    9|          0|
    |tmp_27_s_reg_1187                                  |   8|   0|    9|          1|
    +---------------------------------------------------+----+----+-----+-----------+
    |Total                                              |1057|   0| 1061|          4|
    +---------------------------------------------------+----+----+-----+-----------+



================================================================
== Interface
================================================================
* Summary: 
+--------------------+-----+-----+------------+------------------------+--------------+
|      RTL Ports     | Dir | Bits|  Protocol  |      Source Object     |    C Type    |
+--------------------+-----+-----+------------+------------------------+--------------+
|ap_clk              |  in |    1| ap_ctrl_hs | dft_Loop_Loop_Row_proc | return value |
|ap_rst              |  in |    1| ap_ctrl_hs | dft_Loop_Loop_Row_proc | return value |
|ap_start            |  in |    1| ap_ctrl_hs | dft_Loop_Loop_Row_proc | return value |
|ap_done             | out |    1| ap_ctrl_hs | dft_Loop_Loop_Row_proc | return value |
|ap_continue         |  in |    1| ap_ctrl_hs | dft_Loop_Loop_Row_proc | return value |
|ap_idle             | out |    1| ap_ctrl_hs | dft_Loop_Loop_Row_proc | return value |
|ap_ready            | out |    1| ap_ctrl_hs | dft_Loop_Loop_Row_proc | return value |
|real_i_0_address0   | out |    3|  ap_memory |        real_i_0        |     array    |
|real_i_0_ce0        | out |    1|  ap_memory |        real_i_0        |     array    |
|real_i_0_q0         |  in |   32|  ap_memory |        real_i_0        |     array    |
|real_i_1_address0   | out |    3|  ap_memory |        real_i_1        |     array    |
|real_i_1_ce0        | out |    1|  ap_memory |        real_i_1        |     array    |
|real_i_1_q0         |  in |   32|  ap_memory |        real_i_1        |     array    |
|real_i_2_address0   | out |    3|  ap_memory |        real_i_2        |     array    |
|real_i_2_ce0        | out |    1|  ap_memory |        real_i_2        |     array    |
|real_i_2_q0         |  in |   32|  ap_memory |        real_i_2        |     array    |
|real_i_3_address0   | out |    3|  ap_memory |        real_i_3        |     array    |
|real_i_3_ce0        | out |    1|  ap_memory |        real_i_3        |     array    |
|real_i_3_q0         |  in |   32|  ap_memory |        real_i_3        |     array    |
|real_i_4_address0   | out |    3|  ap_memory |        real_i_4        |     array    |
|real_i_4_ce0        | out |    1|  ap_memory |        real_i_4        |     array    |
|real_i_4_q0         |  in |   32|  ap_memory |        real_i_4        |     array    |
|real_i_5_address0   | out |    3|  ap_memory |        real_i_5        |     array    |
|real_i_5_ce0        | out |    1|  ap_memory |        real_i_5        |     array    |
|real_i_5_q0         |  in |   32|  ap_memory |        real_i_5        |     array    |
|real_i_6_address0   | out |    3|  ap_memory |        real_i_6        |     array    |
|real_i_6_ce0        | out |    1|  ap_memory |        real_i_6        |     array    |
|real_i_6_q0         |  in |   32|  ap_memory |        real_i_6        |     array    |
|real_i_7_address0   | out |    3|  ap_memory |        real_i_7        |     array    |
|real_i_7_ce0        | out |    1|  ap_memory |        real_i_7        |     array    |
|real_i_7_q0         |  in |   32|  ap_memory |        real_i_7        |     array    |
|real_i_8_address0   | out |    3|  ap_memory |        real_i_8        |     array    |
|real_i_8_ce0        | out |    1|  ap_memory |        real_i_8        |     array    |
|real_i_8_q0         |  in |   32|  ap_memory |        real_i_8        |     array    |
|real_i_9_address0   | out |    3|  ap_memory |        real_i_9        |     array    |
|real_i_9_ce0        | out |    1|  ap_memory |        real_i_9        |     array    |
|real_i_9_q0         |  in |   32|  ap_memory |        real_i_9        |     array    |
|real_i_10_address0  | out |    3|  ap_memory |        real_i_10       |     array    |
|real_i_10_ce0       | out |    1|  ap_memory |        real_i_10       |     array    |
|real_i_10_q0        |  in |   32|  ap_memory |        real_i_10       |     array    |
|real_i_11_address0  | out |    3|  ap_memory |        real_i_11       |     array    |
|real_i_11_ce0       | out |    1|  ap_memory |        real_i_11       |     array    |
|real_i_11_q0        |  in |   32|  ap_memory |        real_i_11       |     array    |
|real_i_12_address0  | out |    3|  ap_memory |        real_i_12       |     array    |
|real_i_12_ce0       | out |    1|  ap_memory |        real_i_12       |     array    |
|real_i_12_q0        |  in |   32|  ap_memory |        real_i_12       |     array    |
|real_i_13_address0  | out |    3|  ap_memory |        real_i_13       |     array    |
|real_i_13_ce0       | out |    1|  ap_memory |        real_i_13       |     array    |
|real_i_13_q0        |  in |   32|  ap_memory |        real_i_13       |     array    |
|real_i_14_address0  | out |    3|  ap_memory |        real_i_14       |     array    |
|real_i_14_ce0       | out |    1|  ap_memory |        real_i_14       |     array    |
|real_i_14_q0        |  in |   32|  ap_memory |        real_i_14       |     array    |
|real_i_15_address0  | out |    3|  ap_memory |        real_i_15       |     array    |
|real_i_15_ce0       | out |    1|  ap_memory |        real_i_15       |     array    |
|real_i_15_q0        |  in |   32|  ap_memory |        real_i_15       |     array    |
|real_i_16_address0  | out |    3|  ap_memory |        real_i_16       |     array    |
|real_i_16_ce0       | out |    1|  ap_memory |        real_i_16       |     array    |
|real_i_16_q0        |  in |   32|  ap_memory |        real_i_16       |     array    |
|real_i_17_address0  | out |    3|  ap_memory |        real_i_17       |     array    |
|real_i_17_ce0       | out |    1|  ap_memory |        real_i_17       |     array    |
|real_i_17_q0        |  in |   32|  ap_memory |        real_i_17       |     array    |
|real_i_18_address0  | out |    3|  ap_memory |        real_i_18       |     array    |
|real_i_18_ce0       | out |    1|  ap_memory |        real_i_18       |     array    |
|real_i_18_q0        |  in |   32|  ap_memory |        real_i_18       |     array    |
|real_i_19_address0  | out |    3|  ap_memory |        real_i_19       |     array    |
|real_i_19_ce0       | out |    1|  ap_memory |        real_i_19       |     array    |
|real_i_19_q0        |  in |   32|  ap_memory |        real_i_19       |     array    |
|real_i_20_address0  | out |    3|  ap_memory |        real_i_20       |     array    |
|real_i_20_ce0       | out |    1|  ap_memory |        real_i_20       |     array    |
|real_i_20_q0        |  in |   32|  ap_memory |        real_i_20       |     array    |
|real_i_21_address0  | out |    3|  ap_memory |        real_i_21       |     array    |
|real_i_21_ce0       | out |    1|  ap_memory |        real_i_21       |     array    |
|real_i_21_q0        |  in |   32|  ap_memory |        real_i_21       |     array    |
|real_i_22_address0  | out |    3|  ap_memory |        real_i_22       |     array    |
|real_i_22_ce0       | out |    1|  ap_memory |        real_i_22       |     array    |
|real_i_22_q0        |  in |   32|  ap_memory |        real_i_22       |     array    |
|real_i_23_address0  | out |    3|  ap_memory |        real_i_23       |     array    |
|real_i_23_ce0       | out |    1|  ap_memory |        real_i_23       |     array    |
|real_i_23_q0        |  in |   32|  ap_memory |        real_i_23       |     array    |
|real_i_24_address0  | out |    3|  ap_memory |        real_i_24       |     array    |
|real_i_24_ce0       | out |    1|  ap_memory |        real_i_24       |     array    |
|real_i_24_q0        |  in |   32|  ap_memory |        real_i_24       |     array    |
|real_i_25_address0  | out |    3|  ap_memory |        real_i_25       |     array    |
|real_i_25_ce0       | out |    1|  ap_memory |        real_i_25       |     array    |
|real_i_25_q0        |  in |   32|  ap_memory |        real_i_25       |     array    |
|real_i_26_address0  | out |    3|  ap_memory |        real_i_26       |     array    |
|real_i_26_ce0       | out |    1|  ap_memory |        real_i_26       |     array    |
|real_i_26_q0        |  in |   32|  ap_memory |        real_i_26       |     array    |
|real_i_27_address0  | out |    3|  ap_memory |        real_i_27       |     array    |
|real_i_27_ce0       | out |    1|  ap_memory |        real_i_27       |     array    |
|real_i_27_q0        |  in |   32|  ap_memory |        real_i_27       |     array    |
|real_i_28_address0  | out |    3|  ap_memory |        real_i_28       |     array    |
|real_i_28_ce0       | out |    1|  ap_memory |        real_i_28       |     array    |
|real_i_28_q0        |  in |   32|  ap_memory |        real_i_28       |     array    |
|real_i_29_address0  | out |    3|  ap_memory |        real_i_29       |     array    |
|real_i_29_ce0       | out |    1|  ap_memory |        real_i_29       |     array    |
|real_i_29_q0        |  in |   32|  ap_memory |        real_i_29       |     array    |
|real_i_30_address0  | out |    3|  ap_memory |        real_i_30       |     array    |
|real_i_30_ce0       | out |    1|  ap_memory |        real_i_30       |     array    |
|real_i_30_q0        |  in |   32|  ap_memory |        real_i_30       |     array    |
|real_i_31_address0  | out |    3|  ap_memory |        real_i_31       |     array    |
|real_i_31_ce0       | out |    1|  ap_memory |        real_i_31       |     array    |
|real_i_31_q0        |  in |   32|  ap_memory |        real_i_31       |     array    |
|imag_i_0_address0   | out |    3|  ap_memory |        imag_i_0        |     array    |
|imag_i_0_ce0        | out |    1|  ap_memory |        imag_i_0        |     array    |
|imag_i_0_q0         |  in |   32|  ap_memory |        imag_i_0        |     array    |
|imag_i_1_address0   | out |    3|  ap_memory |        imag_i_1        |     array    |
|imag_i_1_ce0        | out |    1|  ap_memory |        imag_i_1        |     array    |
|imag_i_1_q0         |  in |   32|  ap_memory |        imag_i_1        |     array    |
|imag_i_2_address0   | out |    3|  ap_memory |        imag_i_2        |     array    |
|imag_i_2_ce0        | out |    1|  ap_memory |        imag_i_2        |     array    |
|imag_i_2_q0         |  in |   32|  ap_memory |        imag_i_2        |     array    |
|imag_i_3_address0   | out |    3|  ap_memory |        imag_i_3        |     array    |
|imag_i_3_ce0        | out |    1|  ap_memory |        imag_i_3        |     array    |
|imag_i_3_q0         |  in |   32|  ap_memory |        imag_i_3        |     array    |
|imag_i_4_address0   | out |    3|  ap_memory |        imag_i_4        |     array    |
|imag_i_4_ce0        | out |    1|  ap_memory |        imag_i_4        |     array    |
|imag_i_4_q0         |  in |   32|  ap_memory |        imag_i_4        |     array    |
|imag_i_5_address0   | out |    3|  ap_memory |        imag_i_5        |     array    |
|imag_i_5_ce0        | out |    1|  ap_memory |        imag_i_5        |     array    |
|imag_i_5_q0         |  in |   32|  ap_memory |        imag_i_5        |     array    |
|imag_i_6_address0   | out |    3|  ap_memory |        imag_i_6        |     array    |
|imag_i_6_ce0        | out |    1|  ap_memory |        imag_i_6        |     array    |
|imag_i_6_q0         |  in |   32|  ap_memory |        imag_i_6        |     array    |
|imag_i_7_address0   | out |    3|  ap_memory |        imag_i_7        |     array    |
|imag_i_7_ce0        | out |    1|  ap_memory |        imag_i_7        |     array    |
|imag_i_7_q0         |  in |   32|  ap_memory |        imag_i_7        |     array    |
|imag_i_8_address0   | out |    3|  ap_memory |        imag_i_8        |     array    |
|imag_i_8_ce0        | out |    1|  ap_memory |        imag_i_8        |     array    |
|imag_i_8_q0         |  in |   32|  ap_memory |        imag_i_8        |     array    |
|imag_i_9_address0   | out |    3|  ap_memory |        imag_i_9        |     array    |
|imag_i_9_ce0        | out |    1|  ap_memory |        imag_i_9        |     array    |
|imag_i_9_q0         |  in |   32|  ap_memory |        imag_i_9        |     array    |
|imag_i_10_address0  | out |    3|  ap_memory |        imag_i_10       |     array    |
|imag_i_10_ce0       | out |    1|  ap_memory |        imag_i_10       |     array    |
|imag_i_10_q0        |  in |   32|  ap_memory |        imag_i_10       |     array    |
|imag_i_11_address0  | out |    3|  ap_memory |        imag_i_11       |     array    |
|imag_i_11_ce0       | out |    1|  ap_memory |        imag_i_11       |     array    |
|imag_i_11_q0        |  in |   32|  ap_memory |        imag_i_11       |     array    |
|imag_i_12_address0  | out |    3|  ap_memory |        imag_i_12       |     array    |
|imag_i_12_ce0       | out |    1|  ap_memory |        imag_i_12       |     array    |
|imag_i_12_q0        |  in |   32|  ap_memory |        imag_i_12       |     array    |
|imag_i_13_address0  | out |    3|  ap_memory |        imag_i_13       |     array    |
|imag_i_13_ce0       | out |    1|  ap_memory |        imag_i_13       |     array    |
|imag_i_13_q0        |  in |   32|  ap_memory |        imag_i_13       |     array    |
|imag_i_14_address0  | out |    3|  ap_memory |        imag_i_14       |     array    |
|imag_i_14_ce0       | out |    1|  ap_memory |        imag_i_14       |     array    |
|imag_i_14_q0        |  in |   32|  ap_memory |        imag_i_14       |     array    |
|imag_i_15_address0  | out |    3|  ap_memory |        imag_i_15       |     array    |
|imag_i_15_ce0       | out |    1|  ap_memory |        imag_i_15       |     array    |
|imag_i_15_q0        |  in |   32|  ap_memory |        imag_i_15       |     array    |
|imag_i_16_address0  | out |    3|  ap_memory |        imag_i_16       |     array    |
|imag_i_16_ce0       | out |    1|  ap_memory |        imag_i_16       |     array    |
|imag_i_16_q0        |  in |   32|  ap_memory |        imag_i_16       |     array    |
|imag_i_17_address0  | out |    3|  ap_memory |        imag_i_17       |     array    |
|imag_i_17_ce0       | out |    1|  ap_memory |        imag_i_17       |     array    |
|imag_i_17_q0        |  in |   32|  ap_memory |        imag_i_17       |     array    |
|imag_i_18_address0  | out |    3|  ap_memory |        imag_i_18       |     array    |
|imag_i_18_ce0       | out |    1|  ap_memory |        imag_i_18       |     array    |
|imag_i_18_q0        |  in |   32|  ap_memory |        imag_i_18       |     array    |
|imag_i_19_address0  | out |    3|  ap_memory |        imag_i_19       |     array    |
|imag_i_19_ce0       | out |    1|  ap_memory |        imag_i_19       |     array    |
|imag_i_19_q0        |  in |   32|  ap_memory |        imag_i_19       |     array    |
|imag_i_20_address0  | out |    3|  ap_memory |        imag_i_20       |     array    |
|imag_i_20_ce0       | out |    1|  ap_memory |        imag_i_20       |     array    |
|imag_i_20_q0        |  in |   32|  ap_memory |        imag_i_20       |     array    |
|imag_i_21_address0  | out |    3|  ap_memory |        imag_i_21       |     array    |
|imag_i_21_ce0       | out |    1|  ap_memory |        imag_i_21       |     array    |
|imag_i_21_q0        |  in |   32|  ap_memory |        imag_i_21       |     array    |
|imag_i_22_address0  | out |    3|  ap_memory |        imag_i_22       |     array    |
|imag_i_22_ce0       | out |    1|  ap_memory |        imag_i_22       |     array    |
|imag_i_22_q0        |  in |   32|  ap_memory |        imag_i_22       |     array    |
|imag_i_23_address0  | out |    3|  ap_memory |        imag_i_23       |     array    |
|imag_i_23_ce0       | out |    1|  ap_memory |        imag_i_23       |     array    |
|imag_i_23_q0        |  in |   32|  ap_memory |        imag_i_23       |     array    |
|imag_i_24_address0  | out |    3|  ap_memory |        imag_i_24       |     array    |
|imag_i_24_ce0       | out |    1|  ap_memory |        imag_i_24       |     array    |
|imag_i_24_q0        |  in |   32|  ap_memory |        imag_i_24       |     array    |
|imag_i_25_address0  | out |    3|  ap_memory |        imag_i_25       |     array    |
|imag_i_25_ce0       | out |    1|  ap_memory |        imag_i_25       |     array    |
|imag_i_25_q0        |  in |   32|  ap_memory |        imag_i_25       |     array    |
|imag_i_26_address0  | out |    3|  ap_memory |        imag_i_26       |     array    |
|imag_i_26_ce0       | out |    1|  ap_memory |        imag_i_26       |     array    |
|imag_i_26_q0        |  in |   32|  ap_memory |        imag_i_26       |     array    |
|imag_i_27_address0  | out |    3|  ap_memory |        imag_i_27       |     array    |
|imag_i_27_ce0       | out |    1|  ap_memory |        imag_i_27       |     array    |
|imag_i_27_q0        |  in |   32|  ap_memory |        imag_i_27       |     array    |
|imag_i_28_address0  | out |    3|  ap_memory |        imag_i_28       |     array    |
|imag_i_28_ce0       | out |    1|  ap_memory |        imag_i_28       |     array    |
|imag_i_28_q0        |  in |   32|  ap_memory |        imag_i_28       |     array    |
|imag_i_29_address0  | out |    3|  ap_memory |        imag_i_29       |     array    |
|imag_i_29_ce0       | out |    1|  ap_memory |        imag_i_29       |     array    |
|imag_i_29_q0        |  in |   32|  ap_memory |        imag_i_29       |     array    |
|imag_i_30_address0  | out |    3|  ap_memory |        imag_i_30       |     array    |
|imag_i_30_ce0       | out |    1|  ap_memory |        imag_i_30       |     array    |
|imag_i_30_q0        |  in |   32|  ap_memory |        imag_i_30       |     array    |
|imag_i_31_address0  | out |    3|  ap_memory |        imag_i_31       |     array    |
|imag_i_31_ce0       | out |    1|  ap_memory |        imag_i_31       |     array    |
|imag_i_31_q0        |  in |   32|  ap_memory |        imag_i_31       |     array    |
|real_o_address0     | out |    8|  ap_memory |         real_o         |     array    |
|real_o_ce0          | out |    1|  ap_memory |         real_o         |     array    |
|real_o_we0          | out |    1|  ap_memory |         real_o         |     array    |
|real_o_d0           | out |   32|  ap_memory |         real_o         |     array    |
|imag_o_address0     | out |    8|  ap_memory |         imag_o         |     array    |
|imag_o_ce0          | out |    1|  ap_memory |         imag_o         |     array    |
|imag_o_we0          | out |    1|  ap_memory |         imag_o         |     array    |
|imag_o_d0           | out |   32|  ap_memory |         imag_o         |     array    |
+--------------------+-----+-----+------------+------------------------+--------------+

