

================================================================
== Vivado HLS Report for 'fir'
================================================================
* Date:           Tue Oct 04 01:55:58 2016

* Version:        2015.4 (Build 1412921 on Wed Nov 18 09:58:55 AM 2015)
* Project:        fir
* Solution:       fir128_optimized3
* Product family: zynq
* Target device:  xc7z020clg484-1


================================================================
== Performance Estimates
================================================================
+ Timing (ns): 
    * Summary: 
    +--------+-------+----------+------------+
    |  Clock | Target| Estimated| Uncertainty|
    +--------+-------+----------+------------+
    |ap_clk  |  10.00|      8.52|        1.25|
    +--------+-------+----------+------------+

+ Latency (clock cycles): 
    * Summary: 
    +-----+-----+-----+-----+---------+
    |  Latency  |  Interval | Pipeline|
    | min | max | min | max |   Type  |
    +-----+-----+-----+-----+---------+
    |  260|  260|  261|  261|   none  |
    +-----+-----+-----+-----+---------+

    + Detail: 
        * Instance: 
        N/A

        * Loop: 
        +--------------------+-----+-----+----------+-----------+-----------+------+----------+
        |                    |  Latency  | Iteration|  Initiation Interval  | Trip |          |
        |      Loop Name     | min | max |  Latency |  achieved |   target  | Count| Pipelined|
        +--------------------+-----+-----+----------+-----------+-----------+------+----------+
        |- Shift_Accum_Loop  |  258|  258|         5|          2|          1|   128|    yes   |
        +--------------------+-----+-----+----------+-----------+-----------+------+----------+



================================================================
== Utilization Estimates
================================================================
* Summary: 
+-----------------+---------+-------+--------+-------+
|       Name      | BRAM_18K| DSP48E|   FF   |  LUT  |
+-----------------+---------+-------+--------+-------+
|DSP              |        -|      -|       -|      -|
|Expression       |        -|      -|       0|     48|
|FIFO             |        -|      -|       -|      -|
|Instance         |        -|      2|       0|      0|
|Memory           |        1|      -|       5|     10|
|Multiplexer      |        -|      -|       -|    129|
|Register         |        -|      -|      90|      -|
+-----------------+---------+-------+--------+-------+
|Total            |        1|      2|      95|    187|
+-----------------+---------+-------+--------+-------+
|Available        |      280|    220|  106400|  53200|
+-----------------+---------+-------+--------+-------+
|Utilization (%)  |    ~0   |   ~0  |   ~0   |   ~0  |
+-----------------+---------+-------+--------+-------+

+ Detail: 
    * Instance: 
    +------------------------+---------------------+---------+-------+---+----+
    |        Instance        |        Module       | BRAM_18K| DSP48E| FF| LUT|
    +------------------------+---------------------+---------+-------+---+----+
    |fir_mul_32s_5s_32_3_U0  |fir_mul_32s_5s_32_3  |        0|      2|  0|   0|
    +------------------------+---------------------+---------+-------+---+----+
    |Total                   |                     |        0|      2|  0|   0|
    +------------------------+---------------------+---------+-------+---+----+

    * DSP48: 
    N/A

    * Memory: 
    +-------------+---------------+---------+---+----+------+-----+------+-------------+
    |    Memory   |     Module    | BRAM_18K| FF| LUT| Words| Bits| Banks| W*Bits*Banks|
    +-------------+---------------+---------+---+----+------+-----+------+-------------+
    |c_U          |fir_c          |        0|  5|  10|   128|    5|     1|          640|
    |shift_reg_U  |fir_shift_reg  |        1|  0|   0|   128|   32|     1|         4096|
    +-------------+---------------+---------+---+----+------+-----+------+-------------+
    |Total        |               |        1|  5|  10|   256|   37|     2|         4736|
    +-------------+---------------+---------+---+----+------+-----+------+-------------+

    * FIFO: 
    N/A

    * Expression: 
    +-----------------+----------+-------+---+----+------------+------------+
    |  Variable Name  | Operation| DSP48E| FF| LUT| Bitwidth P0| Bitwidth P1|
    +-----------------+----------+-------+---+----+------------+------------+
    |acc_1_fu_180_p2  |     +    |      0|  0|  32|          32|          32|
    |grp_fu_134_p2    |     +    |      0|  0|   8|           8|           2|
    |ap_sig_bdd_128   |    and   |      0|  0|   1|           1|           1|
    |ap_sig_bdd_211   |    and   |      0|  0|   1|           1|           1|
    |ap_sig_bdd_87    |    and   |      0|  0|   1|           1|           1|
    |ap_sig_bdd_96    |    and   |      0|  0|   1|           1|           1|
    |ap_sig_bdd_99    |    and   |      0|  0|   1|           1|           1|
    |tmp_1_fu_149_p2  |   icmp   |      0|  0|   3|           8|           1|
    +-----------------+----------+-------+---+----+------------+------------+
    |Total            |          |      0|  0|  48|          53|          40|
    +-----------------+----------+-------+---+----+------------+------------+

    * Multiplexer: 
    +---------------------------------------+----+-----------+-----+-----------+
    |                  Name                 | LUT| Input Size| Bits| Total Bits|
    +---------------------------------------+----+-----------+-----+-----------+
    |acc_reg_99                             |  32|          2|   32|         64|
    |ap_NS_fsm                              |   1|          5|    1|          5|
    |ap_reg_phiprechg_data1_reg_124pp0_it1  |  32|          3|   32|         96|
    |ap_reg_ppiten_pp0_it2                  |   1|          2|    1|          2|
    |grp_fu_134_p0                          |   8|          3|    8|         24|
    |i_phi_fu_116_p4                        |   8|          2|    8|         16|
    |i_reg_112                              |   8|          2|    8|         16|
    |shift_reg_address0                     |   7|          4|    7|         28|
    |shift_reg_d0                           |  32|          3|   32|         96|
    +---------------------------------------+----+-----------+-----+-----------+
    |Total                                  | 129|         26|  129|        347|
    +---------------------------------------+----+-----------+-----+-----------+

    * Register: 
    +---------------------------------------+----+----+-----+-----------+
    |                  Name                 | FF | LUT| Bits| Const Bits|
    +---------------------------------------+----+----+-----+-----------+
    |acc_reg_99                             |  32|   0|   32|          0|
    |ap_CS_fsm                              |   4|   0|    4|          0|
    |ap_reg_phiprechg_data1_reg_124pp0_it1  |  32|   0|   32|          0|
    |ap_reg_ppiten_pp0_it0                  |   1|   0|    1|          0|
    |ap_reg_ppiten_pp0_it1                  |   1|   0|    1|          0|
    |ap_reg_ppiten_pp0_it2                  |   1|   0|    1|          0|
    |ap_reg_ppstg_tmp_reg_192_pp0_it1       |   1|   0|    1|          0|
    |i_1_reg_215                            |   8|   0|    8|          0|
    |i_reg_112                              |   8|   0|    8|          0|
    |tmp_1_reg_196                          |   1|   0|    1|          0|
    |tmp_reg_192                            |   1|   0|    1|          0|
    +---------------------------------------+----+----+-----+-----------+
    |Total                                  |  90|   0|   90|          0|
    +---------------------------------------+----+----+-----+-----------+



================================================================
== Interface
================================================================
* Summary: 
+----------+-----+-----+------------+--------------+--------------+
| RTL Ports| Dir | Bits|  Protocol  | Source Object|    C Type    |
+----------+-----+-----+------------+--------------+--------------+
|ap_clk    |  in |    1| ap_ctrl_hs |      fir     | return value |
|ap_rst    |  in |    1| ap_ctrl_hs |      fir     | return value |
|ap_start  |  in |    1| ap_ctrl_hs |      fir     | return value |
|ap_done   | out |    1| ap_ctrl_hs |      fir     | return value |
|ap_idle   | out |    1| ap_ctrl_hs |      fir     | return value |
|ap_ready  | out |    1| ap_ctrl_hs |      fir     | return value |
|y         | out |   32|   ap_vld   |       y      |    pointer   |
|y_ap_vld  | out |    1|   ap_vld   |       y      |    pointer   |
|x         |  in |   32|   ap_none  |       x      |    scalar    |
+----------+-----+-----+------------+--------------+--------------+

============================================================
+ Verbose Summary: Synthesis Manager
============================================================
InlineROM: 1
ExposeGlobal: 0
============================================================
+ Verbose Summary: CDFG Model
============================================================
IsTopModel: 1
ResetActiveHigh: 1
IsCombinational: 2
IsDatapathOnly: 2
HasWiredReturn: 1
HasMFsm: 0
HasVarLatency: 1
IsPipeline: 0
IsRtlPipelined: 0
IsInstanceOverlapped: 0
IsDontTouch: 0
HasImplIP: 0
IsGatedGlobalClock: 0

+ Individual pipeline summary: 
  * Pipeline-0: initiation interval (II) = 2, depth = 5


============================================================
+ Verbose Summary: Schedule
============================================================
* Number of FSM states: 7
* Pipeline: 1
  Pipeline-0: II = 2, D = 5, States = { 2 3 4 5 6 }
* Dataflow Pipeline: 0

* FSM state transitions: 
1 --> 
	2  / true
2 --> 
	7  / (tmp)
	3  / (!tmp)
3 --> 
	4  / true
4 --> 
	5  / true
5 --> 
	6  / true
6 --> 
	2  / true
7 --> 
* FSM state operations: 

 <State 1>: 1.57ns
ST_1: stg_8 [1/1] 0.00ns
.preheader:0  call void (...)* @_ssdm_op_SpecBitsMap(i32* %y) nounwind, !map !7

ST_1: stg_9 [1/1] 0.00ns
.preheader:1  call void (...)* @_ssdm_op_SpecBitsMap(i32 %x) nounwind, !map !11

ST_1: stg_10 [1/1] 0.00ns
.preheader:2  call void (...)* @_ssdm_op_SpecTopModule([4 x i8]* @fir_str) nounwind

ST_1: x_read [1/1] 0.00ns
.preheader:3  %x_read = call i32 @_ssdm_op_Read.ap_auto.i32(i32 %x) nounwind

ST_1: stg_12 [1/1] 1.57ns
.preheader:4  br label %0


 <State 2>: 4.43ns
ST_2: acc [1/1] 0.00ns
:0  %acc = phi i32 [ %acc_1, %4 ], [ 0, %.preheader ]

ST_2: i [1/1] 0.00ns
:1  %i = phi i8 [ %i_1, %4 ], [ 127, %.preheader ]

ST_2: tmp [1/1] 0.00ns
:2  %tmp = call i1 @_ssdm_op_BitSelect.i1.i8.i32(i8 %i, i32 7)

ST_2: stg_16 [1/1] 0.00ns
:3  br i1 %tmp, label %5, label %1

ST_2: tmp_1 [1/1] 2.00ns
:4  %tmp_1 = icmp eq i8 %i, 0

ST_2: stg_18 [1/1] 0.00ns
:5  br i1 %tmp_1, label %2, label %3

ST_2: tmp_2 [1/1] 1.72ns
:0  %tmp_2 = add i8 %i, -1

ST_2: tmp_3 [1/1] 0.00ns
:1  %tmp_3 = zext i8 %tmp_2 to i64

ST_2: shift_reg_addr [1/1] 0.00ns
:2  %shift_reg_addr = getelementptr inbounds [128 x i32]* @shift_reg, i64 0, i64 %tmp_3

ST_2: data [2/2] 2.71ns
:3  %data = load i32* %shift_reg_addr, align 4

ST_2: stg_23 [1/1] 2.71ns
:0  store i32 %x_read, i32* getelementptr inbounds ([128 x i32]* @shift_reg, i64 0, i64 0), align 16


 <State 3>: 5.42ns
ST_3: data [1/2] 2.71ns
:3  %data = load i32* %shift_reg_addr, align 4

ST_3: tmp_4 [1/1] 0.00ns
:4  %tmp_4 = zext i8 %i to i64

ST_3: shift_reg_addr_1 [1/1] 0.00ns
:5  %shift_reg_addr_1 = getelementptr inbounds [128 x i32]* @shift_reg, i64 0, i64 %tmp_4

ST_3: stg_27 [1/1] 2.71ns
:6  store i32 %data, i32* %shift_reg_addr_1, align 4

ST_3: stg_28 [1/1] 1.57ns
:7  br label %4

ST_3: stg_29 [1/1] 1.57ns
:1  br label %4

ST_3: tmp_5 [1/1] 0.00ns
:1  %tmp_5 = zext i8 %i to i64

ST_3: c_addr [1/1] 0.00ns
:2  %c_addr = getelementptr [128 x i5]* @c, i64 0, i64 %tmp_5

ST_3: c_load [2/2] 2.39ns
:3  %c_load = load i5* %c_addr, align 1

ST_3: i_1 [1/1] 1.72ns
:8  %i_1 = add i8 %i, -1


 <State 4>: 8.47ns
ST_4: data1 [1/1] 0.00ns
:0  %data1 = phi i32 [ %x_read, %2 ], [ %data, %3 ]

ST_4: c_load [1/2] 2.39ns
:3  %c_load = load i5* %c_addr, align 1

ST_4: c_load_cast [1/1] 0.00ns
:4  %c_load_cast = sext i5 %c_load to i32

ST_4: tmp_6 [3/3] 6.08ns
:5  %tmp_6 = mul nsw i32 %data1, %c_load_cast


 <State 5>: 6.08ns
ST_5: tmp_6 [2/3] 6.08ns
:5  %tmp_6 = mul nsw i32 %data1, %c_load_cast


 <State 6>: 8.52ns
ST_6: empty [1/1] 0.00ns
:0  %empty = call i32 (...)* @_ssdm_op_SpecLoopTripCount(i64 128, i64 128, i64 128) nounwind

ST_6: stg_40 [1/1] 0.00ns
:1  call void (...)* @_ssdm_op_SpecLoopName([17 x i8]* @p_str) nounwind

ST_6: tmp_7 [1/1] 0.00ns
:2  %tmp_7 = call i32 (...)* @_ssdm_op_SpecRegionBegin([17 x i8]* @p_str) nounwind

ST_6: stg_42 [1/1] 0.00ns
:3  call void (...)* @_ssdm_op_SpecPipeline(i32 1, i32 1, i32 1, i32 0, [1 x i8]* @p_str1) nounwind

ST_6: tmp_6 [1/3] 6.08ns
:5  %tmp_6 = mul nsw i32 %data1, %c_load_cast

ST_6: acc_1 [1/1] 2.44ns
:6  %acc_1 = add nsw i32 %acc, %tmp_6

ST_6: empty_2 [1/1] 0.00ns
:7  %empty_2 = call i32 (...)* @_ssdm_op_SpecRegionEnd([17 x i8]* @p_str, i32 %tmp_7) nounwind

ST_6: stg_46 [1/1] 0.00ns
:9  br label %0


 <State 7>: 0.00ns
ST_7: stg_47 [1/1] 0.00ns
:0  call void @_ssdm_op_Write.ap_auto.i32P(i32* %y, i32 %acc) nounwind

ST_7: stg_48 [1/1] 0.00ns
:1  ret void



============================================================
+ Verbose Summary: Binding
============================================================
STG Binding: 
---------------- STG Properties BEGIN ----------------
- Is combinational: 0
- Is one-state seq: 0
- Is datapath-only: 0
- Is clock enabled: 0
- Is pipelined: 0
- Is top level: 1
Port [ Return ] is wired: 1; IO mode=ap_ctrl_hs:ce=0
Port [ y]:  wired=1; compound=0; hidden=0; nouse=0; global=0; static=0; extern=0; dir=1; type=0; mode=0x27956c939b0; pingpong=0; private_global=0; IO mode=ap_vld:ce=0
Port [ x]:  wired=1; compound=0; hidden=0; nouse=0; global=0; static=0; extern=0; dir=0; type=0; mode=0x27956c93a40; pingpong=0; private_global=0; IO mode=ap_none:ce=0
Port [ shift_reg]:  wired=0; compound=1; hidden=1; nouse=0; global=1; static=1; extern=0; dir=2; type=1; mode=0x27956c92d50; pingpong=0; private_global=1; linkage=7; visibility=0; MemPort=[23]; IO mode=ap_memory:ce=0
Port [ c]:  wired=0; compound=1; hidden=1; nouse=0; global=1; static=1; extern=0; dir=0; type=1; mode=0x27956c93ad0; pingpong=0; private_global=1; linkage=7; visibility=0; MemPort=[1]; IO mode=ap_memory:ce=0
---------------- STG Properties END ------------------

---------------- Datapath Model BEGIN ----------------

<LifeTime>
<method=bitvector/>
stg_8            (specbitsmap      ) [ 00000000]
stg_9            (specbitsmap      ) [ 00000000]
stg_10           (spectopmodule    ) [ 00000000]
x_read           (read             ) [ 00111110]
stg_12           (br               ) [ 01111110]
acc              (phi              ) [ 00111111]
i                (phi              ) [ 00110000]
tmp              (bitselect        ) [ 00111110]
stg_16           (br               ) [ 00000000]
tmp_1            (icmp             ) [ 00111110]
stg_18           (br               ) [ 00000000]
tmp_2            (add              ) [ 00000000]
tmp_3            (zext             ) [ 00000000]
shift_reg_addr   (getelementptr    ) [ 00010000]
stg_23           (store            ) [ 00000000]
data             (load             ) [ 00111110]
tmp_4            (zext             ) [ 00000000]
shift_reg_addr_1 (getelementptr    ) [ 00000000]
stg_27           (store            ) [ 00000000]
stg_28           (br               ) [ 00111110]
stg_29           (br               ) [ 00111110]
tmp_5            (zext             ) [ 00000000]
c_addr           (getelementptr    ) [ 00101000]
i_1              (add              ) [ 01111110]
data1            (phi              ) [ 00111110]
c_load           (load             ) [ 00000000]
c_load_cast      (sext             ) [ 00110110]
empty            (speclooptripcount) [ 00000000]
stg_40           (specloopname     ) [ 00000000]
tmp_7            (specregionbegin  ) [ 00000000]
stg_42           (specpipeline     ) [ 00000000]
tmp_6            (mul              ) [ 00000000]
acc_1            (add              ) [ 01111110]
empty_2          (specregionend    ) [ 00000000]
stg_46           (br               ) [ 01111110]
stg_47           (write            ) [ 00000000]
stg_48           (ret              ) [ 00000000]
</LifeTime>

<model>

<comp_list>
<comp id="0" class="1000" name="y">
<pin_list>
<pin id="1" dir="1" index="0" bw="1" slack="0"/>
</pin_list>
<bind>
<StgValue><ssdm name="y"/></StgValue>
</bind>
</comp>

<comp id="2" class="1000" name="x">
<pin_list>
<pin id="3" dir="1" index="0" bw="1" slack="0"/>
</pin_list>
<bind>
<StgValue><ssdm name="x"/></StgValue>
</bind>
</comp>

<comp id="4" class="1000" name="shift_reg">
<pin_list>
<pin id="5" dir="1" index="0" bw="1" slack="0"/>
</pin_list>
<bind>
<StgValue><ssdm name="shift_reg"/><MemPortTyVec>2 3 </MemPortTyVec>
</StgValue>
</bind>
</comp>

<comp id="6" class="1000" name="c">
<pin_list>
<pin id="7" dir="1" index="0" bw="1" slack="0"/>
</pin_list>
<bind>
<StgValue><ssdm name="c"/><MemPortTyVec>1 </MemPortTyVec>
</StgValue>
</bind>
</comp>

<comp id="8" class="1001" name="const_8">
<pin_list>
<pin id="9" dir="1" index="0" bw="1" slack="2147483647"/>
</pin_list>
<bind>
<StgValue><ssdm name="_ssdm_op_SpecBitsMap"/></StgValue>
</bind>
</comp>

<comp id="10" class="1001" name="const_10">
<pin_list>
<pin id="11" dir="1" index="0" bw="1" slack="2147483647"/>
</pin_list>
<bind>
<StgValue><ssdm name="_ssdm_op_SpecTopModule"/></StgValue>
</bind>
</comp>

<comp id="12" class="1001" name="const_12">
<pin_list>
<pin id="13" dir="1" index="0" bw="1" slack="2147483647"/>
</pin_list>
<bind>
<StgValue><ssdm name="fir_str"/></StgValue>
</bind>
</comp>

<comp id="14" class="1001" name="const_14">
<pin_list>
<pin id="15" dir="1" index="0" bw="1" slack="0"/>
</pin_list>
<bind>
<StgValue><ssdm name="_ssdm_op_Read.ap_auto.i32"/></StgValue>
</bind>
</comp>

<comp id="16" class="1001" name="const_16">
<pin_list>
<pin id="17" dir="1" index="0" bw="1" slack="1"/>
</pin_list>
<bind>
<StgValue><ssdm name=""/></StgValue>
</bind>
</comp>

<comp id="18" class="1001" name="const_18">
<pin_list>
<pin id="19" dir="1" index="0" bw="1" slack="1"/>
</pin_list>
<bind>
<StgValue><ssdm name=""/></StgValue>
</bind>
</comp>

<comp id="20" class="1001" name="const_20">
<pin_list>
<pin id="21" dir="1" index="0" bw="1" slack="0"/>
</pin_list>
<bind>
<StgValue><ssdm name="_ssdm_op_BitSelect.i1.i8.i32"/></StgValue>
</bind>
</comp>

<comp id="22" class="1001" name="const_22">
<pin_list>
<pin id="23" dir="1" index="0" bw="1" slack="0"/>
</pin_list>
<bind>
<StgValue><ssdm name=""/></StgValue>
</bind>
</comp>

<comp id="24" class="1001" name="const_24">
<pin_list>
<pin id="25" dir="1" index="0" bw="1" slack="0"/>
</pin_list>
<bind>
<StgValue><ssdm name=""/></StgValue>
</bind>
</comp>

<comp id="26" class="1001" name="const_26">
<pin_list>
<pin id="27" dir="1" index="0" bw="1" slack="0"/>
</pin_list>
<bind>
<StgValue><ssdm name=""/></StgValue>
</bind>
</comp>

<comp id="28" class="1001" name="const_28">
<pin_list>
<pin id="29" dir="1" index="0" bw="1" slack="0"/>
</pin_list>
<bind>
<StgValue><ssdm name=""/></StgValue>
</bind>
</comp>

<comp id="30" class="1001" name="const_30">
<pin_list>
<pin id="31" dir="1" index="0" bw="1" slack="0"/>
</pin_list>
<bind>
<StgValue><ssdm name=""/></StgValue>
</bind>
</comp>

<comp id="32" class="1001" name="const_32">
<pin_list>
<pin id="33" dir="1" index="0" bw="1" slack="2147483647"/>
</pin_list>
<bind>
<StgValue><ssdm name="_ssdm_op_SpecLoopTripCount"/></StgValue>
</bind>
</comp>

<comp id="34" class="1001" name="const_34">
<pin_list>
<pin id="35" dir="1" index="0" bw="1" slack="2147483647"/>
</pin_list>
<bind>
<StgValue><ssdm name=""/></StgValue>
</bind>
</comp>

<comp id="36" class="1001" name="const_36">
<pin_list>
<pin id="37" dir="1" index="0" bw="1" slack="2147483647"/>
</pin_list>
<bind>
<StgValue><ssdm name="_ssdm_op_SpecLoopName"/></StgValue>
</bind>
</comp>

<comp id="38" class="1001" name="const_38">
<pin_list>
<pin id="39" dir="1" index="0" bw="1" slack="2147483647"/>
</pin_list>
<bind>
<StgValue><ssdm name="p_str"/></StgValue>
</bind>
</comp>

<comp id="40" class="1001" name="const_40">
<pin_list>
<pin id="41" dir="1" index="0" bw="1" slack="2147483647"/>
</pin_list>
<bind>
<StgValue><ssdm name="_ssdm_op_SpecRegionBegin"/></StgValue>
</bind>
</comp>

<comp id="42" class="1001" name="const_42">
<pin_list>
<pin id="43" dir="1" index="0" bw="1" slack="2147483647"/>
</pin_list>
<bind>
<StgValue><ssdm name="_ssdm_op_SpecPipeline"/></StgValue>
</bind>
</comp>

<comp id="44" class="1001" name="const_44">
<pin_list>
<pin id="45" dir="1" index="0" bw="1" slack="2147483647"/>
</pin_list>
<bind>
<StgValue><ssdm name=""/></StgValue>
</bind>
</comp>

<comp id="46" class="1001" name="const_46">
<pin_list>
<pin id="47" dir="1" index="0" bw="1" slack="2147483647"/>
</pin_list>
<bind>
<StgValue><ssdm name="p_str1"/></StgValue>
</bind>
</comp>

<comp id="48" class="1001" name="const_48">
<pin_list>
<pin id="49" dir="1" index="0" bw="1" slack="2147483647"/>
</pin_list>
<bind>
<StgValue><ssdm name="_ssdm_op_SpecRegionEnd"/></StgValue>
</bind>
</comp>

<comp id="50" class="1001" name="const_50">
<pin_list>
<pin id="51" dir="1" index="0" bw="1" slack="0"/>
</pin_list>
<bind>
<StgValue><ssdm name="_ssdm_op_Write.ap_auto.i32P"/></StgValue>
</bind>
</comp>

<comp id="52" class="1004" name="x_read_read_fu_52">
<pin_list>
<pin id="53" dir="0" index="0" bw="32" slack="0"/>
<pin id="54" dir="0" index="1" bw="32" slack="0"/>
<pin id="55" dir="1" index="2" bw="32" slack="1"/>
</pin_list>
<bind>
<opcode="read(1150) " fcode="read"/>
<opset="x_read/1 "/>
</bind>
</comp>

<comp id="58" class="1004" name="stg_47_write_fu_58">
<pin_list>
<pin id="59" dir="0" index="0" bw="0" slack="0"/>
<pin id="60" dir="0" index="1" bw="32" slack="0"/>
<pin id="61" dir="0" index="2" bw="32" slack="1"/>
<pin id="62" dir="1" index="3" bw="0" slack="2147483647"/>
</pin_list>
<bind>
<opcode="write(1151) " fcode="write"/>
<opset="stg_47/7 "/>
</bind>
</comp>

<comp id="65" class="1004" name="shift_reg_addr_gep_fu_65">
<pin_list>
<pin id="66" dir="0" index="0" bw="32" slack="0"/>
<pin id="67" dir="0" index="1" bw="1" slack="0"/>
<pin id="68" dir="0" index="2" bw="8" slack="0"/>
<pin id="69" dir="1" index="3" bw="7" slack="0"/>
</pin_list>
<bind>
<opcode="getelementptr(29) " fcode="getelementptr"/>
<opset="shift_reg_addr/2 "/>
</bind>
</comp>

<comp id="72" class="1004" name="grp_access_fu_72">
<pin_list>
<pin id="73" dir="0" index="0" bw="7" slack="0"/>
<pin id="74" dir="0" index="1" bw="32" slack="0"/>
<pin id="75" dir="1" index="2" bw="32" slack="0"/>
</pin_list>
<bind>
<opcode="load(27) store(28) " fcode="store"/>
<opset="data/2 stg_23/2 stg_27/3 "/>
</bind>
</comp>

<comp id="78" class="1004" name="shift_reg_addr_1_gep_fu_78">
<pin_list>
<pin id="79" dir="0" index="0" bw="32" slack="0"/>
<pin id="80" dir="0" index="1" bw="1" slack="0"/>
<pin id="81" dir="0" index="2" bw="8" slack="0"/>
<pin id="82" dir="1" index="3" bw="7" slack="0"/>
</pin_list>
<bind>
<opcode="getelementptr(29) " fcode="getelementptr"/>
<opset="shift_reg_addr_1/3 "/>
</bind>
</comp>

<comp id="87" class="1004" name="c_addr_gep_fu_87">
<pin_list>
<pin id="88" dir="0" index="0" bw="5" slack="0"/>
<pin id="89" dir="0" index="1" bw="1" slack="0"/>
<pin id="90" dir="0" index="2" bw="8" slack="0"/>
<pin id="91" dir="1" index="3" bw="7" slack="0"/>
</pin_list>
<bind>
<opcode="getelementptr(29) " fcode="getelementptr"/>
<opset="c_addr/3 "/>
</bind>
</comp>

<comp id="94" class="1004" name="grp_access_fu_94">
<pin_list>
<pin id="95" dir="0" index="0" bw="7" slack="0"/>
<pin id="96" dir="0" index="1" bw="5" slack="2147483647"/>
<pin id="97" dir="1" index="2" bw="5" slack="0"/>
</pin_list>
<bind>
<opcode="load(27) " fcode="load"/>
<opset="c_load/3 "/>
</bind>
</comp>

<comp id="99" class="1005" name="acc_reg_99">
<pin_list>
<pin id="100" dir="0" index="0" bw="32" slack="1"/>
<pin id="101" dir="1" index="1" bw="32" slack="1"/>
</pin_list>
<bind>
<opset="acc (phireg) "/>
</bind>
</comp>

<comp id="104" class="1004" name="acc_phi_fu_104">
<pin_list>
<pin id="105" dir="0" index="0" bw="32" slack="1"/>
<pin id="106" dir="0" index="1" bw="0" slack="2147483647"/>
<pin id="107" dir="0" index="2" bw="1" slack="1"/>
<pin id="108" dir="0" index="3" bw="0" slack="2147483647"/>
<pin id="109" dir="1" index="4" bw="32" slack="1"/>
</pin_list>
<bind>
<opcode="phi(47) " fcode="phi"/>
<opset="acc/2 "/>
</bind>
</comp>

<comp id="112" class="1005" name="i_reg_112">
<pin_list>
<pin id="113" dir="0" index="0" bw="8" slack="1"/>
<pin id="114" dir="1" index="1" bw="8" slack="1"/>
</pin_list>
<bind>
<opset="i (phireg) "/>
</bind>
</comp>

<comp id="116" class="1004" name="i_phi_fu_116">
<pin_list>
<pin id="117" dir="0" index="0" bw="8" slack="1"/>
<pin id="118" dir="0" index="1" bw="0" slack="2147483647"/>
<pin id="119" dir="0" index="2" bw="8" slack="1"/>
<pin id="120" dir="0" index="3" bw="0" slack="2147483647"/>
<pin id="121" dir="1" index="4" bw="8" slack="0"/>
</pin_list>
<bind>
<opcode="phi(47) " fcode="phi"/>
<opset="i/2 "/>
</bind>
</comp>

<comp id="124" class="1005" name="data1_reg_124">
<pin_list>
<pin id="125" dir="0" index="0" bw="32" slack="1"/>
<pin id="126" dir="1" index="1" bw="32" slack="2147483647"/>
</pin_list>
<bind>
<opset="data1 (phireg) "/>
</bind>
</comp>

<comp id="127" class="1004" name="data1_phi_fu_127">
<pin_list>
<pin id="128" dir="0" index="0" bw="32" slack="3"/>
<pin id="129" dir="0" index="1" bw="0" slack="2147483647"/>
<pin id="130" dir="0" index="2" bw="32" slack="1"/>
<pin id="131" dir="0" index="3" bw="0" slack="2147483647"/>
<pin id="132" dir="1" index="4" bw="32" slack="0"/>
</pin_list>
<bind>
<opcode="phi(47) " fcode="phi"/>
<opset="data1/4 "/>
</bind>
</comp>

<comp id="134" class="1004" name="grp_fu_134">
<pin_list>
<pin id="135" dir="0" index="0" bw="8" slack="0"/>
<pin id="136" dir="0" index="1" bw="1" slack="0"/>
<pin id="137" dir="1" index="2" bw="8" slack="0"/>
</pin_list>
<bind>
<opcode="add(8) " fcode="add"/>
<opset="tmp_2/2 i_1/3 "/>
</bind>
</comp>

<comp id="141" class="1004" name="tmp_fu_141">
<pin_list>
<pin id="142" dir="0" index="0" bw="1" slack="0"/>
<pin id="143" dir="0" index="1" bw="8" slack="0"/>
<pin id="144" dir="0" index="2" bw="4" slack="0"/>
<pin id="145" dir="1" index="3" bw="1" slack="1"/>
</pin_list>
<bind>
<opcode="bitselect(1000) " fcode="bitselect"/>
<opset="tmp/2 "/>
</bind>
</comp>

<comp id="149" class="1004" name="tmp_1_fu_149">
<pin_list>
<pin id="150" dir="0" index="0" bw="8" slack="0"/>
<pin id="151" dir="0" index="1" bw="8" slack="0"/>
<pin id="152" dir="1" index="2" bw="1" slack="1"/>
</pin_list>
<bind>
<opcode="icmp(45) " fcode="icmp"/>
<opset="tmp_1/2 "/>
</bind>
</comp>

<comp id="155" class="1004" name="tmp_3_fu_155">
<pin_list>
<pin id="156" dir="0" index="0" bw="8" slack="0"/>
<pin id="157" dir="1" index="1" bw="64" slack="0"/>
</pin_list>
<bind>
<opcode="zext(34) " fcode="zext"/>
<opset="tmp_3/2 "/>
</bind>
</comp>

<comp id="160" class="1004" name="tmp_4_fu_160">
<pin_list>
<pin id="161" dir="0" index="0" bw="8" slack="1"/>
<pin id="162" dir="1" index="1" bw="64" slack="0"/>
</pin_list>
<bind>
<opcode="zext(34) " fcode="zext"/>
<opset="tmp_4/3 "/>
</bind>
</comp>

<comp id="165" class="1004" name="tmp_5_fu_165">
<pin_list>
<pin id="166" dir="0" index="0" bw="8" slack="1"/>
<pin id="167" dir="1" index="1" bw="64" slack="0"/>
</pin_list>
<bind>
<opcode="zext(34) " fcode="zext"/>
<opset="tmp_5/3 "/>
</bind>
</comp>

<comp id="170" class="1004" name="c_load_cast_fu_170">
<pin_list>
<pin id="171" dir="0" index="0" bw="5" slack="0"/>
<pin id="172" dir="1" index="1" bw="32" slack="0"/>
</pin_list>
<bind>
<opcode="sext(35) " fcode="sext"/>
<opset="c_load_cast/4 "/>
</bind>
</comp>

<comp id="174" class="1004" name="grp_fu_174">
<pin_list>
<pin id="175" dir="0" index="0" bw="32" slack="0"/>
<pin id="176" dir="0" index="1" bw="5" slack="0"/>
<pin id="177" dir="1" index="2" bw="32" slack="0"/>
</pin_list>
<bind>
<opcode="mul(12) " fcode="mul"/>
<opset="tmp_6/4 "/>
</bind>
</comp>

<comp id="180" class="1004" name="acc_1_fu_180">
<pin_list>
<pin id="181" dir="0" index="0" bw="32" slack="4"/>
<pin id="182" dir="0" index="1" bw="32" slack="0"/>
<pin id="183" dir="1" index="2" bw="32" slack="1"/>
</pin_list>
<bind>
<opcode="add(8) " fcode="add"/>
<opset="acc_1/6 "/>
</bind>
</comp>

<comp id="186" class="1005" name="x_read_reg_186">
<pin_list>
<pin id="187" dir="0" index="0" bw="32" slack="1"/>
<pin id="188" dir="1" index="1" bw="32" slack="1"/>
</pin_list>
<bind>
<opset="x_read "/>
</bind>
</comp>

<comp id="192" class="1005" name="tmp_reg_192">
<pin_list>
<pin id="193" dir="0" index="0" bw="1" slack="1"/>
<pin id="194" dir="1" index="1" bw="1" slack="2147483647"/>
</pin_list>
<bind>
<opset="tmp "/>
</bind>
</comp>

<comp id="196" class="1005" name="tmp_1_reg_196">
<pin_list>
<pin id="197" dir="0" index="0" bw="1" slack="1"/>
<pin id="198" dir="1" index="1" bw="1" slack="2147483647"/>
</pin_list>
<bind>
<opset="tmp_1 "/>
</bind>
</comp>

<comp id="200" class="1005" name="shift_reg_addr_reg_200">
<pin_list>
<pin id="201" dir="0" index="0" bw="7" slack="1"/>
<pin id="202" dir="1" index="1" bw="7" slack="1"/>
</pin_list>
<bind>
<opset="shift_reg_addr "/>
</bind>
</comp>

<comp id="205" class="1005" name="data_reg_205">
<pin_list>
<pin id="206" dir="0" index="0" bw="32" slack="1"/>
<pin id="207" dir="1" index="1" bw="32" slack="1"/>
</pin_list>
<bind>
<opset="data "/>
</bind>
</comp>

<comp id="210" class="1005" name="c_addr_reg_210">
<pin_list>
<pin id="211" dir="0" index="0" bw="7" slack="1"/>
<pin id="212" dir="1" index="1" bw="7" slack="1"/>
</pin_list>
<bind>
<opset="c_addr "/>
</bind>
</comp>

<comp id="215" class="1005" name="i_1_reg_215">
<pin_list>
<pin id="216" dir="0" index="0" bw="8" slack="1"/>
<pin id="217" dir="1" index="1" bw="8" slack="1"/>
</pin_list>
<bind>
<opset="i_1 "/>
</bind>
</comp>

<comp id="220" class="1005" name="c_load_cast_reg_220">
<pin_list>
<pin id="221" dir="0" index="0" bw="32" slack="1"/>
<pin id="222" dir="1" index="1" bw="32" slack="1"/>
</pin_list>
<bind>
<opset="c_load_cast "/>
</bind>
</comp>

<comp id="225" class="1005" name="acc_1_reg_225">
<pin_list>
<pin id="226" dir="0" index="0" bw="32" slack="1"/>
<pin id="227" dir="1" index="1" bw="32" slack="1"/>
</pin_list>
<bind>
<opset="acc_1 "/>
</bind>
</comp>

</comp_list>

<net_list>
<net id="56"><net_src comp="14" pin="0"/><net_sink comp="52" pin=0"/></net>

<net id="57"><net_src comp="2" pin="0"/><net_sink comp="52" pin=1"/></net>

<net id="63"><net_src comp="50" pin="0"/><net_sink comp="58" pin=0"/></net>

<net id="64"><net_src comp="0" pin="0"/><net_sink comp="58" pin=1"/></net>

<net id="70"><net_src comp="4" pin="0"/><net_sink comp="65" pin=0"/></net>

<net id="71"><net_src comp="28" pin="0"/><net_sink comp="65" pin=1"/></net>

<net id="76"><net_src comp="65" pin="3"/><net_sink comp="72" pin=0"/></net>

<net id="77"><net_src comp="30" pin="0"/><net_sink comp="72" pin=0"/></net>

<net id="83"><net_src comp="4" pin="0"/><net_sink comp="78" pin=0"/></net>

<net id="84"><net_src comp="28" pin="0"/><net_sink comp="78" pin=1"/></net>

<net id="85"><net_src comp="72" pin="2"/><net_sink comp="72" pin=1"/></net>

<net id="86"><net_src comp="78" pin="3"/><net_sink comp="72" pin=0"/></net>

<net id="92"><net_src comp="6" pin="0"/><net_sink comp="87" pin=0"/></net>

<net id="93"><net_src comp="28" pin="0"/><net_sink comp="87" pin=1"/></net>

<net id="98"><net_src comp="87" pin="3"/><net_sink comp="94" pin=0"/></net>

<net id="102"><net_src comp="16" pin="0"/><net_sink comp="99" pin=0"/></net>

<net id="103"><net_src comp="99" pin="1"/><net_sink comp="58" pin=2"/></net>

<net id="110"><net_src comp="99" pin="1"/><net_sink comp="104" pin=2"/></net>

<net id="111"><net_src comp="104" pin="4"/><net_sink comp="99" pin=0"/></net>

<net id="115"><net_src comp="18" pin="0"/><net_sink comp="112" pin=0"/></net>

<net id="122"><net_src comp="112" pin="1"/><net_sink comp="116" pin=2"/></net>

<net id="123"><net_src comp="116" pin="4"/><net_sink comp="112" pin=0"/></net>

<net id="133"><net_src comp="127" pin="4"/><net_sink comp="124" pin=0"/></net>

<net id="138"><net_src comp="116" pin="4"/><net_sink comp="134" pin=0"/></net>

<net id="139"><net_src comp="26" pin="0"/><net_sink comp="134" pin=1"/></net>

<net id="140"><net_src comp="112" pin="1"/><net_sink comp="134" pin=0"/></net>

<net id="146"><net_src comp="20" pin="0"/><net_sink comp="141" pin=0"/></net>

<net id="147"><net_src comp="116" pin="4"/><net_sink comp="141" pin=1"/></net>

<net id="148"><net_src comp="22" pin="0"/><net_sink comp="141" pin=2"/></net>

<net id="153"><net_src comp="116" pin="4"/><net_sink comp="149" pin=0"/></net>

<net id="154"><net_src comp="24" pin="0"/><net_sink comp="149" pin=1"/></net>

<net id="158"><net_src comp="134" pin="2"/><net_sink comp="155" pin=0"/></net>

<net id="159"><net_src comp="155" pin="1"/><net_sink comp="65" pin=2"/></net>

<net id="163"><net_src comp="112" pin="1"/><net_sink comp="160" pin=0"/></net>

<net id="164"><net_src comp="160" pin="1"/><net_sink comp="78" pin=2"/></net>

<net id="168"><net_src comp="112" pin="1"/><net_sink comp="165" pin=0"/></net>

<net id="169"><net_src comp="165" pin="1"/><net_sink comp="87" pin=2"/></net>

<net id="173"><net_src comp="94" pin="2"/><net_sink comp="170" pin=0"/></net>

<net id="178"><net_src comp="127" pin="4"/><net_sink comp="174" pin=0"/></net>

<net id="179"><net_src comp="170" pin="1"/><net_sink comp="174" pin=1"/></net>

<net id="184"><net_src comp="99" pin="1"/><net_sink comp="180" pin=0"/></net>

<net id="185"><net_src comp="174" pin="2"/><net_sink comp="180" pin=1"/></net>

<net id="189"><net_src comp="52" pin="2"/><net_sink comp="186" pin=0"/></net>

<net id="190"><net_src comp="186" pin="1"/><net_sink comp="72" pin=1"/></net>

<net id="191"><net_src comp="186" pin="1"/><net_sink comp="127" pin=0"/></net>

<net id="195"><net_src comp="141" pin="3"/><net_sink comp="192" pin=0"/></net>

<net id="199"><net_src comp="149" pin="2"/><net_sink comp="196" pin=0"/></net>

<net id="203"><net_src comp="65" pin="3"/><net_sink comp="200" pin=0"/></net>

<net id="204"><net_src comp="200" pin="1"/><net_sink comp="72" pin=0"/></net>

<net id="208"><net_src comp="72" pin="2"/><net_sink comp="205" pin=0"/></net>

<net id="209"><net_src comp="205" pin="1"/><net_sink comp="127" pin=2"/></net>

<net id="213"><net_src comp="87" pin="3"/><net_sink comp="210" pin=0"/></net>

<net id="214"><net_src comp="210" pin="1"/><net_sink comp="94" pin=0"/></net>

<net id="218"><net_src comp="134" pin="2"/><net_sink comp="215" pin=0"/></net>

<net id="219"><net_src comp="215" pin="1"/><net_sink comp="116" pin=0"/></net>

<net id="223"><net_src comp="170" pin="1"/><net_sink comp="220" pin=0"/></net>

<net id="224"><net_src comp="220" pin="1"/><net_sink comp="174" pin=1"/></net>

<net id="228"><net_src comp="180" pin="2"/><net_sink comp="225" pin=0"/></net>

<net id="229"><net_src comp="225" pin="1"/><net_sink comp="104" pin=0"/></net>

</net_list>

</model> 
---------------- Datapath Model END ------------------

* FSMD analyzer results:
  - Output states:
	Port: y | {7 }
  - Chain level:
	State 1
	State 2
		tmp : 1
		stg_16 : 2
		tmp_1 : 1
		stg_18 : 2
		tmp_2 : 1
		tmp_3 : 2
		shift_reg_addr : 3
		data : 4
	State 3
		shift_reg_addr_1 : 1
		stg_27 : 2
		c_addr : 1
		c_load : 2
	State 4
		c_load_cast : 1
		tmp_6 : 2
	State 5
	State 6
		acc_1 : 1
		empty_2 : 1
	State 7


============================================================
+ Verbose Summary: Datapath Resource usage 
============================================================

* Functional unit list:
|----------|--------------------|---------|---------|---------|
| Operation|   Functional Unit  |  DSP48E |    FF   |   LUT   |
|----------|--------------------|---------|---------|---------|
|    add   |     grp_fu_134     |    0    |    0    |    8    |
|          |    acc_1_fu_180    |    0    |    0    |    32   |
|----------|--------------------|---------|---------|---------|
|   icmp   |    tmp_1_fu_149    |    0    |    0    |    3    |
|----------|--------------------|---------|---------|---------|
|    mul   |     grp_fu_174     |    2    |    0    |    0    |
|----------|--------------------|---------|---------|---------|
|   read   |  x_read_read_fu_52 |    0    |    0    |    0    |
|----------|--------------------|---------|---------|---------|
|   write  | stg_47_write_fu_58 |    0    |    0    |    0    |
|----------|--------------------|---------|---------|---------|
| bitselect|     tmp_fu_141     |    0    |    0    |    0    |
|----------|--------------------|---------|---------|---------|
|          |    tmp_3_fu_155    |    0    |    0    |    0    |
|   zext   |    tmp_4_fu_160    |    0    |    0    |    0    |
|          |    tmp_5_fu_165    |    0    |    0    |    0    |
|----------|--------------------|---------|---------|---------|
|   sext   | c_load_cast_fu_170 |    0    |    0    |    0    |
|----------|--------------------|---------|---------|---------|
|   Total  |                    |    2    |    0    |    43   |
|----------|--------------------|---------|---------|---------|

Memories:
+---------+--------+--------+--------+
|         |  BRAM  |   FF   |   LUT  |
+---------+--------+--------+--------+
|    c    |    0   |    5   |   10   |
|shift_reg|    1   |    0   |    0   |
+---------+--------+--------+--------+
|  Total  |    1   |    5   |   10   |
+---------+--------+--------+--------+

* Register list:
+----------------------+--------+
|                      |   FF   |
+----------------------+--------+
|     acc_1_reg_225    |   32   |
|      acc_reg_99      |   32   |
|    c_addr_reg_210    |    7   |
|  c_load_cast_reg_220 |   32   |
|     data1_reg_124    |   32   |
|     data_reg_205     |   32   |
|      i_1_reg_215     |    8   |
|       i_reg_112      |    8   |
|shift_reg_addr_reg_200|    7   |
|     tmp_1_reg_196    |    1   |
|      tmp_reg_192     |    1   |
|    x_read_reg_186    |   32   |
+----------------------+--------+
|         Total        |   224  |
+----------------------+--------+

* Multiplexer (MUX) list: 
|------------------|------|------|------|--------||---------||---------|
|       Comp       |  Pin | Size |  BW  | S x BW ||  Delay  ||   LUT   |
|------------------|------|------|------|--------||---------||---------|
| grp_access_fu_72 |  p0  |   4  |   7  |   28   ||    7    |
| grp_access_fu_72 |  p1  |   2  |  32  |   64   ||    32   |
| grp_access_fu_94 |  p0  |   2  |   7  |   14   ||    7    |
|    acc_reg_99    |  p0  |   2  |  32  |   64   ||    32   |
|     i_reg_112    |  p0  |   2  |   8  |   16   ||    8    |
|    grp_fu_134    |  p0  |   2  |   8  |   16   ||    8    |
|    grp_fu_174    |  p1  |   2  |   5  |   10   ||    5    |
|------------------|------|------|------|--------||---------||---------|
|       Total      |      |      |      |   212  ||  10.997 ||    99   |
|------------------|------|------|------|--------||---------||---------|



* Summary:
+-----------+--------+--------+--------+--------+--------+
|           |  BRAM  | DSP48E |  Delay |   FF   |   LUT  |
+-----------+--------+--------+--------+--------+--------+
|  Function |    -   |    2   |    -   |    0   |   43   |
|   Memory  |    1   |    -   |    -   |    5   |   10   |
|Multiplexer|    -   |    -   |   10   |    -   |   99   |
|  Register |    -   |    -   |    -   |   224  |    -   |
+-----------+--------+--------+--------+--------+--------+
|   Total   |    1   |    2   |   10   |   229  |   152  |
+-----------+--------+--------+--------+--------+--------+
