

================================================================
== Vivado HLS Report for 'dft'
================================================================
* Date:           Wed Nov 02 18:31:50 2016

* Version:        2015.4 (Build 1412921 on Wed Nov 18 09:58:55 AM 2015)
* Project:        dft
* Solution:       solution1
* Product family: zynq
* Target device:  xc7z020clg484-1


================================================================
== Performance Estimates
================================================================
+ Timing (ns): 
    * Summary: 
    +--------+-------+----------+------------+
    |  Clock | Target| Estimated| Uncertainty|
    +--------+-------+----------+------------+
    |ap_clk  |  10.00|      8.41|        1.25|
    +--------+-------+----------+------------+

+ Latency (clock cycles): 
    * Summary: 
    +-------+-------+-------+-------+---------+
    |    Latency    |    Interval   | Pipeline|
    |  min  |  max  |  min  |  max  |   Type  |
    +-------+-------+-------+-------+---------+
    |  16514|  16514|  16515|  16515|   none  |
    +-------+-------+-------+-------+---------+

    + Detail: 
        * Instance: 
        N/A

        * Loop: 
        +-------------+-------+-------+----------+-----------+-----------+------+----------+
        |             |    Latency    | Iteration|  Initiation Interval  | Trip |          |
        |  Loop Name  |  min  |  max  |  Latency |  achieved |   target  | Count| Pipelined|
        +-------------+-------+-------+----------+-----------+-----------+------+----------+
        |- Loop 1     |  16448|  16448|       514|          -|          -|    32|    no    |
        | + Loop 1.1  |    512|    512|        16|          -|          -|    32|    no    |
        |- Loop 2     |     64|     64|         2|          -|          -|    32|    no    |
        +-------------+-------+-------+----------+-----------+-----------+------+----------+

============================================================
+ Verbose Summary: Synthesis Manager
============================================================
InlineROM: 1
ExposeGlobal: 0
============================================================
+ Verbose Summary: CDFG Model
============================================================
IsTopModel: 1
ResetActiveHigh: 1
IsCombinational: 0
IsDatapathOnly: 0
HasWiredReturn: 1
HasMFsm: 0
HasVarLatency: 1
IsPipeline: 0
IsRtlPipelined: 0
IsInstanceOverlapped: 0
IsDontTouch: 0
HasImplIP: 0
IsGatedGlobalClock: 0


============================================================
+ Verbose Summary: Schedule
============================================================
* Number of FSM states: 20
* Pipeline: 0
* Dataflow Pipeline: 0

* FSM state transitions: 
1 --> 
	2  / true
2 --> 
	19  / (exitcond2)
	3  / (!exitcond2)
3 --> 
	2  / (exitcond1)
	4  / (!exitcond1)
4 --> 
	5  / true
5 --> 
	6  / true
6 --> 
	7  / true
7 --> 
	8  / true
8 --> 
	9  / true
9 --> 
	10  / true
10 --> 
	11  / true
11 --> 
	12  / true
12 --> 
	13  / true
13 --> 
	14  / true
14 --> 
	15  / true
15 --> 
	16  / true
16 --> 
	17  / true
17 --> 
	18  / true
18 --> 
	3  / true
19 --> 
	20  / (!exitcond)
20 --> 
	19  / true
* FSM state operations: 

 <State 1>: 2.71ns
ST_1: stg_21 [1/1] 0.00ns
:0  call void (...)* @_ssdm_op_SpecBitsMap([32 x float]* %real_i) nounwind, !map !7

ST_1: stg_22 [1/1] 0.00ns
:1  call void (...)* @_ssdm_op_SpecBitsMap([32 x float]* %imag_i) nounwind, !map !13

ST_1: stg_23 [1/1] 0.00ns
:2  call void (...)* @_ssdm_op_SpecTopModule([4 x i8]* @dft_str) nounwind

ST_1: tmp_real [1/1] 2.71ns
:3  %tmp_real = alloca [32 x float], align 16

ST_1: tmp_imag [1/1] 2.71ns
:4  %tmp_imag = alloca [32 x float], align 16

ST_1: stg_26 [1/1] 1.57ns
:5  br label %.loopexit


 <State 2>: 3.51ns
ST_2: i [1/1] 0.00ns
.loopexit:0  %i = phi i6 [ 0, %0 ], [ %i_2, %2 ]

ST_2: tmp_1 [1/1] 0.00ns
.loopexit:1  %tmp_1 = trunc i6 %i to i5

ST_2: exitcond2 [1/1] 1.94ns
.loopexit:2  %exitcond2 = icmp eq i6 %i, -32

ST_2: empty [1/1] 0.00ns
.loopexit:3  %empty = call i32 (...)* @_ssdm_op_SpecLoopTripCount(i64 32, i64 32, i64 32) nounwind

ST_2: i_2 [1/1] 1.72ns
.loopexit:4  %i_2 = add i6 1, %i

ST_2: stg_32 [1/1] 1.57ns
.loopexit:5  br i1 %exitcond2, label %.preheader, label %1

ST_2: tmp [1/1] 0.00ns
:0  %tmp = zext i6 %i to i64

ST_2: tmp_real_addr [1/1] 0.00ns
:1  %tmp_real_addr = getelementptr inbounds [32 x float]* %tmp_real, i64 0, i64 %tmp

ST_2: stg_35 [1/1] 2.71ns
:2  store float 0.000000e+00, float* %tmp_real_addr, align 4

ST_2: tmp_imag_addr [1/1] 0.00ns
:3  %tmp_imag_addr = getelementptr inbounds [32 x float]* %tmp_imag, i64 0, i64 %tmp

ST_2: stg_37 [1/1] 1.57ns
:4  br label %2


 <State 3>: 4.99ns
ST_3: storemerge [1/1] 0.00ns
:0  %storemerge = phi float [ 0.000000e+00, %1 ], [ %tmp_12, %3 ]

ST_3: tmp_2 [1/1] 0.00ns
:1  %tmp_2 = phi float [ 0.000000e+00, %1 ], [ %tmp_5, %3 ]

ST_3: j [1/1] 0.00ns
:2  %j = phi i6 [ 0, %1 ], [ %j_1, %3 ]

ST_3: stg_41 [1/1] 2.71ns
:3  store float %storemerge, float* %tmp_imag_addr, align 4

ST_3: tmp_13 [1/1] 0.00ns
:4  %tmp_13 = trunc i6 %j to i5

ST_3: exitcond1 [1/1] 1.94ns
:5  %exitcond1 = icmp eq i6 %j, -32

ST_3: empty_3 [1/1] 0.00ns
:6  %empty_3 = call i32 (...)* @_ssdm_op_SpecLoopTripCount(i64 32, i64 32, i64 32) nounwind

ST_3: j_1 [1/1] 1.72ns
:7  %j_1 = add i6 1, %j

ST_3: stg_46 [1/1] 0.00ns
:8  br i1 %exitcond1, label %.loopexit, label %3

ST_3: index [1/1] 2.60ns
:0  %index = mul i5 %tmp_1, %tmp_13

ST_3: tmp_7 [1/1] 0.00ns
:1  %tmp_7 = zext i6 %j to i64

ST_3: real_i_addr_1 [1/1] 0.00ns
:2  %real_i_addr_1 = getelementptr [32 x float]* %real_i, i64 0, i64 %tmp_7

ST_3: real_i_load [2/2] 2.71ns
:3  %real_i_load = load float* %real_i_addr_1, align 4

ST_3: tmp_8 [1/1] 0.00ns
:4  %tmp_8 = zext i5 %index to i64

ST_3: cct_addr [1/1] 0.00ns
:5  %cct_addr = getelementptr inbounds [32 x float]* @cct, i64 0, i64 %tmp_8

ST_3: cct_load [2/2] 2.39ns
:6  %cct_load = load float* %cct_addr, align 4

ST_3: imag_i_addr_1 [1/1] 0.00ns
:8  %imag_i_addr_1 = getelementptr [32 x float]* %imag_i, i64 0, i64 %tmp_7

ST_3: imag_i_load [2/2] 2.71ns
:9  %imag_i_load = load float* %imag_i_addr_1, align 4

ST_3: sct_addr [1/1] 0.00ns
:10  %sct_addr = getelementptr inbounds [32 x float]* @sct, i64 0, i64 %tmp_8

ST_3: sct_load [2/2] 2.39ns
:11  %sct_load = load float* %sct_addr, align 4


 <State 4>: 8.41ns
ST_4: real_i_load [1/2] 2.71ns
:3  %real_i_load = load float* %real_i_addr_1, align 4

ST_4: cct_load [1/2] 2.39ns
:6  %cct_load = load float* %cct_addr, align 4

ST_4: tmp_9 [4/4] 5.70ns
:7  %tmp_9 = fmul float %real_i_load, %cct_load

ST_4: imag_i_load [1/2] 2.71ns
:9  %imag_i_load = load float* %imag_i_addr_1, align 4

ST_4: sct_load [1/2] 2.39ns
:11  %sct_load = load float* %sct_addr, align 4

ST_4: tmp_s [4/4] 5.70ns
:12  %tmp_s = fmul float %imag_i_load, %sct_load

ST_4: tmp_6 [4/4] 5.70ns
:16  %tmp_6 = fmul float %real_i_load, %sct_load

ST_4: tmp_10 [4/4] 5.70ns
:17  %tmp_10 = fmul float %imag_i_load, %cct_load


 <State 5>: 5.70ns
ST_5: tmp_9 [3/4] 5.70ns
:7  %tmp_9 = fmul float %real_i_load, %cct_load

ST_5: tmp_s [3/4] 5.70ns
:12  %tmp_s = fmul float %imag_i_load, %sct_load

ST_5: tmp_6 [3/4] 5.70ns
:16  %tmp_6 = fmul float %real_i_load, %sct_load

ST_5: tmp_10 [3/4] 5.70ns
:17  %tmp_10 = fmul float %imag_i_load, %cct_load


 <State 6>: 5.70ns
ST_6: tmp_9 [2/4] 5.70ns
:7  %tmp_9 = fmul float %real_i_load, %cct_load

ST_6: tmp_s [2/4] 5.70ns
:12  %tmp_s = fmul float %imag_i_load, %sct_load

ST_6: tmp_6 [2/4] 5.70ns
:16  %tmp_6 = fmul float %real_i_load, %sct_load

ST_6: tmp_10 [2/4] 5.70ns
:17  %tmp_10 = fmul float %imag_i_load, %cct_load


 <State 7>: 5.70ns
ST_7: tmp_9 [1/4] 5.70ns
:7  %tmp_9 = fmul float %real_i_load, %cct_load

ST_7: tmp_s [1/4] 5.70ns
:12  %tmp_s = fmul float %imag_i_load, %sct_load

ST_7: tmp_6 [1/4] 5.70ns
:16  %tmp_6 = fmul float %real_i_load, %sct_load

ST_7: tmp_10 [1/4] 5.70ns
:17  %tmp_10 = fmul float %imag_i_load, %cct_load


 <State 8>: 7.26ns
ST_8: tmp_4 [5/5] 7.26ns
:13  %tmp_4 = fsub float %tmp_9, %tmp_s

ST_8: tmp_11 [5/5] 7.26ns
:18  %tmp_11 = fadd float %tmp_6, %tmp_10


 <State 9>: 7.26ns
ST_9: tmp_4 [4/5] 7.26ns
:13  %tmp_4 = fsub float %tmp_9, %tmp_s

ST_9: tmp_11 [4/5] 7.26ns
:18  %tmp_11 = fadd float %tmp_6, %tmp_10


 <State 10>: 7.26ns
ST_10: tmp_4 [3/5] 7.26ns
:13  %tmp_4 = fsub float %tmp_9, %tmp_s

ST_10: tmp_11 [3/5] 7.26ns
:18  %tmp_11 = fadd float %tmp_6, %tmp_10


 <State 11>: 7.26ns
ST_11: tmp_4 [2/5] 7.26ns
:13  %tmp_4 = fsub float %tmp_9, %tmp_s

ST_11: tmp_11 [2/5] 7.26ns
:18  %tmp_11 = fadd float %tmp_6, %tmp_10


 <State 12>: 7.26ns
ST_12: tmp_4 [1/5] 7.26ns
:13  %tmp_4 = fsub float %tmp_9, %tmp_s

ST_12: tmp_11 [1/5] 7.26ns
:18  %tmp_11 = fadd float %tmp_6, %tmp_10


 <State 13>: 7.26ns
ST_13: tmp_5 [5/5] 7.26ns
:14  %tmp_5 = fadd float %tmp_2, %tmp_4

ST_13: tmp_12 [5/5] 7.26ns
:19  %tmp_12 = fadd float %storemerge, %tmp_11


 <State 14>: 7.26ns
ST_14: tmp_5 [4/5] 7.26ns
:14  %tmp_5 = fadd float %tmp_2, %tmp_4

ST_14: tmp_12 [4/5] 7.26ns
:19  %tmp_12 = fadd float %storemerge, %tmp_11


 <State 15>: 7.26ns
ST_15: tmp_5 [3/5] 7.26ns
:14  %tmp_5 = fadd float %tmp_2, %tmp_4

ST_15: tmp_12 [3/5] 7.26ns
:19  %tmp_12 = fadd float %storemerge, %tmp_11


 <State 16>: 7.26ns
ST_16: tmp_5 [2/5] 7.26ns
:14  %tmp_5 = fadd float %tmp_2, %tmp_4

ST_16: tmp_12 [2/5] 7.26ns
:19  %tmp_12 = fadd float %storemerge, %tmp_11


 <State 17>: 7.26ns
ST_17: tmp_5 [1/5] 7.26ns
:14  %tmp_5 = fadd float %tmp_2, %tmp_4

ST_17: tmp_12 [1/5] 7.26ns
:19  %tmp_12 = fadd float %storemerge, %tmp_11


 <State 18>: 2.71ns
ST_18: stg_98 [1/1] 2.71ns
:15  store float %tmp_5, float* %tmp_real_addr, align 4

ST_18: stg_99 [1/1] 0.00ns
:20  br label %2


 <State 19>: 2.71ns
ST_19: i1 [1/1] 0.00ns
.preheader:0  %i1 = phi i6 [ %i_1, %4 ], [ 0, %.loopexit ]

ST_19: exitcond [1/1] 1.94ns
.preheader:1  %exitcond = icmp eq i6 %i1, -32

ST_19: empty_4 [1/1] 0.00ns
.preheader:2  %empty_4 = call i32 (...)* @_ssdm_op_SpecLoopTripCount(i64 32, i64 32, i64 32) nounwind

ST_19: i_1 [1/1] 1.72ns
.preheader:3  %i_1 = add i6 %i1, 1

ST_19: stg_104 [1/1] 0.00ns
.preheader:4  br i1 %exitcond, label %5, label %4

ST_19: tmp_3 [1/1] 0.00ns
:0  %tmp_3 = zext i6 %i1 to i64

ST_19: tmp_real_addr_1 [1/1] 0.00ns
:1  %tmp_real_addr_1 = getelementptr inbounds [32 x float]* %tmp_real, i64 0, i64 %tmp_3

ST_19: tmp_real_load [2/2] 2.71ns
:2  %tmp_real_load = load float* %tmp_real_addr_1, align 4

ST_19: tmp_imag_addr_1 [1/1] 0.00ns
:5  %tmp_imag_addr_1 = getelementptr inbounds [32 x float]* %tmp_imag, i64 0, i64 %tmp_3

ST_19: tmp_imag_load [2/2] 2.71ns
:6  %tmp_imag_load = load float* %tmp_imag_addr_1, align 4

ST_19: stg_110 [1/1] 0.00ns
:0  ret void


 <State 20>: 5.42ns
ST_20: tmp_real_load [1/2] 2.71ns
:2  %tmp_real_load = load float* %tmp_real_addr_1, align 4

ST_20: real_i_addr [1/1] 0.00ns
:3  %real_i_addr = getelementptr [32 x float]* %real_i, i64 0, i64 %tmp_3

ST_20: stg_113 [1/1] 2.71ns
:4  store float %tmp_real_load, float* %real_i_addr, align 4

ST_20: tmp_imag_load [1/2] 2.71ns
:6  %tmp_imag_load = load float* %tmp_imag_addr_1, align 4

ST_20: imag_i_addr [1/1] 0.00ns
:7  %imag_i_addr = getelementptr [32 x float]* %imag_i, i64 0, i64 %tmp_3

ST_20: stg_116 [1/1] 2.71ns
:8  store float %tmp_imag_load, float* %imag_i_addr, align 4

ST_20: stg_117 [1/1] 0.00ns
:9  br label %.preheader



============================================================
+ Verbose Summary: Binding
============================================================
STG Binding: 
---------------- STG Properties BEGIN ----------------
- Is combinational: 0
- Is one-state seq: 0
- Is datapath-only: 0
- Is clock enabled: 0
- Is pipelined: 0
- Is top level: 1
Port [ Return ] is wired: 1; IO mode=ap_ctrl_hs:ce=0
Port [ real_i]:  wired=1; compound=1; hidden=0; nouse=0; global=0; static=0; extern=0; dir=2; type=1; mode=0x21411b9a440; pingpong=0; private_global=0; MemPort=[23]; IO mode=ap_memory:ce=0
Port [ imag_i]:  wired=1; compound=1; hidden=0; nouse=0; global=0; static=0; extern=0; dir=2; type=1; mode=0x21411b9ac20; pingpong=0; private_global=0; MemPort=[23]; IO mode=ap_memory:ce=0
Port [ cct]:  wired=0; compound=1; hidden=1; nouse=0; global=1; static=1; extern=0; dir=0; type=1; mode=0x21411b9a4d0; pingpong=0; private_global=1; linkage=7; visibility=0; MemPort=[1]; IO mode=ap_memory:ce=0
Port [ sct]:  wired=0; compound=1; hidden=1; nouse=0; global=1; static=1; extern=0; dir=0; type=1; mode=0x21411b9b2e0; pingpong=0; private_global=1; linkage=7; visibility=0; MemPort=[1]; IO mode=ap_memory:ce=0
---------------- STG Properties END ------------------

---------------- Datapath Model BEGIN ----------------

<LifeTime>
<method=bitvector/>
stg_21          (specbitsmap      ) [ 000000000000000000000]
stg_22          (specbitsmap      ) [ 000000000000000000000]
stg_23          (spectopmodule    ) [ 000000000000000000000]
tmp_real        (alloca           ) [ 001111111111111111111]
tmp_imag        (alloca           ) [ 001111111111111111111]
stg_26          (br               ) [ 011111111111111111100]
i               (phi              ) [ 001000000000000000000]
tmp_1           (trunc            ) [ 000111111111111111100]
exitcond2       (icmp             ) [ 001111111111111111100]
empty           (speclooptripcount) [ 000000000000000000000]
i_2             (add              ) [ 011111111111111111100]
stg_32          (br               ) [ 001111111111111111111]
tmp             (zext             ) [ 000000000000000000000]
tmp_real_addr   (getelementptr    ) [ 000111111111111111100]
stg_35          (store            ) [ 000000000000000000000]
tmp_imag_addr   (getelementptr    ) [ 000111111111111111100]
stg_37          (br               ) [ 001111111111111111100]
storemerge      (phi              ) [ 000111111111111111000]
tmp_2           (phi              ) [ 000111111111111111000]
j               (phi              ) [ 000100000000000000000]
stg_41          (store            ) [ 000000000000000000000]
tmp_13          (trunc            ) [ 000000000000000000000]
exitcond1       (icmp             ) [ 001111111111111111100]
empty_3         (speclooptripcount) [ 000000000000000000000]
j_1             (add              ) [ 001111111111111111100]
stg_46          (br               ) [ 011111111111111111100]
index           (mul              ) [ 000000000000000000000]
tmp_7           (zext             ) [ 000000000000000000000]
real_i_addr_1   (getelementptr    ) [ 000010000000000000000]
tmp_8           (zext             ) [ 000000000000000000000]
cct_addr        (getelementptr    ) [ 000010000000000000000]
imag_i_addr_1   (getelementptr    ) [ 000010000000000000000]
sct_addr        (getelementptr    ) [ 000010000000000000000]
real_i_load     (load             ) [ 000001110000000000000]
cct_load        (load             ) [ 000001110000000000000]
imag_i_load     (load             ) [ 000001110000000000000]
sct_load        (load             ) [ 000001110000000000000]
tmp_9           (fmul             ) [ 000000001111100000000]
tmp_s           (fmul             ) [ 000000001111100000000]
tmp_6           (fmul             ) [ 000000001111100000000]
tmp_10          (fmul             ) [ 000000001111100000000]
tmp_4           (fsub             ) [ 000000000000011111000]
tmp_11          (fadd             ) [ 000000000000011111000]
tmp_5           (fadd             ) [ 001100000000000000100]
tmp_12          (fadd             ) [ 001100000000000000100]
stg_98          (store            ) [ 000000000000000000000]
stg_99          (br               ) [ 001111111111111111100]
i1              (phi              ) [ 000000000000000000010]
exitcond        (icmp             ) [ 000000000000000000011]
empty_4         (speclooptripcount) [ 000000000000000000000]
i_1             (add              ) [ 001000000000000000011]
stg_104         (br               ) [ 000000000000000000000]
tmp_3           (zext             ) [ 000000000000000000001]
tmp_real_addr_1 (getelementptr    ) [ 000000000000000000001]
tmp_imag_addr_1 (getelementptr    ) [ 000000000000000000001]
stg_110         (ret              ) [ 000000000000000000000]
tmp_real_load   (load             ) [ 000000000000000000000]
real_i_addr     (getelementptr    ) [ 000000000000000000000]
stg_113         (store            ) [ 000000000000000000000]
tmp_imag_load   (load             ) [ 000000000000000000000]
imag_i_addr     (getelementptr    ) [ 000000000000000000000]
stg_116         (store            ) [ 000000000000000000000]
stg_117         (br               ) [ 001000000000000000011]
</LifeTime>

<model>

<comp_list>
<comp id="0" class="1000" name="real_i">
<pin_list>
<pin id="1" dir="1" index="0" bw="1" slack="0"/>
</pin_list>
<bind>
<StgValue><ssdm name="real_i"/><MemPortTyVec>2 3 </MemPortTyVec>
</StgValue>
</bind>
</comp>

<comp id="2" class="1000" name="imag_i">
<pin_list>
<pin id="3" dir="1" index="0" bw="1" slack="0"/>
</pin_list>
<bind>
<StgValue><ssdm name="imag_i"/><MemPortTyVec>2 3 </MemPortTyVec>
</StgValue>
</bind>
</comp>

<comp id="4" class="1000" name="cct">
<pin_list>
<pin id="5" dir="1" index="0" bw="1" slack="0"/>
</pin_list>
<bind>
<StgValue><ssdm name="cct"/><MemPortTyVec>1 </MemPortTyVec>
</StgValue>
</bind>
</comp>

<comp id="6" class="1000" name="sct">
<pin_list>
<pin id="7" dir="1" index="0" bw="1" slack="0"/>
</pin_list>
<bind>
<StgValue><ssdm name="sct"/><MemPortTyVec>1 </MemPortTyVec>
</StgValue>
</bind>
</comp>

<comp id="8" class="1001" name="const_8">
<pin_list>
<pin id="9" dir="1" index="0" bw="1" slack="2147483647"/>
</pin_list>
<bind>
<StgValue><ssdm name="_ssdm_op_SpecBitsMap"/></StgValue>
</bind>
</comp>

<comp id="10" class="1001" name="const_10">
<pin_list>
<pin id="11" dir="1" index="0" bw="1" slack="2147483647"/>
</pin_list>
<bind>
<StgValue><ssdm name="_ssdm_op_SpecTopModule"/></StgValue>
</bind>
</comp>

<comp id="12" class="1001" name="const_12">
<pin_list>
<pin id="13" dir="1" index="0" bw="1" slack="2147483647"/>
</pin_list>
<bind>
<StgValue><ssdm name="dft_str"/></StgValue>
</bind>
</comp>

<comp id="14" class="1001" name="const_14">
<pin_list>
<pin id="15" dir="1" index="0" bw="1" slack="0"/>
</pin_list>
<bind>
<StgValue><ssdm name=""/></StgValue>
</bind>
</comp>

<comp id="16" class="1001" name="const_16">
<pin_list>
<pin id="17" dir="1" index="0" bw="1" slack="1"/>
</pin_list>
<bind>
<StgValue><ssdm name=""/></StgValue>
</bind>
</comp>

<comp id="18" class="1001" name="const_18">
<pin_list>
<pin id="19" dir="1" index="0" bw="1" slack="0"/>
</pin_list>
<bind>
<StgValue><ssdm name=""/></StgValue>
</bind>
</comp>

<comp id="20" class="1001" name="const_20">
<pin_list>
<pin id="21" dir="1" index="0" bw="1" slack="2147483647"/>
</pin_list>
<bind>
<StgValue><ssdm name="_ssdm_op_SpecLoopTripCount"/></StgValue>
</bind>
</comp>

<comp id="22" class="1001" name="const_22">
<pin_list>
<pin id="23" dir="1" index="0" bw="1" slack="2147483647"/>
</pin_list>
<bind>
<StgValue><ssdm name=""/></StgValue>
</bind>
</comp>

<comp id="24" class="1001" name="const_24">
<pin_list>
<pin id="25" dir="1" index="0" bw="1" slack="0"/>
</pin_list>
<bind>
<StgValue><ssdm name=""/></StgValue>
</bind>
</comp>

<comp id="26" class="1001" name="const_26">
<pin_list>
<pin id="27" dir="1" index="0" bw="1" slack="0"/>
</pin_list>
<bind>
<StgValue><ssdm name=""/></StgValue>
</bind>
</comp>

<comp id="28" class="1001" name="const_28">
<pin_list>
<pin id="29" dir="1" index="0" bw="1" slack="0"/>
</pin_list>
<bind>
<StgValue><ssdm name=""/></StgValue>
</bind>
</comp>

<comp id="30" class="1004" name="tmp_real_alloca_fu_30">
<pin_list>
<pin id="31" dir="0" index="0" bw="1" slack="0"/>
<pin id="32" dir="1" index="1" bw="32" slack="2147483647"/>
</pin_list>
<bind>
<opcode="alloca(26) " fcode="alloca"/>
<opset="tmp_real/1 "/>
</bind>
</comp>

<comp id="34" class="1004" name="tmp_imag_alloca_fu_34">
<pin_list>
<pin id="35" dir="0" index="0" bw="1" slack="0"/>
<pin id="36" dir="1" index="1" bw="32" slack="2147483647"/>
</pin_list>
<bind>
<opcode="alloca(26) " fcode="alloca"/>
<opset="tmp_imag/1 "/>
</bind>
</comp>

<comp id="38" class="1004" name="tmp_real_addr_gep_fu_38">
<pin_list>
<pin id="39" dir="0" index="0" bw="32" slack="2147483647"/>
<pin id="40" dir="0" index="1" bw="1" slack="0"/>
<pin id="41" dir="0" index="2" bw="6" slack="0"/>
<pin id="42" dir="1" index="3" bw="5" slack="0"/>
</pin_list>
<bind>
<opcode="getelementptr(29) " fcode="getelementptr"/>
<opset="tmp_real_addr/2 "/>
</bind>
</comp>

<comp id="44" class="1004" name="grp_access_fu_44">
<pin_list>
<pin id="45" dir="0" index="0" bw="5" slack="0"/>
<pin id="46" dir="0" index="1" bw="32" slack="0"/>
<pin id="47" dir="1" index="2" bw="32" slack="0"/>
</pin_list>
<bind>
<opcode="load(27) store(28) " fcode="load"/>
<opset="stg_35/2 stg_98/18 tmp_real_load/19 "/>
</bind>
</comp>

<comp id="50" class="1004" name="tmp_imag_addr_gep_fu_50">
<pin_list>
<pin id="51" dir="0" index="0" bw="32" slack="2147483647"/>
<pin id="52" dir="0" index="1" bw="1" slack="0"/>
<pin id="53" dir="0" index="2" bw="6" slack="0"/>
<pin id="54" dir="1" index="3" bw="5" slack="1"/>
</pin_list>
<bind>
<opcode="getelementptr(29) " fcode="getelementptr"/>
<opset="tmp_imag_addr/2 "/>
</bind>
</comp>

<comp id="56" class="1004" name="grp_access_fu_56">
<pin_list>
<pin id="57" dir="0" index="0" bw="5" slack="0"/>
<pin id="58" dir="0" index="1" bw="32" slack="0"/>
<pin id="59" dir="1" index="2" bw="32" slack="0"/>
</pin_list>
<bind>
<opcode="load(27) store(28) " fcode="load"/>
<opset="stg_41/3 tmp_imag_load/19 "/>
</bind>
</comp>

<comp id="60" class="1004" name="real_i_addr_1_gep_fu_60">
<pin_list>
<pin id="61" dir="0" index="0" bw="32" slack="0"/>
<pin id="62" dir="0" index="1" bw="1" slack="0"/>
<pin id="63" dir="0" index="2" bw="6" slack="0"/>
<pin id="64" dir="1" index="3" bw="5" slack="0"/>
</pin_list>
<bind>
<opcode="getelementptr(29) " fcode="getelementptr"/>
<opset="real_i_addr_1/3 "/>
</bind>
</comp>

<comp id="67" class="1004" name="grp_access_fu_67">
<pin_list>
<pin id="68" dir="0" index="0" bw="5" slack="0"/>
<pin id="69" dir="0" index="1" bw="32" slack="0"/>
<pin id="70" dir="1" index="2" bw="32" slack="0"/>
</pin_list>
<bind>
<opcode="load(27) store(28) " fcode="store"/>
<opset="real_i_load/3 stg_113/20 "/>
</bind>
</comp>

<comp id="72" class="1004" name="cct_addr_gep_fu_72">
<pin_list>
<pin id="73" dir="0" index="0" bw="32" slack="0"/>
<pin id="74" dir="0" index="1" bw="1" slack="0"/>
<pin id="75" dir="0" index="2" bw="5" slack="0"/>
<pin id="76" dir="1" index="3" bw="5" slack="0"/>
</pin_list>
<bind>
<opcode="getelementptr(29) " fcode="getelementptr"/>
<opset="cct_addr/3 "/>
</bind>
</comp>

<comp id="79" class="1004" name="grp_access_fu_79">
<pin_list>
<pin id="80" dir="0" index="0" bw="5" slack="0"/>
<pin id="81" dir="0" index="1" bw="32" slack="2147483647"/>
<pin id="82" dir="1" index="2" bw="32" slack="0"/>
</pin_list>
<bind>
<opcode="load(27) " fcode="load"/>
<opset="cct_load/3 "/>
</bind>
</comp>

<comp id="84" class="1004" name="imag_i_addr_1_gep_fu_84">
<pin_list>
<pin id="85" dir="0" index="0" bw="32" slack="0"/>
<pin id="86" dir="0" index="1" bw="1" slack="0"/>
<pin id="87" dir="0" index="2" bw="6" slack="0"/>
<pin id="88" dir="1" index="3" bw="5" slack="0"/>
</pin_list>
<bind>
<opcode="getelementptr(29) " fcode="getelementptr"/>
<opset="imag_i_addr_1/3 "/>
</bind>
</comp>

<comp id="91" class="1004" name="grp_access_fu_91">
<pin_list>
<pin id="92" dir="0" index="0" bw="5" slack="0"/>
<pin id="93" dir="0" index="1" bw="32" slack="0"/>
<pin id="94" dir="1" index="2" bw="32" slack="0"/>
</pin_list>
<bind>
<opcode="load(27) store(28) " fcode="store"/>
<opset="imag_i_load/3 stg_116/20 "/>
</bind>
</comp>

<comp id="96" class="1004" name="sct_addr_gep_fu_96">
<pin_list>
<pin id="97" dir="0" index="0" bw="32" slack="0"/>
<pin id="98" dir="0" index="1" bw="1" slack="0"/>
<pin id="99" dir="0" index="2" bw="5" slack="0"/>
<pin id="100" dir="1" index="3" bw="5" slack="0"/>
</pin_list>
<bind>
<opcode="getelementptr(29) " fcode="getelementptr"/>
<opset="sct_addr/3 "/>
</bind>
</comp>

<comp id="103" class="1004" name="grp_access_fu_103">
<pin_list>
<pin id="104" dir="0" index="0" bw="5" slack="0"/>
<pin id="105" dir="0" index="1" bw="32" slack="2147483647"/>
<pin id="106" dir="1" index="2" bw="32" slack="0"/>
</pin_list>
<bind>
<opcode="load(27) " fcode="load"/>
<opset="sct_load/3 "/>
</bind>
</comp>

<comp id="108" class="1004" name="tmp_real_addr_1_gep_fu_108">
<pin_list>
<pin id="109" dir="0" index="0" bw="32" slack="2147483647"/>
<pin id="110" dir="0" index="1" bw="1" slack="0"/>
<pin id="111" dir="0" index="2" bw="6" slack="0"/>
<pin id="112" dir="1" index="3" bw="5" slack="0"/>
</pin_list>
<bind>
<opcode="getelementptr(29) " fcode="getelementptr"/>
<opset="tmp_real_addr_1/19 "/>
</bind>
</comp>

<comp id="115" class="1004" name="tmp_imag_addr_1_gep_fu_115">
<pin_list>
<pin id="116" dir="0" index="0" bw="32" slack="2147483647"/>
<pin id="117" dir="0" index="1" bw="1" slack="0"/>
<pin id="118" dir="0" index="2" bw="6" slack="0"/>
<pin id="119" dir="1" index="3" bw="5" slack="0"/>
</pin_list>
<bind>
<opcode="getelementptr(29) " fcode="getelementptr"/>
<opset="tmp_imag_addr_1/19 "/>
</bind>
</comp>

<comp id="122" class="1004" name="real_i_addr_gep_fu_122">
<pin_list>
<pin id="123" dir="0" index="0" bw="32" slack="0"/>
<pin id="124" dir="0" index="1" bw="1" slack="0"/>
<pin id="125" dir="0" index="2" bw="6" slack="1"/>
<pin id="126" dir="1" index="3" bw="5" slack="0"/>
</pin_list>
<bind>
<opcode="getelementptr(29) " fcode="getelementptr"/>
<opset="real_i_addr/20 "/>
</bind>
</comp>

<comp id="131" class="1004" name="imag_i_addr_gep_fu_131">
<pin_list>
<pin id="132" dir="0" index="0" bw="32" slack="0"/>
<pin id="133" dir="0" index="1" bw="1" slack="0"/>
<pin id="134" dir="0" index="2" bw="6" slack="1"/>
<pin id="135" dir="1" index="3" bw="5" slack="0"/>
</pin_list>
<bind>
<opcode="getelementptr(29) " fcode="getelementptr"/>
<opset="imag_i_addr/20 "/>
</bind>
</comp>

<comp id="140" class="1005" name="i_reg_140">
<pin_list>
<pin id="141" dir="0" index="0" bw="6" slack="1"/>
<pin id="142" dir="1" index="1" bw="6" slack="1"/>
</pin_list>
<bind>
<opset="i (phireg) "/>
</bind>
</comp>

<comp id="144" class="1004" name="i_phi_fu_144">
<pin_list>
<pin id="145" dir="0" index="0" bw="1" slack="1"/>
<pin id="146" dir="0" index="1" bw="0" slack="2147483647"/>
<pin id="147" dir="0" index="2" bw="6" slack="0"/>
<pin id="148" dir="0" index="3" bw="0" slack="2147483647"/>
<pin id="149" dir="1" index="4" bw="6" slack="0"/>
</pin_list>
<bind>
<opcode="phi(47) " fcode="phi"/>
<opset="i/2 "/>
</bind>
</comp>

<comp id="151" class="1005" name="storemerge_reg_151">
<pin_list>
<pin id="152" dir="0" index="0" bw="32" slack="1"/>
<pin id="153" dir="1" index="1" bw="32" slack="1"/>
</pin_list>
<bind>
<opset="storemerge (phireg) "/>
</bind>
</comp>

<comp id="155" class="1004" name="storemerge_phi_fu_155">
<pin_list>
<pin id="156" dir="0" index="0" bw="32" slack="1"/>
<pin id="157" dir="0" index="1" bw="0" slack="2147483647"/>
<pin id="158" dir="0" index="2" bw="32" slack="1"/>
<pin id="159" dir="0" index="3" bw="0" slack="2147483647"/>
<pin id="160" dir="1" index="4" bw="32" slack="0"/>
</pin_list>
<bind>
<opcode="phi(47) " fcode="phi"/>
<opset="storemerge/3 "/>
</bind>
</comp>

<comp id="164" class="1005" name="tmp_2_reg_164">
<pin_list>
<pin id="165" dir="0" index="0" bw="32" slack="1"/>
<pin id="166" dir="1" index="1" bw="32" slack="1"/>
</pin_list>
<bind>
<opset="tmp_2 (phireg) "/>
</bind>
</comp>

<comp id="168" class="1004" name="tmp_2_phi_fu_168">
<pin_list>
<pin id="169" dir="0" index="0" bw="32" slack="1"/>
<pin id="170" dir="0" index="1" bw="0" slack="2147483647"/>
<pin id="171" dir="0" index="2" bw="32" slack="1"/>
<pin id="172" dir="0" index="3" bw="0" slack="2147483647"/>
<pin id="173" dir="1" index="4" bw="32" slack="10"/>
</pin_list>
<bind>
<opcode="phi(47) " fcode="phi"/>
<opset="tmp_2/3 "/>
</bind>
</comp>

<comp id="176" class="1005" name="j_reg_176">
<pin_list>
<pin id="177" dir="0" index="0" bw="6" slack="1"/>
<pin id="178" dir="1" index="1" bw="6" slack="1"/>
</pin_list>
<bind>
<opset="j (phireg) "/>
</bind>
</comp>

<comp id="180" class="1004" name="j_phi_fu_180">
<pin_list>
<pin id="181" dir="0" index="0" bw="1" slack="1"/>
<pin id="182" dir="0" index="1" bw="0" slack="2147483647"/>
<pin id="183" dir="0" index="2" bw="6" slack="0"/>
<pin id="184" dir="0" index="3" bw="0" slack="2147483647"/>
<pin id="185" dir="1" index="4" bw="6" slack="0"/>
</pin_list>
<bind>
<opcode="phi(47) " fcode="phi"/>
<opset="j/3 "/>
</bind>
</comp>

<comp id="187" class="1005" name="i1_reg_187">
<pin_list>
<pin id="188" dir="0" index="0" bw="6" slack="1"/>
<pin id="189" dir="1" index="1" bw="6" slack="1"/>
</pin_list>
<bind>
<opset="i1 (phireg) "/>
</bind>
</comp>

<comp id="191" class="1004" name="i1_phi_fu_191">
<pin_list>
<pin id="192" dir="0" index="0" bw="6" slack="0"/>
<pin id="193" dir="0" index="1" bw="0" slack="2147483647"/>
<pin id="194" dir="0" index="2" bw="1" slack="1"/>
<pin id="195" dir="0" index="3" bw="0" slack="2147483647"/>
<pin id="196" dir="1" index="4" bw="6" slack="0"/>
</pin_list>
<bind>
<opcode="phi(47) " fcode="phi"/>
<opset="i1/19 "/>
</bind>
</comp>

<comp id="198" class="1004" name="grp_fu_198">
<pin_list>
<pin id="199" dir="0" index="0" bw="32" slack="1"/>
<pin id="200" dir="0" index="1" bw="32" slack="1"/>
<pin id="201" dir="1" index="2" bw="32" slack="1"/>
</pin_list>
<bind>
<opcode="fadd(9) fsub(11) " fcode="fadd"/>
<opset="tmp_4/8 tmp_5/13 "/>
</bind>
</comp>

<comp id="202" class="1004" name="grp_fu_202">
<pin_list>
<pin id="203" dir="0" index="0" bw="32" slack="1"/>
<pin id="204" dir="0" index="1" bw="32" slack="1"/>
<pin id="205" dir="1" index="2" bw="32" slack="1"/>
</pin_list>
<bind>
<opcode="fadd(9) " fcode="fadd"/>
<opset="tmp_11/8 tmp_12/13 "/>
</bind>
</comp>

<comp id="208" class="1004" name="grp_fu_208">
<pin_list>
<pin id="209" dir="0" index="0" bw="32" slack="0"/>
<pin id="210" dir="0" index="1" bw="32" slack="0"/>
<pin id="211" dir="1" index="2" bw="32" slack="1"/>
</pin_list>
<bind>
<opcode="fmul(13) " fcode="fmul"/>
<opset="tmp_9/4 "/>
</bind>
</comp>

<comp id="214" class="1004" name="grp_fu_214">
<pin_list>
<pin id="215" dir="0" index="0" bw="32" slack="0"/>
<pin id="216" dir="0" index="1" bw="32" slack="0"/>
<pin id="217" dir="1" index="2" bw="32" slack="1"/>
</pin_list>
<bind>
<opcode="fmul(13) " fcode="fmul"/>
<opset="tmp_s/4 "/>
</bind>
</comp>

<comp id="220" class="1004" name="grp_fu_220">
<pin_list>
<pin id="221" dir="0" index="0" bw="32" slack="0"/>
<pin id="222" dir="0" index="1" bw="32" slack="0"/>
<pin id="223" dir="1" index="2" bw="32" slack="1"/>
</pin_list>
<bind>
<opcode="fmul(13) " fcode="fmul"/>
<opset="tmp_6/4 "/>
</bind>
</comp>

<comp id="226" class="1004" name="grp_fu_226">
<pin_list>
<pin id="227" dir="0" index="0" bw="32" slack="0"/>
<pin id="228" dir="0" index="1" bw="32" slack="0"/>
<pin id="229" dir="1" index="2" bw="32" slack="1"/>
</pin_list>
<bind>
<opcode="fmul(13) " fcode="fmul"/>
<opset="tmp_10/4 "/>
</bind>
</comp>

<comp id="232" class="1005" name="reg_232">
<pin_list>
<pin id="233" dir="0" index="0" bw="32" slack="1"/>
<pin id="234" dir="1" index="1" bw="32" slack="1"/>
</pin_list>
<bind>
<opset="tmp_4 tmp_5 "/>
</bind>
</comp>

<comp id="239" class="1005" name="reg_239">
<pin_list>
<pin id="240" dir="0" index="0" bw="32" slack="1"/>
<pin id="241" dir="1" index="1" bw="32" slack="1"/>
</pin_list>
<bind>
<opset="tmp_11 tmp_12 "/>
</bind>
</comp>

<comp id="245" class="1004" name="tmp_1_fu_245">
<pin_list>
<pin id="246" dir="0" index="0" bw="6" slack="0"/>
<pin id="247" dir="1" index="1" bw="5" slack="1"/>
</pin_list>
<bind>
<opcode="trunc(33) " fcode="trunc"/>
<opset="tmp_1/2 "/>
</bind>
</comp>

<comp id="249" class="1004" name="exitcond2_fu_249">
<pin_list>
<pin id="250" dir="0" index="0" bw="6" slack="0"/>
<pin id="251" dir="0" index="1" bw="6" slack="0"/>
<pin id="252" dir="1" index="2" bw="1" slack="2147483647"/>
</pin_list>
<bind>
<opcode="icmp(45) " fcode="icmp"/>
<opset="exitcond2/2 "/>
</bind>
</comp>

<comp id="255" class="1004" name="i_2_fu_255">
<pin_list>
<pin id="256" dir="0" index="0" bw="1" slack="0"/>
<pin id="257" dir="0" index="1" bw="6" slack="0"/>
<pin id="258" dir="1" index="2" bw="6" slack="0"/>
</pin_list>
<bind>
<opcode="add(8) " fcode="add"/>
<opset="i_2/2 "/>
</bind>
</comp>

<comp id="261" class="1004" name="tmp_fu_261">
<pin_list>
<pin id="262" dir="0" index="0" bw="6" slack="0"/>
<pin id="263" dir="1" index="1" bw="64" slack="0"/>
</pin_list>
<bind>
<opcode="zext(34) " fcode="zext"/>
<opset="tmp/2 "/>
</bind>
</comp>

<comp id="267" class="1004" name="tmp_13_fu_267">
<pin_list>
<pin id="268" dir="0" index="0" bw="6" slack="0"/>
<pin id="269" dir="1" index="1" bw="5" slack="0"/>
</pin_list>
<bind>
<opcode="trunc(33) " fcode="trunc"/>
<opset="tmp_13/3 "/>
</bind>
</comp>

<comp id="271" class="1004" name="exitcond1_fu_271">
<pin_list>
<pin id="272" dir="0" index="0" bw="6" slack="0"/>
<pin id="273" dir="0" index="1" bw="6" slack="0"/>
<pin id="274" dir="1" index="2" bw="1" slack="2147483647"/>
</pin_list>
<bind>
<opcode="icmp(45) " fcode="icmp"/>
<opset="exitcond1/3 "/>
</bind>
</comp>

<comp id="277" class="1004" name="j_1_fu_277">
<pin_list>
<pin id="278" dir="0" index="0" bw="1" slack="0"/>
<pin id="279" dir="0" index="1" bw="6" slack="0"/>
<pin id="280" dir="1" index="2" bw="6" slack="0"/>
</pin_list>
<bind>
<opcode="add(8) " fcode="add"/>
<opset="j_1/3 "/>
</bind>
</comp>

<comp id="283" class="1004" name="index_fu_283">
<pin_list>
<pin id="284" dir="0" index="0" bw="5" slack="1"/>
<pin id="285" dir="0" index="1" bw="5" slack="0"/>
<pin id="286" dir="1" index="2" bw="5" slack="0"/>
</pin_list>
<bind>
<opcode="mul(12) " fcode="mul"/>
<opset="index/3 "/>
</bind>
</comp>

<comp id="288" class="1004" name="tmp_7_fu_288">
<pin_list>
<pin id="289" dir="0" index="0" bw="6" slack="0"/>
<pin id="290" dir="1" index="1" bw="64" slack="0"/>
</pin_list>
<bind>
<opcode="zext(34) " fcode="zext"/>
<opset="tmp_7/3 "/>
</bind>
</comp>

<comp id="294" class="1004" name="tmp_8_fu_294">
<pin_list>
<pin id="295" dir="0" index="0" bw="5" slack="0"/>
<pin id="296" dir="1" index="1" bw="64" slack="0"/>
</pin_list>
<bind>
<opcode="zext(34) " fcode="zext"/>
<opset="tmp_8/3 "/>
</bind>
</comp>

<comp id="300" class="1004" name="exitcond_fu_300">
<pin_list>
<pin id="301" dir="0" index="0" bw="6" slack="0"/>
<pin id="302" dir="0" index="1" bw="6" slack="0"/>
<pin id="303" dir="1" index="2" bw="1" slack="2147483647"/>
</pin_list>
<bind>
<opcode="icmp(45) " fcode="icmp"/>
<opset="exitcond/19 "/>
</bind>
</comp>

<comp id="306" class="1004" name="i_1_fu_306">
<pin_list>
<pin id="307" dir="0" index="0" bw="6" slack="0"/>
<pin id="308" dir="0" index="1" bw="1" slack="0"/>
<pin id="309" dir="1" index="2" bw="6" slack="0"/>
</pin_list>
<bind>
<opcode="add(8) " fcode="add"/>
<opset="i_1/19 "/>
</bind>
</comp>

<comp id="312" class="1004" name="tmp_3_fu_312">
<pin_list>
<pin id="313" dir="0" index="0" bw="6" slack="0"/>
<pin id="314" dir="1" index="1" bw="64" slack="0"/>
</pin_list>
<bind>
<opcode="zext(34) " fcode="zext"/>
<opset="tmp_3/19 "/>
</bind>
</comp>

<comp id="318" class="1005" name="tmp_1_reg_318">
<pin_list>
<pin id="319" dir="0" index="0" bw="5" slack="1"/>
<pin id="320" dir="1" index="1" bw="5" slack="1"/>
</pin_list>
<bind>
<opset="tmp_1 "/>
</bind>
</comp>

<comp id="326" class="1005" name="i_2_reg_326">
<pin_list>
<pin id="327" dir="0" index="0" bw="6" slack="0"/>
<pin id="328" dir="1" index="1" bw="6" slack="0"/>
</pin_list>
<bind>
<opset="i_2 "/>
</bind>
</comp>

<comp id="331" class="1005" name="tmp_real_addr_reg_331">
<pin_list>
<pin id="332" dir="0" index="0" bw="5" slack="16"/>
<pin id="333" dir="1" index="1" bw="5" slack="16"/>
</pin_list>
<bind>
<opset="tmp_real_addr "/>
</bind>
</comp>

<comp id="336" class="1005" name="tmp_imag_addr_reg_336">
<pin_list>
<pin id="337" dir="0" index="0" bw="5" slack="1"/>
<pin id="338" dir="1" index="1" bw="5" slack="1"/>
</pin_list>
<bind>
<opset="tmp_imag_addr "/>
</bind>
</comp>

<comp id="344" class="1005" name="j_1_reg_344">
<pin_list>
<pin id="345" dir="0" index="0" bw="6" slack="0"/>
<pin id="346" dir="1" index="1" bw="6" slack="0"/>
</pin_list>
<bind>
<opset="j_1 "/>
</bind>
</comp>

<comp id="349" class="1005" name="real_i_addr_1_reg_349">
<pin_list>
<pin id="350" dir="0" index="0" bw="5" slack="1"/>
<pin id="351" dir="1" index="1" bw="5" slack="1"/>
</pin_list>
<bind>
<opset="real_i_addr_1 "/>
</bind>
</comp>

<comp id="354" class="1005" name="cct_addr_reg_354">
<pin_list>
<pin id="355" dir="0" index="0" bw="5" slack="1"/>
<pin id="356" dir="1" index="1" bw="5" slack="1"/>
</pin_list>
<bind>
<opset="cct_addr "/>
</bind>
</comp>

<comp id="359" class="1005" name="imag_i_addr_1_reg_359">
<pin_list>
<pin id="360" dir="0" index="0" bw="5" slack="1"/>
<pin id="361" dir="1" index="1" bw="5" slack="1"/>
</pin_list>
<bind>
<opset="imag_i_addr_1 "/>
</bind>
</comp>

<comp id="364" class="1005" name="sct_addr_reg_364">
<pin_list>
<pin id="365" dir="0" index="0" bw="5" slack="1"/>
<pin id="366" dir="1" index="1" bw="5" slack="1"/>
</pin_list>
<bind>
<opset="sct_addr "/>
</bind>
</comp>

<comp id="369" class="1005" name="real_i_load_reg_369">
<pin_list>
<pin id="370" dir="0" index="0" bw="32" slack="1"/>
<pin id="371" dir="1" index="1" bw="32" slack="1"/>
</pin_list>
<bind>
<opset="real_i_load "/>
</bind>
</comp>

<comp id="375" class="1005" name="cct_load_reg_375">
<pin_list>
<pin id="376" dir="0" index="0" bw="32" slack="1"/>
<pin id="377" dir="1" index="1" bw="32" slack="1"/>
</pin_list>
<bind>
<opset="cct_load "/>
</bind>
</comp>

<comp id="381" class="1005" name="imag_i_load_reg_381">
<pin_list>
<pin id="382" dir="0" index="0" bw="32" slack="1"/>
<pin id="383" dir="1" index="1" bw="32" slack="1"/>
</pin_list>
<bind>
<opset="imag_i_load "/>
</bind>
</comp>

<comp id="387" class="1005" name="sct_load_reg_387">
<pin_list>
<pin id="388" dir="0" index="0" bw="32" slack="1"/>
<pin id="389" dir="1" index="1" bw="32" slack="1"/>
</pin_list>
<bind>
<opset="sct_load "/>
</bind>
</comp>

<comp id="393" class="1005" name="tmp_9_reg_393">
<pin_list>
<pin id="394" dir="0" index="0" bw="32" slack="1"/>
<pin id="395" dir="1" index="1" bw="32" slack="1"/>
</pin_list>
<bind>
<opset="tmp_9 "/>
</bind>
</comp>

<comp id="398" class="1005" name="tmp_s_reg_398">
<pin_list>
<pin id="399" dir="0" index="0" bw="32" slack="1"/>
<pin id="400" dir="1" index="1" bw="32" slack="1"/>
</pin_list>
<bind>
<opset="tmp_s "/>
</bind>
</comp>

<comp id="403" class="1005" name="tmp_6_reg_403">
<pin_list>
<pin id="404" dir="0" index="0" bw="32" slack="1"/>
<pin id="405" dir="1" index="1" bw="32" slack="1"/>
</pin_list>
<bind>
<opset="tmp_6 "/>
</bind>
</comp>

<comp id="408" class="1005" name="tmp_10_reg_408">
<pin_list>
<pin id="409" dir="0" index="0" bw="32" slack="1"/>
<pin id="410" dir="1" index="1" bw="32" slack="1"/>
</pin_list>
<bind>
<opset="tmp_10 "/>
</bind>
</comp>

<comp id="416" class="1005" name="i_1_reg_416">
<pin_list>
<pin id="417" dir="0" index="0" bw="6" slack="0"/>
<pin id="418" dir="1" index="1" bw="6" slack="0"/>
</pin_list>
<bind>
<opset="i_1 "/>
</bind>
</comp>

<comp id="421" class="1005" name="tmp_3_reg_421">
<pin_list>
<pin id="422" dir="0" index="0" bw="64" slack="1"/>
<pin id="423" dir="1" index="1" bw="64" slack="1"/>
</pin_list>
<bind>
<opset="tmp_3 "/>
</bind>
</comp>

<comp id="427" class="1005" name="tmp_real_addr_1_reg_427">
<pin_list>
<pin id="428" dir="0" index="0" bw="5" slack="1"/>
<pin id="429" dir="1" index="1" bw="5" slack="1"/>
</pin_list>
<bind>
<opset="tmp_real_addr_1 "/>
</bind>
</comp>

<comp id="432" class="1005" name="tmp_imag_addr_1_reg_432">
<pin_list>
<pin id="433" dir="0" index="0" bw="5" slack="1"/>
<pin id="434" dir="1" index="1" bw="5" slack="1"/>
</pin_list>
<bind>
<opset="tmp_imag_addr_1 "/>
</bind>
</comp>

</comp_list>

<net_list>
<net id="33"><net_src comp="14" pin="0"/><net_sink comp="30" pin=0"/></net>

<net id="37"><net_src comp="14" pin="0"/><net_sink comp="34" pin=0"/></net>

<net id="43"><net_src comp="26" pin="0"/><net_sink comp="38" pin=1"/></net>

<net id="48"><net_src comp="28" pin="0"/><net_sink comp="44" pin=1"/></net>

<net id="49"><net_src comp="38" pin="3"/><net_sink comp="44" pin=0"/></net>

<net id="55"><net_src comp="26" pin="0"/><net_sink comp="50" pin=1"/></net>

<net id="65"><net_src comp="0" pin="0"/><net_sink comp="60" pin=0"/></net>

<net id="66"><net_src comp="26" pin="0"/><net_sink comp="60" pin=1"/></net>

<net id="71"><net_src comp="60" pin="3"/><net_sink comp="67" pin=0"/></net>

<net id="77"><net_src comp="4" pin="0"/><net_sink comp="72" pin=0"/></net>

<net id="78"><net_src comp="26" pin="0"/><net_sink comp="72" pin=1"/></net>

<net id="83"><net_src comp="72" pin="3"/><net_sink comp="79" pin=0"/></net>

<net id="89"><net_src comp="2" pin="0"/><net_sink comp="84" pin=0"/></net>

<net id="90"><net_src comp="26" pin="0"/><net_sink comp="84" pin=1"/></net>

<net id="95"><net_src comp="84" pin="3"/><net_sink comp="91" pin=0"/></net>

<net id="101"><net_src comp="6" pin="0"/><net_sink comp="96" pin=0"/></net>

<net id="102"><net_src comp="26" pin="0"/><net_sink comp="96" pin=1"/></net>

<net id="107"><net_src comp="96" pin="3"/><net_sink comp="103" pin=0"/></net>

<net id="113"><net_src comp="26" pin="0"/><net_sink comp="108" pin=1"/></net>

<net id="114"><net_src comp="108" pin="3"/><net_sink comp="44" pin=0"/></net>

<net id="120"><net_src comp="26" pin="0"/><net_sink comp="115" pin=1"/></net>

<net id="121"><net_src comp="115" pin="3"/><net_sink comp="56" pin=0"/></net>

<net id="127"><net_src comp="0" pin="0"/><net_sink comp="122" pin=0"/></net>

<net id="128"><net_src comp="26" pin="0"/><net_sink comp="122" pin=1"/></net>

<net id="129"><net_src comp="44" pin="2"/><net_sink comp="67" pin=1"/></net>

<net id="130"><net_src comp="122" pin="3"/><net_sink comp="67" pin=0"/></net>

<net id="136"><net_src comp="2" pin="0"/><net_sink comp="131" pin=0"/></net>

<net id="137"><net_src comp="26" pin="0"/><net_sink comp="131" pin=1"/></net>

<net id="138"><net_src comp="56" pin="2"/><net_sink comp="91" pin=1"/></net>

<net id="139"><net_src comp="131" pin="3"/><net_sink comp="91" pin=0"/></net>

<net id="143"><net_src comp="16" pin="0"/><net_sink comp="140" pin=0"/></net>

<net id="150"><net_src comp="140" pin="1"/><net_sink comp="144" pin=0"/></net>

<net id="154"><net_src comp="28" pin="0"/><net_sink comp="151" pin=0"/></net>

<net id="161"><net_src comp="151" pin="1"/><net_sink comp="155" pin=0"/></net>

<net id="162"><net_src comp="155" pin="4"/><net_sink comp="56" pin=1"/></net>

<net id="163"><net_src comp="155" pin="4"/><net_sink comp="151" pin=0"/></net>

<net id="167"><net_src comp="28" pin="0"/><net_sink comp="164" pin=0"/></net>

<net id="174"><net_src comp="164" pin="1"/><net_sink comp="168" pin=0"/></net>

<net id="175"><net_src comp="168" pin="4"/><net_sink comp="164" pin=0"/></net>

<net id="179"><net_src comp="16" pin="0"/><net_sink comp="176" pin=0"/></net>

<net id="186"><net_src comp="176" pin="1"/><net_sink comp="180" pin=0"/></net>

<net id="190"><net_src comp="16" pin="0"/><net_sink comp="187" pin=0"/></net>

<net id="197"><net_src comp="187" pin="1"/><net_sink comp="191" pin=2"/></net>

<net id="206"><net_src comp="164" pin="1"/><net_sink comp="198" pin=0"/></net>

<net id="207"><net_src comp="151" pin="1"/><net_sink comp="202" pin=0"/></net>

<net id="212"><net_src comp="67" pin="2"/><net_sink comp="208" pin=0"/></net>

<net id="213"><net_src comp="79" pin="2"/><net_sink comp="208" pin=1"/></net>

<net id="218"><net_src comp="91" pin="2"/><net_sink comp="214" pin=0"/></net>

<net id="219"><net_src comp="103" pin="2"/><net_sink comp="214" pin=1"/></net>

<net id="224"><net_src comp="67" pin="2"/><net_sink comp="220" pin=0"/></net>

<net id="225"><net_src comp="103" pin="2"/><net_sink comp="220" pin=1"/></net>

<net id="230"><net_src comp="91" pin="2"/><net_sink comp="226" pin=0"/></net>

<net id="231"><net_src comp="79" pin="2"/><net_sink comp="226" pin=1"/></net>

<net id="235"><net_src comp="198" pin="2"/><net_sink comp="232" pin=0"/></net>

<net id="236"><net_src comp="232" pin="1"/><net_sink comp="198" pin=1"/></net>

<net id="237"><net_src comp="232" pin="1"/><net_sink comp="168" pin=2"/></net>

<net id="238"><net_src comp="232" pin="1"/><net_sink comp="44" pin=1"/></net>

<net id="242"><net_src comp="202" pin="2"/><net_sink comp="239" pin=0"/></net>

<net id="243"><net_src comp="239" pin="1"/><net_sink comp="202" pin=1"/></net>

<net id="244"><net_src comp="239" pin="1"/><net_sink comp="155" pin=2"/></net>

<net id="248"><net_src comp="144" pin="4"/><net_sink comp="245" pin=0"/></net>

<net id="253"><net_src comp="144" pin="4"/><net_sink comp="249" pin=0"/></net>

<net id="254"><net_src comp="18" pin="0"/><net_sink comp="249" pin=1"/></net>

<net id="259"><net_src comp="24" pin="0"/><net_sink comp="255" pin=0"/></net>

<net id="260"><net_src comp="144" pin="4"/><net_sink comp="255" pin=1"/></net>

<net id="264"><net_src comp="144" pin="4"/><net_sink comp="261" pin=0"/></net>

<net id="265"><net_src comp="261" pin="1"/><net_sink comp="38" pin=2"/></net>

<net id="266"><net_src comp="261" pin="1"/><net_sink comp="50" pin=2"/></net>

<net id="270"><net_src comp="180" pin="4"/><net_sink comp="267" pin=0"/></net>

<net id="275"><net_src comp="180" pin="4"/><net_sink comp="271" pin=0"/></net>

<net id="276"><net_src comp="18" pin="0"/><net_sink comp="271" pin=1"/></net>

<net id="281"><net_src comp="24" pin="0"/><net_sink comp="277" pin=0"/></net>

<net id="282"><net_src comp="180" pin="4"/><net_sink comp="277" pin=1"/></net>

<net id="287"><net_src comp="267" pin="1"/><net_sink comp="283" pin=1"/></net>

<net id="291"><net_src comp="180" pin="4"/><net_sink comp="288" pin=0"/></net>

<net id="292"><net_src comp="288" pin="1"/><net_sink comp="60" pin=2"/></net>

<net id="293"><net_src comp="288" pin="1"/><net_sink comp="84" pin=2"/></net>

<net id="297"><net_src comp="283" pin="2"/><net_sink comp="294" pin=0"/></net>

<net id="298"><net_src comp="294" pin="1"/><net_sink comp="72" pin=2"/></net>

<net id="299"><net_src comp="294" pin="1"/><net_sink comp="96" pin=2"/></net>

<net id="304"><net_src comp="191" pin="4"/><net_sink comp="300" pin=0"/></net>

<net id="305"><net_src comp="18" pin="0"/><net_sink comp="300" pin=1"/></net>

<net id="310"><net_src comp="191" pin="4"/><net_sink comp="306" pin=0"/></net>

<net id="311"><net_src comp="24" pin="0"/><net_sink comp="306" pin=1"/></net>

<net id="315"><net_src comp="191" pin="4"/><net_sink comp="312" pin=0"/></net>

<net id="316"><net_src comp="312" pin="1"/><net_sink comp="108" pin=2"/></net>

<net id="317"><net_src comp="312" pin="1"/><net_sink comp="115" pin=2"/></net>

<net id="321"><net_src comp="245" pin="1"/><net_sink comp="318" pin=0"/></net>

<net id="322"><net_src comp="318" pin="1"/><net_sink comp="283" pin=0"/></net>

<net id="329"><net_src comp="255" pin="2"/><net_sink comp="326" pin=0"/></net>

<net id="330"><net_src comp="326" pin="1"/><net_sink comp="144" pin=2"/></net>

<net id="334"><net_src comp="38" pin="3"/><net_sink comp="331" pin=0"/></net>

<net id="335"><net_src comp="331" pin="1"/><net_sink comp="44" pin=0"/></net>

<net id="339"><net_src comp="50" pin="3"/><net_sink comp="336" pin=0"/></net>

<net id="340"><net_src comp="336" pin="1"/><net_sink comp="56" pin=0"/></net>

<net id="347"><net_src comp="277" pin="2"/><net_sink comp="344" pin=0"/></net>

<net id="348"><net_src comp="344" pin="1"/><net_sink comp="180" pin=2"/></net>

<net id="352"><net_src comp="60" pin="3"/><net_sink comp="349" pin=0"/></net>

<net id="353"><net_src comp="349" pin="1"/><net_sink comp="67" pin=0"/></net>

<net id="357"><net_src comp="72" pin="3"/><net_sink comp="354" pin=0"/></net>

<net id="358"><net_src comp="354" pin="1"/><net_sink comp="79" pin=0"/></net>

<net id="362"><net_src comp="84" pin="3"/><net_sink comp="359" pin=0"/></net>

<net id="363"><net_src comp="359" pin="1"/><net_sink comp="91" pin=0"/></net>

<net id="367"><net_src comp="96" pin="3"/><net_sink comp="364" pin=0"/></net>

<net id="368"><net_src comp="364" pin="1"/><net_sink comp="103" pin=0"/></net>

<net id="372"><net_src comp="67" pin="2"/><net_sink comp="369" pin=0"/></net>

<net id="373"><net_src comp="369" pin="1"/><net_sink comp="208" pin=0"/></net>

<net id="374"><net_src comp="369" pin="1"/><net_sink comp="220" pin=0"/></net>

<net id="378"><net_src comp="79" pin="2"/><net_sink comp="375" pin=0"/></net>

<net id="379"><net_src comp="375" pin="1"/><net_sink comp="208" pin=1"/></net>

<net id="380"><net_src comp="375" pin="1"/><net_sink comp="226" pin=1"/></net>

<net id="384"><net_src comp="91" pin="2"/><net_sink comp="381" pin=0"/></net>

<net id="385"><net_src comp="381" pin="1"/><net_sink comp="214" pin=0"/></net>

<net id="386"><net_src comp="381" pin="1"/><net_sink comp="226" pin=0"/></net>

<net id="390"><net_src comp="103" pin="2"/><net_sink comp="387" pin=0"/></net>

<net id="391"><net_src comp="387" pin="1"/><net_sink comp="214" pin=1"/></net>

<net id="392"><net_src comp="387" pin="1"/><net_sink comp="220" pin=1"/></net>

<net id="396"><net_src comp="208" pin="2"/><net_sink comp="393" pin=0"/></net>

<net id="397"><net_src comp="393" pin="1"/><net_sink comp="198" pin=0"/></net>

<net id="401"><net_src comp="214" pin="2"/><net_sink comp="398" pin=0"/></net>

<net id="402"><net_src comp="398" pin="1"/><net_sink comp="198" pin=1"/></net>

<net id="406"><net_src comp="220" pin="2"/><net_sink comp="403" pin=0"/></net>

<net id="407"><net_src comp="403" pin="1"/><net_sink comp="202" pin=0"/></net>

<net id="411"><net_src comp="226" pin="2"/><net_sink comp="408" pin=0"/></net>

<net id="412"><net_src comp="408" pin="1"/><net_sink comp="202" pin=1"/></net>

<net id="419"><net_src comp="306" pin="2"/><net_sink comp="416" pin=0"/></net>

<net id="420"><net_src comp="416" pin="1"/><net_sink comp="191" pin=0"/></net>

<net id="424"><net_src comp="312" pin="1"/><net_sink comp="421" pin=0"/></net>

<net id="425"><net_src comp="421" pin="1"/><net_sink comp="122" pin=2"/></net>

<net id="426"><net_src comp="421" pin="1"/><net_sink comp="131" pin=2"/></net>

<net id="430"><net_src comp="108" pin="3"/><net_sink comp="427" pin=0"/></net>

<net id="431"><net_src comp="427" pin="1"/><net_sink comp="44" pin=0"/></net>

<net id="435"><net_src comp="115" pin="3"/><net_sink comp="432" pin=0"/></net>

<net id="436"><net_src comp="432" pin="1"/><net_sink comp="56" pin=0"/></net>

</net_list>

</model> 
---------------- Datapath Model END ------------------

* FSMD analyzer results:
  - Output states:
  - Chain level:
	State 1
	State 2
		tmp_1 : 1
		exitcond2 : 1
		i_2 : 1
		stg_32 : 2
		tmp : 1
		tmp_real_addr : 2
		stg_35 : 3
		tmp_imag_addr : 2
	State 3
		stg_41 : 1
		tmp_13 : 1
		exitcond1 : 1
		j_1 : 1
		stg_46 : 2
		index : 2
		tmp_7 : 1
		real_i_addr_1 : 2
		real_i_load : 3
		tmp_8 : 3
		cct_addr : 4
		cct_load : 5
		imag_i_addr_1 : 2
		imag_i_load : 3
		sct_addr : 4
		sct_load : 5
	State 4
		tmp_9 : 1
		tmp_s : 1
		tmp_6 : 1
		tmp_10 : 1
	State 5
	State 6
	State 7
	State 8
	State 9
	State 10
	State 11
	State 12
	State 13
	State 14
	State 15
	State 16
	State 17
	State 18
	State 19
		exitcond : 1
		i_1 : 1
		stg_104 : 2
		tmp_3 : 1
		tmp_real_addr_1 : 2
		tmp_real_load : 3
		tmp_imag_addr_1 : 2
		tmp_imag_load : 3
	State 20
		stg_113 : 1
		stg_116 : 1


============================================================
+ Verbose Summary: Datapath Resource usage 
============================================================

* Functional unit list:
|----------|------------------|---------|---------|---------|
| Operation|  Functional Unit |  DSP48E |    FF   |   LUT   |
|----------|------------------|---------|---------|---------|
|          |    grp_fu_208    |    3    |   143   |   321   |
|   fmul   |    grp_fu_214    |    3    |   143   |   321   |
|          |    grp_fu_220    |    3    |   143   |   321   |
|          |    grp_fu_226    |    3    |   143   |   321   |
|----------|------------------|---------|---------|---------|
|   fadd   |    grp_fu_198    |    2    |   205   |   390   |
|          |    grp_fu_202    |    2    |   205   |   390   |
|----------|------------------|---------|---------|---------|
|          |    i_2_fu_255    |    0    |    0    |    6    |
|    add   |    j_1_fu_277    |    0    |    0    |    6    |
|          |    i_1_fu_306    |    0    |    0    |    6    |
|----------|------------------|---------|---------|---------|
|          | exitcond2_fu_249 |    0    |    0    |    3    |
|   icmp   | exitcond1_fu_271 |    0    |    0    |    3    |
|          |  exitcond_fu_300 |    0    |    0    |    3    |
|----------|------------------|---------|---------|---------|
|    mul   |   index_fu_283   |    1    |    0    |    5    |
|----------|------------------|---------|---------|---------|
|   trunc  |   tmp_1_fu_245   |    0    |    0    |    0    |
|          |   tmp_13_fu_267  |    0    |    0    |    0    |
|----------|------------------|---------|---------|---------|
|          |    tmp_fu_261    |    0    |    0    |    0    |
|   zext   |   tmp_7_fu_288   |    0    |    0    |    0    |
|          |   tmp_8_fu_294   |    0    |    0    |    0    |
|          |   tmp_3_fu_312   |    0    |    0    |    0    |
|----------|------------------|---------|---------|---------|
|   Total  |                  |    17   |   982   |   2096  |
|----------|------------------|---------|---------|---------|

Memories:
+--------+--------+--------+--------+
|        |  BRAM  |   FF   |   LUT  |
+--------+--------+--------+--------+
|   cct  |    1   |    0   |    0   |
|   sct  |    1   |    0   |    0   |
|tmp_imag|    1   |    0   |    0   |
|tmp_real|    1   |    0   |    0   |
+--------+--------+--------+--------+
|  Total |    4   |    0   |    0   |
+--------+--------+--------+--------+

* Register list:
+-----------------------+--------+
|                       |   FF   |
+-----------------------+--------+
|    cct_addr_reg_354   |    5   |
|    cct_load_reg_375   |   32   |
|       i1_reg_187      |    6   |
|      i_1_reg_416      |    6   |
|      i_2_reg_326      |    6   |
|       i_reg_140       |    6   |
| imag_i_addr_1_reg_359 |    5   |
|  imag_i_load_reg_381  |   32   |
|      j_1_reg_344      |    6   |
|       j_reg_176       |    6   |
| real_i_addr_1_reg_349 |    5   |
|  real_i_load_reg_369  |   32   |
|        reg_232        |   32   |
|        reg_239        |   32   |
|    sct_addr_reg_364   |    5   |
|    sct_load_reg_387   |   32   |
|   storemerge_reg_151  |   32   |
|     tmp_10_reg_408    |   32   |
|     tmp_1_reg_318     |    5   |
|     tmp_2_reg_164     |   32   |
|     tmp_3_reg_421     |   64   |
|     tmp_6_reg_403     |   32   |
|     tmp_9_reg_393     |   32   |
|tmp_imag_addr_1_reg_432|    5   |
| tmp_imag_addr_reg_336 |    5   |
|tmp_real_addr_1_reg_427|    5   |
| tmp_real_addr_reg_331 |    5   |
|     tmp_s_reg_398     |   32   |
+-----------------------+--------+
|         Total         |   529  |
+-----------------------+--------+

* Multiplexer (MUX) list: 
|--------------------|------|------|------|--------||---------||---------|
|        Comp        |  Pin | Size |  BW  | S x BW ||  Delay  ||   LUT   |
|--------------------|------|------|------|--------||---------||---------|
|  grp_access_fu_44  |  p0  |   4  |   5  |   20   ||    5    |
|  grp_access_fu_44  |  p1  |   2  |  32  |   64   ||    32   |
|  grp_access_fu_56  |  p0  |   3  |   5  |   15   ||    5    |
|  grp_access_fu_67  |  p0  |   3  |   5  |   15   ||    5    |
|  grp_access_fu_79  |  p0  |   2  |   5  |   10   ||    5    |
|  grp_access_fu_91  |  p0  |   3  |   5  |   15   ||    5    |
|  grp_access_fu_103 |  p0  |   2  |   5  |   10   ||    5    |
| storemerge_reg_151 |  p0  |   2  |  32  |   64   ||    32   |
|    tmp_2_reg_164   |  p0  |   2  |  32  |   64   ||    32   |
|     grp_fu_198     |  p0  |   2  |  32  |   64   ||    32   |
|     grp_fu_198     |  p1  |   2  |  32  |   64   ||    32   |
|     grp_fu_202     |  p0  |   2  |  32  |   64   ||    32   |
|     grp_fu_202     |  p1  |   2  |  32  |   64   ||    32   |
|     grp_fu_208     |  p0  |   2  |  32  |   64   ||    32   |
|     grp_fu_208     |  p1  |   2  |  32  |   64   ||    32   |
|     grp_fu_214     |  p0  |   2  |  32  |   64   ||    32   |
|     grp_fu_214     |  p1  |   2  |  32  |   64   ||    32   |
|     grp_fu_220     |  p0  |   2  |  32  |   64   ||    32   |
|     grp_fu_220     |  p1  |   2  |  32  |   64   ||    32   |
|     grp_fu_226     |  p0  |   2  |  32  |   64   ||    32   |
|     grp_fu_226     |  p1  |   2  |  32  |   64   ||    32   |
|--------------------|------|------|------|--------||---------||---------|
|        Total       |      |      |      |  1045  ||  32.991 ||   510   |
|--------------------|------|------|------|--------||---------||---------|



* Summary:
+-----------+--------+--------+--------+--------+--------+
|           |  BRAM  | DSP48E |  Delay |   FF   |   LUT  |
+-----------+--------+--------+--------+--------+--------+
|  Function |    -   |   17   |    -   |   982  |  2096  |
|   Memory  |    4   |    -   |    -   |    0   |    0   |
|Multiplexer|    -   |    -   |   32   |    -   |   510  |
|  Register |    -   |    -   |    -   |   529  |    -   |
+-----------+--------+--------+--------+--------+--------+
|   Total   |    4   |   17   |   32   |  1511  |  2606  |
+-----------+--------+--------+--------+--------+--------+
