

================================================================
== Vivado HLS Report for 'cordiccart2pol'
================================================================
* Date:           Wed Oct 19 15:08:37 2016

* Version:        2015.4 (Build 1412921 on Wed Nov 18 09:58:55 AM 2015)
* Project:        cordic
* Solution:       cordic_optimized2
* Product family: zynq
* Target device:  xc7z020clg484-1


================================================================
== Performance Estimates
================================================================
+ Timing (ns): 
    * Summary: 
    +--------+-------+----------+------------+
    |  Clock | Target| Estimated| Uncertainty|
    +--------+-------+----------+------------+
    |ap_clk  |  10.00|      8.47|        1.25|
    +--------+-------+----------+------------+

+ Latency (clock cycles): 
    * Summary: 
    +-----+-----+-----+-----+---------+
    |  Latency  |  Interval | Pipeline|
    | min | max | min | max |   Type  |
    +-----+-----+-----+-----+---------+
    |   34|   34|   35|   35|   none  |
    +-----+-----+-----+-----+---------+

    + Detail: 
        * Instance: 
        N/A

        * Loop: 
        +----------+-----+-----+----------+-----------+-----------+------+----------+
        |          |  Latency  | Iteration|  Initiation Interval  | Trip |          |
        | Loop Name| min | max |  Latency |  achieved |   target  | Count| Pipelined|
        +----------+-----+-----+----------+-----------+-----------+------+----------+
        |- Loop 1  |   32|   32|         2|          -|          -|    16|    no    |
        +----------+-----+-----+----------+-----------+-----------+------+----------+

============================================================
+ Verbose Summary: Synthesis Manager
============================================================
InlineROM: 1
ExposeGlobal: 0
============================================================
+ Verbose Summary: CDFG Model
============================================================
IsTopModel: 1
ResetActiveHigh: 1
IsCombinational: 0
IsDatapathOnly: 0
HasWiredReturn: 1
HasMFsm: 0
HasVarLatency: 1
IsPipeline: 0
IsRtlPipelined: 0
IsInstanceOverlapped: 0
IsDontTouch: 0
HasImplIP: 0
IsGatedGlobalClock: 0


============================================================
+ Verbose Summary: Schedule
============================================================
* Number of FSM states: 4
* Pipeline: 0
* Dataflow Pipeline: 0

* FSM state transitions: 
1 --> 
	2  / true
2 --> 
	3  / true
3 --> 
	4  / (!exitcond)
4 --> 
	3  / true
* FSM state operations: 

 <State 1>: 2.34ns
ST_1: y_V_read [1/1] 0.00ns
_ifconv1:5  %y_V_read = call i20 @_ssdm_op_Read.ap_auto.i20(i20 %y_V)

ST_1: tmp_1_i [1/1] 2.34ns
_ifconv1:8  %tmp_1_i = icmp sgt i20 %y_V_read, 0


 <State 2>: 8.47ns
ST_2: stg_7 [1/1] 0.00ns
_ifconv1:0  call void (...)* @_ssdm_op_SpecBitsMap(i20 %x_V), !map !7

ST_2: stg_8 [1/1] 0.00ns
_ifconv1:1  call void (...)* @_ssdm_op_SpecBitsMap(i20 %y_V), !map !13

ST_2: stg_9 [1/1] 0.00ns
_ifconv1:2  call void (...)* @_ssdm_op_SpecBitsMap(i20* %r_V), !map !17

ST_2: stg_10 [1/1] 0.00ns
_ifconv1:3  call void (...)* @_ssdm_op_SpecBitsMap(i20* %theta_V), !map !21

ST_2: stg_11 [1/1] 0.00ns
_ifconv1:4  call void (...)* @_ssdm_op_SpecTopModule([15 x i8]* @cordiccart2pol_str) nounwind

ST_2: x_V_read [1/1] 0.00ns
_ifconv1:6  %x_V_read = call i20 @_ssdm_op_Read.ap_auto.i20(i20 %x_V)

ST_2: tmp [1/1] 0.00ns
_ifconv1:7  %tmp = call i1 @_ssdm_op_BitSelect.i1.i20.i32(i20 %x_V_read, i32 19)

ST_2: or_cond_i [1/1] 1.37ns
_ifconv1:9  %or_cond_i = and i1 %tmp, %tmp_1_i

ST_2: p_Val2_1_i [1/1] 2.08ns
_ifconv1:10  %p_Val2_1_i = sub i20 0, %x_V_read

ST_2: p_Val2_12_cast_cast [1/1] 1.37ns
_ifconv1:11  %p_Val2_12_cast_cast = select i1 %or_cond_i, i15 12867, i15 0

ST_2: p_read2_read1_i [1/1] 1.37ns
_ifconv1:12  %p_read2_read1_i = select i1 %or_cond_i, i20 %y_V_read, i20 %x_V_read

ST_2: p_Val2_1 [1/1] 1.37ns
_ifconv1:13  %p_Val2_1 = select i1 %or_cond_i, i20 %p_Val2_1_i, i20 %y_V_read

ST_2: tmp_2_i [1/1] 1.37ns
_ifconv1:14  %tmp_2_i = and i20 %p_read2_read1_i, %p_Val2_1

ST_2: tmp_1 [1/1] 0.00ns
_ifconv1:15  %tmp_1 = call i1 @_ssdm_op_BitSelect.i1.i20.i32(i20 %tmp_2_i, i32 19)

ST_2: p_Val2_5_i [1/1] 2.08ns
_ifconv1:16  %p_Val2_5_i = sub i20 0, %p_Val2_1

ST_2: p_Val2_7_i [1/1] 1.37ns
_ifconv1:17  %p_Val2_7_i = select i1 %or_cond_i, i15 0, i15 -12867

ST_2: p_Val2_7_ph [1/1] 1.37ns
_ifconv1:18  %p_Val2_7_ph = select i1 %tmp_1, i15 %p_Val2_7_i, i15 %p_Val2_12_cast_cast

ST_2: p_Val2_7_ph_cast [1/1] 0.00ns
_ifconv1:19  %p_Val2_7_ph_cast = sext i15 %p_Val2_7_ph to i20

ST_2: p_Val2_5_ph [1/1] 1.37ns
_ifconv1:20  %p_Val2_5_ph = select i1 %tmp_1, i20 %x_V_read, i20 %p_Val2_1

ST_2: p_Val2_3_ph [1/1] 1.37ns
_ifconv1:21  %p_Val2_3_ph = select i1 %tmp_1, i20 %p_Val2_5_i, i20 %p_read2_read1_i

ST_2: stg_27 [1/1] 1.57ns
_ifconv1:22  br label %correctQuadrant.exit


 <State 3>: 6.38ns
ST_3: p_Val2_6 [1/1] 0.00ns
correctQuadrant.exit:0  %p_Val2_6 = phi i20 [ %curr_T_V, %_ifconv ], [ %p_Val2_7_ph_cast, %_ifconv1 ]

ST_3: p_Val2_4 [1/1] 0.00ns
correctQuadrant.exit:1  %p_Val2_4 = phi i20 [ %curr_Q_V_1, %_ifconv ], [ %p_Val2_5_ph, %_ifconv1 ]

ST_3: p_Val2_2 [1/1] 0.00ns
correctQuadrant.exit:2  %p_Val2_2 = phi i20 [ %curr_I_V_1, %_ifconv ], [ %p_Val2_3_ph, %_ifconv1 ]

ST_3: p_s [1/1] 0.00ns
correctQuadrant.exit:3  %p_s = phi i5 [ %j_V, %_ifconv ], [ 0, %_ifconv1 ]

ST_3: exitcond [1/1] 1.91ns
correctQuadrant.exit:4  %exitcond = icmp eq i5 %p_s, -16

ST_3: empty [1/1] 0.00ns
correctQuadrant.exit:5  %empty = call i32 (...)* @_ssdm_op_SpecLoopTripCount(i64 16, i64 16, i64 16)

ST_3: j_V [1/1] 1.72ns
correctQuadrant.exit:6  %j_V = add i5 %p_s, 1

ST_3: stg_35 [1/1] 0.00ns
correctQuadrant.exit:7  br i1 %exitcond, label %ap_fixed_base.exit, label %_ifconv

ST_3: tmp_2 [1/1] 0.00ns
_ifconv:0  %tmp_2 = call i1 @_ssdm_op_BitSelect.i1.i20.i32(i20 %p_Val2_4, i32 19)

ST_3: sh_2_cast [1/1] 0.00ns
_ifconv:1  %sh_2_cast = zext i5 %p_s to i20

ST_3: p_Val2_3 [1/1] 2.77ns
_ifconv:2  %p_Val2_3 = ashr i20 %p_Val2_4, %sh_2_cast

ST_3: curr_I_V [1/1] 2.08ns
_ifconv:3  %curr_I_V = sub i20 %p_Val2_2, %p_Val2_3

ST_3: p_Val2_5 [1/1] 2.77ns
_ifconv:4  %p_Val2_5 = ashr i20 %p_Val2_2, %sh_2_cast

ST_3: curr_Q_V [1/1] 2.08ns
_ifconv:5  %curr_Q_V = add i20 %p_Val2_5, %p_Val2_4

ST_3: tmp_6 [1/1] 0.00ns
_ifconv:6  %tmp_6 = zext i5 %p_s to i64

ST_3: angles_V_addr [1/1] 0.00ns
_ifconv:7  %angles_V_addr = getelementptr [16 x i13]* @angles_V, i64 0, i64 %tmp_6

ST_3: p_Val2_7 [2/2] 2.39ns
_ifconv:8  %p_Val2_7 = load i13* %angles_V_addr, align 2

ST_3: p_Val2_9 [1/1] 2.77ns
_ifconv:11  %p_Val2_9 = lshr i20 %p_Val2_4, %sh_2_cast

ST_3: curr_I_V_2 [1/1] 2.08ns
_ifconv:12  %curr_I_V_2 = add i20 %p_Val2_2, %p_Val2_9

ST_3: curr_Q_V_2 [1/1] 2.08ns
_ifconv:13  %curr_Q_V_2 = sub i20 %p_Val2_4, %p_Val2_5

ST_3: curr_Q_V_1 [1/1] 1.37ns
_ifconv:15  %curr_Q_V_1 = select i1 %tmp_2, i20 %curr_Q_V, i20 %curr_Q_V_2

ST_3: curr_I_V_1 [1/1] 1.37ns
_ifconv:16  %curr_I_V_1 = select i1 %tmp_2, i20 %curr_I_V, i20 %curr_I_V_2

ST_3: stg_50 [1/1] 0.00ns
ap_fixed_base.exit:0  call void @_ssdm_op_Write.ap_auto.i20P(i20* %theta_V, i20 %p_Val2_6)

ST_3: OP1_V_cast [1/1] 0.00ns
ap_fixed_base.exit:1  %OP1_V_cast = sext i20 %p_Val2_2 to i33

ST_3: p_Val2_s_4 [1/1] 6.38ns
ap_fixed_base.exit:2  %p_Val2_s_4 = mul i33 %OP1_V_cast, 4973

ST_3: tmp_s [1/1] 0.00ns
ap_fixed_base.exit:3  %tmp_s = call i20 @_ssdm_op_PartSelect.i20.i33.i32.i32(i33 %p_Val2_s_4, i32 13, i32 32)

ST_3: stg_54 [1/1] 0.00ns
ap_fixed_base.exit:4  call void @_ssdm_op_Write.ap_auto.i20P(i20* %r_V, i20 %tmp_s)

ST_3: stg_55 [1/1] 0.00ns
ap_fixed_base.exit:5  ret void


 <State 4>: 5.84ns
ST_4: p_Val2_7 [1/2] 2.39ns
_ifconv:8  %p_Val2_7 = load i13* %angles_V_addr, align 2

ST_4: p_Val2_13_cast [1/1] 0.00ns
_ifconv:9  %p_Val2_13_cast = zext i13 %p_Val2_7 to i20

ST_4: p_Val2_s [1/1] 2.08ns
_ifconv:10  %p_Val2_s = sub i20 %p_Val2_6, %p_Val2_13_cast

ST_4: p_Val2_8 [1/1] 2.08ns
_ifconv:14  %p_Val2_8 = add i20 %p_Val2_13_cast, %p_Val2_6

ST_4: curr_T_V [1/1] 1.37ns
_ifconv:17  %curr_T_V = select i1 %tmp_2, i20 %p_Val2_s, i20 %p_Val2_8

ST_4: stg_61 [1/1] 0.00ns
_ifconv:18  br label %correctQuadrant.exit



============================================================
+ Verbose Summary: Binding
============================================================
N/A
* FSMD analyzer results:
  - Output states:
  - Chain level:
	State 1
	State 2
	State 3
	State 4


============================================================
+ Verbose Summary: Datapath Resource usage 
============================================================
N/A
