vhdl xbip_utils_v3_0_5 "ip/xbip_utils_v3_0_5/xbip_utils_v3_0_vh_rfs.vhd"
vhdl axi_utils_v2_0_1 "ip/axi_utils_v2_0_1/axi_utils_v2_0_vh_rfs.vhd"
vhdl xbip_pipe_v3_0_1 "ip/xbip_pipe_v3_0_1/xbip_pipe_v3_0_vh_rfs.vhd"
vhdl xbip_pipe_v3_0_1 "ip/xbip_pipe_v3_0_1/xbip_pipe_v3_0.vhd"
vhdl xbip_dsp48_wrapper_v3_0_4 "ip/xbip_dsp48_wrapper_v3_0_4/xbip_dsp48_wrapper_v3_0_vh_rfs.vhd"
vhdl xbip_dsp48_addsub_v3_0_1 "ip/xbip_dsp48_addsub_v3_0_1/xbip_dsp48_addsub_v3_0_vh_rfs.vhd"
vhdl xbip_dsp48_addsub_v3_0_1 "ip/xbip_dsp48_addsub_v3_0_1/xbip_dsp48_addsub_v3_0.vhd"
vhdl xbip_dsp48_multadd_v3_0_1 "ip/xbip_dsp48_multadd_v3_0_1/xbip_dsp48_multadd_v3_0_vh_rfs.vhd"
vhdl xbip_dsp48_multadd_v3_0_1 "ip/xbip_dsp48_multadd_v3_0_1/xbip_dsp48_multadd_v3_0.vhd"
vhdl xbip_bram18k_v3_0_1 "ip/xbip_bram18k_v3_0_1/xbip_bram18k_v3_0_vh_rfs.vhd"
vhdl xbip_bram18k_v3_0_1 "ip/xbip_bram18k_v3_0_1/xbip_bram18k_v3_0.vhd"
vhdl mult_gen_v12_0_10 "ip/mult_gen_v12_0_10/mult_gen_v12_0_vh_rfs.vhd"
vhdl mult_gen_v12_0_10 "ip/mult_gen_v12_0_10/mult_gen_v12_0.vhd"
vhdl floating_point_v7_1_1 "ip/floating_point_v7_1_1/floating_point_v7_1_vh_rfs.vhd"
vhdl xil_defaultlib "ip/xil_defaultlib/dft_ap_faddfsub_3_full_dsp_32.vhd"
vhdl xil_defaultlib "ip/xil_defaultlib/dft_ap_fadd_3_full_dsp_32.vhd"
vhdl xil_defaultlib "ip/xil_defaultlib/dft_ap_fmul_2_max_dsp_32.vhd"
verilog xil_defaultlib "AESL_autofifo_stream_i_imag_V.v"
verilog xil_defaultlib "AESL_autofifo_stream_i_real_V.v"
verilog xil_defaultlib "AESL_autofifo_stream_o_imag_V.v"
verilog xil_defaultlib "AESL_autofifo_stream_o_real_V.v"
verilog xil_defaultlib "dft.autotb.v"
verilog xil_defaultlib "dft.v"
verilog xil_defaultlib "dft_cct.v"
verilog xil_defaultlib "dft_faddfsub_32ns_32ns_32_5_full_dsp.v"
verilog xil_defaultlib "dft_fadd_32ns_32ns_32_5_full_dsp.v"
verilog xil_defaultlib "dft_fmul_32ns_32ns_32_4_max_dsp.v"
verilog xil_defaultlib "dft_real_i.v"
verilog xil_defaultlib "dft_sct.v"

