

================================================================
== Vivado HLS Report for 'dft_loop_flow2'
================================================================
* Date:           Tue Nov 01 19:21:20 2016

* Version:        2015.4 (Build 1412921 on Wed Nov 18 09:58:55 AM 2015)
* Project:        dft
* Solution:       dft_best2
* Product family: zynq
* Target device:  xc7z020clg484-1


================================================================
== Performance Estimates
================================================================
+ Timing (ns): 
    * Summary: 
    +--------+-------+----------+------------+
    |  Clock | Target| Estimated| Uncertainty|
    +--------+-------+----------+------------+
    |ap_clk  |  10.00|      7.26|        1.25|
    +--------+-------+----------+------------+

+ Latency (clock cycles): 
    * Summary: 
    +-----+-----+-----+-----+----------+
    |  Latency  |  Interval | Pipeline |
    | min | max | min | max |   Type   |
    +-----+-----+-----+-----+----------+
    |    4|    4|    1|    1| function |
    +-----+-----+-----+-----+----------+

    + Detail: 
        * Instance: 
        N/A

        * Loop: 
        N/A

============================================================
+ Verbose Summary: Synthesis Manager
============================================================
InlineROM: 1
ExposeGlobal: 0
============================================================
+ Verbose Summary: CDFG Model
============================================================
IsTopModel: 0
ResetActiveHigh: 1
IsCombinational: 0
IsDatapathOnly: 0
HasWiredReturn: 1
HasMFsm: 2
HasVarLatency: 0
IsPipeline: 1
IsRtlPipelined: 1
IsInstanceOverlapped: 0
IsDontTouch: 0
HasImplIP: 0
IsGatedGlobalClock: 0

+ Individual pipeline summary: 
  * Pipeline-0: initiation interval (II) = 1, depth = 5


============================================================
+ Verbose Summary: Schedule
============================================================
* Number of FSM states: 5
* Pipeline: 1
  Pipeline-0: II = 1, D = 5, States = { 1 2 3 4 5 }
* Dataflow Pipeline: 0

* FSM state transitions: 
1 --> 
	2  / true
2 --> 
	3  / true
3 --> 
	4  / true
4 --> 
	5  / true
5 --> 
* FSM state operations: 

 <State 1>: 7.26ns
ST_1: real_arr4_0_load [1/1] 0.00ns
:1  %real_arr4_0_load = load float* @real_arr4_0, align 16

ST_1: real_arr4_1_load [1/1] 0.00ns
:2  %real_arr4_1_load = load float* @real_arr4_1, align 4

ST_1: real_arr2_0_assign [5/5] 7.26ns
:3  %real_arr2_0_assign = fadd float %real_arr4_0_load, %real_arr4_1_load

ST_1: imag_arr4_0_load [1/1] 0.00ns
:5  %imag_arr4_0_load = load float* @imag_arr4_0, align 16

ST_1: imag_arr4_1_load [1/1] 0.00ns
:6  %imag_arr4_1_load = load float* @imag_arr4_1, align 4

ST_1: tmp_s [5/5] 7.26ns
:7  %tmp_s = fadd float %imag_arr4_0_load, %imag_arr4_1_load

ST_1: real_arr4_2_load [1/1] 0.00ns
:9  %real_arr4_2_load = load float* @real_arr4_2, align 8

ST_1: real_arr4_3_load [1/1] 0.00ns
:10  %real_arr4_3_load = load float* @real_arr4_3, align 4

ST_1: tmp_1 [5/5] 7.26ns
:11  %tmp_1 = fadd float %real_arr4_2_load, %real_arr4_3_load

ST_1: imag_arr4_2_load [1/1] 0.00ns
:13  %imag_arr4_2_load = load float* @imag_arr4_2, align 8

ST_1: imag_arr4_3_load [1/1] 0.00ns
:14  %imag_arr4_3_load = load float* @imag_arr4_3, align 4

ST_1: tmp_2 [5/5] 7.26ns
:15  %tmp_2 = fadd float %imag_arr4_2_load, %imag_arr4_3_load


 <State 2>: 7.26ns
ST_2: real_arr2_0_assign [4/5] 7.26ns
:3  %real_arr2_0_assign = fadd float %real_arr4_0_load, %real_arr4_1_load

ST_2: tmp_s [4/5] 7.26ns
:7  %tmp_s = fadd float %imag_arr4_0_load, %imag_arr4_1_load

ST_2: tmp_1 [4/5] 7.26ns
:11  %tmp_1 = fadd float %real_arr4_2_load, %real_arr4_3_load

ST_2: tmp_2 [4/5] 7.26ns
:15  %tmp_2 = fadd float %imag_arr4_2_load, %imag_arr4_3_load


 <State 3>: 7.26ns
ST_3: real_arr2_0_assign [3/5] 7.26ns
:3  %real_arr2_0_assign = fadd float %real_arr4_0_load, %real_arr4_1_load

ST_3: tmp_s [3/5] 7.26ns
:7  %tmp_s = fadd float %imag_arr4_0_load, %imag_arr4_1_load

ST_3: tmp_1 [3/5] 7.26ns
:11  %tmp_1 = fadd float %real_arr4_2_load, %real_arr4_3_load

ST_3: tmp_2 [3/5] 7.26ns
:15  %tmp_2 = fadd float %imag_arr4_2_load, %imag_arr4_3_load


 <State 4>: 7.26ns
ST_4: real_arr2_0_assign [2/5] 7.26ns
:3  %real_arr2_0_assign = fadd float %real_arr4_0_load, %real_arr4_1_load

ST_4: tmp_s [2/5] 7.26ns
:7  %tmp_s = fadd float %imag_arr4_0_load, %imag_arr4_1_load

ST_4: tmp_1 [2/5] 7.26ns
:11  %tmp_1 = fadd float %real_arr4_2_load, %real_arr4_3_load

ST_4: tmp_2 [2/5] 7.26ns
:15  %tmp_2 = fadd float %imag_arr4_2_load, %imag_arr4_3_load


 <State 5>: 7.26ns
ST_5: stg_30 [1/1] 0.00ns
:0  call void (...)* @_ssdm_op_SpecPipeline(i32 1, i32 1, i32 1, i32 0, [1 x i8]* @p_str1) nounwind

ST_5: real_arr2_0_assign [1/5] 7.26ns
:3  %real_arr2_0_assign = fadd float %real_arr4_0_load, %real_arr4_1_load

ST_5: stg_32 [1/1] 0.00ns
:4  store float %real_arr2_0_assign, float* @real_arr2_0, align 4

ST_5: tmp_s [1/5] 7.26ns
:7  %tmp_s = fadd float %imag_arr4_0_load, %imag_arr4_1_load

ST_5: stg_34 [1/1] 0.00ns
:8  store float %tmp_s, float* @imag_arr2_0, align 4

ST_5: tmp_1 [1/5] 7.26ns
:11  %tmp_1 = fadd float %real_arr4_2_load, %real_arr4_3_load

ST_5: stg_36 [1/1] 0.00ns
:12  store float %tmp_1, float* @real_arr2_1, align 4

ST_5: tmp_2 [1/5] 7.26ns
:15  %tmp_2 = fadd float %imag_arr4_2_load, %imag_arr4_3_load

ST_5: stg_38 [1/1] 0.00ns
:16  store float %tmp_2, float* @imag_arr2_1, align 4

ST_5: stg_39 [1/1] 0.00ns
:17  ret void



============================================================
+ Verbose Summary: Binding
============================================================
N/A
* FSMD analyzer results:
  - Output states:
  - Chain level:
	State 1
	State 2
	State 3
	State 4
	State 5


============================================================
+ Verbose Summary: Datapath Resource usage 
============================================================
N/A
