

================================================================
== Vivado HLS Report for 'dft_loop_flow32'
================================================================
* Date:           Tue Nov 01 19:21:15 2016

* Version:        2015.4 (Build 1412921 on Wed Nov 18 09:58:55 AM 2015)
* Project:        dft
* Solution:       dft_best2
* Product family: zynq
* Target device:  xc7z020clg484-1


================================================================
== Performance Estimates
================================================================
+ Timing (ns): 
    * Summary: 
    +--------+-------+----------+------------+
    |  Clock | Target| Estimated| Uncertainty|
    +--------+-------+----------+------------+
    |ap_clk  |  10.00|      7.26|        1.25|
    +--------+-------+----------+------------+

+ Latency (clock cycles): 
    * Summary: 
    +-----+-----+-----+-----+---------+
    |  Latency  |  Interval | Pipeline|
    | min | max | min | max |   Type  |
    +-----+-----+-----+-----+---------+
    |   18|   18|   18|   18|   none  |
    +-----+-----+-----+-----+---------+

    + Detail: 
        * Instance: 
        N/A

        * Loop: 
        +----------+-----+-----+----------+-----------+-----------+------+----------+
        |          |  Latency  | Iteration|  Initiation Interval  | Trip |          |
        | Loop Name| min | max |  Latency |  achieved |   target  | Count| Pipelined|
        +----------+-----+-----+----------+-----------+-----------+------+----------+
        |- Loop 1  |   16|   16|         8|          1|          1|     9|    yes   |
        +----------+-----+-----+----------+-----------+-----------+------+----------+

============================================================
+ Verbose Summary: Synthesis Manager
============================================================
InlineROM: 1
ExposeGlobal: 0
============================================================
+ Verbose Summary: CDFG Model
============================================================
IsTopModel: 0
ResetActiveHigh: 1
IsCombinational: 0
IsDatapathOnly: 0
HasWiredReturn: 1
HasMFsm: 0
HasVarLatency: 1
IsPipeline: 0
IsRtlPipelined: 0
IsInstanceOverlapped: 0
IsDontTouch: 0
HasImplIP: 0
IsGatedGlobalClock: 0

+ Individual pipeline summary: 
  * Pipeline-0: initiation interval (II) = 1, depth = 8


============================================================
+ Verbose Summary: Schedule
============================================================
* Number of FSM states: 10
* Pipeline: 1
  Pipeline-0: II = 1, D = 8, States = { 2 3 4 5 6 7 8 9 }
* Dataflow Pipeline: 0

* FSM state transitions: 
1 --> 
	2  / true
2 --> 
	3  / true
3 --> 
	4  / true
4 --> 
	5  / true
5 --> 
	6  / true
6 --> 
	7  / true
7 --> 
	8  / true
8 --> 
	9  / true
9 --> 
	10  / (exitcond) | (!exitcond & exitcond_1)
	2  / (!exitcond & !exitcond_1)
10 --> 
* FSM state operations: 

 <State 1>: 1.57ns
ST_1: stg_11 [1/1] 1.57ns
:0  br label %1


 <State 2>: 2.39ns
ST_2: p_s [1/1] 0.00ns
:0  %p_s = phi i9 [ 0, %0 ], [ %j_V_3, %branch25 ]

ST_2: p_4 [1/1] 0.00ns
:1  %p_4 = phi i9 [ 0, %0 ], [ %i_V_3, %branch25 ]

ST_2: exitcond [1/1] 2.03ns
:2  %exitcond = icmp eq i9 %p_4, 33

ST_2: stg_15 [1/1] 0.00ns
:3  br i1 %exitcond, label %2, label %branch28

ST_2: newIndex [1/1] 0.00ns
branch28:3  %newIndex = call i7 @_ssdm_op_PartSelect.i7.i9.i32.i32(i9 %p_s, i32 2, i32 8)

ST_2: newIndex6 [1/1] 0.00ns
branch28:4  %newIndex6 = zext i7 %newIndex to i64

ST_2: real_arr64_0_addr [1/1] 0.00ns
branch28:5  %real_arr64_0_addr = getelementptr [16 x float]* @real_arr64_0, i64 0, i64 %newIndex6

ST_2: real_arr64_0_load [2/2] 2.39ns
branch28:6  %real_arr64_0_load = load float* %real_arr64_0_addr, align 8

ST_2: real_arr64_1_addr [1/1] 0.00ns
branch28:7  %real_arr64_1_addr = getelementptr [16 x float]* @real_arr64_1, i64 0, i64 %newIndex6

ST_2: real_arr64_1_load [2/2] 2.39ns
branch28:8  %real_arr64_1_load = load float* %real_arr64_1_addr, align 8

ST_2: newIndex7 [1/1] 0.00ns
branch28:10  %newIndex7 = call i7 @_ssdm_op_PartSelect.i7.i9.i32.i32(i9 %p_4, i32 2, i32 8)

ST_2: imag_arr64_0_addr [1/1] 0.00ns
branch28:14  %imag_arr64_0_addr = getelementptr [16 x float]* @imag_arr64_0, i64 0, i64 %newIndex6

ST_2: imag_arr64_0_load [2/2] 2.39ns
branch28:15  %imag_arr64_0_load = load float* %imag_arr64_0_addr, align 8

ST_2: imag_arr64_1_addr [1/1] 0.00ns
branch28:16  %imag_arr64_1_addr = getelementptr [16 x float]* @imag_arr64_1, i64 0, i64 %newIndex6

ST_2: imag_arr64_1_load [2/2] 2.39ns
branch28:17  %imag_arr64_1_load = load float* %imag_arr64_1_addr, align 8

ST_2: i_V_s [1/1] 0.00ns
branch28:22  %i_V_s = or i9 %p_4, 1

ST_2: exitcond_1 [1/1] 2.03ns
branch28:23  %exitcond_1 = icmp eq i9 %i_V_s, 33

ST_2: stg_29 [1/1] 0.00ns
branch28:24  br i1 %exitcond_1, label %2, label %branch25

ST_2: real_arr64_2_addr [1/1] 0.00ns
branch25:0  %real_arr64_2_addr = getelementptr [16 x float]* @real_arr64_2, i64 0, i64 %newIndex6

ST_2: real_arr64_2_load [2/2] 2.39ns
branch25:1  %real_arr64_2_load = load float* %real_arr64_2_addr, align 8

ST_2: real_arr64_3_addr [1/1] 0.00ns
branch25:2  %real_arr64_3_addr = getelementptr [16 x float]* @real_arr64_3, i64 0, i64 %newIndex6

ST_2: real_arr64_3_load [2/2] 2.39ns
branch25:3  %real_arr64_3_load = load float* %real_arr64_3_addr, align 8

ST_2: imag_arr64_2_addr [1/1] 0.00ns
branch25:7  %imag_arr64_2_addr = getelementptr [16 x float]* @imag_arr64_2, i64 0, i64 %newIndex6

ST_2: imag_arr64_2_load [2/2] 2.39ns
branch25:8  %imag_arr64_2_load = load float* %imag_arr64_2_addr, align 8

ST_2: imag_arr64_3_addr [1/1] 0.00ns
branch25:9  %imag_arr64_3_addr = getelementptr [16 x float]* @imag_arr64_3, i64 0, i64 %newIndex6

ST_2: imag_arr64_3_load [2/2] 2.39ns
branch25:10  %imag_arr64_3_load = load float* %imag_arr64_3_addr, align 8

ST_2: newIndex9 [1/1] 0.00ns
branch25:14  %newIndex9 = or i7 %newIndex, 1

ST_2: newIndex1 [1/1] 0.00ns
branch25:15  %newIndex1 = zext i7 %newIndex9 to i64

ST_2: real_arr64_0_addr_1 [1/1] 0.00ns
branch25:16  %real_arr64_0_addr_1 = getelementptr [16 x float]* @real_arr64_0, i64 0, i64 %newIndex1

ST_2: real_arr64_0_load_1 [2/2] 2.39ns
branch25:17  %real_arr64_0_load_1 = load float* %real_arr64_0_addr_1, align 4

ST_2: real_arr64_1_addr_1 [1/1] 0.00ns
branch25:18  %real_arr64_1_addr_1 = getelementptr [16 x float]* @real_arr64_1, i64 0, i64 %newIndex1

ST_2: real_arr64_1_load_1 [2/2] 2.39ns
branch25:19  %real_arr64_1_load_1 = load float* %real_arr64_1_addr_1, align 4

ST_2: imag_arr64_0_addr_1 [1/1] 0.00ns
branch25:23  %imag_arr64_0_addr_1 = getelementptr [16 x float]* @imag_arr64_0, i64 0, i64 %newIndex1

ST_2: imag_arr64_0_load_1 [2/2] 2.39ns
branch25:24  %imag_arr64_0_load_1 = load float* %imag_arr64_0_addr_1, align 4

ST_2: imag_arr64_1_addr_1 [1/1] 0.00ns
branch25:25  %imag_arr64_1_addr_1 = getelementptr [16 x float]* @imag_arr64_1, i64 0, i64 %newIndex1

ST_2: imag_arr64_1_load_1 [2/2] 2.39ns
branch25:26  %imag_arr64_1_load_1 = load float* %imag_arr64_1_addr_1, align 4

ST_2: real_arr64_2_addr_1 [1/1] 0.00ns
branch25:30  %real_arr64_2_addr_1 = getelementptr [16 x float]* @real_arr64_2, i64 0, i64 %newIndex1

ST_2: real_arr64_2_load_1 [2/2] 2.39ns
branch25:31  %real_arr64_2_load_1 = load float* %real_arr64_2_addr_1, align 4

ST_2: real_arr64_3_addr_1 [1/1] 0.00ns
branch25:32  %real_arr64_3_addr_1 = getelementptr [16 x float]* @real_arr64_3, i64 0, i64 %newIndex1

ST_2: real_arr64_3_load_1 [2/2] 2.39ns
branch25:33  %real_arr64_3_load_1 = load float* %real_arr64_3_addr_1, align 4

ST_2: imag_arr64_2_addr_1 [1/1] 0.00ns
branch25:37  %imag_arr64_2_addr_1 = getelementptr [16 x float]* @imag_arr64_2, i64 0, i64 %newIndex1

ST_2: imag_arr64_2_load_1 [2/2] 2.39ns
branch25:38  %imag_arr64_2_load_1 = load float* %imag_arr64_2_addr_1, align 4

ST_2: imag_arr64_3_addr_1 [1/1] 0.00ns
branch25:39  %imag_arr64_3_addr_1 = getelementptr [16 x float]* @imag_arr64_3, i64 0, i64 %newIndex1

ST_2: imag_arr64_3_load_1 [2/2] 2.39ns
branch25:40  %imag_arr64_3_load_1 = load float* %imag_arr64_3_addr_1, align 4

ST_2: i_V_3 [1/1] 1.84ns
branch25:44  %i_V_3 = add i9 %p_4, 4

ST_2: j_V_3 [1/1] 1.84ns
branch25:45  %j_V_3 = add i9 %p_s, 8


 <State 3>: 2.39ns
ST_3: real_arr64_0_load [1/2] 2.39ns
branch28:6  %real_arr64_0_load = load float* %real_arr64_0_addr, align 8

ST_3: real_arr64_1_load [1/2] 2.39ns
branch28:8  %real_arr64_1_load = load float* %real_arr64_1_addr, align 8

ST_3: imag_arr64_0_load [1/2] 2.39ns
branch28:15  %imag_arr64_0_load = load float* %imag_arr64_0_addr, align 8

ST_3: imag_arr64_1_load [1/2] 2.39ns
branch28:17  %imag_arr64_1_load = load float* %imag_arr64_1_addr, align 8

ST_3: real_arr64_2_load [1/2] 2.39ns
branch25:1  %real_arr64_2_load = load float* %real_arr64_2_addr, align 8

ST_3: real_arr64_3_load [1/2] 2.39ns
branch25:3  %real_arr64_3_load = load float* %real_arr64_3_addr, align 8

ST_3: imag_arr64_2_load [1/2] 2.39ns
branch25:8  %imag_arr64_2_load = load float* %imag_arr64_2_addr, align 8

ST_3: imag_arr64_3_load [1/2] 2.39ns
branch25:10  %imag_arr64_3_load = load float* %imag_arr64_3_addr, align 8

ST_3: real_arr64_0_load_1 [1/2] 2.39ns
branch25:17  %real_arr64_0_load_1 = load float* %real_arr64_0_addr_1, align 4

ST_3: real_arr64_1_load_1 [1/2] 2.39ns
branch25:19  %real_arr64_1_load_1 = load float* %real_arr64_1_addr_1, align 4

ST_3: imag_arr64_0_load_1 [1/2] 2.39ns
branch25:24  %imag_arr64_0_load_1 = load float* %imag_arr64_0_addr_1, align 4

ST_3: imag_arr64_1_load_1 [1/2] 2.39ns
branch25:26  %imag_arr64_1_load_1 = load float* %imag_arr64_1_addr_1, align 4

ST_3: real_arr64_2_load_1 [1/2] 2.39ns
branch25:31  %real_arr64_2_load_1 = load float* %real_arr64_2_addr_1, align 4

ST_3: real_arr64_3_load_1 [1/2] 2.39ns
branch25:33  %real_arr64_3_load_1 = load float* %real_arr64_3_addr_1, align 4

ST_3: imag_arr64_2_load_1 [1/2] 2.39ns
branch25:38  %imag_arr64_2_load_1 = load float* %imag_arr64_2_addr_1, align 4

ST_3: imag_arr64_3_load_1 [1/2] 2.39ns
branch25:40  %imag_arr64_3_load_1 = load float* %imag_arr64_3_addr_1, align 4


 <State 4>: 7.26ns
ST_4: tmp_7 [5/5] 7.26ns
branch28:9  %tmp_7 = fadd float %real_arr64_0_load, %real_arr64_1_load

ST_4: tmp_9 [5/5] 7.26ns
branch28:18  %tmp_9 = fadd float %imag_arr64_0_load, %imag_arr64_1_load

ST_4: tmp_7_1 [5/5] 7.26ns
branch25:4  %tmp_7_1 = fadd float %real_arr64_2_load, %real_arr64_3_load

ST_4: tmp_9_1 [5/5] 7.26ns
branch25:11  %tmp_9_1 = fadd float %imag_arr64_2_load, %imag_arr64_3_load

ST_4: tmp_7_2 [5/5] 7.26ns
branch25:20  %tmp_7_2 = fadd float %real_arr64_0_load_1, %real_arr64_1_load_1

ST_4: tmp_9_2 [5/5] 7.26ns
branch25:27  %tmp_9_2 = fadd float %imag_arr64_0_load_1, %imag_arr64_1_load_1

ST_4: tmp_7_3 [5/5] 7.26ns
branch25:34  %tmp_7_3 = fadd float %real_arr64_2_load_1, %real_arr64_3_load_1

ST_4: tmp_9_3 [5/5] 7.26ns
branch25:41  %tmp_9_3 = fadd float %imag_arr64_2_load_1, %imag_arr64_3_load_1


 <State 5>: 7.26ns
ST_5: tmp_7 [4/5] 7.26ns
branch28:9  %tmp_7 = fadd float %real_arr64_0_load, %real_arr64_1_load

ST_5: tmp_9 [4/5] 7.26ns
branch28:18  %tmp_9 = fadd float %imag_arr64_0_load, %imag_arr64_1_load

ST_5: tmp_7_1 [4/5] 7.26ns
branch25:4  %tmp_7_1 = fadd float %real_arr64_2_load, %real_arr64_3_load

ST_5: tmp_9_1 [4/5] 7.26ns
branch25:11  %tmp_9_1 = fadd float %imag_arr64_2_load, %imag_arr64_3_load

ST_5: tmp_7_2 [4/5] 7.26ns
branch25:20  %tmp_7_2 = fadd float %real_arr64_0_load_1, %real_arr64_1_load_1

ST_5: tmp_9_2 [4/5] 7.26ns
branch25:27  %tmp_9_2 = fadd float %imag_arr64_0_load_1, %imag_arr64_1_load_1

ST_5: tmp_7_3 [4/5] 7.26ns
branch25:34  %tmp_7_3 = fadd float %real_arr64_2_load_1, %real_arr64_3_load_1

ST_5: tmp_9_3 [4/5] 7.26ns
branch25:41  %tmp_9_3 = fadd float %imag_arr64_2_load_1, %imag_arr64_3_load_1


 <State 6>: 7.26ns
ST_6: tmp_7 [3/5] 7.26ns
branch28:9  %tmp_7 = fadd float %real_arr64_0_load, %real_arr64_1_load

ST_6: tmp_9 [3/5] 7.26ns
branch28:18  %tmp_9 = fadd float %imag_arr64_0_load, %imag_arr64_1_load

ST_6: tmp_7_1 [3/5] 7.26ns
branch25:4  %tmp_7_1 = fadd float %real_arr64_2_load, %real_arr64_3_load

ST_6: tmp_9_1 [3/5] 7.26ns
branch25:11  %tmp_9_1 = fadd float %imag_arr64_2_load, %imag_arr64_3_load

ST_6: tmp_7_2 [3/5] 7.26ns
branch25:20  %tmp_7_2 = fadd float %real_arr64_0_load_1, %real_arr64_1_load_1

ST_6: tmp_9_2 [3/5] 7.26ns
branch25:27  %tmp_9_2 = fadd float %imag_arr64_0_load_1, %imag_arr64_1_load_1

ST_6: tmp_7_3 [3/5] 7.26ns
branch25:34  %tmp_7_3 = fadd float %real_arr64_2_load_1, %real_arr64_3_load_1

ST_6: tmp_9_3 [3/5] 7.26ns
branch25:41  %tmp_9_3 = fadd float %imag_arr64_2_load_1, %imag_arr64_3_load_1


 <State 7>: 7.26ns
ST_7: tmp_7 [2/5] 7.26ns
branch28:9  %tmp_7 = fadd float %real_arr64_0_load, %real_arr64_1_load

ST_7: tmp_9 [2/5] 7.26ns
branch28:18  %tmp_9 = fadd float %imag_arr64_0_load, %imag_arr64_1_load

ST_7: tmp_7_1 [2/5] 7.26ns
branch25:4  %tmp_7_1 = fadd float %real_arr64_2_load, %real_arr64_3_load

ST_7: tmp_9_1 [2/5] 7.26ns
branch25:11  %tmp_9_1 = fadd float %imag_arr64_2_load, %imag_arr64_3_load

ST_7: tmp_7_2 [2/5] 7.26ns
branch25:20  %tmp_7_2 = fadd float %real_arr64_0_load_1, %real_arr64_1_load_1

ST_7: tmp_9_2 [2/5] 7.26ns
branch25:27  %tmp_9_2 = fadd float %imag_arr64_0_load_1, %imag_arr64_1_load_1

ST_7: tmp_7_3 [2/5] 7.26ns
branch25:34  %tmp_7_3 = fadd float %real_arr64_2_load_1, %real_arr64_3_load_1

ST_7: tmp_9_3 [2/5] 7.26ns
branch25:41  %tmp_9_3 = fadd float %imag_arr64_2_load_1, %imag_arr64_3_load_1


 <State 8>: 7.26ns
ST_8: tmp_7 [1/5] 7.26ns
branch28:9  %tmp_7 = fadd float %real_arr64_0_load, %real_arr64_1_load

ST_8: tmp_9 [1/5] 7.26ns
branch28:18  %tmp_9 = fadd float %imag_arr64_0_load, %imag_arr64_1_load

ST_8: tmp_7_1 [1/5] 7.26ns
branch25:4  %tmp_7_1 = fadd float %real_arr64_2_load, %real_arr64_3_load

ST_8: tmp_9_1 [1/5] 7.26ns
branch25:11  %tmp_9_1 = fadd float %imag_arr64_2_load, %imag_arr64_3_load

ST_8: tmp_7_2 [1/5] 7.26ns
branch25:20  %tmp_7_2 = fadd float %real_arr64_0_load_1, %real_arr64_1_load_1

ST_8: tmp_9_2 [1/5] 7.26ns
branch25:27  %tmp_9_2 = fadd float %imag_arr64_0_load_1, %imag_arr64_1_load_1

ST_8: tmp_7_3 [1/5] 7.26ns
branch25:34  %tmp_7_3 = fadd float %real_arr64_2_load_1, %real_arr64_3_load_1

ST_8: tmp_9_3 [1/5] 7.26ns
branch25:41  %tmp_9_3 = fadd float %imag_arr64_2_load_1, %imag_arr64_3_load_1


 <State 9>: 2.39ns
ST_9: empty [1/1] 0.00ns
branch28:0  %empty = call i32 (...)* @_ssdm_op_SpecLoopTripCount(i64 9, i64 9, i64 9) nounwind

ST_9: tmp [1/1] 0.00ns
branch28:1  %tmp = call i32 (...)* @_ssdm_op_SpecRegionBegin([12 x i8]* @p_str4) nounwind

ST_9: stg_116 [1/1] 0.00ns
branch28:2  call void (...)* @_ssdm_op_SpecPipeline(i32 1, i32 1, i32 1, i32 0, [1 x i8]* @p_str1) nounwind

ST_9: newIndex8 [1/1] 0.00ns
branch28:11  %newIndex8 = zext i7 %newIndex7 to i64

ST_9: real_arr32_0_addr [1/1] 0.00ns
branch28:12  %real_arr32_0_addr = getelementptr [8 x float]* @real_arr32_0, i64 0, i64 %newIndex8

ST_9: stg_119 [1/1] 2.39ns
branch28:13  store float %tmp_7, float* %real_arr32_0_addr, align 16

ST_9: imag_arr32_0_addr [1/1] 0.00ns
branch28:19  %imag_arr32_0_addr = getelementptr [8 x float]* @imag_arr32_0, i64 0, i64 %newIndex8

ST_9: stg_121 [1/1] 2.39ns
branch28:20  store float %tmp_9, float* %imag_arr32_0_addr, align 16

ST_9: empty_9 [1/1] 0.00ns
branch28:21  %empty_9 = call i32 (...)* @_ssdm_op_SpecRegionEnd([12 x i8]* @p_str4, i32 %tmp) nounwind

ST_9: real_arr32_1_addr [1/1] 0.00ns
branch25:5  %real_arr32_1_addr = getelementptr [8 x float]* @real_arr32_1, i64 0, i64 %newIndex8

ST_9: stg_124 [1/1] 2.39ns
branch25:6  store float %tmp_7_1, float* %real_arr32_1_addr, align 4

ST_9: imag_arr32_1_addr [1/1] 0.00ns
branch25:12  %imag_arr32_1_addr = getelementptr [8 x float]* @imag_arr32_1, i64 0, i64 %newIndex8

ST_9: stg_126 [1/1] 2.39ns
branch25:13  store float %tmp_9_1, float* %imag_arr32_1_addr, align 4

ST_9: real_arr32_2_addr [1/1] 0.00ns
branch25:21  %real_arr32_2_addr = getelementptr [8 x float]* @real_arr32_2, i64 0, i64 %newIndex8

ST_9: stg_128 [1/1] 2.39ns
branch25:22  store float %tmp_7_2, float* %real_arr32_2_addr, align 8

ST_9: imag_arr32_2_addr [1/1] 0.00ns
branch25:28  %imag_arr32_2_addr = getelementptr [8 x float]* @imag_arr32_2, i64 0, i64 %newIndex8

ST_9: stg_130 [1/1] 2.39ns
branch25:29  store float %tmp_9_2, float* %imag_arr32_2_addr, align 8

ST_9: real_arr32_3_addr [1/1] 0.00ns
branch25:35  %real_arr32_3_addr = getelementptr [8 x float]* @real_arr32_3, i64 0, i64 %newIndex8

ST_9: stg_132 [1/1] 2.39ns
branch25:36  store float %tmp_7_3, float* %real_arr32_3_addr, align 4

ST_9: imag_arr32_3_addr [1/1] 0.00ns
branch25:42  %imag_arr32_3_addr = getelementptr [8 x float]* @imag_arr32_3, i64 0, i64 %newIndex8

ST_9: stg_134 [1/1] 2.39ns
branch25:43  store float %tmp_9_3, float* %imag_arr32_3_addr, align 4

ST_9: stg_135 [1/1] 0.00ns
branch25:46  br label %1


 <State 10>: 0.00ns
ST_10: stg_136 [1/1] 0.00ns
:0  ret void



============================================================
+ Verbose Summary: Binding
============================================================
N/A
* FSMD analyzer results:
  - Output states:
  - Chain level:
	State 1
	State 2
	State 3
	State 4
	State 5
	State 6
	State 7
	State 8
	State 9
	State 10


============================================================
+ Verbose Summary: Datapath Resource usage 
============================================================
N/A
