

================================================================
== Vivado HLS Report for 'fft_stage_first'
================================================================
* Date:           Fri Nov 11 03:30:43 2016

* Version:        2015.4 (Build 1412921 on Wed Nov 18 09:58:55 AM 2015)
* Project:        fft_stage_first
* Solution:       solution3
* Product family: zynq
* Target device:  xc7z020clg484-1


================================================================
== Performance Estimates
================================================================
+ Timing (ns): 
    * Summary: 
    +--------+-------+----------+------------+
    |  Clock | Target| Estimated| Uncertainty|
    +--------+-------+----------+------------+
    |ap_clk  |  10.00|      8.41|        1.25|
    +--------+-------+----------+------------+

+ Latency (clock cycles): 
    * Summary: 
    +-----+-----+-----+-----+----------+
    |  Latency  |  Interval | Pipeline |
    | min | max | min | max |   Type   |
    +-----+-----+-----+-----+----------+
    |  531|  531|  532|  532| dataflow |
    +-----+-----+-----+-----+----------+

    + Detail: 
        * Instance: 
        +-----------------------------------------------+-------------------------------------+-----+-----+-----+-----+---------+
        |                                               |                                     |  Latency  |  Interval | Pipeline|
        |                    Instance                   |                Module               | min | max | min | max |   Type  |
        +-----------------------------------------------+-------------------------------------+-----+-----+-----+-----+---------+
        |grp_fft_stage_first_Loop_butterfly_proc_fu_34  |fft_stage_first_Loop_butterfly_proc  |  531|  531|  531|  531|   none  |
        +-----------------------------------------------+-------------------------------------+-----+-----+-----+-----+---------+

        * Loop: 
        N/A



================================================================
== Utilization Estimates
================================================================
* Summary: 
+-----------------+---------+-------+--------+-------+
|       Name      | BRAM_18K| DSP48E|   FF   |  LUT  |
+-----------------+---------+-------+--------+-------+
|DSP              |        -|      -|       -|      -|
|Expression       |        -|      -|       -|      -|
|FIFO             |        -|      -|       -|      -|
|Instance         |        2|     24|    2305|   3683|
|Memory           |        -|      -|       -|      -|
|Multiplexer      |        -|      -|       -|      -|
|Register         |        -|      -|       2|      -|
+-----------------+---------+-------+--------+-------+
|Total            |        2|     24|    2307|   3683|
+-----------------+---------+-------+--------+-------+
|Available        |      280|    220|  106400|  53200|
+-----------------+---------+-------+--------+-------+
|Utilization (%)  |    ~0   |     10|       2|      6|
+-----------------+---------+-------+--------+-------+

+ Detail: 
    * Instance: 
    +----------------------------------------+-------------------------------------+---------+-------+------+------+
    |                Instance                |                Module               | BRAM_18K| DSP48E|  FF  |  LUT |
    +----------------------------------------+-------------------------------------+---------+-------+------+------+
    |fft_stage_first_Loop_butterfly_proc_U0  |fft_stage_first_Loop_butterfly_proc  |        2|     24|  2305|  3683|
    +----------------------------------------+-------------------------------------+---------+-------+------+------+
    |Total                                   |                                     |        2|     24|  2305|  3683|
    +----------------------------------------+-------------------------------------+---------+-------+------+------+

    * DSP48: 
    N/A

    * Memory: 
    N/A

    * FIFO: 
    N/A

    * Expression: 
    N/A

    * Multiplexer: 
    N/A

    * Register: 
    +--------------------------------------------------------+---+----+-----+-----------+
    |                          Name                          | FF| LUT| Bits| Const Bits|
    +--------------------------------------------------------+---+----+-----+-----------+
    |ap_CS                                                   |  1|   0|    1|          0|
    |ap_reg_procdone_fft_stage_first_Loop_butterfly_proc_U0  |  1|   0|    1|          0|
    +--------------------------------------------------------+---+----+-----+-----------+
    |Total                                                   |  2|   0|    2|          0|
    +--------------------------------------------------------+---+----+-----+-----------+



================================================================
== Interface
================================================================
* Summary: 
+-------------------+-----+-----+------------+-----------------+--------------+
|     RTL Ports     | Dir | Bits|  Protocol  |  Source Object  |    C Type    |
+-------------------+-----+-----+------------+-----------------+--------------+
|real_i_0_address0  | out |    9|  ap_memory |     real_i_0    |     array    |
|real_i_0_ce0       | out |    1|  ap_memory |     real_i_0    |     array    |
|real_i_0_d0        | out |   32|  ap_memory |     real_i_0    |     array    |
|real_i_0_q0        |  in |   32|  ap_memory |     real_i_0    |     array    |
|real_i_0_we0       | out |    1|  ap_memory |     real_i_0    |     array    |
|real_i_0_address1  | out |    9|  ap_memory |     real_i_0    |     array    |
|real_i_0_ce1       | out |    1|  ap_memory |     real_i_0    |     array    |
|real_i_0_d1        | out |   32|  ap_memory |     real_i_0    |     array    |
|real_i_0_q1        |  in |   32|  ap_memory |     real_i_0    |     array    |
|real_i_0_we1       | out |    1|  ap_memory |     real_i_0    |     array    |
|real_i_1_address0  | out |    9|  ap_memory |     real_i_1    |     array    |
|real_i_1_ce0       | out |    1|  ap_memory |     real_i_1    |     array    |
|real_i_1_d0        | out |   32|  ap_memory |     real_i_1    |     array    |
|real_i_1_q0        |  in |   32|  ap_memory |     real_i_1    |     array    |
|real_i_1_we0       | out |    1|  ap_memory |     real_i_1    |     array    |
|real_i_1_address1  | out |    9|  ap_memory |     real_i_1    |     array    |
|real_i_1_ce1       | out |    1|  ap_memory |     real_i_1    |     array    |
|real_i_1_d1        | out |   32|  ap_memory |     real_i_1    |     array    |
|real_i_1_q1        |  in |   32|  ap_memory |     real_i_1    |     array    |
|real_i_1_we1       | out |    1|  ap_memory |     real_i_1    |     array    |
|imag_i_0_address0  | out |    9|  ap_memory |     imag_i_0    |     array    |
|imag_i_0_ce0       | out |    1|  ap_memory |     imag_i_0    |     array    |
|imag_i_0_d0        | out |   32|  ap_memory |     imag_i_0    |     array    |
|imag_i_0_q0        |  in |   32|  ap_memory |     imag_i_0    |     array    |
|imag_i_0_we0       | out |    1|  ap_memory |     imag_i_0    |     array    |
|imag_i_0_address1  | out |    9|  ap_memory |     imag_i_0    |     array    |
|imag_i_0_ce1       | out |    1|  ap_memory |     imag_i_0    |     array    |
|imag_i_0_d1        | out |   32|  ap_memory |     imag_i_0    |     array    |
|imag_i_0_q1        |  in |   32|  ap_memory |     imag_i_0    |     array    |
|imag_i_0_we1       | out |    1|  ap_memory |     imag_i_0    |     array    |
|imag_i_1_address0  | out |    9|  ap_memory |     imag_i_1    |     array    |
|imag_i_1_ce0       | out |    1|  ap_memory |     imag_i_1    |     array    |
|imag_i_1_d0        | out |   32|  ap_memory |     imag_i_1    |     array    |
|imag_i_1_q0        |  in |   32|  ap_memory |     imag_i_1    |     array    |
|imag_i_1_we0       | out |    1|  ap_memory |     imag_i_1    |     array    |
|imag_i_1_address1  | out |    9|  ap_memory |     imag_i_1    |     array    |
|imag_i_1_ce1       | out |    1|  ap_memory |     imag_i_1    |     array    |
|imag_i_1_d1        | out |   32|  ap_memory |     imag_i_1    |     array    |
|imag_i_1_q1        |  in |   32|  ap_memory |     imag_i_1    |     array    |
|imag_i_1_we1       | out |    1|  ap_memory |     imag_i_1    |     array    |
|real_o_0_address0  | out |    9|  ap_memory |     real_o_0    |     array    |
|real_o_0_ce0       | out |    1|  ap_memory |     real_o_0    |     array    |
|real_o_0_d0        | out |   32|  ap_memory |     real_o_0    |     array    |
|real_o_0_q0        |  in |   32|  ap_memory |     real_o_0    |     array    |
|real_o_0_we0       | out |    1|  ap_memory |     real_o_0    |     array    |
|real_o_0_address1  | out |    9|  ap_memory |     real_o_0    |     array    |
|real_o_0_ce1       | out |    1|  ap_memory |     real_o_0    |     array    |
|real_o_0_d1        | out |   32|  ap_memory |     real_o_0    |     array    |
|real_o_0_q1        |  in |   32|  ap_memory |     real_o_0    |     array    |
|real_o_0_we1       | out |    1|  ap_memory |     real_o_0    |     array    |
|real_o_1_address0  | out |    9|  ap_memory |     real_o_1    |     array    |
|real_o_1_ce0       | out |    1|  ap_memory |     real_o_1    |     array    |
|real_o_1_d0        | out |   32|  ap_memory |     real_o_1    |     array    |
|real_o_1_q0        |  in |   32|  ap_memory |     real_o_1    |     array    |
|real_o_1_we0       | out |    1|  ap_memory |     real_o_1    |     array    |
|real_o_1_address1  | out |    9|  ap_memory |     real_o_1    |     array    |
|real_o_1_ce1       | out |    1|  ap_memory |     real_o_1    |     array    |
|real_o_1_d1        | out |   32|  ap_memory |     real_o_1    |     array    |
|real_o_1_q1        |  in |   32|  ap_memory |     real_o_1    |     array    |
|real_o_1_we1       | out |    1|  ap_memory |     real_o_1    |     array    |
|imag_o_0_address0  | out |    9|  ap_memory |     imag_o_0    |     array    |
|imag_o_0_ce0       | out |    1|  ap_memory |     imag_o_0    |     array    |
|imag_o_0_d0        | out |   32|  ap_memory |     imag_o_0    |     array    |
|imag_o_0_q0        |  in |   32|  ap_memory |     imag_o_0    |     array    |
|imag_o_0_we0       | out |    1|  ap_memory |     imag_o_0    |     array    |
|imag_o_0_address1  | out |    9|  ap_memory |     imag_o_0    |     array    |
|imag_o_0_ce1       | out |    1|  ap_memory |     imag_o_0    |     array    |
|imag_o_0_d1        | out |   32|  ap_memory |     imag_o_0    |     array    |
|imag_o_0_q1        |  in |   32|  ap_memory |     imag_o_0    |     array    |
|imag_o_0_we1       | out |    1|  ap_memory |     imag_o_0    |     array    |
|imag_o_1_address0  | out |    9|  ap_memory |     imag_o_1    |     array    |
|imag_o_1_ce0       | out |    1|  ap_memory |     imag_o_1    |     array    |
|imag_o_1_d0        | out |   32|  ap_memory |     imag_o_1    |     array    |
|imag_o_1_q0        |  in |   32|  ap_memory |     imag_o_1    |     array    |
|imag_o_1_we0       | out |    1|  ap_memory |     imag_o_1    |     array    |
|imag_o_1_address1  | out |    9|  ap_memory |     imag_o_1    |     array    |
|imag_o_1_ce1       | out |    1|  ap_memory |     imag_o_1    |     array    |
|imag_o_1_d1        | out |   32|  ap_memory |     imag_o_1    |     array    |
|imag_o_1_q1        |  in |   32|  ap_memory |     imag_o_1    |     array    |
|imag_o_1_we1       | out |    1|  ap_memory |     imag_o_1    |     array    |
|ap_clk             |  in |    1| ap_ctrl_hs | fft_stage_first | return value |
|ap_rst             |  in |    1| ap_ctrl_hs | fft_stage_first | return value |
|ap_done            | out |    1| ap_ctrl_hs | fft_stage_first | return value |
|ap_start           |  in |    1| ap_ctrl_hs | fft_stage_first | return value |
|ap_idle            | out |    1| ap_ctrl_hs | fft_stage_first | return value |
|ap_ready           | out |    1| ap_ctrl_hs | fft_stage_first | return value |
+-------------------+-----+-----+------------+-----------------+--------------+

