

================================================================
== Vivado HLS Report for 'fft_fft_stage_last'
================================================================
* Date:           Sun Nov 13 23:04:12 2016

* Version:        2015.4 (Build 1412921 on Wed Nov 18 09:58:55 AM 2015)
* Project:        fft
* Solution:       solution1
* Product family: zynq
* Target device:  xc7z020clg484-1


================================================================
== Performance Estimates
================================================================
+ Timing (ns): 
    * Summary: 
    +--------+-------+----------+------------+
    |  Clock | Target| Estimated| Uncertainty|
    +--------+-------+----------+------------+
    |ap_clk  |  10.00|      8.41|        1.25|
    +--------+-------+----------+------------+

+ Latency (clock cycles): 
    * Summary: 
    +-----+-----+-----+-----+---------+
    |  Latency  |  Interval | Pipeline|
    | min | max | min | max |   Type  |
    +-----+-----+-----+-----+---------+
    |  528|  528|  528|  528|   none  |
    +-----+-----+-----+-----+---------+

    + Detail: 
        * Instance: 
        N/A

        * Loop: 
        +-------------+-----+-----+----------+-----------+-----------+------+----------+
        |             |  Latency  | Iteration|  Initiation Interval  | Trip |          |
        |  Loop Name  | min | max |  Latency |  achieved |   target  | Count| Pipelined|
        +-------------+-----+-----+----------+-----------+-----------+------+----------+
        |- butterfly  |  526|  526|        23|          8|          1|    64|    yes   |
        +-------------+-----+-----+----------+-----------+-----------+------+----------+

============================================================
+ Verbose Summary: Synthesis Manager
============================================================
InlineROM: 1
ExposeGlobal: 0
============================================================
+ Verbose Summary: CDFG Model
============================================================
IsTopModel: 0
ResetActiveHigh: 1
IsCombinational: 2
IsDatapathOnly: 0
HasWiredReturn: 1
HasMFsm: 0
HasVarLatency: 1
IsPipeline: 0
IsRtlPipelined: 0
IsInstanceOverlapped: 0
IsDontTouch: 0
HasImplIP: 0
IsGatedGlobalClock: 0

+ Individual pipeline summary: 
  * Pipeline-0: initiation interval (II) = 8, depth = 23


============================================================
+ Verbose Summary: Schedule
============================================================
* Number of FSM states: 25
* Pipeline: 1
  Pipeline-0: II = 8, D = 23, States = { 2 3 4 5 6 7 8 9 10 11 12 13 14 15 16 17 18 19 20 21 22 23 24 }
* Dataflow Pipeline: 0

* FSM state transitions: 
1 --> 
	2  / true
2 --> 
	25  / (exitcond)
	3  / (!exitcond)
3 --> 
	4  / true
4 --> 
	5  / true
5 --> 
	6  / true
6 --> 
	7  / true
7 --> 
	8  / true
8 --> 
	9  / true
9 --> 
	10  / true
10 --> 
	11  / true
11 --> 
	12  / true
12 --> 
	13  / true
13 --> 
	14  / true
14 --> 
	15  / true
15 --> 
	16  / true
16 --> 
	17  / true
17 --> 
	18  / true
18 --> 
	19  / true
19 --> 
	20  / true
20 --> 
	21  / true
21 --> 
	22  / true
22 --> 
	23  / true
23 --> 
	24  / true
24 --> 
	2  / true
25 --> 
* FSM state operations: 

 <State 1>: 1.57ns
ST_1: stg_26 [1/1] 1.57ns
:0  br label %1


 <State 2>: 4.55ns
ST_2: k [1/1] 0.00ns
:0  %k = phi i10 [ 0, %0 ], [ %k_3_7, %2 ]

ST_2: exitcond [1/1] 2.07ns
:1  %exitcond = icmp eq i10 %k, -512

ST_2: stg_29 [1/1] 0.00ns
:2  br i1 %exitcond, label %3, label %2

ST_2: k_cast [1/1] 0.00ns
:1  %k_cast = zext i10 %k to i11

ST_2: tmp1 [1/1] 0.00ns
:6  %tmp1 = zext i10 %k to i64

ST_2: W_real47_addr [1/1] 0.00ns
:7  %W_real47_addr = getelementptr inbounds [512 x float]* @W_real47, i64 0, i64 %tmp1

ST_2: W_real47_load [2/2] 2.39ns
:8  %W_real47_load = load float* %W_real47_addr, align 16

ST_2: W_imag39_addr [1/1] 0.00ns
:9  %W_imag39_addr = getelementptr inbounds [512 x float]* @W_imag39, i64 0, i64 %tmp1

ST_2: W_imag39_load [2/2] 2.39ns
:10  %W_imag39_load = load float* %W_imag39_addr, align 16

ST_2: i_lower [1/1] 1.37ns
:11  %i_lower = xor i10 %k, -512

ST_2: tmp_s [1/1] 0.00ns
:12  %tmp_s = zext i10 %i_lower to i64

ST_2: newIndex1 [1/1] 0.00ns
:13  %newIndex1 = call i8 @_ssdm_op_PartSelect.i8.i10.i32.i32(i10 %i_lower, i32 2, i32 9)

ST_2: newIndex2 [1/1] 0.00ns
:14  %newIndex2 = zext i8 %newIndex1 to i64

ST_2: real_i_0_addr [1/1] 0.00ns
:15  %real_i_0_addr = getelementptr [256 x float]* %real_i_0, i64 0, i64 %newIndex2

ST_2: real_i_0_load [2/2] 2.71ns
:16  %real_i_0_load = load float* %real_i_0_addr, align 4

ST_2: imag_i_addr [1/1] 0.00ns
:18  %imag_i_addr = getelementptr [1024 x float]* %imag_i, i64 0, i64 %tmp_s

ST_2: imag_i_load [2/2] 2.71ns
:19  %imag_i_load = load float* %imag_i_addr, align 4

ST_2: newIndex5 [1/1] 0.00ns
:30  %newIndex5 = call i7 @_ssdm_op_PartSelect.i7.i10.i32.i32(i10 %i_lower, i32 3, i32 9)

ST_2: i_lower_1 [1/1] 1.84ns
:54  %i_lower_1 = add i11 513, %k_cast

ST_2: tmp_1_19 [1/1] 0.00ns
:55  %tmp_1_19 = zext i11 %i_lower_1 to i64

ST_2: newIndex9 [1/1] 0.00ns
:56  %newIndex9 = call i9 @_ssdm_op_PartSelect.i9.i11.i32.i32(i11 %i_lower_1, i32 2, i32 10)

ST_2: newIndex10 [1/1] 0.00ns
:57  %newIndex10 = zext i9 %newIndex9 to i64

ST_2: real_i_1_addr [1/1] 0.00ns
:58  %real_i_1_addr = getelementptr [256 x float]* %real_i_1, i64 0, i64 %newIndex10

ST_2: real_i_1_load [2/2] 2.71ns
:59  %real_i_1_load = load float* %real_i_1_addr, align 4

ST_2: imag_i_addr_10 [1/1] 0.00ns
:61  %imag_i_addr_10 = getelementptr [1024 x float]* %imag_i, i64 0, i64 %tmp_1_19

ST_2: imag_i_load_1 [2/2] 2.71ns
:62  %imag_i_load_1 = load float* %imag_i_addr_10, align 4

ST_2: newIndex11 [1/1] 0.00ns
:71  %newIndex11 = call i8 @_ssdm_op_PartSelect.i8.i11.i32.i32(i11 %i_lower_1, i32 3, i32 10)

ST_2: i_lower_2 [1/1] 1.84ns
:92  %i_lower_2 = add i11 514, %k_cast

ST_2: newIndex13 [1/1] 0.00ns
:94  %newIndex13 = call i9 @_ssdm_op_PartSelect.i9.i11.i32.i32(i11 %i_lower_2, i32 2, i32 10)

ST_2: newIndex14 [1/1] 0.00ns
:95  %newIndex14 = zext i9 %newIndex13 to i64

ST_2: real_i_2_addr [1/1] 0.00ns
:96  %real_i_2_addr = getelementptr [256 x float]* %real_i_2, i64 0, i64 %newIndex14

ST_2: real_i_2_load [2/2] 2.71ns
:97  %real_i_2_load = load float* %real_i_2_addr, align 4

ST_2: newIndex15 [1/1] 0.00ns
:109  %newIndex15 = call i8 @_ssdm_op_PartSelect.i8.i11.i32.i32(i11 %i_lower_2, i32 3, i32 10)

ST_2: i_lower_3 [1/1] 1.84ns
:130  %i_lower_3 = add i11 515, %k_cast

ST_2: newIndex17 [1/1] 0.00ns
:132  %newIndex17 = call i9 @_ssdm_op_PartSelect.i9.i11.i32.i32(i11 %i_lower_3, i32 2, i32 10)

ST_2: newIndex19 [1/1] 0.00ns
:133  %newIndex19 = zext i9 %newIndex17 to i64

ST_2: real_i_3_addr [1/1] 0.00ns
:134  %real_i_3_addr = getelementptr [256 x float]* %real_i_3, i64 0, i64 %newIndex19

ST_2: real_i_3_load [2/2] 2.71ns
:135  %real_i_3_load = load float* %real_i_3_addr, align 4

ST_2: newIndex20 [1/1] 0.00ns
:147  %newIndex20 = call i8 @_ssdm_op_PartSelect.i8.i11.i32.i32(i11 %i_lower_3, i32 3, i32 10)

ST_2: i_lower_4 [1/1] 1.84ns
:168  %i_lower_4 = add i11 516, %k_cast

ST_2: newIndex22 [1/1] 0.00ns
:170  %newIndex22 = call i9 @_ssdm_op_PartSelect.i9.i11.i32.i32(i11 %i_lower_4, i32 2, i32 10)

ST_2: newIndex24 [1/1] 0.00ns
:171  %newIndex24 = zext i9 %newIndex22 to i64

ST_2: real_i_0_addr_2 [1/1] 0.00ns
:172  %real_i_0_addr_2 = getelementptr [256 x float]* %real_i_0, i64 0, i64 %newIndex24

ST_2: real_i_0_load_2 [2/2] 2.71ns
:173  %real_i_0_load_2 = load float* %real_i_0_addr_2, align 4

ST_2: newIndex27 [1/1] 0.00ns
:187  %newIndex27 = call i8 @_ssdm_op_PartSelect.i8.i11.i32.i32(i11 %i_lower_4, i32 3, i32 10)

ST_2: i_lower_5 [1/1] 1.84ns
:208  %i_lower_5 = add i11 517, %k_cast

ST_2: newIndex29 [1/1] 0.00ns
:210  %newIndex29 = call i9 @_ssdm_op_PartSelect.i9.i11.i32.i32(i11 %i_lower_5, i32 2, i32 10)

ST_2: newIndex31 [1/1] 0.00ns
:211  %newIndex31 = zext i9 %newIndex29 to i64

ST_2: real_i_1_addr_2 [1/1] 0.00ns
:212  %real_i_1_addr_2 = getelementptr [256 x float]* %real_i_1, i64 0, i64 %newIndex31

ST_2: real_i_1_load_2 [2/2] 2.71ns
:213  %real_i_1_load_2 = load float* %real_i_1_addr_2, align 4

ST_2: newIndex34 [1/1] 0.00ns
:227  %newIndex34 = call i8 @_ssdm_op_PartSelect.i8.i11.i32.i32(i11 %i_lower_5, i32 3, i32 10)

ST_2: i_lower_6 [1/1] 1.84ns
:248  %i_lower_6 = add i11 518, %k_cast

ST_2: newIndex36 [1/1] 0.00ns
:250  %newIndex36 = call i9 @_ssdm_op_PartSelect.i9.i11.i32.i32(i11 %i_lower_6, i32 2, i32 10)

ST_2: newIndex37 [1/1] 0.00ns
:251  %newIndex37 = zext i9 %newIndex36 to i64

ST_2: real_i_2_addr_2 [1/1] 0.00ns
:252  %real_i_2_addr_2 = getelementptr [256 x float]* %real_i_2, i64 0, i64 %newIndex37

ST_2: real_i_2_load_2 [2/2] 2.71ns
:253  %real_i_2_load_2 = load float* %real_i_2_addr_2, align 4

ST_2: newIndex39 [1/1] 0.00ns
:267  %newIndex39 = call i8 @_ssdm_op_PartSelect.i8.i11.i32.i32(i11 %i_lower_6, i32 3, i32 10)

ST_2: i_lower_7 [1/1] 1.84ns
:288  %i_lower_7 = add i11 519, %k_cast

ST_2: newIndex23 [1/1] 0.00ns
:290  %newIndex23 = call i9 @_ssdm_op_PartSelect.i9.i11.i32.i32(i11 %i_lower_7, i32 2, i32 10)

ST_2: newIndex41 [1/1] 0.00ns
:291  %newIndex41 = zext i9 %newIndex23 to i64

ST_2: real_i_3_addr_2 [1/1] 0.00ns
:292  %real_i_3_addr_2 = getelementptr [256 x float]* %real_i_3, i64 0, i64 %newIndex41

ST_2: real_i_3_load_2 [2/2] 2.71ns
:293  %real_i_3_load_2 = load float* %real_i_3_addr_2, align 4

ST_2: newIndex42 [1/1] 0.00ns
:307  %newIndex42 = call i8 @_ssdm_op_PartSelect.i8.i11.i32.i32(i11 %i_lower_7, i32 3, i32 10)


 <State 3>: 8.41ns
ST_3: tmp_31 [1/1] 0.00ns
:0  %tmp_31 = trunc i10 %k to i9

ST_3: W_real47_load [1/2] 2.39ns
:8  %W_real47_load = load float* %W_real47_addr, align 16

ST_3: W_imag39_load [1/2] 2.39ns
:10  %W_imag39_load = load float* %W_imag39_addr, align 16

ST_3: real_i_0_load [1/2] 2.71ns
:16  %real_i_0_load = load float* %real_i_0_addr, align 4

ST_3: tmp_13 [4/4] 5.70ns
:17  %tmp_13 = fmul float %real_i_0_load, %W_real47_load

ST_3: imag_i_load [1/2] 2.71ns
:19  %imag_i_load = load float* %imag_i_addr, align 4

ST_3: tmp_14 [4/4] 5.70ns
:20  %tmp_14 = fmul float %imag_i_load, %W_imag39_load

ST_3: tmp_15 [4/4] 5.70ns
:22  %tmp_15 = fmul float %imag_i_load, %W_real47_load

ST_3: tmp_16 [4/4] 5.70ns
:23  %tmp_16 = fmul float %real_i_0_load, %W_imag39_load

ST_3: newIndex3 [1/1] 0.00ns
:25  %newIndex3 = call i8 @_ssdm_op_PartSelect.i8.i10.i32.i32(i10 %k, i32 2, i32 9)

ST_3: newIndex4 [1/1] 0.00ns
:26  %newIndex4 = zext i8 %newIndex3 to i64

ST_3: real_i_0_addr_1 [1/1] 0.00ns
:27  %real_i_0_addr_1 = getelementptr [256 x float]* %real_i_0, i64 0, i64 %newIndex4

ST_3: real_i_0_load_1 [2/2] 2.71ns
:28  %real_i_0_load_1 = load float* %real_i_0_addr_1, align 4

ST_3: newIndex7 [1/1] 0.00ns
:40  %newIndex7 = call i7 @_ssdm_op_PartSelect.i7.i10.i32.i32(i10 %k, i32 3, i32 9)

ST_3: k_3_s [1/1] 0.00ns
:47  %k_3_s = or i9 %tmp_31, 1

ST_3: tmp_1 [1/1] 0.00ns
:49  %tmp_1 = zext i9 %k_3_s to i64

ST_3: W_real47_addr_1 [1/1] 0.00ns
:50  %W_real47_addr_1 = getelementptr inbounds [512 x float]* @W_real47, i64 0, i64 %tmp_1

ST_3: W_real47_load_1 [2/2] 2.39ns
:51  %W_real47_load_1 = load float* %W_real47_addr_1, align 4

ST_3: W_imag39_addr_1 [1/1] 0.00ns
:52  %W_imag39_addr_1 = getelementptr inbounds [512 x float]* @W_imag39, i64 0, i64 %tmp_1

ST_3: W_imag39_load_1 [2/2] 2.39ns
:53  %W_imag39_load_1 = load float* %W_imag39_addr_1, align 4

ST_3: real_i_1_load [1/2] 2.71ns
:59  %real_i_1_load = load float* %real_i_1_addr, align 4

ST_3: imag_i_load_1 [1/2] 2.71ns
:62  %imag_i_load_1 = load float* %imag_i_addr_10, align 4

ST_3: tmp_2_20 [1/1] 0.00ns
:93  %tmp_2_20 = zext i11 %i_lower_2 to i64

ST_3: real_i_2_load [1/2] 2.71ns
:97  %real_i_2_load = load float* %real_i_2_addr, align 4

ST_3: imag_i_addr_12 [1/1] 0.00ns
:99  %imag_i_addr_12 = getelementptr [1024 x float]* %imag_i, i64 0, i64 %tmp_2_20

ST_3: imag_i_load_2 [2/2] 2.71ns
:100  %imag_i_load_2 = load float* %imag_i_addr_12, align 4

ST_3: tmp_3_21 [1/1] 0.00ns
:131  %tmp_3_21 = zext i11 %i_lower_3 to i64

ST_3: real_i_3_load [1/2] 2.71ns
:135  %real_i_3_load = load float* %real_i_3_addr, align 4

ST_3: imag_i_addr_14 [1/1] 0.00ns
:137  %imag_i_addr_14 = getelementptr [1024 x float]* %imag_i, i64 0, i64 %tmp_3_21

ST_3: imag_i_load_10 [2/2] 2.71ns
:138  %imag_i_load_10 = load float* %imag_i_addr_14, align 4

ST_3: real_i_0_load_2 [1/2] 2.71ns
:173  %real_i_0_load_2 = load float* %real_i_0_addr_2, align 4

ST_3: real_i_1_load_2 [1/2] 2.71ns
:213  %real_i_1_load_2 = load float* %real_i_1_addr_2, align 4

ST_3: real_i_2_load_2 [1/2] 2.71ns
:253  %real_i_2_load_2 = load float* %real_i_2_addr_2, align 4

ST_3: real_i_3_load_2 [1/2] 2.71ns
:293  %real_i_3_load_2 = load float* %real_i_3_addr_2, align 4

ST_3: k_3_7 [1/1] 1.84ns
:322  %k_3_7 = add i10 8, %k


 <State 4>: 8.09ns
ST_4: tmp_13 [3/4] 5.70ns
:17  %tmp_13 = fmul float %real_i_0_load, %W_real47_load

ST_4: tmp_14 [3/4] 5.70ns
:20  %tmp_14 = fmul float %imag_i_load, %W_imag39_load

ST_4: tmp_15 [3/4] 5.70ns
:22  %tmp_15 = fmul float %imag_i_load, %W_real47_load

ST_4: tmp_16 [3/4] 5.70ns
:23  %tmp_16 = fmul float %real_i_0_load, %W_imag39_load

ST_4: real_i_0_load_1 [1/2] 2.71ns
:28  %real_i_0_load_1 = load float* %real_i_0_addr_1, align 4

ST_4: W_real47_load_1 [1/2] 2.39ns
:51  %W_real47_load_1 = load float* %W_real47_addr_1, align 4

ST_4: W_imag39_load_1 [1/2] 2.39ns
:53  %W_imag39_load_1 = load float* %W_imag39_addr_1, align 4

ST_4: tmp_13_1 [4/4] 5.70ns
:60  %tmp_13_1 = fmul float %real_i_1_load, %W_real47_load_1

ST_4: tmp_14_1 [4/4] 5.70ns
:63  %tmp_14_1 = fmul float %imag_i_load_1, %W_imag39_load_1

ST_4: tmp_15_1 [4/4] 5.70ns
:65  %tmp_15_1 = fmul float %imag_i_load_1, %W_real47_load_1

ST_4: tmp_16_1 [4/4] 5.70ns
:66  %tmp_16_1 = fmul float %real_i_1_load, %W_imag39_load_1

ST_4: k_3_1 [1/1] 0.00ns
:86  %k_3_1 = or i9 %tmp_31, 2

ST_4: tmp_2 [1/1] 0.00ns
:87  %tmp_2 = zext i9 %k_3_1 to i64

ST_4: W_real47_addr_2 [1/1] 0.00ns
:88  %W_real47_addr_2 = getelementptr inbounds [512 x float]* @W_real47, i64 0, i64 %tmp_2

ST_4: W_real47_load_2 [2/2] 2.39ns
:89  %W_real47_load_2 = load float* %W_real47_addr_2, align 8

ST_4: W_imag39_addr_2 [1/1] 0.00ns
:90  %W_imag39_addr_2 = getelementptr inbounds [512 x float]* @W_imag39, i64 0, i64 %tmp_2

ST_4: W_imag39_load_2 [2/2] 2.39ns
:91  %W_imag39_load_2 = load float* %W_imag39_addr_2, align 8

ST_4: imag_i_load_2 [1/2] 2.71ns
:100  %imag_i_load_2 = load float* %imag_i_addr_12, align 4

ST_4: imag_i_load_10 [1/2] 2.71ns
:138  %imag_i_load_10 = load float* %imag_i_addr_14, align 4

ST_4: tmp_4_22 [1/1] 0.00ns
:169  %tmp_4_22 = zext i11 %i_lower_4 to i64

ST_4: imag_i_addr_16 [1/1] 0.00ns
:175  %imag_i_addr_16 = getelementptr [1024 x float]* %imag_i, i64 0, i64 %tmp_4_22

ST_4: imag_i_load_4 [2/2] 2.71ns
:176  %imag_i_load_4 = load float* %imag_i_addr_16, align 4

ST_4: tmp_5_23 [1/1] 0.00ns
:209  %tmp_5_23 = zext i11 %i_lower_5 to i64

ST_4: imag_i_addr_18 [1/1] 0.00ns
:215  %imag_i_addr_18 = getelementptr [1024 x float]* %imag_i, i64 0, i64 %tmp_5_23

ST_4: imag_i_load_5 [2/2] 2.71ns
:216  %imag_i_load_5 = load float* %imag_i_addr_18, align 4


 <State 5>: 8.09ns
ST_5: tmp_13 [2/4] 5.70ns
:17  %tmp_13 = fmul float %real_i_0_load, %W_real47_load

ST_5: tmp_14 [2/4] 5.70ns
:20  %tmp_14 = fmul float %imag_i_load, %W_imag39_load

ST_5: tmp_15 [2/4] 5.70ns
:22  %tmp_15 = fmul float %imag_i_load, %W_real47_load

ST_5: tmp_16 [2/4] 5.70ns
:23  %tmp_16 = fmul float %real_i_0_load, %W_imag39_load

ST_5: tmp_13_1 [3/4] 5.70ns
:60  %tmp_13_1 = fmul float %real_i_1_load, %W_real47_load_1

ST_5: tmp_14_1 [3/4] 5.70ns
:63  %tmp_14_1 = fmul float %imag_i_load_1, %W_imag39_load_1

ST_5: tmp_15_1 [3/4] 5.70ns
:65  %tmp_15_1 = fmul float %imag_i_load_1, %W_real47_load_1

ST_5: tmp_16_1 [3/4] 5.70ns
:66  %tmp_16_1 = fmul float %real_i_1_load, %W_imag39_load_1

ST_5: W_real47_load_2 [1/2] 2.39ns
:89  %W_real47_load_2 = load float* %W_real47_addr_2, align 8

ST_5: W_imag39_load_2 [1/2] 2.39ns
:91  %W_imag39_load_2 = load float* %W_imag39_addr_2, align 8

ST_5: tmp_13_2 [4/4] 5.70ns
:98  %tmp_13_2 = fmul float %real_i_2_load, %W_real47_load_2

ST_5: tmp_14_2 [4/4] 5.70ns
:101  %tmp_14_2 = fmul float %imag_i_load_2, %W_imag39_load_2

ST_5: tmp_15_2 [4/4] 5.70ns
:103  %tmp_15_2 = fmul float %imag_i_load_2, %W_real47_load_2

ST_5: tmp_16_2 [4/4] 5.70ns
:104  %tmp_16_2 = fmul float %real_i_2_load, %W_imag39_load_2

ST_5: k_3_2 [1/1] 0.00ns
:124  %k_3_2 = or i9 %tmp_31, 3

ST_5: tmp_3 [1/1] 0.00ns
:125  %tmp_3 = zext i9 %k_3_2 to i64

ST_5: W_real47_addr_3 [1/1] 0.00ns
:126  %W_real47_addr_3 = getelementptr inbounds [512 x float]* @W_real47, i64 0, i64 %tmp_3

ST_5: W_real47_load_3 [2/2] 2.39ns
:127  %W_real47_load_3 = load float* %W_real47_addr_3, align 4

ST_5: W_imag39_addr_3 [1/1] 0.00ns
:128  %W_imag39_addr_3 = getelementptr inbounds [512 x float]* @W_imag39, i64 0, i64 %tmp_3

ST_5: W_imag39_load_3 [2/2] 2.39ns
:129  %W_imag39_load_3 = load float* %W_imag39_addr_3, align 4

ST_5: imag_i_load_4 [1/2] 2.71ns
:176  %imag_i_load_4 = load float* %imag_i_addr_16, align 4

ST_5: imag_i_load_5 [1/2] 2.71ns
:216  %imag_i_load_5 = load float* %imag_i_addr_18, align 4

ST_5: tmp_6_24 [1/1] 0.00ns
:249  %tmp_6_24 = zext i11 %i_lower_6 to i64

ST_5: imag_i_addr_20 [1/1] 0.00ns
:255  %imag_i_addr_20 = getelementptr [1024 x float]* %imag_i, i64 0, i64 %tmp_6_24

ST_5: imag_i_load_6 [2/2] 2.71ns
:256  %imag_i_load_6 = load float* %imag_i_addr_20, align 4

ST_5: tmp_7_25 [1/1] 0.00ns
:289  %tmp_7_25 = zext i11 %i_lower_7 to i64

ST_5: imag_i_addr_22 [1/1] 0.00ns
:295  %imag_i_addr_22 = getelementptr [1024 x float]* %imag_i, i64 0, i64 %tmp_7_25

ST_5: imag_i_load_7 [2/2] 2.71ns
:296  %imag_i_load_7 = load float* %imag_i_addr_22, align 4


 <State 6>: 8.09ns
ST_6: tmp_13 [1/4] 5.70ns
:17  %tmp_13 = fmul float %real_i_0_load, %W_real47_load

ST_6: tmp_14 [1/4] 5.70ns
:20  %tmp_14 = fmul float %imag_i_load, %W_imag39_load

ST_6: tmp_15 [1/4] 5.70ns
:22  %tmp_15 = fmul float %imag_i_load, %W_real47_load

ST_6: tmp_16 [1/4] 5.70ns
:23  %tmp_16 = fmul float %real_i_0_load, %W_imag39_load

ST_6: imag_i_addr_9 [1/1] 0.00ns
:34  %imag_i_addr_9 = getelementptr [1024 x float]* %imag_i, i64 0, i64 %tmp1

ST_6: imag_i_load_3 [2/2] 2.71ns
:35  %imag_i_load_3 = load float* %imag_i_addr_9, align 4

ST_6: tmp_13_1 [2/4] 5.70ns
:60  %tmp_13_1 = fmul float %real_i_1_load, %W_real47_load_1

ST_6: tmp_14_1 [2/4] 5.70ns
:63  %tmp_14_1 = fmul float %imag_i_load_1, %W_imag39_load_1

ST_6: tmp_15_1 [2/4] 5.70ns
:65  %tmp_15_1 = fmul float %imag_i_load_1, %W_real47_load_1

ST_6: tmp_16_1 [2/4] 5.70ns
:66  %tmp_16_1 = fmul float %real_i_1_load, %W_imag39_load_1

ST_6: imag_i_addr_11 [1/1] 0.00ns
:75  %imag_i_addr_11 = getelementptr [1024 x float]* %imag_i, i64 0, i64 %tmp_1

ST_6: imag_i_load_8 [2/2] 2.71ns
:76  %imag_i_load_8 = load float* %imag_i_addr_11, align 4

ST_6: tmp_13_2 [3/4] 5.70ns
:98  %tmp_13_2 = fmul float %real_i_2_load, %W_real47_load_2

ST_6: tmp_14_2 [3/4] 5.70ns
:101  %tmp_14_2 = fmul float %imag_i_load_2, %W_imag39_load_2

ST_6: tmp_15_2 [3/4] 5.70ns
:103  %tmp_15_2 = fmul float %imag_i_load_2, %W_real47_load_2

ST_6: tmp_16_2 [3/4] 5.70ns
:104  %tmp_16_2 = fmul float %real_i_2_load, %W_imag39_load_2

ST_6: W_real47_load_3 [1/2] 2.39ns
:127  %W_real47_load_3 = load float* %W_real47_addr_3, align 4

ST_6: W_imag39_load_3 [1/2] 2.39ns
:129  %W_imag39_load_3 = load float* %W_imag39_addr_3, align 4

ST_6: tmp_13_3 [4/4] 5.70ns
:136  %tmp_13_3 = fmul float %real_i_3_load, %W_real47_load_3

ST_6: tmp_14_3 [4/4] 5.70ns
:139  %tmp_14_3 = fmul float %imag_i_load_10, %W_imag39_load_3

ST_6: tmp_15_3 [4/4] 5.70ns
:141  %tmp_15_3 = fmul float %imag_i_load_10, %W_real47_load_3

ST_6: tmp_16_3 [4/4] 5.70ns
:142  %tmp_16_3 = fmul float %real_i_3_load, %W_imag39_load_3

ST_6: k_3_3 [1/1] 0.00ns
:162  %k_3_3 = or i9 %tmp_31, 4

ST_6: tmp_4 [1/1] 0.00ns
:163  %tmp_4 = zext i9 %k_3_3 to i64

ST_6: W_real47_addr_4 [1/1] 0.00ns
:164  %W_real47_addr_4 = getelementptr inbounds [512 x float]* @W_real47, i64 0, i64 %tmp_4

ST_6: W_real47_load_4 [2/2] 2.39ns
:165  %W_real47_load_4 = load float* %W_real47_addr_4, align 16

ST_6: W_imag39_addr_4 [1/1] 0.00ns
:166  %W_imag39_addr_4 = getelementptr inbounds [512 x float]* @W_imag39, i64 0, i64 %tmp_4

ST_6: W_imag39_load_4 [2/2] 2.39ns
:167  %W_imag39_load_4 = load float* %W_imag39_addr_4, align 16

ST_6: newIndex25 [1/1] 0.00ns
:182  %newIndex25 = call i7 @_ssdm_op_PartSelect.i7.i9.i32.i32(i9 %k_3_3, i32 2, i32 8)

ST_6: imag_i_load_6 [1/2] 2.71ns
:256  %imag_i_load_6 = load float* %imag_i_addr_20, align 4

ST_6: imag_i_load_7 [1/2] 2.71ns
:296  %imag_i_load_7 = load float* %imag_i_addr_22, align 4


 <State 7>: 8.09ns
ST_7: temp_R [5/5] 7.26ns
:21  %temp_R = fsub float %tmp_13, %tmp_14

ST_7: temp_I [5/5] 7.26ns
:24  %temp_I = fadd float %tmp_15, %tmp_16

ST_7: imag_i_load_3 [1/2] 2.71ns
:35  %imag_i_load_3 = load float* %imag_i_addr_9, align 4

ST_7: tmp_13_1 [1/4] 5.70ns
:60  %tmp_13_1 = fmul float %real_i_1_load, %W_real47_load_1

ST_7: tmp_14_1 [1/4] 5.70ns
:63  %tmp_14_1 = fmul float %imag_i_load_1, %W_imag39_load_1

ST_7: tmp_15_1 [1/4] 5.70ns
:65  %tmp_15_1 = fmul float %imag_i_load_1, %W_real47_load_1

ST_7: tmp_16_1 [1/4] 5.70ns
:66  %tmp_16_1 = fmul float %real_i_1_load, %W_imag39_load_1

ST_7: imag_i_load_8 [1/2] 2.71ns
:76  %imag_i_load_8 = load float* %imag_i_addr_11, align 4

ST_7: tmp_13_2 [2/4] 5.70ns
:98  %tmp_13_2 = fmul float %real_i_2_load, %W_real47_load_2

ST_7: tmp_14_2 [2/4] 5.70ns
:101  %tmp_14_2 = fmul float %imag_i_load_2, %W_imag39_load_2

ST_7: tmp_15_2 [2/4] 5.70ns
:103  %tmp_15_2 = fmul float %imag_i_load_2, %W_real47_load_2

ST_7: tmp_16_2 [2/4] 5.70ns
:104  %tmp_16_2 = fmul float %real_i_2_load, %W_imag39_load_2

ST_7: imag_i_addr_13 [1/1] 0.00ns
:113  %imag_i_addr_13 = getelementptr [1024 x float]* %imag_i, i64 0, i64 %tmp_2

ST_7: imag_i_load_9 [2/2] 2.71ns
:114  %imag_i_load_9 = load float* %imag_i_addr_13, align 4

ST_7: tmp_13_3 [3/4] 5.70ns
:136  %tmp_13_3 = fmul float %real_i_3_load, %W_real47_load_3

ST_7: tmp_14_3 [3/4] 5.70ns
:139  %tmp_14_3 = fmul float %imag_i_load_10, %W_imag39_load_3

ST_7: tmp_15_3 [3/4] 5.70ns
:141  %tmp_15_3 = fmul float %imag_i_load_10, %W_real47_load_3

ST_7: tmp_16_3 [3/4] 5.70ns
:142  %tmp_16_3 = fmul float %real_i_3_load, %W_imag39_load_3

ST_7: imag_i_addr_15 [1/1] 0.00ns
:151  %imag_i_addr_15 = getelementptr [1024 x float]* %imag_i, i64 0, i64 %tmp_3

ST_7: imag_i_load_11 [2/2] 2.71ns
:152  %imag_i_load_11 = load float* %imag_i_addr_15, align 4

ST_7: W_real47_load_4 [1/2] 2.39ns
:165  %W_real47_load_4 = load float* %W_real47_addr_4, align 16

ST_7: W_imag39_load_4 [1/2] 2.39ns
:167  %W_imag39_load_4 = load float* %W_imag39_addr_4, align 16

ST_7: tmp_13_4 [4/4] 5.70ns
:174  %tmp_13_4 = fmul float %real_i_0_load_2, %W_real47_load_4

ST_7: tmp_14_4 [4/4] 5.70ns
:177  %tmp_14_4 = fmul float %imag_i_load_4, %W_imag39_load_4

ST_7: tmp_15_4 [4/4] 5.70ns
:179  %tmp_15_4 = fmul float %imag_i_load_4, %W_real47_load_4

ST_7: tmp_16_4 [4/4] 5.70ns
:180  %tmp_16_4 = fmul float %real_i_0_load_2, %W_imag39_load_4

ST_7: k_3_4 [1/1] 0.00ns
:202  %k_3_4 = or i9 %tmp_31, 5

ST_7: tmp_5 [1/1] 0.00ns
:203  %tmp_5 = zext i9 %k_3_4 to i64

ST_7: W_real47_addr_5 [1/1] 0.00ns
:204  %W_real47_addr_5 = getelementptr inbounds [512 x float]* @W_real47, i64 0, i64 %tmp_5

ST_7: W_real47_load_5 [2/2] 2.39ns
:205  %W_real47_load_5 = load float* %W_real47_addr_5, align 4

ST_7: W_imag39_addr_5 [1/1] 0.00ns
:206  %W_imag39_addr_5 = getelementptr inbounds [512 x float]* @W_imag39, i64 0, i64 %tmp_5

ST_7: W_imag39_load_5 [2/2] 2.39ns
:207  %W_imag39_load_5 = load float* %W_imag39_addr_5, align 4

ST_7: newIndex32 [1/1] 0.00ns
:222  %newIndex32 = call i7 @_ssdm_op_PartSelect.i7.i9.i32.i32(i9 %k_3_4, i32 2, i32 8)


 <State 8>: 8.09ns
ST_8: temp_R [4/5] 7.26ns
:21  %temp_R = fsub float %tmp_13, %tmp_14

ST_8: temp_I [4/5] 7.26ns
:24  %temp_I = fadd float %tmp_15, %tmp_16

ST_8: temp_R_1 [5/5] 7.26ns
:64  %temp_R_1 = fsub float %tmp_13_1, %tmp_14_1

ST_8: temp_I_1 [5/5] 7.26ns
:67  %temp_I_1 = fadd float %tmp_15_1, %tmp_16_1

ST_8: tmp_13_2 [1/4] 5.70ns
:98  %tmp_13_2 = fmul float %real_i_2_load, %W_real47_load_2

ST_8: tmp_14_2 [1/4] 5.70ns
:101  %tmp_14_2 = fmul float %imag_i_load_2, %W_imag39_load_2

ST_8: tmp_15_2 [1/4] 5.70ns
:103  %tmp_15_2 = fmul float %imag_i_load_2, %W_real47_load_2

ST_8: tmp_16_2 [1/4] 5.70ns
:104  %tmp_16_2 = fmul float %real_i_2_load, %W_imag39_load_2

ST_8: imag_i_load_9 [1/2] 2.71ns
:114  %imag_i_load_9 = load float* %imag_i_addr_13, align 4

ST_8: tmp_13_3 [2/4] 5.70ns
:136  %tmp_13_3 = fmul float %real_i_3_load, %W_real47_load_3

ST_8: tmp_14_3 [2/4] 5.70ns
:139  %tmp_14_3 = fmul float %imag_i_load_10, %W_imag39_load_3

ST_8: tmp_15_3 [2/4] 5.70ns
:141  %tmp_15_3 = fmul float %imag_i_load_10, %W_real47_load_3

ST_8: tmp_16_3 [2/4] 5.70ns
:142  %tmp_16_3 = fmul float %real_i_3_load, %W_imag39_load_3

ST_8: imag_i_load_11 [1/2] 2.71ns
:152  %imag_i_load_11 = load float* %imag_i_addr_15, align 4

ST_8: tmp_13_4 [3/4] 5.70ns
:174  %tmp_13_4 = fmul float %real_i_0_load_2, %W_real47_load_4

ST_8: tmp_14_4 [3/4] 5.70ns
:177  %tmp_14_4 = fmul float %imag_i_load_4, %W_imag39_load_4

ST_8: tmp_15_4 [3/4] 5.70ns
:179  %tmp_15_4 = fmul float %imag_i_load_4, %W_real47_load_4

ST_8: tmp_16_4 [3/4] 5.70ns
:180  %tmp_16_4 = fmul float %real_i_0_load_2, %W_imag39_load_4

ST_8: imag_i_addr_17 [1/1] 0.00ns
:191  %imag_i_addr_17 = getelementptr [1024 x float]* %imag_i, i64 0, i64 %tmp_4

ST_8: imag_i_load_12 [2/2] 2.71ns
:192  %imag_i_load_12 = load float* %imag_i_addr_17, align 4

ST_8: W_real47_load_5 [1/2] 2.39ns
:205  %W_real47_load_5 = load float* %W_real47_addr_5, align 4

ST_8: W_imag39_load_5 [1/2] 2.39ns
:207  %W_imag39_load_5 = load float* %W_imag39_addr_5, align 4

ST_8: tmp_13_5 [4/4] 5.70ns
:214  %tmp_13_5 = fmul float %real_i_1_load_2, %W_real47_load_5

ST_8: tmp_14_5 [4/4] 5.70ns
:217  %tmp_14_5 = fmul float %imag_i_load_5, %W_imag39_load_5

ST_8: tmp_15_5 [4/4] 5.70ns
:219  %tmp_15_5 = fmul float %imag_i_load_5, %W_real47_load_5

ST_8: tmp_16_5 [4/4] 5.70ns
:220  %tmp_16_5 = fmul float %real_i_1_load_2, %W_imag39_load_5

ST_8: imag_i_addr_19 [1/1] 0.00ns
:231  %imag_i_addr_19 = getelementptr [1024 x float]* %imag_i, i64 0, i64 %tmp_5

ST_8: imag_i_load_13 [2/2] 2.71ns
:232  %imag_i_load_13 = load float* %imag_i_addr_19, align 4

ST_8: k_3_5 [1/1] 0.00ns
:242  %k_3_5 = or i9 %tmp_31, 6

ST_8: tmp_6 [1/1] 0.00ns
:243  %tmp_6 = zext i9 %k_3_5 to i64

ST_8: W_real47_addr_6 [1/1] 0.00ns
:244  %W_real47_addr_6 = getelementptr inbounds [512 x float]* @W_real47, i64 0, i64 %tmp_6

ST_8: W_real47_load_6 [2/2] 2.39ns
:245  %W_real47_load_6 = load float* %W_real47_addr_6, align 8

ST_8: W_imag39_addr_6 [1/1] 0.00ns
:246  %W_imag39_addr_6 = getelementptr inbounds [512 x float]* @W_imag39, i64 0, i64 %tmp_6

ST_8: W_imag39_load_6 [2/2] 2.39ns
:247  %W_imag39_load_6 = load float* %W_imag39_addr_6, align 8

ST_8: newIndex30 [1/1] 0.00ns
:262  %newIndex30 = call i7 @_ssdm_op_PartSelect.i7.i9.i32.i32(i9 %k_3_5, i32 2, i32 8)


 <State 9>: 8.09ns
ST_9: temp_R [3/5] 7.26ns
:21  %temp_R = fsub float %tmp_13, %tmp_14

ST_9: temp_I [3/5] 7.26ns
:24  %temp_I = fadd float %tmp_15, %tmp_16

ST_9: temp_R_1 [4/5] 7.26ns
:64  %temp_R_1 = fsub float %tmp_13_1, %tmp_14_1

ST_9: temp_I_1 [4/5] 7.26ns
:67  %temp_I_1 = fadd float %tmp_15_1, %tmp_16_1

ST_9: temp_R_2 [5/5] 7.26ns
:102  %temp_R_2 = fsub float %tmp_13_2, %tmp_14_2

ST_9: temp_I_2 [5/5] 7.26ns
:105  %temp_I_2 = fadd float %tmp_15_2, %tmp_16_2

ST_9: tmp_13_3 [1/4] 5.70ns
:136  %tmp_13_3 = fmul float %real_i_3_load, %W_real47_load_3

ST_9: tmp_14_3 [1/4] 5.70ns
:139  %tmp_14_3 = fmul float %imag_i_load_10, %W_imag39_load_3

ST_9: tmp_15_3 [1/4] 5.70ns
:141  %tmp_15_3 = fmul float %imag_i_load_10, %W_real47_load_3

ST_9: tmp_16_3 [1/4] 5.70ns
:142  %tmp_16_3 = fmul float %real_i_3_load, %W_imag39_load_3

ST_9: tmp_13_4 [2/4] 5.70ns
:174  %tmp_13_4 = fmul float %real_i_0_load_2, %W_real47_load_4

ST_9: tmp_14_4 [2/4] 5.70ns
:177  %tmp_14_4 = fmul float %imag_i_load_4, %W_imag39_load_4

ST_9: tmp_15_4 [2/4] 5.70ns
:179  %tmp_15_4 = fmul float %imag_i_load_4, %W_real47_load_4

ST_9: tmp_16_4 [2/4] 5.70ns
:180  %tmp_16_4 = fmul float %real_i_0_load_2, %W_imag39_load_4

ST_9: imag_i_load_12 [1/2] 2.71ns
:192  %imag_i_load_12 = load float* %imag_i_addr_17, align 4

ST_9: tmp_13_5 [3/4] 5.70ns
:214  %tmp_13_5 = fmul float %real_i_1_load_2, %W_real47_load_5

ST_9: tmp_14_5 [3/4] 5.70ns
:217  %tmp_14_5 = fmul float %imag_i_load_5, %W_imag39_load_5

ST_9: tmp_15_5 [3/4] 5.70ns
:219  %tmp_15_5 = fmul float %imag_i_load_5, %W_real47_load_5

ST_9: tmp_16_5 [3/4] 5.70ns
:220  %tmp_16_5 = fmul float %real_i_1_load_2, %W_imag39_load_5

ST_9: imag_i_load_13 [1/2] 2.71ns
:232  %imag_i_load_13 = load float* %imag_i_addr_19, align 4

ST_9: W_real47_load_6 [1/2] 2.39ns
:245  %W_real47_load_6 = load float* %W_real47_addr_6, align 8

ST_9: W_imag39_load_6 [1/2] 2.39ns
:247  %W_imag39_load_6 = load float* %W_imag39_addr_6, align 8

ST_9: tmp_13_6 [4/4] 5.70ns
:254  %tmp_13_6 = fmul float %real_i_2_load_2, %W_real47_load_6

ST_9: tmp_14_6 [4/4] 5.70ns
:257  %tmp_14_6 = fmul float %imag_i_load_6, %W_imag39_load_6

ST_9: tmp_15_6 [4/4] 5.70ns
:259  %tmp_15_6 = fmul float %imag_i_load_6, %W_real47_load_6

ST_9: tmp_16_6 [4/4] 5.70ns
:260  %tmp_16_6 = fmul float %real_i_2_load_2, %W_imag39_load_6

ST_9: imag_i_addr_21 [1/1] 0.00ns
:271  %imag_i_addr_21 = getelementptr [1024 x float]* %imag_i, i64 0, i64 %tmp_6

ST_9: imag_i_load_14 [2/2] 2.71ns
:272  %imag_i_load_14 = load float* %imag_i_addr_21, align 4

ST_9: k_3_6 [1/1] 0.00ns
:282  %k_3_6 = or i9 %tmp_31, 7

ST_9: tmp_7 [1/1] 0.00ns
:283  %tmp_7 = zext i9 %k_3_6 to i64

ST_9: W_real47_addr_7 [1/1] 0.00ns
:284  %W_real47_addr_7 = getelementptr inbounds [512 x float]* @W_real47, i64 0, i64 %tmp_7

ST_9: W_real47_load_7 [2/2] 2.39ns
:285  %W_real47_load_7 = load float* %W_real47_addr_7, align 4

ST_9: W_imag39_addr_7 [1/1] 0.00ns
:286  %W_imag39_addr_7 = getelementptr inbounds [512 x float]* @W_imag39, i64 0, i64 %tmp_7

ST_9: W_imag39_load_7 [2/2] 2.39ns
:287  %W_imag39_load_7 = load float* %W_imag39_addr_7, align 4

ST_9: newIndex [1/1] 0.00ns
:302  %newIndex = call i7 @_ssdm_op_PartSelect.i7.i9.i32.i32(i9 %k_3_6, i32 2, i32 8)


 <State 10>: 8.09ns
ST_10: temp_R [2/5] 7.26ns
:21  %temp_R = fsub float %tmp_13, %tmp_14

ST_10: temp_I [2/5] 7.26ns
:24  %temp_I = fadd float %tmp_15, %tmp_16

ST_10: temp_R_1 [3/5] 7.26ns
:64  %temp_R_1 = fsub float %tmp_13_1, %tmp_14_1

ST_10: temp_I_1 [3/5] 7.26ns
:67  %temp_I_1 = fadd float %tmp_15_1, %tmp_16_1

ST_10: temp_R_2 [4/5] 7.26ns
:102  %temp_R_2 = fsub float %tmp_13_2, %tmp_14_2

ST_10: temp_I_2 [4/5] 7.26ns
:105  %temp_I_2 = fadd float %tmp_15_2, %tmp_16_2

ST_10: temp_R_3 [5/5] 7.26ns
:140  %temp_R_3 = fsub float %tmp_13_3, %tmp_14_3

ST_10: temp_I_3 [5/5] 7.26ns
:143  %temp_I_3 = fadd float %tmp_15_3, %tmp_16_3

ST_10: tmp_13_4 [1/4] 5.70ns
:174  %tmp_13_4 = fmul float %real_i_0_load_2, %W_real47_load_4

ST_10: tmp_14_4 [1/4] 5.70ns
:177  %tmp_14_4 = fmul float %imag_i_load_4, %W_imag39_load_4

ST_10: tmp_15_4 [1/4] 5.70ns
:179  %tmp_15_4 = fmul float %imag_i_load_4, %W_real47_load_4

ST_10: tmp_16_4 [1/4] 5.70ns
:180  %tmp_16_4 = fmul float %real_i_0_load_2, %W_imag39_load_4

ST_10: tmp_13_5 [2/4] 5.70ns
:214  %tmp_13_5 = fmul float %real_i_1_load_2, %W_real47_load_5

ST_10: tmp_14_5 [2/4] 5.70ns
:217  %tmp_14_5 = fmul float %imag_i_load_5, %W_imag39_load_5

ST_10: tmp_15_5 [2/4] 5.70ns
:219  %tmp_15_5 = fmul float %imag_i_load_5, %W_real47_load_5

ST_10: tmp_16_5 [2/4] 5.70ns
:220  %tmp_16_5 = fmul float %real_i_1_load_2, %W_imag39_load_5

ST_10: tmp_13_6 [3/4] 5.70ns
:254  %tmp_13_6 = fmul float %real_i_2_load_2, %W_real47_load_6

ST_10: tmp_14_6 [3/4] 5.70ns
:257  %tmp_14_6 = fmul float %imag_i_load_6, %W_imag39_load_6

ST_10: tmp_15_6 [3/4] 5.70ns
:259  %tmp_15_6 = fmul float %imag_i_load_6, %W_real47_load_6

ST_10: tmp_16_6 [3/4] 5.70ns
:260  %tmp_16_6 = fmul float %real_i_2_load_2, %W_imag39_load_6

ST_10: imag_i_load_14 [1/2] 2.71ns
:272  %imag_i_load_14 = load float* %imag_i_addr_21, align 4

ST_10: W_real47_load_7 [1/2] 2.39ns
:285  %W_real47_load_7 = load float* %W_real47_addr_7, align 4

ST_10: W_imag39_load_7 [1/2] 2.39ns
:287  %W_imag39_load_7 = load float* %W_imag39_addr_7, align 4

ST_10: tmp_13_7 [4/4] 5.70ns
:294  %tmp_13_7 = fmul float %real_i_3_load_2, %W_real47_load_7

ST_10: tmp_14_7 [4/4] 5.70ns
:297  %tmp_14_7 = fmul float %imag_i_load_7, %W_imag39_load_7

ST_10: tmp_15_7 [4/4] 5.70ns
:299  %tmp_15_7 = fmul float %imag_i_load_7, %W_real47_load_7

ST_10: tmp_16_7 [4/4] 5.70ns
:300  %tmp_16_7 = fmul float %real_i_3_load_2, %W_imag39_load_7


 <State 11>: 7.26ns
ST_11: temp_R [1/5] 7.26ns
:21  %temp_R = fsub float %tmp_13, %tmp_14

ST_11: temp_I [1/5] 7.26ns
:24  %temp_I = fadd float %tmp_15, %tmp_16

ST_11: temp_R_1 [2/5] 7.26ns
:64  %temp_R_1 = fsub float %tmp_13_1, %tmp_14_1

ST_11: temp_I_1 [2/5] 7.26ns
:67  %temp_I_1 = fadd float %tmp_15_1, %tmp_16_1

ST_11: real_i_1_addr_1 [1/1] 0.00ns
:68  %real_i_1_addr_1 = getelementptr [256 x float]* %real_i_1, i64 0, i64 %newIndex4

ST_11: real_i_1_load_1 [2/2] 2.71ns
:69  %real_i_1_load_1 = load float* %real_i_1_addr_1, align 4

ST_11: temp_R_2 [3/5] 7.26ns
:102  %temp_R_2 = fsub float %tmp_13_2, %tmp_14_2

ST_11: temp_I_2 [3/5] 7.26ns
:105  %temp_I_2 = fadd float %tmp_15_2, %tmp_16_2

ST_11: real_i_2_addr_1 [1/1] 0.00ns
:106  %real_i_2_addr_1 = getelementptr [256 x float]* %real_i_2, i64 0, i64 %newIndex4

ST_11: real_i_2_load_1 [2/2] 2.71ns
:107  %real_i_2_load_1 = load float* %real_i_2_addr_1, align 4

ST_11: temp_R_3 [4/5] 7.26ns
:140  %temp_R_3 = fsub float %tmp_13_3, %tmp_14_3

ST_11: temp_I_3 [4/5] 7.26ns
:143  %temp_I_3 = fadd float %tmp_15_3, %tmp_16_3

ST_11: real_i_3_addr_1 [1/1] 0.00ns
:144  %real_i_3_addr_1 = getelementptr [256 x float]* %real_i_3, i64 0, i64 %newIndex4

ST_11: real_i_3_load_1 [2/2] 2.71ns
:145  %real_i_3_load_1 = load float* %real_i_3_addr_1, align 4

ST_11: temp_R_4 [5/5] 7.26ns
:178  %temp_R_4 = fsub float %tmp_13_4, %tmp_14_4

ST_11: temp_I_4 [5/5] 7.26ns
:181  %temp_I_4 = fadd float %tmp_15_4, %tmp_16_4

ST_11: newIndex26 [1/1] 0.00ns
:183  %newIndex26 = zext i7 %newIndex25 to i64

ST_11: real_i_0_addr_3 [1/1] 0.00ns
:184  %real_i_0_addr_3 = getelementptr [256 x float]* %real_i_0, i64 0, i64 %newIndex26

ST_11: real_i_0_load_3 [2/2] 2.71ns
:185  %real_i_0_load_3 = load float* %real_i_0_addr_3, align 4

ST_11: tmp_13_5 [1/4] 5.70ns
:214  %tmp_13_5 = fmul float %real_i_1_load_2, %W_real47_load_5

ST_11: tmp_14_5 [1/4] 5.70ns
:217  %tmp_14_5 = fmul float %imag_i_load_5, %W_imag39_load_5

ST_11: tmp_15_5 [1/4] 5.70ns
:219  %tmp_15_5 = fmul float %imag_i_load_5, %W_real47_load_5

ST_11: tmp_16_5 [1/4] 5.70ns
:220  %tmp_16_5 = fmul float %real_i_1_load_2, %W_imag39_load_5

ST_11: newIndex33 [1/1] 0.00ns
:223  %newIndex33 = zext i7 %newIndex32 to i64

ST_11: real_i_1_addr_3 [1/1] 0.00ns
:224  %real_i_1_addr_3 = getelementptr [256 x float]* %real_i_1, i64 0, i64 %newIndex33

ST_11: real_i_1_load_3 [2/2] 2.71ns
:225  %real_i_1_load_3 = load float* %real_i_1_addr_3, align 4

ST_11: tmp_13_6 [2/4] 5.70ns
:254  %tmp_13_6 = fmul float %real_i_2_load_2, %W_real47_load_6

ST_11: tmp_14_6 [2/4] 5.70ns
:257  %tmp_14_6 = fmul float %imag_i_load_6, %W_imag39_load_6

ST_11: tmp_15_6 [2/4] 5.70ns
:259  %tmp_15_6 = fmul float %imag_i_load_6, %W_real47_load_6

ST_11: tmp_16_6 [2/4] 5.70ns
:260  %tmp_16_6 = fmul float %real_i_2_load_2, %W_imag39_load_6

ST_11: newIndex38 [1/1] 0.00ns
:263  %newIndex38 = zext i7 %newIndex30 to i64

ST_11: real_i_2_addr_3 [1/1] 0.00ns
:264  %real_i_2_addr_3 = getelementptr [256 x float]* %real_i_2, i64 0, i64 %newIndex38

ST_11: real_i_2_load_3 [2/2] 2.71ns
:265  %real_i_2_load_3 = load float* %real_i_2_addr_3, align 4

ST_11: tmp_13_7 [3/4] 5.70ns
:294  %tmp_13_7 = fmul float %real_i_3_load_2, %W_real47_load_7

ST_11: tmp_14_7 [3/4] 5.70ns
:297  %tmp_14_7 = fmul float %imag_i_load_7, %W_imag39_load_7

ST_11: tmp_15_7 [3/4] 5.70ns
:299  %tmp_15_7 = fmul float %imag_i_load_7, %W_real47_load_7

ST_11: tmp_16_7 [3/4] 5.70ns
:300  %tmp_16_7 = fmul float %real_i_3_load_2, %W_imag39_load_7

ST_11: newIndex18 [1/1] 0.00ns
:303  %newIndex18 = zext i7 %newIndex to i64

ST_11: real_i_3_addr_3 [1/1] 0.00ns
:304  %real_i_3_addr_3 = getelementptr [256 x float]* %real_i_3, i64 0, i64 %newIndex18

ST_11: real_i_3_load_3 [2/2] 2.71ns
:305  %real_i_3_load_3 = load float* %real_i_3_addr_3, align 4


 <State 12>: 7.26ns
ST_12: tmp_17 [5/5] 7.26ns
:29  %tmp_17 = fsub float %real_i_0_load_1, %temp_R

ST_12: tmp_18 [5/5] 7.26ns
:36  %tmp_18 = fsub float %imag_i_load_3, %temp_I

ST_12: tmp_19 [5/5] 7.26ns
:39  %tmp_19 = fadd float %real_i_0_load_1, %temp_R

ST_12: tmp_20 [5/5] 7.26ns
:44  %tmp_20 = fadd float %imag_i_load_3, %temp_I

ST_12: temp_R_1 [1/5] 7.26ns
:64  %temp_R_1 = fsub float %tmp_13_1, %tmp_14_1

ST_12: temp_I_1 [1/5] 7.26ns
:67  %temp_I_1 = fadd float %tmp_15_1, %tmp_16_1

ST_12: real_i_1_load_1 [1/2] 2.71ns
:69  %real_i_1_load_1 = load float* %real_i_1_addr_1, align 4

ST_12: temp_R_2 [2/5] 7.26ns
:102  %temp_R_2 = fsub float %tmp_13_2, %tmp_14_2

ST_12: temp_I_2 [2/5] 7.26ns
:105  %temp_I_2 = fadd float %tmp_15_2, %tmp_16_2

ST_12: real_i_2_load_1 [1/2] 2.71ns
:107  %real_i_2_load_1 = load float* %real_i_2_addr_1, align 4

ST_12: temp_R_3 [3/5] 7.26ns
:140  %temp_R_3 = fsub float %tmp_13_3, %tmp_14_3

ST_12: temp_I_3 [3/5] 7.26ns
:143  %temp_I_3 = fadd float %tmp_15_3, %tmp_16_3

ST_12: real_i_3_load_1 [1/2] 2.71ns
:145  %real_i_3_load_1 = load float* %real_i_3_addr_1, align 4

ST_12: temp_R_4 [4/5] 7.26ns
:178  %temp_R_4 = fsub float %tmp_13_4, %tmp_14_4

ST_12: temp_I_4 [4/5] 7.26ns
:181  %temp_I_4 = fadd float %tmp_15_4, %tmp_16_4

ST_12: real_i_0_load_3 [1/2] 2.71ns
:185  %real_i_0_load_3 = load float* %real_i_0_addr_3, align 4

ST_12: temp_R_5 [5/5] 7.26ns
:218  %temp_R_5 = fsub float %tmp_13_5, %tmp_14_5

ST_12: temp_I_5 [5/5] 7.26ns
:221  %temp_I_5 = fadd float %tmp_15_5, %tmp_16_5

ST_12: real_i_1_load_3 [1/2] 2.71ns
:225  %real_i_1_load_3 = load float* %real_i_1_addr_3, align 4

ST_12: tmp_13_6 [1/4] 5.70ns
:254  %tmp_13_6 = fmul float %real_i_2_load_2, %W_real47_load_6

ST_12: tmp_14_6 [1/4] 5.70ns
:257  %tmp_14_6 = fmul float %imag_i_load_6, %W_imag39_load_6

ST_12: tmp_15_6 [1/4] 5.70ns
:259  %tmp_15_6 = fmul float %imag_i_load_6, %W_real47_load_6

ST_12: tmp_16_6 [1/4] 5.70ns
:260  %tmp_16_6 = fmul float %real_i_2_load_2, %W_imag39_load_6

ST_12: real_i_2_load_3 [1/2] 2.71ns
:265  %real_i_2_load_3 = load float* %real_i_2_addr_3, align 4

ST_12: tmp_13_7 [2/4] 5.70ns
:294  %tmp_13_7 = fmul float %real_i_3_load_2, %W_real47_load_7

ST_12: tmp_14_7 [2/4] 5.70ns
:297  %tmp_14_7 = fmul float %imag_i_load_7, %W_imag39_load_7

ST_12: tmp_15_7 [2/4] 5.70ns
:299  %tmp_15_7 = fmul float %imag_i_load_7, %W_real47_load_7

ST_12: tmp_16_7 [2/4] 5.70ns
:300  %tmp_16_7 = fmul float %real_i_3_load_2, %W_imag39_load_7

ST_12: real_i_3_load_3 [1/2] 2.71ns
:305  %real_i_3_load_3 = load float* %real_i_3_addr_3, align 4


 <State 13>: 7.26ns
ST_13: tmp_17 [4/5] 7.26ns
:29  %tmp_17 = fsub float %real_i_0_load_1, %temp_R

ST_13: tmp_18 [4/5] 7.26ns
:36  %tmp_18 = fsub float %imag_i_load_3, %temp_I

ST_13: tmp_19 [4/5] 7.26ns
:39  %tmp_19 = fadd float %real_i_0_load_1, %temp_R

ST_13: tmp_20 [4/5] 7.26ns
:44  %tmp_20 = fadd float %imag_i_load_3, %temp_I

ST_13: tmp_17_1 [5/5] 7.26ns
:70  %tmp_17_1 = fsub float %real_i_1_load_1, %temp_R_1

ST_13: tmp_18_1 [5/5] 7.26ns
:77  %tmp_18_1 = fsub float %imag_i_load_8, %temp_I_1

ST_13: tmp_19_1 [5/5] 7.26ns
:80  %tmp_19_1 = fadd float %real_i_1_load_1, %temp_R_1

ST_13: tmp_20_1 [5/5] 7.26ns
:83  %tmp_20_1 = fadd float %imag_i_load_8, %temp_I_1

ST_13: temp_R_2 [1/5] 7.26ns
:102  %temp_R_2 = fsub float %tmp_13_2, %tmp_14_2

ST_13: temp_I_2 [1/5] 7.26ns
:105  %temp_I_2 = fadd float %tmp_15_2, %tmp_16_2

ST_13: temp_R_3 [2/5] 7.26ns
:140  %temp_R_3 = fsub float %tmp_13_3, %tmp_14_3

ST_13: temp_I_3 [2/5] 7.26ns
:143  %temp_I_3 = fadd float %tmp_15_3, %tmp_16_3

ST_13: temp_R_4 [3/5] 7.26ns
:178  %temp_R_4 = fsub float %tmp_13_4, %tmp_14_4

ST_13: temp_I_4 [3/5] 7.26ns
:181  %temp_I_4 = fadd float %tmp_15_4, %tmp_16_4

ST_13: temp_R_5 [4/5] 7.26ns
:218  %temp_R_5 = fsub float %tmp_13_5, %tmp_14_5

ST_13: temp_I_5 [4/5] 7.26ns
:221  %temp_I_5 = fadd float %tmp_15_5, %tmp_16_5

ST_13: temp_R_6 [5/5] 7.26ns
:258  %temp_R_6 = fsub float %tmp_13_6, %tmp_14_6

ST_13: temp_I_6 [5/5] 7.26ns
:261  %temp_I_6 = fadd float %tmp_15_6, %tmp_16_6

ST_13: tmp_13_7 [1/4] 5.70ns
:294  %tmp_13_7 = fmul float %real_i_3_load_2, %W_real47_load_7

ST_13: tmp_14_7 [1/4] 5.70ns
:297  %tmp_14_7 = fmul float %imag_i_load_7, %W_imag39_load_7

ST_13: tmp_15_7 [1/4] 5.70ns
:299  %tmp_15_7 = fmul float %imag_i_load_7, %W_real47_load_7

ST_13: tmp_16_7 [1/4] 5.70ns
:300  %tmp_16_7 = fmul float %real_i_3_load_2, %W_imag39_load_7


 <State 14>: 7.26ns
ST_14: tmp_17 [3/5] 7.26ns
:29  %tmp_17 = fsub float %real_i_0_load_1, %temp_R

ST_14: tmp_18 [3/5] 7.26ns
:36  %tmp_18 = fsub float %imag_i_load_3, %temp_I

ST_14: tmp_19 [3/5] 7.26ns
:39  %tmp_19 = fadd float %real_i_0_load_1, %temp_R

ST_14: tmp_20 [3/5] 7.26ns
:44  %tmp_20 = fadd float %imag_i_load_3, %temp_I

ST_14: tmp_17_1 [4/5] 7.26ns
:70  %tmp_17_1 = fsub float %real_i_1_load_1, %temp_R_1

ST_14: tmp_18_1 [4/5] 7.26ns
:77  %tmp_18_1 = fsub float %imag_i_load_8, %temp_I_1

ST_14: tmp_19_1 [4/5] 7.26ns
:80  %tmp_19_1 = fadd float %real_i_1_load_1, %temp_R_1

ST_14: tmp_20_1 [4/5] 7.26ns
:83  %tmp_20_1 = fadd float %imag_i_load_8, %temp_I_1

ST_14: tmp_17_2 [5/5] 7.26ns
:108  %tmp_17_2 = fsub float %real_i_2_load_1, %temp_R_2

ST_14: tmp_18_2 [5/5] 7.26ns
:115  %tmp_18_2 = fsub float %imag_i_load_9, %temp_I_2

ST_14: tmp_19_2 [5/5] 7.26ns
:118  %tmp_19_2 = fadd float %real_i_2_load_1, %temp_R_2

ST_14: tmp_20_2 [5/5] 7.26ns
:121  %tmp_20_2 = fadd float %imag_i_load_9, %temp_I_2

ST_14: temp_R_3 [1/5] 7.26ns
:140  %temp_R_3 = fsub float %tmp_13_3, %tmp_14_3

ST_14: temp_I_3 [1/5] 7.26ns
:143  %temp_I_3 = fadd float %tmp_15_3, %tmp_16_3

ST_14: temp_R_4 [2/5] 7.26ns
:178  %temp_R_4 = fsub float %tmp_13_4, %tmp_14_4

ST_14: temp_I_4 [2/5] 7.26ns
:181  %temp_I_4 = fadd float %tmp_15_4, %tmp_16_4

ST_14: temp_R_5 [3/5] 7.26ns
:218  %temp_R_5 = fsub float %tmp_13_5, %tmp_14_5

ST_14: temp_I_5 [3/5] 7.26ns
:221  %temp_I_5 = fadd float %tmp_15_5, %tmp_16_5

ST_14: temp_R_6 [4/5] 7.26ns
:258  %temp_R_6 = fsub float %tmp_13_6, %tmp_14_6

ST_14: temp_I_6 [4/5] 7.26ns
:261  %temp_I_6 = fadd float %tmp_15_6, %tmp_16_6

ST_14: temp_R_7 [5/5] 7.26ns
:298  %temp_R_7 = fsub float %tmp_13_7, %tmp_14_7

ST_14: temp_I_7 [5/5] 7.26ns
:301  %temp_I_7 = fadd float %tmp_15_7, %tmp_16_7


 <State 15>: 7.26ns
ST_15: tmp_17 [2/5] 7.26ns
:29  %tmp_17 = fsub float %real_i_0_load_1, %temp_R

ST_15: tmp_18 [2/5] 7.26ns
:36  %tmp_18 = fsub float %imag_i_load_3, %temp_I

ST_15: tmp_19 [2/5] 7.26ns
:39  %tmp_19 = fadd float %real_i_0_load_1, %temp_R

ST_15: tmp_20 [2/5] 7.26ns
:44  %tmp_20 = fadd float %imag_i_load_3, %temp_I

ST_15: tmp_17_1 [3/5] 7.26ns
:70  %tmp_17_1 = fsub float %real_i_1_load_1, %temp_R_1

ST_15: tmp_18_1 [3/5] 7.26ns
:77  %tmp_18_1 = fsub float %imag_i_load_8, %temp_I_1

ST_15: tmp_19_1 [3/5] 7.26ns
:80  %tmp_19_1 = fadd float %real_i_1_load_1, %temp_R_1

ST_15: tmp_20_1 [3/5] 7.26ns
:83  %tmp_20_1 = fadd float %imag_i_load_8, %temp_I_1

ST_15: tmp_17_2 [4/5] 7.26ns
:108  %tmp_17_2 = fsub float %real_i_2_load_1, %temp_R_2

ST_15: tmp_18_2 [4/5] 7.26ns
:115  %tmp_18_2 = fsub float %imag_i_load_9, %temp_I_2

ST_15: tmp_19_2 [4/5] 7.26ns
:118  %tmp_19_2 = fadd float %real_i_2_load_1, %temp_R_2

ST_15: tmp_20_2 [4/5] 7.26ns
:121  %tmp_20_2 = fadd float %imag_i_load_9, %temp_I_2

ST_15: tmp_17_3 [5/5] 7.26ns
:146  %tmp_17_3 = fsub float %real_i_3_load_1, %temp_R_3

ST_15: tmp_18_3 [5/5] 7.26ns
:153  %tmp_18_3 = fsub float %imag_i_load_11, %temp_I_3

ST_15: tmp_19_3 [5/5] 7.26ns
:156  %tmp_19_3 = fadd float %real_i_3_load_1, %temp_R_3

ST_15: tmp_20_3 [5/5] 7.26ns
:159  %tmp_20_3 = fadd float %imag_i_load_11, %temp_I_3

ST_15: temp_R_4 [1/5] 7.26ns
:178  %temp_R_4 = fsub float %tmp_13_4, %tmp_14_4

ST_15: temp_I_4 [1/5] 7.26ns
:181  %temp_I_4 = fadd float %tmp_15_4, %tmp_16_4

ST_15: temp_R_5 [2/5] 7.26ns
:218  %temp_R_5 = fsub float %tmp_13_5, %tmp_14_5

ST_15: temp_I_5 [2/5] 7.26ns
:221  %temp_I_5 = fadd float %tmp_15_5, %tmp_16_5

ST_15: temp_R_6 [3/5] 7.26ns
:258  %temp_R_6 = fsub float %tmp_13_6, %tmp_14_6

ST_15: temp_I_6 [3/5] 7.26ns
:261  %temp_I_6 = fadd float %tmp_15_6, %tmp_16_6

ST_15: temp_R_7 [4/5] 7.26ns
:298  %temp_R_7 = fsub float %tmp_13_7, %tmp_14_7

ST_15: temp_I_7 [4/5] 7.26ns
:301  %temp_I_7 = fadd float %tmp_15_7, %tmp_16_7


 <State 16>: 7.26ns
ST_16: tmp_17 [1/5] 7.26ns
:29  %tmp_17 = fsub float %real_i_0_load_1, %temp_R

ST_16: tmp_18 [1/5] 7.26ns
:36  %tmp_18 = fsub float %imag_i_load_3, %temp_I

ST_16: tmp_19 [1/5] 7.26ns
:39  %tmp_19 = fadd float %real_i_0_load_1, %temp_R

ST_16: tmp_20 [1/5] 7.26ns
:44  %tmp_20 = fadd float %imag_i_load_3, %temp_I

ST_16: tmp_17_1 [2/5] 7.26ns
:70  %tmp_17_1 = fsub float %real_i_1_load_1, %temp_R_1

ST_16: tmp_18_1 [2/5] 7.26ns
:77  %tmp_18_1 = fsub float %imag_i_load_8, %temp_I_1

ST_16: tmp_19_1 [2/5] 7.26ns
:80  %tmp_19_1 = fadd float %real_i_1_load_1, %temp_R_1

ST_16: tmp_20_1 [2/5] 7.26ns
:83  %tmp_20_1 = fadd float %imag_i_load_8, %temp_I_1

ST_16: tmp_17_2 [3/5] 7.26ns
:108  %tmp_17_2 = fsub float %real_i_2_load_1, %temp_R_2

ST_16: tmp_18_2 [3/5] 7.26ns
:115  %tmp_18_2 = fsub float %imag_i_load_9, %temp_I_2

ST_16: tmp_19_2 [3/5] 7.26ns
:118  %tmp_19_2 = fadd float %real_i_2_load_1, %temp_R_2

ST_16: tmp_20_2 [3/5] 7.26ns
:121  %tmp_20_2 = fadd float %imag_i_load_9, %temp_I_2

ST_16: tmp_17_3 [4/5] 7.26ns
:146  %tmp_17_3 = fsub float %real_i_3_load_1, %temp_R_3

ST_16: tmp_18_3 [4/5] 7.26ns
:153  %tmp_18_3 = fsub float %imag_i_load_11, %temp_I_3

ST_16: tmp_19_3 [4/5] 7.26ns
:156  %tmp_19_3 = fadd float %real_i_3_load_1, %temp_R_3

ST_16: tmp_20_3 [4/5] 7.26ns
:159  %tmp_20_3 = fadd float %imag_i_load_11, %temp_I_3

ST_16: tmp_17_4 [5/5] 7.26ns
:186  %tmp_17_4 = fsub float %real_i_0_load_3, %temp_R_4

ST_16: tmp_18_4 [5/5] 7.26ns
:193  %tmp_18_4 = fsub float %imag_i_load_12, %temp_I_4

ST_16: tmp_19_4 [5/5] 7.26ns
:196  %tmp_19_4 = fadd float %real_i_0_load_3, %temp_R_4

ST_16: tmp_20_4 [5/5] 7.26ns
:199  %tmp_20_4 = fadd float %imag_i_load_12, %temp_I_4

ST_16: temp_R_5 [1/5] 7.26ns
:218  %temp_R_5 = fsub float %tmp_13_5, %tmp_14_5

ST_16: temp_I_5 [1/5] 7.26ns
:221  %temp_I_5 = fadd float %tmp_15_5, %tmp_16_5

ST_16: temp_R_6 [2/5] 7.26ns
:258  %temp_R_6 = fsub float %tmp_13_6, %tmp_14_6

ST_16: temp_I_6 [2/5] 7.26ns
:261  %temp_I_6 = fadd float %tmp_15_6, %tmp_16_6

ST_16: temp_R_7 [3/5] 7.26ns
:298  %temp_R_7 = fsub float %tmp_13_7, %tmp_14_7

ST_16: temp_I_7 [3/5] 7.26ns
:301  %temp_I_7 = fadd float %tmp_15_7, %tmp_16_7


 <State 17>: 7.26ns
ST_17: newIndex6 [1/1] 0.00ns
:31  %newIndex6 = zext i7 %newIndex5 to i64

ST_17: real_o_0_addr [1/1] 0.00ns
:32  %real_o_0_addr = getelementptr [128 x float]* %real_o_0, i64 0, i64 %newIndex6

ST_17: stg_504 [1/1] 2.71ns
:33  store float %tmp_17, float* %real_o_0_addr, align 4

ST_17: imag_o_0_addr [1/1] 0.00ns
:37  %imag_o_0_addr = getelementptr [128 x float]* %imag_o_0, i64 0, i64 %newIndex6

ST_17: stg_506 [1/1] 2.71ns
:38  store float %tmp_18, float* %imag_o_0_addr, align 4

ST_17: newIndex8 [1/1] 0.00ns
:41  %newIndex8 = zext i7 %newIndex7 to i64

ST_17: real_o_0_addr_1 [1/1] 0.00ns
:42  %real_o_0_addr_1 = getelementptr [128 x float]* %real_o_0, i64 0, i64 %newIndex8

ST_17: stg_509 [1/1] 2.71ns
:43  store float %tmp_19, float* %real_o_0_addr_1, align 4

ST_17: imag_o_0_addr_1 [1/1] 0.00ns
:45  %imag_o_0_addr_1 = getelementptr [128 x float]* %imag_o_0, i64 0, i64 %newIndex8

ST_17: stg_511 [1/1] 2.71ns
:46  store float %tmp_20, float* %imag_o_0_addr_1, align 4

ST_17: tmp_17_1 [1/5] 7.26ns
:70  %tmp_17_1 = fsub float %real_i_1_load_1, %temp_R_1

ST_17: tmp_18_1 [1/5] 7.26ns
:77  %tmp_18_1 = fsub float %imag_i_load_8, %temp_I_1

ST_17: tmp_19_1 [1/5] 7.26ns
:80  %tmp_19_1 = fadd float %real_i_1_load_1, %temp_R_1

ST_17: tmp_20_1 [1/5] 7.26ns
:83  %tmp_20_1 = fadd float %imag_i_load_8, %temp_I_1

ST_17: tmp_17_2 [2/5] 7.26ns
:108  %tmp_17_2 = fsub float %real_i_2_load_1, %temp_R_2

ST_17: tmp_18_2 [2/5] 7.26ns
:115  %tmp_18_2 = fsub float %imag_i_load_9, %temp_I_2

ST_17: tmp_19_2 [2/5] 7.26ns
:118  %tmp_19_2 = fadd float %real_i_2_load_1, %temp_R_2

ST_17: tmp_20_2 [2/5] 7.26ns
:121  %tmp_20_2 = fadd float %imag_i_load_9, %temp_I_2

ST_17: tmp_17_3 [3/5] 7.26ns
:146  %tmp_17_3 = fsub float %real_i_3_load_1, %temp_R_3

ST_17: tmp_18_3 [3/5] 7.26ns
:153  %tmp_18_3 = fsub float %imag_i_load_11, %temp_I_3

ST_17: tmp_19_3 [3/5] 7.26ns
:156  %tmp_19_3 = fadd float %real_i_3_load_1, %temp_R_3

ST_17: tmp_20_3 [3/5] 7.26ns
:159  %tmp_20_3 = fadd float %imag_i_load_11, %temp_I_3

ST_17: tmp_17_4 [4/5] 7.26ns
:186  %tmp_17_4 = fsub float %real_i_0_load_3, %temp_R_4

ST_17: tmp_18_4 [4/5] 7.26ns
:193  %tmp_18_4 = fsub float %imag_i_load_12, %temp_I_4

ST_17: tmp_19_4 [4/5] 7.26ns
:196  %tmp_19_4 = fadd float %real_i_0_load_3, %temp_R_4

ST_17: tmp_20_4 [4/5] 7.26ns
:199  %tmp_20_4 = fadd float %imag_i_load_12, %temp_I_4

ST_17: tmp_17_5 [5/5] 7.26ns
:226  %tmp_17_5 = fsub float %real_i_1_load_3, %temp_R_5

ST_17: tmp_18_5 [5/5] 7.26ns
:233  %tmp_18_5 = fsub float %imag_i_load_13, %temp_I_5

ST_17: tmp_19_5 [5/5] 7.26ns
:236  %tmp_19_5 = fadd float %real_i_1_load_3, %temp_R_5

ST_17: tmp_20_5 [5/5] 7.26ns
:239  %tmp_20_5 = fadd float %imag_i_load_13, %temp_I_5

ST_17: temp_R_6 [1/5] 7.26ns
:258  %temp_R_6 = fsub float %tmp_13_6, %tmp_14_6

ST_17: temp_I_6 [1/5] 7.26ns
:261  %temp_I_6 = fadd float %tmp_15_6, %tmp_16_6

ST_17: temp_R_7 [2/5] 7.26ns
:298  %temp_R_7 = fsub float %tmp_13_7, %tmp_14_7

ST_17: temp_I_7 [2/5] 7.26ns
:301  %temp_I_7 = fadd float %tmp_15_7, %tmp_16_7

ST_17: imag_i_addr_23 [1/1] 0.00ns
:311  %imag_i_addr_23 = getelementptr [1024 x float]* %imag_i, i64 0, i64 %tmp_7

ST_17: imag_i_load_15 [2/2] 2.71ns
:312  %imag_i_load_15 = load float* %imag_i_addr_23, align 4


 <State 18>: 7.26ns
ST_18: newIndex12 [1/1] 0.00ns
:72  %newIndex12 = zext i8 %newIndex11 to i64

ST_18: real_o_1_addr [1/1] 0.00ns
:73  %real_o_1_addr = getelementptr [128 x float]* %real_o_1, i64 0, i64 %newIndex12

ST_18: stg_540 [1/1] 2.71ns
:74  store float %tmp_17_1, float* %real_o_1_addr, align 4

ST_18: imag_o_1_addr [1/1] 0.00ns
:78  %imag_o_1_addr = getelementptr [128 x float]* %imag_o_1, i64 0, i64 %newIndex12

ST_18: stg_542 [1/1] 2.71ns
:79  store float %tmp_18_1, float* %imag_o_1_addr, align 4

ST_18: real_o_1_addr_1 [1/1] 0.00ns
:81  %real_o_1_addr_1 = getelementptr [128 x float]* %real_o_1, i64 0, i64 %newIndex8

ST_18: stg_544 [1/1] 2.71ns
:82  store float %tmp_19_1, float* %real_o_1_addr_1, align 4

ST_18: imag_o_1_addr_1 [1/1] 0.00ns
:84  %imag_o_1_addr_1 = getelementptr [128 x float]* %imag_o_1, i64 0, i64 %newIndex8

ST_18: stg_546 [1/1] 2.71ns
:85  store float %tmp_20_1, float* %imag_o_1_addr_1, align 4

ST_18: tmp_17_2 [1/5] 7.26ns
:108  %tmp_17_2 = fsub float %real_i_2_load_1, %temp_R_2

ST_18: tmp_18_2 [1/5] 7.26ns
:115  %tmp_18_2 = fsub float %imag_i_load_9, %temp_I_2

ST_18: tmp_19_2 [1/5] 7.26ns
:118  %tmp_19_2 = fadd float %real_i_2_load_1, %temp_R_2

ST_18: tmp_20_2 [1/5] 7.26ns
:121  %tmp_20_2 = fadd float %imag_i_load_9, %temp_I_2

ST_18: tmp_17_3 [2/5] 7.26ns
:146  %tmp_17_3 = fsub float %real_i_3_load_1, %temp_R_3

ST_18: tmp_18_3 [2/5] 7.26ns
:153  %tmp_18_3 = fsub float %imag_i_load_11, %temp_I_3

ST_18: tmp_19_3 [2/5] 7.26ns
:156  %tmp_19_3 = fadd float %real_i_3_load_1, %temp_R_3

ST_18: tmp_20_3 [2/5] 7.26ns
:159  %tmp_20_3 = fadd float %imag_i_load_11, %temp_I_3

ST_18: tmp_17_4 [3/5] 7.26ns
:186  %tmp_17_4 = fsub float %real_i_0_load_3, %temp_R_4

ST_18: tmp_18_4 [3/5] 7.26ns
:193  %tmp_18_4 = fsub float %imag_i_load_12, %temp_I_4

ST_18: tmp_19_4 [3/5] 7.26ns
:196  %tmp_19_4 = fadd float %real_i_0_load_3, %temp_R_4

ST_18: tmp_20_4 [3/5] 7.26ns
:199  %tmp_20_4 = fadd float %imag_i_load_12, %temp_I_4

ST_18: tmp_17_5 [4/5] 7.26ns
:226  %tmp_17_5 = fsub float %real_i_1_load_3, %temp_R_5

ST_18: tmp_18_5 [4/5] 7.26ns
:233  %tmp_18_5 = fsub float %imag_i_load_13, %temp_I_5

ST_18: tmp_19_5 [4/5] 7.26ns
:236  %tmp_19_5 = fadd float %real_i_1_load_3, %temp_R_5

ST_18: tmp_20_5 [4/5] 7.26ns
:239  %tmp_20_5 = fadd float %imag_i_load_13, %temp_I_5

ST_18: tmp_17_6 [5/5] 7.26ns
:266  %tmp_17_6 = fsub float %real_i_2_load_3, %temp_R_6

ST_18: tmp_18_6 [5/5] 7.26ns
:273  %tmp_18_6 = fsub float %imag_i_load_14, %temp_I_6

ST_18: tmp_19_6 [5/5] 7.26ns
:276  %tmp_19_6 = fadd float %real_i_2_load_3, %temp_R_6

ST_18: tmp_20_6 [5/5] 7.26ns
:279  %tmp_20_6 = fadd float %imag_i_load_14, %temp_I_6

ST_18: temp_R_7 [1/5] 7.26ns
:298  %temp_R_7 = fsub float %tmp_13_7, %tmp_14_7

ST_18: temp_I_7 [1/5] 7.26ns
:301  %temp_I_7 = fadd float %tmp_15_7, %tmp_16_7

ST_18: imag_i_load_15 [1/2] 2.71ns
:312  %imag_i_load_15 = load float* %imag_i_addr_23, align 4


 <State 19>: 7.26ns
ST_19: newIndex16 [1/1] 0.00ns
:110  %newIndex16 = zext i8 %newIndex15 to i64

ST_19: real_o_2_addr [1/1] 0.00ns
:111  %real_o_2_addr = getelementptr [128 x float]* %real_o_2, i64 0, i64 %newIndex16

ST_19: stg_572 [1/1] 2.71ns
:112  store float %tmp_17_2, float* %real_o_2_addr, align 4

ST_19: imag_o_2_addr [1/1] 0.00ns
:116  %imag_o_2_addr = getelementptr [128 x float]* %imag_o_2, i64 0, i64 %newIndex16

ST_19: stg_574 [1/1] 2.71ns
:117  store float %tmp_18_2, float* %imag_o_2_addr, align 4

ST_19: real_o_2_addr_1 [1/1] 0.00ns
:119  %real_o_2_addr_1 = getelementptr [128 x float]* %real_o_2, i64 0, i64 %newIndex8

ST_19: stg_576 [1/1] 2.71ns
:120  store float %tmp_19_2, float* %real_o_2_addr_1, align 4

ST_19: imag_o_2_addr_1 [1/1] 0.00ns
:122  %imag_o_2_addr_1 = getelementptr [128 x float]* %imag_o_2, i64 0, i64 %newIndex8

ST_19: stg_578 [1/1] 2.71ns
:123  store float %tmp_20_2, float* %imag_o_2_addr_1, align 4

ST_19: tmp_17_3 [1/5] 7.26ns
:146  %tmp_17_3 = fsub float %real_i_3_load_1, %temp_R_3

ST_19: tmp_18_3 [1/5] 7.26ns
:153  %tmp_18_3 = fsub float %imag_i_load_11, %temp_I_3

ST_19: tmp_19_3 [1/5] 7.26ns
:156  %tmp_19_3 = fadd float %real_i_3_load_1, %temp_R_3

ST_19: tmp_20_3 [1/5] 7.26ns
:159  %tmp_20_3 = fadd float %imag_i_load_11, %temp_I_3

ST_19: tmp_17_4 [2/5] 7.26ns
:186  %tmp_17_4 = fsub float %real_i_0_load_3, %temp_R_4

ST_19: tmp_18_4 [2/5] 7.26ns
:193  %tmp_18_4 = fsub float %imag_i_load_12, %temp_I_4

ST_19: tmp_19_4 [2/5] 7.26ns
:196  %tmp_19_4 = fadd float %real_i_0_load_3, %temp_R_4

ST_19: tmp_20_4 [2/5] 7.26ns
:199  %tmp_20_4 = fadd float %imag_i_load_12, %temp_I_4

ST_19: tmp_17_5 [3/5] 7.26ns
:226  %tmp_17_5 = fsub float %real_i_1_load_3, %temp_R_5

ST_19: tmp_18_5 [3/5] 7.26ns
:233  %tmp_18_5 = fsub float %imag_i_load_13, %temp_I_5

ST_19: tmp_19_5 [3/5] 7.26ns
:236  %tmp_19_5 = fadd float %real_i_1_load_3, %temp_R_5

ST_19: tmp_20_5 [3/5] 7.26ns
:239  %tmp_20_5 = fadd float %imag_i_load_13, %temp_I_5

ST_19: tmp_17_6 [4/5] 7.26ns
:266  %tmp_17_6 = fsub float %real_i_2_load_3, %temp_R_6

ST_19: tmp_18_6 [4/5] 7.26ns
:273  %tmp_18_6 = fsub float %imag_i_load_14, %temp_I_6

ST_19: tmp_19_6 [4/5] 7.26ns
:276  %tmp_19_6 = fadd float %real_i_2_load_3, %temp_R_6

ST_19: tmp_20_6 [4/5] 7.26ns
:279  %tmp_20_6 = fadd float %imag_i_load_14, %temp_I_6

ST_19: tmp_17_7 [5/5] 7.26ns
:306  %tmp_17_7 = fsub float %real_i_3_load_3, %temp_R_7

ST_19: tmp_18_7 [5/5] 7.26ns
:313  %tmp_18_7 = fsub float %imag_i_load_15, %temp_I_7

ST_19: tmp_19_7 [5/5] 7.26ns
:316  %tmp_19_7 = fadd float %real_i_3_load_3, %temp_R_7

ST_19: tmp_20_7 [5/5] 7.26ns
:319  %tmp_20_7 = fadd float %imag_i_load_15, %temp_I_7


 <State 20>: 7.26ns
ST_20: newIndex21 [1/1] 0.00ns
:148  %newIndex21 = zext i8 %newIndex20 to i64

ST_20: real_o_3_addr [1/1] 0.00ns
:149  %real_o_3_addr = getelementptr [128 x float]* %real_o_3, i64 0, i64 %newIndex21

ST_20: stg_601 [1/1] 2.71ns
:150  store float %tmp_17_3, float* %real_o_3_addr, align 4

ST_20: imag_o_3_addr [1/1] 0.00ns
:154  %imag_o_3_addr = getelementptr [128 x float]* %imag_o_3, i64 0, i64 %newIndex21

ST_20: stg_603 [1/1] 2.71ns
:155  store float %tmp_18_3, float* %imag_o_3_addr, align 4

ST_20: real_o_3_addr_1 [1/1] 0.00ns
:157  %real_o_3_addr_1 = getelementptr [128 x float]* %real_o_3, i64 0, i64 %newIndex8

ST_20: stg_605 [1/1] 2.71ns
:158  store float %tmp_19_3, float* %real_o_3_addr_1, align 4

ST_20: imag_o_3_addr_1 [1/1] 0.00ns
:160  %imag_o_3_addr_1 = getelementptr [128 x float]* %imag_o_3, i64 0, i64 %newIndex8

ST_20: stg_607 [1/1] 2.71ns
:161  store float %tmp_20_3, float* %imag_o_3_addr_1, align 4

ST_20: tmp_17_4 [1/5] 7.26ns
:186  %tmp_17_4 = fsub float %real_i_0_load_3, %temp_R_4

ST_20: tmp_18_4 [1/5] 7.26ns
:193  %tmp_18_4 = fsub float %imag_i_load_12, %temp_I_4

ST_20: tmp_19_4 [1/5] 7.26ns
:196  %tmp_19_4 = fadd float %real_i_0_load_3, %temp_R_4

ST_20: tmp_20_4 [1/5] 7.26ns
:199  %tmp_20_4 = fadd float %imag_i_load_12, %temp_I_4

ST_20: tmp_17_5 [2/5] 7.26ns
:226  %tmp_17_5 = fsub float %real_i_1_load_3, %temp_R_5

ST_20: tmp_18_5 [2/5] 7.26ns
:233  %tmp_18_5 = fsub float %imag_i_load_13, %temp_I_5

ST_20: tmp_19_5 [2/5] 7.26ns
:236  %tmp_19_5 = fadd float %real_i_1_load_3, %temp_R_5

ST_20: tmp_20_5 [2/5] 7.26ns
:239  %tmp_20_5 = fadd float %imag_i_load_13, %temp_I_5

ST_20: tmp_17_6 [3/5] 7.26ns
:266  %tmp_17_6 = fsub float %real_i_2_load_3, %temp_R_6

ST_20: tmp_18_6 [3/5] 7.26ns
:273  %tmp_18_6 = fsub float %imag_i_load_14, %temp_I_6

ST_20: tmp_19_6 [3/5] 7.26ns
:276  %tmp_19_6 = fadd float %real_i_2_load_3, %temp_R_6

ST_20: tmp_20_6 [3/5] 7.26ns
:279  %tmp_20_6 = fadd float %imag_i_load_14, %temp_I_6

ST_20: tmp_17_7 [4/5] 7.26ns
:306  %tmp_17_7 = fsub float %real_i_3_load_3, %temp_R_7

ST_20: tmp_18_7 [4/5] 7.26ns
:313  %tmp_18_7 = fsub float %imag_i_load_15, %temp_I_7

ST_20: tmp_19_7 [4/5] 7.26ns
:316  %tmp_19_7 = fadd float %real_i_3_load_3, %temp_R_7

ST_20: tmp_20_7 [4/5] 7.26ns
:319  %tmp_20_7 = fadd float %imag_i_load_15, %temp_I_7


 <State 21>: 7.26ns
ST_21: newIndex28 [1/1] 0.00ns
:188  %newIndex28 = zext i8 %newIndex27 to i64

ST_21: real_o_4_addr [1/1] 0.00ns
:189  %real_o_4_addr = getelementptr [128 x float]* %real_o_4, i64 0, i64 %newIndex28

ST_21: stg_626 [1/1] 2.71ns
:190  store float %tmp_17_4, float* %real_o_4_addr, align 4

ST_21: imag_o_4_addr [1/1] 0.00ns
:194  %imag_o_4_addr = getelementptr [128 x float]* %imag_o_4, i64 0, i64 %newIndex28

ST_21: stg_628 [1/1] 2.71ns
:195  store float %tmp_18_4, float* %imag_o_4_addr, align 4

ST_21: real_o_4_addr_1 [1/1] 0.00ns
:197  %real_o_4_addr_1 = getelementptr [128 x float]* %real_o_4, i64 0, i64 %newIndex8

ST_21: stg_630 [1/1] 2.71ns
:198  store float %tmp_19_4, float* %real_o_4_addr_1, align 4

ST_21: imag_o_4_addr_1 [1/1] 0.00ns
:200  %imag_o_4_addr_1 = getelementptr [128 x float]* %imag_o_4, i64 0, i64 %newIndex8

ST_21: stg_632 [1/1] 2.71ns
:201  store float %tmp_20_4, float* %imag_o_4_addr_1, align 4

ST_21: tmp_17_5 [1/5] 7.26ns
:226  %tmp_17_5 = fsub float %real_i_1_load_3, %temp_R_5

ST_21: tmp_18_5 [1/5] 7.26ns
:233  %tmp_18_5 = fsub float %imag_i_load_13, %temp_I_5

ST_21: tmp_19_5 [1/5] 7.26ns
:236  %tmp_19_5 = fadd float %real_i_1_load_3, %temp_R_5

ST_21: tmp_20_5 [1/5] 7.26ns
:239  %tmp_20_5 = fadd float %imag_i_load_13, %temp_I_5

ST_21: tmp_17_6 [2/5] 7.26ns
:266  %tmp_17_6 = fsub float %real_i_2_load_3, %temp_R_6

ST_21: tmp_18_6 [2/5] 7.26ns
:273  %tmp_18_6 = fsub float %imag_i_load_14, %temp_I_6

ST_21: tmp_19_6 [2/5] 7.26ns
:276  %tmp_19_6 = fadd float %real_i_2_load_3, %temp_R_6

ST_21: tmp_20_6 [2/5] 7.26ns
:279  %tmp_20_6 = fadd float %imag_i_load_14, %temp_I_6

ST_21: tmp_17_7 [3/5] 7.26ns
:306  %tmp_17_7 = fsub float %real_i_3_load_3, %temp_R_7

ST_21: tmp_18_7 [3/5] 7.26ns
:313  %tmp_18_7 = fsub float %imag_i_load_15, %temp_I_7

ST_21: tmp_19_7 [3/5] 7.26ns
:316  %tmp_19_7 = fadd float %real_i_3_load_3, %temp_R_7

ST_21: tmp_20_7 [3/5] 7.26ns
:319  %tmp_20_7 = fadd float %imag_i_load_15, %temp_I_7


 <State 22>: 7.26ns
ST_22: newIndex35 [1/1] 0.00ns
:228  %newIndex35 = zext i8 %newIndex34 to i64

ST_22: real_o_5_addr [1/1] 0.00ns
:229  %real_o_5_addr = getelementptr [128 x float]* %real_o_5, i64 0, i64 %newIndex35

ST_22: stg_647 [1/1] 2.71ns
:230  store float %tmp_17_5, float* %real_o_5_addr, align 4

ST_22: imag_o_5_addr [1/1] 0.00ns
:234  %imag_o_5_addr = getelementptr [128 x float]* %imag_o_5, i64 0, i64 %newIndex35

ST_22: stg_649 [1/1] 2.71ns
:235  store float %tmp_18_5, float* %imag_o_5_addr, align 4

ST_22: real_o_5_addr_1 [1/1] 0.00ns
:237  %real_o_5_addr_1 = getelementptr [128 x float]* %real_o_5, i64 0, i64 %newIndex8

ST_22: stg_651 [1/1] 2.71ns
:238  store float %tmp_19_5, float* %real_o_5_addr_1, align 4

ST_22: imag_o_5_addr_1 [1/1] 0.00ns
:240  %imag_o_5_addr_1 = getelementptr [128 x float]* %imag_o_5, i64 0, i64 %newIndex8

ST_22: stg_653 [1/1] 2.71ns
:241  store float %tmp_20_5, float* %imag_o_5_addr_1, align 4

ST_22: tmp_17_6 [1/5] 7.26ns
:266  %tmp_17_6 = fsub float %real_i_2_load_3, %temp_R_6

ST_22: tmp_18_6 [1/5] 7.26ns
:273  %tmp_18_6 = fsub float %imag_i_load_14, %temp_I_6

ST_22: tmp_19_6 [1/5] 7.26ns
:276  %tmp_19_6 = fadd float %real_i_2_load_3, %temp_R_6

ST_22: tmp_20_6 [1/5] 7.26ns
:279  %tmp_20_6 = fadd float %imag_i_load_14, %temp_I_6

ST_22: tmp_17_7 [2/5] 7.26ns
:306  %tmp_17_7 = fsub float %real_i_3_load_3, %temp_R_7

ST_22: tmp_18_7 [2/5] 7.26ns
:313  %tmp_18_7 = fsub float %imag_i_load_15, %temp_I_7

ST_22: tmp_19_7 [2/5] 7.26ns
:316  %tmp_19_7 = fadd float %real_i_3_load_3, %temp_R_7

ST_22: tmp_20_7 [2/5] 7.26ns
:319  %tmp_20_7 = fadd float %imag_i_load_15, %temp_I_7


 <State 23>: 7.26ns
ST_23: newIndex40 [1/1] 0.00ns
:268  %newIndex40 = zext i8 %newIndex39 to i64

ST_23: real_o_6_addr [1/1] 0.00ns
:269  %real_o_6_addr = getelementptr [128 x float]* %real_o_6, i64 0, i64 %newIndex40

ST_23: stg_664 [1/1] 2.71ns
:270  store float %tmp_17_6, float* %real_o_6_addr, align 4

ST_23: imag_o_6_addr [1/1] 0.00ns
:274  %imag_o_6_addr = getelementptr [128 x float]* %imag_o_6, i64 0, i64 %newIndex40

ST_23: stg_666 [1/1] 2.71ns
:275  store float %tmp_18_6, float* %imag_o_6_addr, align 4

ST_23: real_o_6_addr_1 [1/1] 0.00ns
:277  %real_o_6_addr_1 = getelementptr [128 x float]* %real_o_6, i64 0, i64 %newIndex8

ST_23: stg_668 [1/1] 2.71ns
:278  store float %tmp_19_6, float* %real_o_6_addr_1, align 4

ST_23: imag_o_6_addr_1 [1/1] 0.00ns
:280  %imag_o_6_addr_1 = getelementptr [128 x float]* %imag_o_6, i64 0, i64 %newIndex8

ST_23: stg_670 [1/1] 2.71ns
:281  store float %tmp_20_6, float* %imag_o_6_addr_1, align 4

ST_23: tmp_17_7 [1/5] 7.26ns
:306  %tmp_17_7 = fsub float %real_i_3_load_3, %temp_R_7

ST_23: tmp_18_7 [1/5] 7.26ns
:313  %tmp_18_7 = fsub float %imag_i_load_15, %temp_I_7

ST_23: tmp_19_7 [1/5] 7.26ns
:316  %tmp_19_7 = fadd float %real_i_3_load_3, %temp_R_7

ST_23: tmp_20_7 [1/5] 7.26ns
:319  %tmp_20_7 = fadd float %imag_i_load_15, %temp_I_7


 <State 24>: 2.71ns
ST_24: stg_675 [1/1] 0.00ns
:2  call void (...)* @_ssdm_op_SpecLoopTripCount(i64 64, i64 64, i64 64)

ST_24: stg_676 [1/1] 0.00ns
:3  call void (...)* @_ssdm_op_SpecLoopName([10 x i8]* @p_str3) nounwind

ST_24: tmp [1/1] 0.00ns
:4  %tmp = call i32 (...)* @_ssdm_op_SpecRegionBegin([10 x i8]* @p_str3)

ST_24: stg_678 [1/1] 0.00ns
:5  call void (...)* @_ssdm_op_SpecPipeline(i32 1, i32 1, i32 1, i32 0, [1 x i8]* @p_str) nounwind

ST_24: empty [1/1] 0.00ns
:48  %empty = call i32 (...)* @_ssdm_op_SpecRegionEnd([10 x i8]* @p_str3, i32 %tmp)

ST_24: newIndex43 [1/1] 0.00ns
:308  %newIndex43 = zext i8 %newIndex42 to i64

ST_24: real_o_7_addr [1/1] 0.00ns
:309  %real_o_7_addr = getelementptr [128 x float]* %real_o_7, i64 0, i64 %newIndex43

ST_24: stg_682 [1/1] 2.71ns
:310  store float %tmp_17_7, float* %real_o_7_addr, align 4

ST_24: imag_o_7_addr [1/1] 0.00ns
:314  %imag_o_7_addr = getelementptr [128 x float]* %imag_o_7, i64 0, i64 %newIndex43

ST_24: stg_684 [1/1] 2.71ns
:315  store float %tmp_18_7, float* %imag_o_7_addr, align 4

ST_24: real_o_7_addr_1 [1/1] 0.00ns
:317  %real_o_7_addr_1 = getelementptr [128 x float]* %real_o_7, i64 0, i64 %newIndex8

ST_24: stg_686 [1/1] 2.71ns
:318  store float %tmp_19_7, float* %real_o_7_addr_1, align 4

ST_24: imag_o_7_addr_1 [1/1] 0.00ns
:320  %imag_o_7_addr_1 = getelementptr [128 x float]* %imag_o_7, i64 0, i64 %newIndex8

ST_24: stg_688 [1/1] 2.71ns
:321  store float %tmp_20_7, float* %imag_o_7_addr_1, align 4

ST_24: stg_689 [1/1] 0.00ns
:323  br label %1


 <State 25>: 0.00ns
ST_25: stg_690 [1/1] 0.00ns
:0  ret void



============================================================
+ Verbose Summary: Binding
============================================================
N/A
* FSMD analyzer results:
  - Output states:
  - Chain level:
	State 1
	State 2
	State 3
	State 4
	State 5
	State 6
	State 7
	State 8
	State 9
	State 10
	State 11
	State 12
	State 13
	State 14
	State 15
	State 16
	State 17
	State 18
	State 19
	State 20
	State 21
	State 22
	State 23
	State 24
	State 25


============================================================
+ Verbose Summary: Datapath Resource usage 
============================================================
N/A
