

================================================================
== Vivado HLS Report for 'fft_fft_stages11'
================================================================
* Date:           Sun Nov 13 23:04:04 2016

* Version:        2015.4 (Build 1412921 on Wed Nov 18 09:58:55 AM 2015)
* Project:        fft
* Solution:       solution1
* Product family: zynq
* Target device:  xc7z020clg484-1


================================================================
== Performance Estimates
================================================================
+ Timing (ns): 
    * Summary: 
    +--------+-------+----------+------------+
    |  Clock | Target| Estimated| Uncertainty|
    +--------+-------+----------+------------+
    |ap_clk  |  10.00|      8.41|        1.25|
    +--------+-------+----------+------------+

+ Latency (clock cycles): 
    * Summary: 
    +-----+-----+-----+-----+---------+
    |  Latency  |  Interval | Pipeline|
    | min | max | min | max |   Type  |
    +-----+-----+-----+-----+---------+
    |   17|   17|   17|   17|   none  |
    +-----+-----+-----+-----+---------+

    + Detail: 
        * Instance: 
        N/A

        * Loop: 
        +-------------+-----+-----+----------+-----------+-----------+------+----------+
        |             |  Latency  | Iteration|  Initiation Interval  | Trip |          |
        |  Loop Name  | min | max |  Latency |  achieved |   target  | Count| Pipelined|
        +-------------+-----+-----+----------+-----------+-----------+------+----------+
        |- butterfly  |   16|   16|         4|          -|          -|     4|    no    |
        | + DFTpts    |    0|    0|        18|          2|          1|     0|    yes   |
        +-------------+-----+-----+----------+-----------+-----------+------+----------+

============================================================
+ Verbose Summary: Synthesis Manager
============================================================
InlineROM: 1
ExposeGlobal: 0
============================================================
+ Verbose Summary: CDFG Model
============================================================
IsTopModel: 0
ResetActiveHigh: 1
IsCombinational: 2
IsDatapathOnly: 0
HasWiredReturn: 1
HasMFsm: 0
HasVarLatency: 1
IsPipeline: 0
IsRtlPipelined: 0
IsInstanceOverlapped: 0
IsDontTouch: 0
HasImplIP: 0
IsGatedGlobalClock: 0

+ Individual pipeline summary: 
  * Pipeline-0: initiation interval (II) = 2, depth = 18


============================================================
+ Verbose Summary: Schedule
============================================================
* Number of FSM states: 22
* Pipeline: 1
  Pipeline-0: II = 2, D = 18, States = { 4 5 6 7 8 9 10 11 12 13 14 15 16 17 18 19 20 21 }
* Dataflow Pipeline: 0

* FSM state transitions: 
1 --> 
	2  / true
2 --> 
	3  / (!exitcond)
3 --> 
	4  / true
4 --> 
	22  / (!icmp)
	5  / (icmp)
5 --> 
	6  / true
6 --> 
	7  / true
7 --> 
	8  / true
8 --> 
	9  / true
9 --> 
	10  / true
10 --> 
	11  / true
11 --> 
	12  / true
12 --> 
	13  / true
13 --> 
	14  / true
14 --> 
	15  / true
15 --> 
	16  / true
16 --> 
	17  / true
17 --> 
	18  / true
18 --> 
	19  / true
19 --> 
	20  / true
20 --> 
	21  / true
21 --> 
	4  / true
22 --> 
	2  / true
* FSM state operations: 

 <State 1>: 1.57ns
ST_1: stg_23 [1/1] 1.57ns
:0  br label %1


 <State 2>: 2.39ns
ST_2: k [1/1] 0.00ns
:0  %k = phi i10 [ 0, %0 ], [ %k_1, %7 ]

ST_2: i [1/1] 0.00ns
:1  %i = phi i3 [ 0, %0 ], [ %j, %7 ]

ST_2: exitcond [1/1] 1.62ns
:2  %exitcond = icmp eq i3 %i, -4

ST_2: j [1/1] 0.80ns
:3  %j = add i3 %i, 1

ST_2: stg_28 [1/1] 0.00ns
:4  br i1 %exitcond, label %8, label %2

ST_2: tmp_2 [1/1] 0.00ns
:5  %tmp_2 = zext i10 %k to i64

ST_2: W_real45_addr [1/1] 0.00ns
:6  %W_real45_addr = getelementptr inbounds [512 x float]* @W_real45, i64 0, i64 %tmp_2

ST_2: c [2/2] 2.39ns
:7  %c = load float* %W_real45_addr, align 16

ST_2: W_imag37_addr [1/1] 0.00ns
:8  %W_imag37_addr = getelementptr inbounds [512 x float]* @W_imag37, i64 0, i64 %tmp_2

ST_2: s [2/2] 2.39ns
:9  %s = load float* %W_imag37_addr, align 16

ST_2: stg_34 [1/1] 0.00ns
:0  ret void


 <State 3>: 2.39ns
ST_3: i_cast [1/1] 0.00ns
:0  %i_cast = zext i3 %i to i32

ST_3: stg_36 [1/1] 0.00ns
:1  call void (...)* @_ssdm_op_SpecLoopTripCount(i64 4, i64 4, i64 4)

ST_3: stg_37 [1/1] 0.00ns
:2  call void (...)* @_ssdm_op_SpecLoopName([10 x i8]* @p_str3) nounwind

ST_3: tmp [1/1] 0.00ns
:3  %tmp = call i32 (...)* @_ssdm_op_SpecRegionBegin([10 x i8]* @p_str3)

ST_3: stg_39 [1/1] 0.00ns
:4  call void (...)* @_ssdm_op_SpecPipeline(i32 1, i32 1, i32 1, i32 0, [1 x i8]* @p_str) nounwind

ST_3: c [1/2] 2.39ns
:7  %c = load float* %W_real45_addr, align 16

ST_3: s [1/2] 2.39ns
:9  %s = load float* %W_imag37_addr, align 16

ST_3: stg_42 [1/1] 1.57ns
:10  br label %3


 <State 4>: 5.15ns
ST_4: i1 [1/1] 0.00ns
:0  %i1 = phi i32 [ %i_cast, %2 ], [ %i_1, %6 ]

ST_4: tmp_27 [1/1] 0.00ns
:1  %tmp_27 = call i22 @_ssdm_op_PartSelect.i22.i32.i32.i32(i32 %i1, i32 10, i32 31)

ST_4: icmp [1/1] 2.37ns
:2  %icmp = icmp slt i22 %tmp_27, 1

ST_4: stg_46 [1/1] 0.00ns
:3  br i1 %icmp, label %4, label %7

ST_4: i_lower [1/1] 2.44ns
:4  %i_lower = add nsw i32 4, %i1

ST_4: tmp_4 [1/1] 0.00ns
:5  %tmp_4 = sext i32 %i_lower to i64

ST_4: newIndex5 [1/1] 0.00ns
:7  %newIndex5 = call i30 @_ssdm_op_PartSelect.i30.i32.i32.i32(i32 %i_lower, i32 2, i32 31)

ST_4: newIndex6 [1/1] 0.00ns
:8  %newIndex6 = zext i30 %newIndex5 to i64

ST_4: real_i_addr [1/1] 0.00ns
:9  %real_i_addr = getelementptr [256 x float]* %real_i, i64 0, i64 %newIndex6

ST_4: real_i_load [2/2] 2.71ns
:10  %real_i_load = load float* %real_i_addr, align 4

ST_4: real_i1_addr [1/1] 0.00ns
:11  %real_i1_addr = getelementptr [256 x float]* %real_i1, i64 0, i64 %newIndex6

ST_4: real_i1_load [2/2] 2.71ns
:12  %real_i1_load = load float* %real_i1_addr, align 4

ST_4: real_i2_addr [1/1] 0.00ns
:13  %real_i2_addr = getelementptr [256 x float]* %real_i2, i64 0, i64 %newIndex6

ST_4: real_i2_load [2/2] 2.71ns
:14  %real_i2_load = load float* %real_i2_addr, align 4

ST_4: real_i3_addr [1/1] 0.00ns
:15  %real_i3_addr = getelementptr [256 x float]* %real_i3, i64 0, i64 %newIndex6

ST_4: real_i3_load [2/2] 2.71ns
:16  %real_i3_load = load float* %real_i3_addr, align 4

ST_4: imag_i_addr [1/1] 0.00ns
:19  %imag_i_addr = getelementptr [1024 x float]* %imag_i, i64 0, i64 %tmp_4

ST_4: imag_i_load [2/2] 2.71ns
:20  %imag_i_load = load float* %imag_i_addr, align 4

ST_4: real_o_addr [1/1] 0.00ns
:39  %real_o_addr = getelementptr [256 x float]* %real_o, i64 0, i64 %newIndex6

ST_4: real_o4_addr [1/1] 0.00ns
:40  %real_o4_addr = getelementptr [256 x float]* %real_o4, i64 0, i64 %newIndex6

ST_4: real_o5_addr [1/1] 0.00ns
:41  %real_o5_addr = getelementptr [256 x float]* %real_o5, i64 0, i64 %newIndex6

ST_4: real_o6_addr [1/1] 0.00ns
:42  %real_o6_addr = getelementptr [256 x float]* %real_o6, i64 0, i64 %newIndex6


 <State 5>: 8.41ns
ST_5: tmp_28 [1/1] 0.00ns
:6  %tmp_28 = trunc i32 %i1 to i2

ST_5: real_i_load [1/2] 2.71ns
:10  %real_i_load = load float* %real_i_addr, align 4

ST_5: real_i1_load [1/2] 2.71ns
:12  %real_i1_load = load float* %real_i1_addr, align 4

ST_5: real_i2_load [1/2] 2.71ns
:14  %real_i2_load = load float* %real_i2_addr, align 4

ST_5: real_i3_load [1/2] 2.71ns
:16  %real_i3_load = load float* %real_i3_addr, align 4

ST_5: tmp_25 [1/1] 1.57ns
:17  %tmp_25 = call float @_ssdm_op_Mux.ap_auto.4float.i2(float %real_i_load, float %real_i1_load, float %real_i2_load, float %real_i3_load, i2 %tmp_28)

ST_5: imag_i_load [1/2] 2.71ns
:20  %imag_i_load = load float* %imag_i_addr, align 4

ST_5: tmp_6 [4/4] 5.70ns
:21  %tmp_6 = fmul float %imag_i_load, %s

ST_5: tmp_7 [4/4] 5.70ns
:23  %tmp_7 = fmul float %imag_i_load, %c

ST_5: i_1 [1/1] 2.44ns
:4  %i_1 = add nsw i32 %i1, 8


 <State 6>: 5.70ns
ST_6: tmp_5 [4/4] 5.70ns
:18  %tmp_5 = fmul float %tmp_25, %c

ST_6: tmp_6 [3/4] 5.70ns
:21  %tmp_6 = fmul float %imag_i_load, %s

ST_6: tmp_7 [3/4] 5.70ns
:23  %tmp_7 = fmul float %imag_i_load, %c

ST_6: tmp_8 [4/4] 5.70ns
:24  %tmp_8 = fmul float %tmp_25, %s


 <State 7>: 5.70ns
ST_7: tmp_5 [3/4] 5.70ns
:18  %tmp_5 = fmul float %tmp_25, %c

ST_7: tmp_6 [2/4] 5.70ns
:21  %tmp_6 = fmul float %imag_i_load, %s

ST_7: tmp_7 [2/4] 5.70ns
:23  %tmp_7 = fmul float %imag_i_load, %c

ST_7: tmp_8 [3/4] 5.70ns
:24  %tmp_8 = fmul float %tmp_25, %s


 <State 8>: 5.70ns
ST_8: tmp_5 [2/4] 5.70ns
:18  %tmp_5 = fmul float %tmp_25, %c

ST_8: tmp_6 [1/4] 5.70ns
:21  %tmp_6 = fmul float %imag_i_load, %s

ST_8: tmp_7 [1/4] 5.70ns
:23  %tmp_7 = fmul float %imag_i_load, %c

ST_8: tmp_8 [2/4] 5.70ns
:24  %tmp_8 = fmul float %tmp_25, %s


 <State 9>: 5.70ns
ST_9: tmp_5 [1/4] 5.70ns
:18  %tmp_5 = fmul float %tmp_25, %c

ST_9: tmp_8 [1/4] 5.70ns
:24  %tmp_8 = fmul float %tmp_25, %s


 <State 10>: 7.26ns
ST_10: temp_R [5/5] 7.26ns
:22  %temp_R = fsub float %tmp_5, %tmp_6

ST_10: temp_I [5/5] 7.26ns
:25  %temp_I = fadd float %tmp_7, %tmp_8


 <State 11>: 7.26ns
ST_11: temp_R [4/5] 7.26ns
:22  %temp_R = fsub float %tmp_5, %tmp_6

ST_11: temp_I [4/5] 7.26ns
:25  %temp_I = fadd float %tmp_7, %tmp_8


 <State 12>: 7.26ns
ST_12: temp_R [3/5] 7.26ns
:22  %temp_R = fsub float %tmp_5, %tmp_6

ST_12: temp_I [3/5] 7.26ns
:25  %temp_I = fadd float %tmp_7, %tmp_8


 <State 13>: 7.26ns
ST_13: temp_R [2/5] 7.26ns
:22  %temp_R = fsub float %tmp_5, %tmp_6

ST_13: temp_I [2/5] 7.26ns
:25  %temp_I = fadd float %tmp_7, %tmp_8

ST_13: tmp_9 [1/1] 0.00ns
:26  %tmp_9 = sext i32 %i1 to i64

ST_13: newIndex [1/1] 0.00ns
:27  %newIndex = call i30 @_ssdm_op_PartSelect.i30.i32.i32.i32(i32 %i1, i32 2, i32 31)

ST_13: newIndex7 [1/1] 0.00ns
:28  %newIndex7 = zext i30 %newIndex to i64

ST_13: real_i_addr_7 [1/1] 0.00ns
:29  %real_i_addr_7 = getelementptr [256 x float]* %real_i, i64 0, i64 %newIndex7

ST_13: real_i_load_7 [2/2] 2.71ns
:30  %real_i_load_7 = load float* %real_i_addr_7, align 4

ST_13: real_i1_addr_7 [1/1] 0.00ns
:31  %real_i1_addr_7 = getelementptr [256 x float]* %real_i1, i64 0, i64 %newIndex7

ST_13: real_i1_load_7 [2/2] 2.71ns
:32  %real_i1_load_7 = load float* %real_i1_addr_7, align 4

ST_13: real_i2_addr_7 [1/1] 0.00ns
:33  %real_i2_addr_7 = getelementptr [256 x float]* %real_i2, i64 0, i64 %newIndex7

ST_13: real_i2_load_7 [2/2] 2.71ns
:34  %real_i2_load_7 = load float* %real_i2_addr_7, align 4

ST_13: real_i3_addr_7 [1/1] 0.00ns
:35  %real_i3_addr_7 = getelementptr [256 x float]* %real_i3, i64 0, i64 %newIndex7

ST_13: real_i3_load_7 [2/2] 2.71ns
:36  %real_i3_load_7 = load float* %real_i3_addr_7, align 4

ST_13: imag_i_addr_7 [1/1] 0.00ns
:0  %imag_i_addr_7 = getelementptr [1024 x float]* %imag_i, i64 0, i64 %tmp_9

ST_13: imag_i_load_1 [2/2] 2.71ns
:1  %imag_i_load_1 = load float* %imag_i_addr_7, align 4

ST_13: real_o_addr_7 [1/1] 0.00ns
:6  %real_o_addr_7 = getelementptr [256 x float]* %real_o, i64 0, i64 %newIndex7

ST_13: real_o4_addr_7 [1/1] 0.00ns
:7  %real_o4_addr_7 = getelementptr [256 x float]* %real_o4, i64 0, i64 %newIndex7

ST_13: real_o5_addr_7 [1/1] 0.00ns
:8  %real_o5_addr_7 = getelementptr [256 x float]* %real_o5, i64 0, i64 %newIndex7

ST_13: real_o6_addr_7 [1/1] 0.00ns
:9  %real_o6_addr_7 = getelementptr [256 x float]* %real_o6, i64 0, i64 %newIndex7


 <State 14>: 7.26ns
ST_14: temp_R [1/5] 7.26ns
:22  %temp_R = fsub float %tmp_5, %tmp_6

ST_14: temp_I [1/5] 7.26ns
:25  %temp_I = fadd float %tmp_7, %tmp_8

ST_14: real_i_load_7 [1/2] 2.71ns
:30  %real_i_load_7 = load float* %real_i_addr_7, align 4

ST_14: real_i1_load_7 [1/2] 2.71ns
:32  %real_i1_load_7 = load float* %real_i1_addr_7, align 4

ST_14: real_i2_load_7 [1/2] 2.71ns
:34  %real_i2_load_7 = load float* %real_i2_addr_7, align 4

ST_14: real_i3_load_7 [1/2] 2.71ns
:36  %real_i3_load_7 = load float* %real_i3_addr_7, align 4

ST_14: tmp_26 [1/1] 1.57ns
:37  %tmp_26 = call float @_ssdm_op_Mux.ap_auto.4float.i2(float %real_i_load_7, float %real_i1_load_7, float %real_i2_load_7, float %real_i3_load_7, i2 %tmp_28)

ST_14: stg_121 [1/1] 1.88ns
:43  switch i2 %tmp_28, label %branch7 [
    i2 0, label %branch4
    i2 1, label %branch5
    i2 -2, label %branch6
  ]

ST_14: imag_i_load_1 [1/2] 2.71ns
:1  %imag_i_load_1 = load float* %imag_i_addr_7, align 4

ST_14: stg_123 [1/1] 1.88ns
:10  switch i2 %tmp_28, label %branch3 [
    i2 0, label %branch0
    i2 1, label %branch1
    i2 -2, label %branch2
  ]


 <State 15>: 7.26ns
ST_15: tmp_s [5/5] 7.26ns
:38  %tmp_s = fsub float %tmp_26, %temp_R

ST_15: tmp_10 [5/5] 7.26ns
:2  %tmp_10 = fsub float %imag_i_load_1, %temp_I

ST_15: tmp_11 [5/5] 7.26ns
:5  %tmp_11 = fadd float %tmp_26, %temp_R


 <State 16>: 7.26ns
ST_16: tmp_s [4/5] 7.26ns
:38  %tmp_s = fsub float %tmp_26, %temp_R

ST_16: tmp_10 [4/5] 7.26ns
:2  %tmp_10 = fsub float %imag_i_load_1, %temp_I

ST_16: tmp_11 [4/5] 7.26ns
:5  %tmp_11 = fadd float %tmp_26, %temp_R

ST_16: tmp_12 [5/5] 7.26ns
:0  %tmp_12 = fadd float %imag_i_load_1, %temp_I


 <State 17>: 7.26ns
ST_17: tmp_s [3/5] 7.26ns
:38  %tmp_s = fsub float %tmp_26, %temp_R

ST_17: tmp_10 [3/5] 7.26ns
:2  %tmp_10 = fsub float %imag_i_load_1, %temp_I

ST_17: tmp_11 [3/5] 7.26ns
:5  %tmp_11 = fadd float %tmp_26, %temp_R

ST_17: tmp_12 [4/5] 7.26ns
:0  %tmp_12 = fadd float %imag_i_load_1, %temp_I


 <State 18>: 7.26ns
ST_18: tmp_s [2/5] 7.26ns
:38  %tmp_s = fsub float %tmp_26, %temp_R

ST_18: tmp_10 [2/5] 7.26ns
:2  %tmp_10 = fsub float %imag_i_load_1, %temp_I

ST_18: tmp_11 [2/5] 7.26ns
:5  %tmp_11 = fadd float %tmp_26, %temp_R

ST_18: tmp_12 [3/5] 7.26ns
:0  %tmp_12 = fadd float %imag_i_load_1, %temp_I


 <State 19>: 7.26ns
ST_19: tmp_s [1/5] 7.26ns
:38  %tmp_s = fsub float %tmp_26, %temp_R

ST_19: tmp_10 [1/5] 7.26ns
:2  %tmp_10 = fsub float %imag_i_load_1, %temp_I

ST_19: tmp_11 [1/5] 7.26ns
:5  %tmp_11 = fadd float %tmp_26, %temp_R

ST_19: tmp_12 [2/5] 7.26ns
:0  %tmp_12 = fadd float %imag_i_load_1, %temp_I


 <State 20>: 7.26ns
ST_20: stg_143 [1/1] 2.71ns
branch6:0  store float %tmp_s, float* %real_o5_addr, align 4

ST_20: stg_144 [1/1] 0.00ns
branch6:1  br label %5

ST_20: stg_145 [1/1] 2.71ns
branch5:0  store float %tmp_s, float* %real_o4_addr, align 4

ST_20: stg_146 [1/1] 0.00ns
branch5:1  br label %5

ST_20: stg_147 [1/1] 2.71ns
branch4:0  store float %tmp_s, float* %real_o_addr, align 4

ST_20: stg_148 [1/1] 0.00ns
branch4:1  br label %5

ST_20: stg_149 [1/1] 2.71ns
branch7:0  store float %tmp_s, float* %real_o6_addr, align 4

ST_20: stg_150 [1/1] 0.00ns
branch7:1  br label %5

ST_20: imag_o_addr16 [1/1] 0.00ns
:3  %imag_o_addr16 = getelementptr [1024 x float]* %imag_o, i64 0, i64 %tmp_4

ST_20: stg_152 [1/1] 2.71ns
:4  store float %tmp_10, float* %imag_o_addr16, align 4

ST_20: tmp_12 [1/5] 7.26ns
:0  %tmp_12 = fadd float %imag_i_load_1, %temp_I


 <State 21>: 2.71ns
ST_21: stg_154 [1/1] 0.00ns
:0  call void (...)* @_ssdm_op_SpecLoopName([7 x i8]* @p_str2) nounwind

ST_21: tmp_18 [1/1] 0.00ns
:1  %tmp_18 = call i32 (...)* @_ssdm_op_SpecRegionBegin([7 x i8]* @p_str2)

ST_21: stg_156 [1/1] 0.00ns
:2  call void (...)* @_ssdm_op_SpecLoopTripCount(i32 0, i32 0, i32 0, [1 x i8]* @p_str) nounwind

ST_21: stg_157 [1/1] 0.00ns
:3  call void (...)* @_ssdm_op_SpecPipeline(i32 1, i32 1, i32 1, i32 0, [1 x i8]* @p_str) nounwind

ST_21: stg_158 [1/1] 2.71ns
branch2:0  store float %tmp_11, float* %real_o5_addr_7, align 4

ST_21: stg_159 [1/1] 0.00ns
branch2:1  br label %6

ST_21: stg_160 [1/1] 2.71ns
branch1:0  store float %tmp_11, float* %real_o4_addr_7, align 4

ST_21: stg_161 [1/1] 0.00ns
branch1:1  br label %6

ST_21: stg_162 [1/1] 2.71ns
branch0:0  store float %tmp_11, float* %real_o_addr_7, align 4

ST_21: stg_163 [1/1] 0.00ns
branch0:1  br label %6

ST_21: stg_164 [1/1] 2.71ns
branch3:0  store float %tmp_11, float* %real_o6_addr_7, align 4

ST_21: stg_165 [1/1] 0.00ns
branch3:1  br label %6

ST_21: imag_o_addr [1/1] 0.00ns
:1  %imag_o_addr = getelementptr [1024 x float]* %imag_o, i64 0, i64 %tmp_9

ST_21: stg_167 [1/1] 2.71ns
:2  store float %tmp_12, float* %imag_o_addr, align 4

ST_21: empty [1/1] 0.00ns
:3  %empty = call i32 (...)* @_ssdm_op_SpecRegionEnd([7 x i8]* @p_str2, i32 %tmp_18)

ST_21: stg_169 [1/1] 0.00ns
:5  br label %3


 <State 22>: 1.84ns
ST_22: k_1 [1/1] 1.84ns
:0  %k_1 = add i10 %k, 128

ST_22: empty_17 [1/1] 0.00ns
:1  %empty_17 = call i32 (...)* @_ssdm_op_SpecRegionEnd([10 x i8]* @p_str3, i32 %tmp)

ST_22: stg_172 [1/1] 0.00ns
:2  br label %1



============================================================
+ Verbose Summary: Binding
============================================================
N/A
* FSMD analyzer results:
  - Output states:
  - Chain level:
	State 1
	State 2
	State 3
	State 4
	State 5
	State 6
	State 7
	State 8
	State 9
	State 10
	State 11
	State 12
	State 13
	State 14
	State 15
	State 16
	State 17
	State 18
	State 19
	State 20
	State 21
	State 22


============================================================
+ Verbose Summary: Datapath Resource usage 
============================================================
N/A
