

================================================================
== Vivado HLS Report for 'cordiccart2pol'
================================================================
* Date:           Wed Oct 19 14:51:16 2016

* Version:        2015.4 (Build 1412921 on Wed Nov 18 09:58:55 AM 2015)
* Project:        cordic
* Solution:       cordic_optimized1
* Product family: zynq
* Target device:  xc7z020clg484-1


================================================================
== Performance Estimates
================================================================
+ Timing (ns): 
    * Summary: 
    +--------+-------+----------+------------+
    |  Clock | Target| Estimated| Uncertainty|
    +--------+-------+----------+------------+
    |ap_clk  |  10.00|      8.47|        1.25|
    +--------+-------+----------+------------+

+ Latency (clock cycles): 
    * Summary: 
    +-----+-----+-----+-----+---------+
    |  Latency  |  Interval | Pipeline|
    | min | max | min | max |   Type  |
    +-----+-----+-----+-----+---------+
    |   66|   66|   67|   67|   none  |
    +-----+-----+-----+-----+---------+

    + Detail: 
        * Instance: 
        N/A

        * Loop: 
        +----------+-----+-----+----------+-----------+-----------+------+----------+
        |          |  Latency  | Iteration|  Initiation Interval  | Trip |          |
        | Loop Name| min | max |  Latency |  achieved |   target  | Count| Pipelined|
        +----------+-----+-----+----------+-----------+-----------+------+----------+
        |- Loop 1  |   64|   64|         4|          -|          -|    16|    no    |
        +----------+-----+-----+----------+-----------+-----------+------+----------+

============================================================
+ Verbose Summary: Synthesis Manager
============================================================
InlineROM: 1
ExposeGlobal: 0
============================================================
+ Verbose Summary: CDFG Model
============================================================
IsTopModel: 1
ResetActiveHigh: 1
IsCombinational: 0
IsDatapathOnly: 0
HasWiredReturn: 1
HasMFsm: 0
HasVarLatency: 1
IsPipeline: 0
IsRtlPipelined: 0
IsInstanceOverlapped: 0
IsDontTouch: 0
HasImplIP: 0
IsGatedGlobalClock: 0


============================================================
+ Verbose Summary: Schedule
============================================================
* Number of FSM states: 6
* Pipeline: 0
* Dataflow Pipeline: 0

* FSM state transitions: 
1 --> 
	2  / true
2 --> 
	3  / true
3 --> 
	4  / (!exitcond)
4 --> 
	5  / true
5 --> 
	6  / true
6 --> 
	3  / true
* FSM state operations: 

 <State 1>: 2.34ns
ST_1: y_V_read [1/1] 0.00ns
_ifconv:5  %y_V_read = call i20 @_ssdm_op_Read.ap_auto.i20(i20 %y_V)

ST_1: tmp_1_i [1/1] 2.34ns
_ifconv:8  %tmp_1_i = icmp sgt i20 %y_V_read, 0


 <State 2>: 8.47ns
ST_2: stg_9 [1/1] 0.00ns
_ifconv:0  call void (...)* @_ssdm_op_SpecBitsMap(i20 %x_V), !map !7

ST_2: stg_10 [1/1] 0.00ns
_ifconv:1  call void (...)* @_ssdm_op_SpecBitsMap(i20 %y_V), !map !13

ST_2: stg_11 [1/1] 0.00ns
_ifconv:2  call void (...)* @_ssdm_op_SpecBitsMap(i20* %r_V_3), !map !17

ST_2: stg_12 [1/1] 0.00ns
_ifconv:3  call void (...)* @_ssdm_op_SpecBitsMap(i20* %theta_V), !map !21

ST_2: stg_13 [1/1] 0.00ns
_ifconv:4  call void (...)* @_ssdm_op_SpecTopModule([15 x i8]* @cordiccart2pol_str) nounwind

ST_2: x_V_read [1/1] 0.00ns
_ifconv:6  %x_V_read = call i20 @_ssdm_op_Read.ap_auto.i20(i20 %x_V)

ST_2: tmp_1 [1/1] 0.00ns
_ifconv:7  %tmp_1 = call i1 @_ssdm_op_BitSelect.i1.i20.i32(i20 %x_V_read, i32 19)

ST_2: or_cond_i [1/1] 1.37ns
_ifconv:9  %or_cond_i = and i1 %tmp_1, %tmp_1_i

ST_2: p_Val2_1_i [1/1] 2.08ns
_ifconv:10  %p_Val2_1_i = sub i20 0, %x_V_read

ST_2: p_Val2_2_cast_cast [1/1] 1.37ns
_ifconv:11  %p_Val2_2_cast_cast = select i1 %or_cond_i, i15 12867, i15 0

ST_2: p_read2_read1_i [1/1] 1.37ns
_ifconv:12  %p_read2_read1_i = select i1 %or_cond_i, i20 %y_V_read, i20 %x_V_read

ST_2: p_Val2_1 [1/1] 1.37ns
_ifconv:13  %p_Val2_1 = select i1 %or_cond_i, i20 %p_Val2_1_i, i20 %y_V_read

ST_2: tmp_2_i [1/1] 1.37ns
_ifconv:14  %tmp_2_i = and i20 %p_read2_read1_i, %p_Val2_1

ST_2: tmp_5 [1/1] 0.00ns
_ifconv:15  %tmp_5 = call i1 @_ssdm_op_BitSelect.i1.i20.i32(i20 %tmp_2_i, i32 19)

ST_2: p_Val2_5_i [1/1] 2.08ns
_ifconv:16  %p_Val2_5_i = sub i20 0, %p_Val2_1

ST_2: p_Val2_7_i [1/1] 1.37ns
_ifconv:17  %p_Val2_7_i = select i1 %or_cond_i, i15 0, i15 -12867

ST_2: p_Val2_9_ph [1/1] 1.37ns
_ifconv:18  %p_Val2_9_ph = select i1 %tmp_5, i15 %p_Val2_7_i, i15 %p_Val2_2_cast_cast

ST_2: p_Val2_9_ph_cast [1/1] 0.00ns
_ifconv:19  %p_Val2_9_ph_cast = sext i15 %p_Val2_9_ph to i20

ST_2: p_Val2_7_ph [1/1] 1.37ns
_ifconv:20  %p_Val2_7_ph = select i1 %tmp_5, i20 %x_V_read, i20 %p_Val2_1

ST_2: temp_I_V_ph [1/1] 1.37ns
_ifconv:21  %temp_I_V_ph = select i1 %tmp_5, i20 %p_Val2_5_i, i20 %p_read2_read1_i

ST_2: stg_29 [1/1] 1.57ns
_ifconv:22  br label %correctQuadrant.exit


 <State 3>: 6.38ns
ST_3: p_Val2_6 [1/1] 0.00ns
correctQuadrant.exit:0  %p_Val2_6 = phi i20 [ %curr_T_V, %0 ], [ %p_Val2_9_ph_cast, %_ifconv ]

ST_3: p_Val2_4 [1/1] 0.00ns
correctQuadrant.exit:1  %p_Val2_4 = phi i20 [ %curr_Q_V, %0 ], [ %p_Val2_7_ph, %_ifconv ]

ST_3: temp_I_V [1/1] 0.00ns
correctQuadrant.exit:2  %temp_I_V = phi i20 [ %curr_I_V, %0 ], [ %temp_I_V_ph, %_ifconv ]

ST_3: p_s [1/1] 0.00ns
correctQuadrant.exit:3  %p_s = phi i5 [ %j_V, %0 ], [ 0, %_ifconv ]

ST_3: exitcond [1/1] 1.91ns
correctQuadrant.exit:4  %exitcond = icmp eq i5 %p_s, -16

ST_3: empty [1/1] 0.00ns
correctQuadrant.exit:5  %empty = call i32 (...)* @_ssdm_op_SpecLoopTripCount(i64 16, i64 16, i64 16)

ST_3: j_V [1/1] 1.72ns
correctQuadrant.exit:6  %j_V = add i5 %p_s, 1

ST_3: stg_37 [1/1] 0.00ns
correctQuadrant.exit:7  br i1 %exitcond, label %ap_fixed_base.exit, label %0

ST_3: tmp_2 [1/1] 0.00ns
:1  %tmp_2 = zext i5 %p_s to i64

ST_3: Kvalues_V_addr [1/1] 0.00ns
:2  %Kvalues_V_addr = getelementptr [16 x i14]* @Kvalues_V, i64 0, i64 %tmp_2

ST_3: Kvalues_V_load [2/2] 2.39ns
:3  %Kvalues_V_load = load i14* %Kvalues_V_addr, align 2

ST_3: angles_V_addr [1/1] 0.00ns
:24  %angles_V_addr = getelementptr [16 x i13]* @angles_V, i64 0, i64 %tmp_2

ST_3: angles_V_load [2/2] 2.39ns
:25  %angles_V_load = load i13* %angles_V_addr, align 2

ST_3: stg_43 [1/1] 0.00ns
ap_fixed_base.exit:0  call void @_ssdm_op_Write.ap_auto.i20P(i20* %theta_V, i20 %p_Val2_6)

ST_3: OP1_V_cast [1/1] 0.00ns
ap_fixed_base.exit:1  %OP1_V_cast = sext i20 %temp_I_V to i33

ST_3: p_Val2_s_8 [1/1] 6.38ns
ap_fixed_base.exit:2  %p_Val2_s_8 = mul i33 %OP1_V_cast, 4973

ST_3: tmp_s [1/1] 0.00ns
ap_fixed_base.exit:3  %tmp_s = call i20 @_ssdm_op_PartSelect.i20.i33.i32.i32(i33 %p_Val2_s_8, i32 13, i32 32)

ST_3: stg_47 [1/1] 0.00ns
ap_fixed_base.exit:4  call void @_ssdm_op_Write.ap_auto.i20P(i20* %r_V_3, i20 %tmp_s)

ST_3: stg_48 [1/1] 0.00ns
ap_fixed_base.exit:5  ret void


 <State 4>: 7.80ns
ST_4: tmp_6 [1/1] 0.00ns
:0  %tmp_6 = call i1 @_ssdm_op_BitSelect.i1.i20.i32(i20 %p_Val2_4, i32 19)

ST_4: Kvalues_V_load [1/2] 2.39ns
:3  %Kvalues_V_load = load i14* %Kvalues_V_addr, align 2

ST_4: angles_V_load [1/2] 2.39ns
:25  %angles_V_load = load i13* %angles_V_addr, align 2

ST_4: angles_V_load_cast [1/1] 0.00ns
:26  %angles_V_load_cast = zext i13 %angles_V_load to i14

ST_4: mf [1/1] 1.96ns
:27  %mf = sub i14 0, %angles_V_load_cast

ST_4: p_Val2_s [1/1] 1.37ns
:28  %p_Val2_s = select i1 %tmp_6, i14 %angles_V_load_cast, i14 %mf

ST_4: p_Val2_cast [1/1] 0.00ns
:29  %p_Val2_cast = sext i14 %p_Val2_s to i20

ST_4: curr_T_V [1/1] 2.08ns
:30  %curr_T_V = sub i20 %p_Val2_6, %p_Val2_cast


 <State 5>: 6.38ns
ST_5: OP2_V_cast [1/1] 0.00ns
:4  %OP2_V_cast = zext i14 %Kvalues_V_load to i34

ST_5: tmp [1/1] 0.00ns
:5  %tmp = zext i14 %Kvalues_V_load to i33

ST_5: tmp_3 [1/1] 0.00ns
:6  %tmp_3 = sext i20 %p_Val2_4 to i33

ST_5: OP2_V_1_cast1 [1/1] 6.38ns
:7  %OP2_V_1_cast1 = mul i33 %tmp_3, %tmp

ST_5: OP1_V_2_cast [1/1] 0.00ns
:15  %OP1_V_2_cast = sext i20 %temp_I_V to i34

ST_5: r_V [1/1] 6.38ns
:16  %r_V = mul i34 %OP1_V_2_cast, %OP2_V_cast


 <State 6>: 6.49ns
ST_6: mf9_cast [1/1] 2.56ns
:8  %mf9_cast = sub i33 0, %OP2_V_1_cast1

ST_6: tmp_4 [1/1] 0.00ns
:9  %tmp_4 = call i33 @_ssdm_op_BitConcatenate.i33.i20.i13(i20 %temp_I_V, i13 0)

ST_6: tmp_4_cast4_cast [1/1] 0.00ns
:10  %tmp_4_cast4_cast = zext i33 %tmp_4 to i34

ST_6: tmp_8 [1/1] 1.37ns
:11  %tmp_8 = select i1 %tmp_6, i33 %OP2_V_1_cast1, i33 %mf9_cast

ST_6: tmp_5_cast [1/1] 0.00ns
:12  %tmp_5_cast = zext i33 %tmp_8 to i34

ST_6: p_Val2_3 [1/1] 2.56ns
:13  %p_Val2_3 = sub i34 %tmp_4_cast4_cast, %tmp_5_cast

ST_6: curr_I_V [1/1] 0.00ns
:14  %curr_I_V = call i20 @_ssdm_op_PartSelect.i20.i34.i32.i32(i34 %p_Val2_3, i32 13, i32 32)

ST_6: mf1 [1/1] 2.56ns
:17  %mf1 = sub i34 0, %r_V

ST_6: tmp_9 [1/1] 1.37ns
:18  %tmp_9 = select i1 %tmp_6, i34 %r_V, i34 %mf1

ST_6: tmp_8_cast [1/1] 0.00ns
:19  %tmp_8_cast = zext i34 %tmp_9 to i35

ST_6: tmp_7 [1/1] 0.00ns
:20  %tmp_7 = call i33 @_ssdm_op_BitConcatenate.i33.i20.i13(i20 %p_Val2_4, i13 0)

ST_6: tmp_7_cast7_cast [1/1] 0.00ns
:21  %tmp_7_cast7_cast = zext i33 %tmp_7 to i35

ST_6: p_Val2_5 [1/1] 2.56ns
:22  %p_Val2_5 = add i35 %tmp_7_cast7_cast, %tmp_8_cast

ST_6: curr_Q_V [1/1] 0.00ns
:23  %curr_Q_V = call i20 @_ssdm_op_PartSelect.i20.i35.i32.i32(i35 %p_Val2_5, i32 13, i32 32)

ST_6: stg_77 [1/1] 0.00ns
:31  br label %correctQuadrant.exit



============================================================
+ Verbose Summary: Binding
============================================================
STG Binding: 
---------------- STG Properties BEGIN ----------------
- Is combinational: 0
- Is one-state seq: 0
- Is datapath-only: 0
- Is clock enabled: 0
- Is pipelined: 0
- Is top level: 1
Port [ Return ] is wired: 1; IO mode=ap_ctrl_hs:ce=0
Port [ x_V]:  wired=1; compound=0; hidden=0; nouse=0; global=0; static=0; extern=0; dir=0; type=0; mode=0x1a179e500d0; pingpong=0; private_global=0; IO mode=ap_none:ce=0
Port [ y_V]:  wired=1; compound=0; hidden=0; nouse=0; global=0; static=0; extern=0; dir=0; type=0; mode=0x1a179e501f0; pingpong=0; private_global=0; IO mode=ap_none:ce=0
Port [ r_V_3]:  wired=1; compound=0; hidden=0; nouse=0; global=0; static=0; extern=0; dir=1; type=0; mode=0x1a179e50550; pingpong=0; private_global=0; IO mode=ap_vld:ce=0
Port [ theta_V]:  wired=1; compound=0; hidden=0; nouse=0; global=0; static=0; extern=0; dir=1; type=0; mode=0x1a179e50280; pingpong=0; private_global=0; IO mode=ap_vld:ce=0
Port [ Kvalues_V]:  wired=0; compound=1; hidden=1; nouse=0; global=1; static=0; extern=0; dir=0; type=1; mode=0x1a179e50310; pingpong=0; private_global=1; linkage=0; visibility=0; MemPort=[1]; IO mode=ap_memory:ce=0
Port [ angles_V]:  wired=0; compound=1; hidden=1; nouse=0; global=1; static=0; extern=0; dir=0; type=1; mode=0x1a179e503a0; pingpong=0; private_global=1; linkage=0; visibility=0; MemPort=[1]; IO mode=ap_memory:ce=0
---------------- STG Properties END ------------------

---------------- Datapath Model BEGIN ----------------

<LifeTime>
<method=bitvector/>
y_V_read           (read             ) [ 0010000]
tmp_1_i            (icmp             ) [ 0010000]
stg_9              (specbitsmap      ) [ 0000000]
stg_10             (specbitsmap      ) [ 0000000]
stg_11             (specbitsmap      ) [ 0000000]
stg_12             (specbitsmap      ) [ 0000000]
stg_13             (spectopmodule    ) [ 0000000]
x_V_read           (read             ) [ 0000000]
tmp_1              (bitselect        ) [ 0000000]
or_cond_i          (and              ) [ 0000000]
p_Val2_1_i         (sub              ) [ 0000000]
p_Val2_2_cast_cast (select           ) [ 0000000]
p_read2_read1_i    (select           ) [ 0000000]
p_Val2_1           (select           ) [ 0000000]
tmp_2_i            (and              ) [ 0000000]
tmp_5              (bitselect        ) [ 0000000]
p_Val2_5_i         (sub              ) [ 0000000]
p_Val2_7_i         (select           ) [ 0000000]
p_Val2_9_ph        (select           ) [ 0000000]
p_Val2_9_ph_cast   (sext             ) [ 0011111]
p_Val2_7_ph        (select           ) [ 0011111]
temp_I_V_ph        (select           ) [ 0011111]
stg_29             (br               ) [ 0011111]
p_Val2_6           (phi              ) [ 0001100]
p_Val2_4           (phi              ) [ 0001111]
temp_I_V           (phi              ) [ 0001111]
p_s                (phi              ) [ 0001000]
exitcond           (icmp             ) [ 0001111]
empty              (speclooptripcount) [ 0000000]
j_V                (add              ) [ 0011111]
stg_37             (br               ) [ 0000000]
tmp_2              (zext             ) [ 0000000]
Kvalues_V_addr     (getelementptr    ) [ 0000100]
angles_V_addr      (getelementptr    ) [ 0000100]
stg_43             (write            ) [ 0000000]
OP1_V_cast         (sext             ) [ 0000000]
p_Val2_s_8         (mul              ) [ 0000000]
tmp_s              (partselect       ) [ 0000000]
stg_47             (write            ) [ 0000000]
stg_48             (ret              ) [ 0000000]
tmp_6              (bitselect        ) [ 0000011]
Kvalues_V_load     (load             ) [ 0000010]
angles_V_load      (load             ) [ 0000000]
angles_V_load_cast (zext             ) [ 0000000]
mf                 (sub              ) [ 0000000]
p_Val2_s           (select           ) [ 0000000]
p_Val2_cast        (sext             ) [ 0000000]
curr_T_V           (sub              ) [ 0011011]
OP2_V_cast         (zext             ) [ 0000000]
tmp                (zext             ) [ 0000000]
tmp_3              (sext             ) [ 0000000]
OP2_V_1_cast1      (mul              ) [ 0000001]
OP1_V_2_cast       (sext             ) [ 0000000]
r_V                (mul              ) [ 0000001]
mf9_cast           (sub              ) [ 0000000]
tmp_4              (bitconcatenate   ) [ 0000000]
tmp_4_cast4_cast   (zext             ) [ 0000000]
tmp_8              (select           ) [ 0000000]
tmp_5_cast         (zext             ) [ 0000000]
p_Val2_3           (sub              ) [ 0000000]
curr_I_V           (partselect       ) [ 0011111]
mf1                (sub              ) [ 0000000]
tmp_9              (select           ) [ 0000000]
tmp_8_cast         (zext             ) [ 0000000]
tmp_7              (bitconcatenate   ) [ 0000000]
tmp_7_cast7_cast   (zext             ) [ 0000000]
p_Val2_5           (add              ) [ 0000000]
curr_Q_V           (partselect       ) [ 0011111]
stg_77             (br               ) [ 0011111]
</LifeTime>

<model>

<comp_list>
<comp id="0" class="1000" name="x_V">
<pin_list>
<pin id="1" dir="1" index="0" bw="1" slack="0"/>
</pin_list>
<bind>
<StgValue><ssdm name="x_V"/></StgValue>
</bind>
</comp>

<comp id="2" class="1000" name="y_V">
<pin_list>
<pin id="3" dir="1" index="0" bw="1" slack="0"/>
</pin_list>
<bind>
<StgValue><ssdm name="y_V"/></StgValue>
</bind>
</comp>

<comp id="4" class="1000" name="r_V_3">
<pin_list>
<pin id="5" dir="1" index="0" bw="1" slack="0"/>
</pin_list>
<bind>
<StgValue><ssdm name="r_V_3"/></StgValue>
</bind>
</comp>

<comp id="6" class="1000" name="theta_V">
<pin_list>
<pin id="7" dir="1" index="0" bw="1" slack="0"/>
</pin_list>
<bind>
<StgValue><ssdm name="theta_V"/></StgValue>
</bind>
</comp>

<comp id="8" class="1000" name="Kvalues_V">
<pin_list>
<pin id="9" dir="1" index="0" bw="1" slack="0"/>
</pin_list>
<bind>
<StgValue><ssdm name="Kvalues_V"/><MemPortTyVec>1 </MemPortTyVec>
</StgValue>
</bind>
</comp>

<comp id="10" class="1000" name="angles_V">
<pin_list>
<pin id="11" dir="1" index="0" bw="1" slack="0"/>
</pin_list>
<bind>
<StgValue><ssdm name="angles_V"/><MemPortTyVec>1 </MemPortTyVec>
</StgValue>
</bind>
</comp>

<comp id="12" class="1001" name="const_12">
<pin_list>
<pin id="13" dir="1" index="0" bw="1" slack="0"/>
</pin_list>
<bind>
<StgValue><ssdm name="_ssdm_op_Read.ap_auto.i20"/></StgValue>
</bind>
</comp>

<comp id="14" class="1001" name="const_14">
<pin_list>
<pin id="15" dir="1" index="0" bw="1" slack="0"/>
</pin_list>
<bind>
<StgValue><ssdm name=""/></StgValue>
</bind>
</comp>

<comp id="16" class="1001" name="const_16">
<pin_list>
<pin id="17" dir="1" index="0" bw="1" slack="2147483647"/>
</pin_list>
<bind>
<StgValue><ssdm name="_ssdm_op_SpecBitsMap"/></StgValue>
</bind>
</comp>

<comp id="18" class="1001" name="const_18">
<pin_list>
<pin id="19" dir="1" index="0" bw="1" slack="2147483647"/>
</pin_list>
<bind>
<StgValue><ssdm name="_ssdm_op_SpecTopModule"/></StgValue>
</bind>
</comp>

<comp id="20" class="1001" name="const_20">
<pin_list>
<pin id="21" dir="1" index="0" bw="1" slack="2147483647"/>
</pin_list>
<bind>
<StgValue><ssdm name="cordiccart2pol_str"/></StgValue>
</bind>
</comp>

<comp id="22" class="1001" name="const_22">
<pin_list>
<pin id="23" dir="1" index="0" bw="1" slack="0"/>
</pin_list>
<bind>
<StgValue><ssdm name="_ssdm_op_BitSelect.i1.i20.i32"/></StgValue>
</bind>
</comp>

<comp id="24" class="1001" name="const_24">
<pin_list>
<pin id="25" dir="1" index="0" bw="1" slack="0"/>
</pin_list>
<bind>
<StgValue><ssdm name=""/></StgValue>
</bind>
</comp>

<comp id="26" class="1001" name="const_26">
<pin_list>
<pin id="27" dir="1" index="0" bw="1" slack="0"/>
</pin_list>
<bind>
<StgValue><ssdm name=""/></StgValue>
</bind>
</comp>

<comp id="28" class="1001" name="const_28">
<pin_list>
<pin id="29" dir="1" index="0" bw="1" slack="0"/>
</pin_list>
<bind>
<StgValue><ssdm name=""/></StgValue>
</bind>
</comp>

<comp id="30" class="1001" name="const_30">
<pin_list>
<pin id="31" dir="1" index="0" bw="1" slack="0"/>
</pin_list>
<bind>
<StgValue><ssdm name=""/></StgValue>
</bind>
</comp>

<comp id="32" class="1001" name="const_32">
<pin_list>
<pin id="33" dir="1" index="0" bw="1" slack="1"/>
</pin_list>
<bind>
<StgValue><ssdm name=""/></StgValue>
</bind>
</comp>

<comp id="34" class="1001" name="const_34">
<pin_list>
<pin id="35" dir="1" index="0" bw="1" slack="0"/>
</pin_list>
<bind>
<StgValue><ssdm name=""/></StgValue>
</bind>
</comp>

<comp id="36" class="1001" name="const_36">
<pin_list>
<pin id="37" dir="1" index="0" bw="1" slack="2147483647"/>
</pin_list>
<bind>
<StgValue><ssdm name="_ssdm_op_SpecLoopTripCount"/></StgValue>
</bind>
</comp>

<comp id="38" class="1001" name="const_38">
<pin_list>
<pin id="39" dir="1" index="0" bw="1" slack="2147483647"/>
</pin_list>
<bind>
<StgValue><ssdm name=""/></StgValue>
</bind>
</comp>

<comp id="40" class="1001" name="const_40">
<pin_list>
<pin id="41" dir="1" index="0" bw="1" slack="0"/>
</pin_list>
<bind>
<StgValue><ssdm name=""/></StgValue>
</bind>
</comp>

<comp id="42" class="1001" name="const_42">
<pin_list>
<pin id="43" dir="1" index="0" bw="1" slack="0"/>
</pin_list>
<bind>
<StgValue><ssdm name=""/></StgValue>
</bind>
</comp>

<comp id="44" class="1001" name="const_44">
<pin_list>
<pin id="45" dir="1" index="0" bw="1" slack="0"/>
</pin_list>
<bind>
<StgValue><ssdm name="_ssdm_op_Write.ap_auto.i20P"/></StgValue>
</bind>
</comp>

<comp id="46" class="1001" name="const_46">
<pin_list>
<pin id="47" dir="1" index="0" bw="1" slack="0"/>
</pin_list>
<bind>
<StgValue><ssdm name=""/></StgValue>
</bind>
</comp>

<comp id="48" class="1001" name="const_48">
<pin_list>
<pin id="49" dir="1" index="0" bw="1" slack="0"/>
</pin_list>
<bind>
<StgValue><ssdm name="_ssdm_op_PartSelect.i20.i33.i32.i32"/></StgValue>
</bind>
</comp>

<comp id="50" class="1001" name="const_50">
<pin_list>
<pin id="51" dir="1" index="0" bw="1" slack="0"/>
</pin_list>
<bind>
<StgValue><ssdm name=""/></StgValue>
</bind>
</comp>

<comp id="52" class="1001" name="const_52">
<pin_list>
<pin id="53" dir="1" index="0" bw="1" slack="0"/>
</pin_list>
<bind>
<StgValue><ssdm name=""/></StgValue>
</bind>
</comp>

<comp id="54" class="1001" name="const_54">
<pin_list>
<pin id="55" dir="1" index="0" bw="1" slack="0"/>
</pin_list>
<bind>
<StgValue><ssdm name=""/></StgValue>
</bind>
</comp>

<comp id="56" class="1001" name="const_56">
<pin_list>
<pin id="57" dir="1" index="0" bw="1" slack="0"/>
</pin_list>
<bind>
<StgValue><ssdm name=""/></StgValue>
</bind>
</comp>

<comp id="58" class="1001" name="const_58">
<pin_list>
<pin id="59" dir="1" index="0" bw="1" slack="0"/>
</pin_list>
<bind>
<StgValue><ssdm name="_ssdm_op_BitConcatenate.i33.i20.i13"/></StgValue>
</bind>
</comp>

<comp id="60" class="1001" name="const_60">
<pin_list>
<pin id="61" dir="1" index="0" bw="1" slack="0"/>
</pin_list>
<bind>
<StgValue><ssdm name=""/></StgValue>
</bind>
</comp>

<comp id="62" class="1001" name="const_62">
<pin_list>
<pin id="63" dir="1" index="0" bw="1" slack="0"/>
</pin_list>
<bind>
<StgValue><ssdm name="_ssdm_op_PartSelect.i20.i34.i32.i32"/></StgValue>
</bind>
</comp>

<comp id="64" class="1001" name="const_64">
<pin_list>
<pin id="65" dir="1" index="0" bw="1" slack="0"/>
</pin_list>
<bind>
<StgValue><ssdm name=""/></StgValue>
</bind>
</comp>

<comp id="66" class="1001" name="const_66">
<pin_list>
<pin id="67" dir="1" index="0" bw="1" slack="0"/>
</pin_list>
<bind>
<StgValue><ssdm name="_ssdm_op_PartSelect.i20.i35.i32.i32"/></StgValue>
</bind>
</comp>

<comp id="68" class="1004" name="y_V_read_read_fu_68">
<pin_list>
<pin id="69" dir="0" index="0" bw="20" slack="0"/>
<pin id="70" dir="0" index="1" bw="20" slack="0"/>
<pin id="71" dir="1" index="2" bw="20" slack="0"/>
</pin_list>
<bind>
<opcode="read(1150) " fcode="read"/>
<opset="y_V_read/1 "/>
</bind>
</comp>

<comp id="74" class="1004" name="x_V_read_read_fu_74">
<pin_list>
<pin id="75" dir="0" index="0" bw="20" slack="0"/>
<pin id="76" dir="0" index="1" bw="20" slack="0"/>
<pin id="77" dir="1" index="2" bw="20" slack="0"/>
</pin_list>
<bind>
<opcode="read(1150) " fcode="read"/>
<opset="x_V_read/2 "/>
</bind>
</comp>

<comp id="80" class="1004" name="stg_43_write_fu_80">
<pin_list>
<pin id="81" dir="0" index="0" bw="0" slack="0"/>
<pin id="82" dir="0" index="1" bw="20" slack="0"/>
<pin id="83" dir="0" index="2" bw="20" slack="0"/>
<pin id="84" dir="1" index="3" bw="0" slack="2147483647"/>
</pin_list>
<bind>
<opcode="write(1151) " fcode="write"/>
<opset="stg_43/3 "/>
</bind>
</comp>

<comp id="87" class="1004" name="stg_47_write_fu_87">
<pin_list>
<pin id="88" dir="0" index="0" bw="0" slack="0"/>
<pin id="89" dir="0" index="1" bw="20" slack="0"/>
<pin id="90" dir="0" index="2" bw="20" slack="0"/>
<pin id="91" dir="1" index="3" bw="0" slack="2147483647"/>
</pin_list>
<bind>
<opcode="write(1151) " fcode="write"/>
<opset="stg_47/3 "/>
</bind>
</comp>

<comp id="94" class="1004" name="Kvalues_V_addr_gep_fu_94">
<pin_list>
<pin id="95" dir="0" index="0" bw="14" slack="0"/>
<pin id="96" dir="0" index="1" bw="1" slack="0"/>
<pin id="97" dir="0" index="2" bw="5" slack="0"/>
<pin id="98" dir="1" index="3" bw="4" slack="0"/>
</pin_list>
<bind>
<opcode="getelementptr(29) " fcode="getelementptr"/>
<opset="Kvalues_V_addr/3 "/>
</bind>
</comp>

<comp id="101" class="1004" name="grp_access_fu_101">
<pin_list>
<pin id="102" dir="0" index="0" bw="4" slack="0"/>
<pin id="103" dir="0" index="1" bw="14" slack="2147483647"/>
<pin id="104" dir="1" index="2" bw="14" slack="1"/>
</pin_list>
<bind>
<opcode="load(27) " fcode="load"/>
<opset="Kvalues_V_load/3 "/>
</bind>
</comp>

<comp id="106" class="1004" name="angles_V_addr_gep_fu_106">
<pin_list>
<pin id="107" dir="0" index="0" bw="13" slack="0"/>
<pin id="108" dir="0" index="1" bw="1" slack="0"/>
<pin id="109" dir="0" index="2" bw="5" slack="0"/>
<pin id="110" dir="1" index="3" bw="4" slack="0"/>
</pin_list>
<bind>
<opcode="getelementptr(29) " fcode="getelementptr"/>
<opset="angles_V_addr/3 "/>
</bind>
</comp>

<comp id="113" class="1004" name="grp_access_fu_113">
<pin_list>
<pin id="114" dir="0" index="0" bw="4" slack="0"/>
<pin id="115" dir="0" index="1" bw="13" slack="2147483647"/>
<pin id="116" dir="1" index="2" bw="13" slack="0"/>
</pin_list>
<bind>
<opcode="load(27) " fcode="load"/>
<opset="angles_V_load/3 "/>
</bind>
</comp>

<comp id="118" class="1005" name="p_Val2_6_reg_118">
<pin_list>
<pin id="119" dir="0" index="0" bw="20" slack="1"/>
<pin id="120" dir="1" index="1" bw="20" slack="1"/>
</pin_list>
<bind>
<opset="p_Val2_6 (phireg) "/>
</bind>
</comp>

<comp id="121" class="1004" name="p_Val2_6_phi_fu_121">
<pin_list>
<pin id="122" dir="0" index="0" bw="20" slack="1"/>
<pin id="123" dir="0" index="1" bw="0" slack="2147483647"/>
<pin id="124" dir="0" index="2" bw="15" slack="1"/>
<pin id="125" dir="0" index="3" bw="0" slack="2147483647"/>
<pin id="126" dir="1" index="4" bw="20" slack="0"/>
</pin_list>
<bind>
<opcode="phi(47) " fcode="phi"/>
<opset="p_Val2_6/3 "/>
</bind>
</comp>

<comp id="129" class="1005" name="p_Val2_4_reg_129">
<pin_list>
<pin id="130" dir="0" index="0" bw="20" slack="1"/>
<pin id="131" dir="1" index="1" bw="20" slack="1"/>
</pin_list>
<bind>
<opset="p_Val2_4 (phireg) "/>
</bind>
</comp>

<comp id="132" class="1004" name="p_Val2_4_phi_fu_132">
<pin_list>
<pin id="133" dir="0" index="0" bw="20" slack="1"/>
<pin id="134" dir="0" index="1" bw="0" slack="2147483647"/>
<pin id="135" dir="0" index="2" bw="20" slack="1"/>
<pin id="136" dir="0" index="3" bw="0" slack="2147483647"/>
<pin id="137" dir="1" index="4" bw="20" slack="1"/>
</pin_list>
<bind>
<opcode="phi(47) " fcode="phi"/>
<opset="p_Val2_4/3 "/>
</bind>
</comp>

<comp id="139" class="1005" name="temp_I_V_reg_139">
<pin_list>
<pin id="140" dir="0" index="0" bw="20" slack="2"/>
<pin id="141" dir="1" index="1" bw="20" slack="2"/>
</pin_list>
<bind>
<opset="temp_I_V (phireg) "/>
</bind>
</comp>

<comp id="142" class="1004" name="temp_I_V_phi_fu_142">
<pin_list>
<pin id="143" dir="0" index="0" bw="20" slack="1"/>
<pin id="144" dir="0" index="1" bw="0" slack="2147483647"/>
<pin id="145" dir="0" index="2" bw="20" slack="1"/>
<pin id="146" dir="0" index="3" bw="0" slack="2147483647"/>
<pin id="147" dir="1" index="4" bw="20" slack="0"/>
</pin_list>
<bind>
<opcode="phi(47) " fcode="phi"/>
<opset="temp_I_V/3 "/>
</bind>
</comp>

<comp id="149" class="1005" name="p_s_reg_149">
<pin_list>
<pin id="150" dir="0" index="0" bw="5" slack="1"/>
<pin id="151" dir="1" index="1" bw="5" slack="1"/>
</pin_list>
<bind>
<opset="p_s (phireg) "/>
</bind>
</comp>

<comp id="153" class="1004" name="p_s_phi_fu_153">
<pin_list>
<pin id="154" dir="0" index="0" bw="5" slack="0"/>
<pin id="155" dir="0" index="1" bw="0" slack="2147483647"/>
<pin id="156" dir="0" index="2" bw="1" slack="1"/>
<pin id="157" dir="0" index="3" bw="0" slack="2147483647"/>
<pin id="158" dir="1" index="4" bw="5" slack="0"/>
</pin_list>
<bind>
<opcode="phi(47) " fcode="phi"/>
<opset="p_s/3 "/>
</bind>
</comp>

<comp id="160" class="1004" name="tmp_1_i_fu_160">
<pin_list>
<pin id="161" dir="0" index="0" bw="20" slack="0"/>
<pin id="162" dir="0" index="1" bw="1" slack="0"/>
<pin id="163" dir="1" index="2" bw="1" slack="1"/>
</pin_list>
<bind>
<opcode="icmp(45) " fcode="icmp"/>
<opset="tmp_1_i/1 "/>
</bind>
</comp>

<comp id="166" class="1004" name="tmp_1_fu_166">
<pin_list>
<pin id="167" dir="0" index="0" bw="1" slack="0"/>
<pin id="168" dir="0" index="1" bw="20" slack="0"/>
<pin id="169" dir="0" index="2" bw="6" slack="0"/>
<pin id="170" dir="1" index="3" bw="1" slack="0"/>
</pin_list>
<bind>
<opcode="bitselect(1000) " fcode="bitselect"/>
<opset="tmp_1/2 "/>
</bind>
</comp>

<comp id="174" class="1004" name="or_cond_i_fu_174">
<pin_list>
<pin id="175" dir="0" index="0" bw="1" slack="0"/>
<pin id="176" dir="0" index="1" bw="1" slack="1"/>
<pin id="177" dir="1" index="2" bw="1" slack="0"/>
</pin_list>
<bind>
<opcode="and(23) " fcode="and"/>
<opset="or_cond_i/2 "/>
</bind>
</comp>

<comp id="179" class="1004" name="p_Val2_1_i_fu_179">
<pin_list>
<pin id="180" dir="0" index="0" bw="1" slack="0"/>
<pin id="181" dir="0" index="1" bw="20" slack="0"/>
<pin id="182" dir="1" index="2" bw="20" slack="0"/>
</pin_list>
<bind>
<opcode="sub(10) " fcode="sub"/>
<opset="p_Val2_1_i/2 "/>
</bind>
</comp>

<comp id="185" class="1004" name="p_Val2_2_cast_cast_fu_185">
<pin_list>
<pin id="186" dir="0" index="0" bw="1" slack="0"/>
<pin id="187" dir="0" index="1" bw="15" slack="0"/>
<pin id="188" dir="0" index="2" bw="1" slack="0"/>
<pin id="189" dir="1" index="3" bw="15" slack="0"/>
</pin_list>
<bind>
<opcode="select(49) " fcode="select"/>
<opset="p_Val2_2_cast_cast/2 "/>
</bind>
</comp>

<comp id="193" class="1004" name="p_read2_read1_i_fu_193">
<pin_list>
<pin id="194" dir="0" index="0" bw="1" slack="0"/>
<pin id="195" dir="0" index="1" bw="20" slack="1"/>
<pin id="196" dir="0" index="2" bw="20" slack="0"/>
<pin id="197" dir="1" index="3" bw="20" slack="0"/>
</pin_list>
<bind>
<opcode="select(49) " fcode="select"/>
<opset="p_read2_read1_i/2 "/>
</bind>
</comp>

<comp id="200" class="1004" name="p_Val2_1_fu_200">
<pin_list>
<pin id="201" dir="0" index="0" bw="1" slack="0"/>
<pin id="202" dir="0" index="1" bw="20" slack="0"/>
<pin id="203" dir="0" index="2" bw="20" slack="1"/>
<pin id="204" dir="1" index="3" bw="20" slack="0"/>
</pin_list>
<bind>
<opcode="select(49) " fcode="select"/>
<opset="p_Val2_1/2 "/>
</bind>
</comp>

<comp id="207" class="1004" name="tmp_2_i_fu_207">
<pin_list>
<pin id="208" dir="0" index="0" bw="20" slack="0"/>
<pin id="209" dir="0" index="1" bw="20" slack="0"/>
<pin id="210" dir="1" index="2" bw="20" slack="0"/>
</pin_list>
<bind>
<opcode="and(23) " fcode="and"/>
<opset="tmp_2_i/2 "/>
</bind>
</comp>

<comp id="213" class="1004" name="tmp_5_fu_213">
<pin_list>
<pin id="214" dir="0" index="0" bw="1" slack="0"/>
<pin id="215" dir="0" index="1" bw="20" slack="0"/>
<pin id="216" dir="0" index="2" bw="6" slack="0"/>
<pin id="217" dir="1" index="3" bw="1" slack="0"/>
</pin_list>
<bind>
<opcode="bitselect(1000) " fcode="bitselect"/>
<opset="tmp_5/2 "/>
</bind>
</comp>

<comp id="221" class="1004" name="p_Val2_5_i_fu_221">
<pin_list>
<pin id="222" dir="0" index="0" bw="1" slack="0"/>
<pin id="223" dir="0" index="1" bw="20" slack="0"/>
<pin id="224" dir="1" index="2" bw="20" slack="0"/>
</pin_list>
<bind>
<opcode="sub(10) " fcode="sub"/>
<opset="p_Val2_5_i/2 "/>
</bind>
</comp>

<comp id="227" class="1004" name="p_Val2_7_i_fu_227">
<pin_list>
<pin id="228" dir="0" index="0" bw="1" slack="0"/>
<pin id="229" dir="0" index="1" bw="1" slack="0"/>
<pin id="230" dir="0" index="2" bw="15" slack="0"/>
<pin id="231" dir="1" index="3" bw="15" slack="0"/>
</pin_list>
<bind>
<opcode="select(49) " fcode="select"/>
<opset="p_Val2_7_i/2 "/>
</bind>
</comp>

<comp id="235" class="1004" name="p_Val2_9_ph_fu_235">
<pin_list>
<pin id="236" dir="0" index="0" bw="1" slack="0"/>
<pin id="237" dir="0" index="1" bw="15" slack="0"/>
<pin id="238" dir="0" index="2" bw="15" slack="0"/>
<pin id="239" dir="1" index="3" bw="15" slack="0"/>
</pin_list>
<bind>
<opcode="select(49) " fcode="select"/>
<opset="p_Val2_9_ph/2 "/>
</bind>
</comp>

<comp id="243" class="1004" name="p_Val2_9_ph_cast_fu_243">
<pin_list>
<pin id="244" dir="0" index="0" bw="15" slack="0"/>
<pin id="245" dir="1" index="1" bw="20" slack="1"/>
</pin_list>
<bind>
<opcode="sext(35) " fcode="sext"/>
<opset="p_Val2_9_ph_cast/2 "/>
</bind>
</comp>

<comp id="247" class="1004" name="p_Val2_7_ph_fu_247">
<pin_list>
<pin id="248" dir="0" index="0" bw="1" slack="0"/>
<pin id="249" dir="0" index="1" bw="20" slack="0"/>
<pin id="250" dir="0" index="2" bw="20" slack="0"/>
<pin id="251" dir="1" index="3" bw="20" slack="1"/>
</pin_list>
<bind>
<opcode="select(49) " fcode="select"/>
<opset="p_Val2_7_ph/2 "/>
</bind>
</comp>

<comp id="255" class="1004" name="temp_I_V_ph_fu_255">
<pin_list>
<pin id="256" dir="0" index="0" bw="1" slack="0"/>
<pin id="257" dir="0" index="1" bw="20" slack="0"/>
<pin id="258" dir="0" index="2" bw="20" slack="0"/>
<pin id="259" dir="1" index="3" bw="20" slack="1"/>
</pin_list>
<bind>
<opcode="select(49) " fcode="select"/>
<opset="temp_I_V_ph/2 "/>
</bind>
</comp>

<comp id="263" class="1004" name="exitcond_fu_263">
<pin_list>
<pin id="264" dir="0" index="0" bw="5" slack="0"/>
<pin id="265" dir="0" index="1" bw="5" slack="0"/>
<pin id="266" dir="1" index="2" bw="1" slack="2147483647"/>
</pin_list>
<bind>
<opcode="icmp(45) " fcode="icmp"/>
<opset="exitcond/3 "/>
</bind>
</comp>

<comp id="269" class="1004" name="j_V_fu_269">
<pin_list>
<pin id="270" dir="0" index="0" bw="5" slack="0"/>
<pin id="271" dir="0" index="1" bw="1" slack="0"/>
<pin id="272" dir="1" index="2" bw="5" slack="0"/>
</pin_list>
<bind>
<opcode="add(8) " fcode="add"/>
<opset="j_V/3 "/>
</bind>
</comp>

<comp id="275" class="1004" name="tmp_2_fu_275">
<pin_list>
<pin id="276" dir="0" index="0" bw="5" slack="0"/>
<pin id="277" dir="1" index="1" bw="64" slack="0"/>
</pin_list>
<bind>
<opcode="zext(34) " fcode="zext"/>
<opset="tmp_2/3 "/>
</bind>
</comp>

<comp id="281" class="1004" name="OP1_V_cast_fu_281">
<pin_list>
<pin id="282" dir="0" index="0" bw="20" slack="0"/>
<pin id="283" dir="1" index="1" bw="33" slack="0"/>
</pin_list>
<bind>
<opcode="sext(35) " fcode="sext"/>
<opset="OP1_V_cast/3 "/>
</bind>
</comp>

<comp id="285" class="1004" name="tmp_s_fu_285">
<pin_list>
<pin id="286" dir="0" index="0" bw="20" slack="0"/>
<pin id="287" dir="0" index="1" bw="33" slack="0"/>
<pin id="288" dir="0" index="2" bw="5" slack="0"/>
<pin id="289" dir="0" index="3" bw="7" slack="0"/>
<pin id="290" dir="1" index="4" bw="20" slack="0"/>
</pin_list>
<bind>
<opcode="partselect(1002) " fcode="partselect"/>
<opset="tmp_s/3 "/>
</bind>
</comp>

<comp id="295" class="1004" name="tmp_6_fu_295">
<pin_list>
<pin id="296" dir="0" index="0" bw="1" slack="0"/>
<pin id="297" dir="0" index="1" bw="20" slack="1"/>
<pin id="298" dir="0" index="2" bw="6" slack="0"/>
<pin id="299" dir="1" index="3" bw="1" slack="0"/>
</pin_list>
<bind>
<opcode="bitselect(1000) " fcode="bitselect"/>
<opset="tmp_6/4 "/>
</bind>
</comp>

<comp id="303" class="1004" name="angles_V_load_cast_fu_303">
<pin_list>
<pin id="304" dir="0" index="0" bw="13" slack="0"/>
<pin id="305" dir="1" index="1" bw="14" slack="0"/>
</pin_list>
<bind>
<opcode="zext(34) " fcode="zext"/>
<opset="angles_V_load_cast/4 "/>
</bind>
</comp>

<comp id="307" class="1004" name="mf_fu_307">
<pin_list>
<pin id="308" dir="0" index="0" bw="1" slack="0"/>
<pin id="309" dir="0" index="1" bw="13" slack="0"/>
<pin id="310" dir="1" index="2" bw="14" slack="0"/>
</pin_list>
<bind>
<opcode="sub(10) " fcode="sub"/>
<opset="mf/4 "/>
</bind>
</comp>

<comp id="313" class="1004" name="p_Val2_s_fu_313">
<pin_list>
<pin id="314" dir="0" index="0" bw="1" slack="0"/>
<pin id="315" dir="0" index="1" bw="13" slack="0"/>
<pin id="316" dir="0" index="2" bw="14" slack="0"/>
<pin id="317" dir="1" index="3" bw="14" slack="0"/>
</pin_list>
<bind>
<opcode="select(49) " fcode="select"/>
<opset="p_Val2_s/4 "/>
</bind>
</comp>

<comp id="321" class="1004" name="p_Val2_cast_fu_321">
<pin_list>
<pin id="322" dir="0" index="0" bw="14" slack="0"/>
<pin id="323" dir="1" index="1" bw="20" slack="0"/>
</pin_list>
<bind>
<opcode="sext(35) " fcode="sext"/>
<opset="p_Val2_cast/4 "/>
</bind>
</comp>

<comp id="325" class="1004" name="curr_T_V_fu_325">
<pin_list>
<pin id="326" dir="0" index="0" bw="20" slack="1"/>
<pin id="327" dir="0" index="1" bw="14" slack="0"/>
<pin id="328" dir="1" index="2" bw="20" slack="1"/>
</pin_list>
<bind>
<opcode="sub(10) " fcode="sub"/>
<opset="curr_T_V/4 "/>
</bind>
</comp>

<comp id="331" class="1004" name="OP2_V_cast_fu_331">
<pin_list>
<pin id="332" dir="0" index="0" bw="14" slack="1"/>
<pin id="333" dir="1" index="1" bw="34" slack="0"/>
</pin_list>
<bind>
<opcode="zext(34) " fcode="zext"/>
<opset="OP2_V_cast/5 "/>
</bind>
</comp>

<comp id="334" class="1004" name="tmp_fu_334">
<pin_list>
<pin id="335" dir="0" index="0" bw="14" slack="1"/>
<pin id="336" dir="1" index="1" bw="33" slack="0"/>
</pin_list>
<bind>
<opcode="zext(34) " fcode="zext"/>
<opset="tmp/5 "/>
</bind>
</comp>

<comp id="337" class="1004" name="tmp_3_fu_337">
<pin_list>
<pin id="338" dir="0" index="0" bw="20" slack="2"/>
<pin id="339" dir="1" index="1" bw="33" slack="0"/>
</pin_list>
<bind>
<opcode="sext(35) " fcode="sext"/>
<opset="tmp_3/5 "/>
</bind>
</comp>

<comp id="341" class="1004" name="OP1_V_2_cast_fu_341">
<pin_list>
<pin id="342" dir="0" index="0" bw="20" slack="2"/>
<pin id="343" dir="1" index="1" bw="34" slack="0"/>
</pin_list>
<bind>
<opcode="sext(35) " fcode="sext"/>
<opset="OP1_V_2_cast/5 "/>
</bind>
</comp>

<comp id="345" class="1004" name="mf9_cast_fu_345">
<pin_list>
<pin id="346" dir="0" index="0" bw="1" slack="0"/>
<pin id="347" dir="0" index="1" bw="33" slack="1"/>
<pin id="348" dir="1" index="2" bw="33" slack="0"/>
</pin_list>
<bind>
<opcode="sub(10) " fcode="sub"/>
<opset="mf9_cast/6 "/>
</bind>
</comp>

<comp id="350" class="1004" name="tmp_4_fu_350">
<pin_list>
<pin id="351" dir="0" index="0" bw="33" slack="0"/>
<pin id="352" dir="0" index="1" bw="20" slack="3"/>
<pin id="353" dir="0" index="2" bw="1" slack="0"/>
<pin id="354" dir="1" index="3" bw="33" slack="0"/>
</pin_list>
<bind>
<opcode="bitconcatenate(1004) " fcode="bitconcatenate"/>
<opset="tmp_4/6 "/>
</bind>
</comp>

<comp id="358" class="1004" name="tmp_4_cast4_cast_fu_358">
<pin_list>
<pin id="359" dir="0" index="0" bw="33" slack="0"/>
<pin id="360" dir="1" index="1" bw="34" slack="0"/>
</pin_list>
<bind>
<opcode="zext(34) " fcode="zext"/>
<opset="tmp_4_cast4_cast/6 "/>
</bind>
</comp>

<comp id="362" class="1004" name="tmp_8_fu_362">
<pin_list>
<pin id="363" dir="0" index="0" bw="1" slack="2"/>
<pin id="364" dir="0" index="1" bw="33" slack="1"/>
<pin id="365" dir="0" index="2" bw="33" slack="0"/>
<pin id="366" dir="1" index="3" bw="33" slack="0"/>
</pin_list>
<bind>
<opcode="select(49) " fcode="select"/>
<opset="tmp_8/6 "/>
</bind>
</comp>

<comp id="368" class="1004" name="tmp_5_cast_fu_368">
<pin_list>
<pin id="369" dir="0" index="0" bw="33" slack="0"/>
<pin id="370" dir="1" index="1" bw="34" slack="0"/>
</pin_list>
<bind>
<opcode="zext(34) " fcode="zext"/>
<opset="tmp_5_cast/6 "/>
</bind>
</comp>

<comp id="372" class="1004" name="p_Val2_3_fu_372">
<pin_list>
<pin id="373" dir="0" index="0" bw="33" slack="0"/>
<pin id="374" dir="0" index="1" bw="33" slack="0"/>
<pin id="375" dir="1" index="2" bw="34" slack="0"/>
</pin_list>
<bind>
<opcode="sub(10) " fcode="sub"/>
<opset="p_Val2_3/6 "/>
</bind>
</comp>

<comp id="378" class="1004" name="curr_I_V_fu_378">
<pin_list>
<pin id="379" dir="0" index="0" bw="20" slack="0"/>
<pin id="380" dir="0" index="1" bw="34" slack="0"/>
<pin id="381" dir="0" index="2" bw="5" slack="0"/>
<pin id="382" dir="0" index="3" bw="7" slack="0"/>
<pin id="383" dir="1" index="4" bw="20" slack="1"/>
</pin_list>
<bind>
<opcode="partselect(1002) " fcode="partselect"/>
<opset="curr_I_V/6 "/>
</bind>
</comp>

<comp id="388" class="1004" name="mf1_fu_388">
<pin_list>
<pin id="389" dir="0" index="0" bw="1" slack="0"/>
<pin id="390" dir="0" index="1" bw="34" slack="1"/>
<pin id="391" dir="1" index="2" bw="34" slack="0"/>
</pin_list>
<bind>
<opcode="sub(10) " fcode="sub"/>
<opset="mf1/6 "/>
</bind>
</comp>

<comp id="393" class="1004" name="tmp_9_fu_393">
<pin_list>
<pin id="394" dir="0" index="0" bw="1" slack="2"/>
<pin id="395" dir="0" index="1" bw="34" slack="1"/>
<pin id="396" dir="0" index="2" bw="34" slack="0"/>
<pin id="397" dir="1" index="3" bw="34" slack="0"/>
</pin_list>
<bind>
<opcode="select(49) " fcode="select"/>
<opset="tmp_9/6 "/>
</bind>
</comp>

<comp id="399" class="1004" name="tmp_8_cast_fu_399">
<pin_list>
<pin id="400" dir="0" index="0" bw="34" slack="0"/>
<pin id="401" dir="1" index="1" bw="35" slack="0"/>
</pin_list>
<bind>
<opcode="zext(34) " fcode="zext"/>
<opset="tmp_8_cast/6 "/>
</bind>
</comp>

<comp id="403" class="1004" name="tmp_7_fu_403">
<pin_list>
<pin id="404" dir="0" index="0" bw="33" slack="0"/>
<pin id="405" dir="0" index="1" bw="20" slack="3"/>
<pin id="406" dir="0" index="2" bw="1" slack="0"/>
<pin id="407" dir="1" index="3" bw="33" slack="0"/>
</pin_list>
<bind>
<opcode="bitconcatenate(1004) " fcode="bitconcatenate"/>
<opset="tmp_7/6 "/>
</bind>
</comp>

<comp id="411" class="1004" name="tmp_7_cast7_cast_fu_411">
<pin_list>
<pin id="412" dir="0" index="0" bw="33" slack="0"/>
<pin id="413" dir="1" index="1" bw="35" slack="0"/>
</pin_list>
<bind>
<opcode="zext(34) " fcode="zext"/>
<opset="tmp_7_cast7_cast/6 "/>
</bind>
</comp>

<comp id="415" class="1004" name="p_Val2_5_fu_415">
<pin_list>
<pin id="416" dir="0" index="0" bw="33" slack="0"/>
<pin id="417" dir="0" index="1" bw="34" slack="0"/>
<pin id="418" dir="1" index="2" bw="35" slack="0"/>
</pin_list>
<bind>
<opcode="add(8) " fcode="add"/>
<opset="p_Val2_5/6 "/>
</bind>
</comp>

<comp id="421" class="1004" name="curr_Q_V_fu_421">
<pin_list>
<pin id="422" dir="0" index="0" bw="20" slack="0"/>
<pin id="423" dir="0" index="1" bw="35" slack="0"/>
<pin id="424" dir="0" index="2" bw="5" slack="0"/>
<pin id="425" dir="0" index="3" bw="7" slack="0"/>
<pin id="426" dir="1" index="4" bw="20" slack="1"/>
</pin_list>
<bind>
<opcode="partselect(1002) " fcode="partselect"/>
<opset="curr_Q_V/6 "/>
</bind>
</comp>

<comp id="431" class="1007" name="OP2_V_1_cast1_fu_431">
<pin_list>
<pin id="432" dir="0" index="0" bw="20" slack="0"/>
<pin id="433" dir="0" index="1" bw="14" slack="0"/>
<pin id="434" dir="1" index="2" bw="33" slack="1"/>
</pin_list>
<bind>
<opcode="mul(12) " fcode="mul"/>
<opset="OP2_V_1_cast1/5 "/>
</bind>
</comp>

<comp id="437" class="1007" name="p_Val2_s_8_fu_437">
<pin_list>
<pin id="438" dir="0" index="0" bw="20" slack="0"/>
<pin id="439" dir="0" index="1" bw="14" slack="0"/>
<pin id="440" dir="1" index="2" bw="33" slack="0"/>
</pin_list>
<bind>
<opcode="mul(12) " fcode="mul"/>
<opset="p_Val2_s_8/3 "/>
</bind>
</comp>

<comp id="444" class="1007" name="r_V_fu_444">
<pin_list>
<pin id="445" dir="0" index="0" bw="20" slack="0"/>
<pin id="446" dir="0" index="1" bw="14" slack="0"/>
<pin id="447" dir="1" index="2" bw="34" slack="1"/>
</pin_list>
<bind>
<opcode="mul(12) " fcode="mul"/>
<opset="r_V/5 "/>
</bind>
</comp>

<comp id="450" class="1005" name="y_V_read_reg_450">
<pin_list>
<pin id="451" dir="0" index="0" bw="20" slack="1"/>
<pin id="452" dir="1" index="1" bw="20" slack="1"/>
</pin_list>
<bind>
<opset="y_V_read "/>
</bind>
</comp>

<comp id="456" class="1005" name="tmp_1_i_reg_456">
<pin_list>
<pin id="457" dir="0" index="0" bw="1" slack="1"/>
<pin id="458" dir="1" index="1" bw="1" slack="1"/>
</pin_list>
<bind>
<opset="tmp_1_i "/>
</bind>
</comp>

<comp id="461" class="1005" name="p_Val2_9_ph_cast_reg_461">
<pin_list>
<pin id="462" dir="0" index="0" bw="20" slack="1"/>
<pin id="463" dir="1" index="1" bw="20" slack="1"/>
</pin_list>
<bind>
<opset="p_Val2_9_ph_cast "/>
</bind>
</comp>

<comp id="466" class="1005" name="p_Val2_7_ph_reg_466">
<pin_list>
<pin id="467" dir="0" index="0" bw="20" slack="1"/>
<pin id="468" dir="1" index="1" bw="20" slack="1"/>
</pin_list>
<bind>
<opset="p_Val2_7_ph "/>
</bind>
</comp>

<comp id="471" class="1005" name="temp_I_V_ph_reg_471">
<pin_list>
<pin id="472" dir="0" index="0" bw="20" slack="1"/>
<pin id="473" dir="1" index="1" bw="20" slack="1"/>
</pin_list>
<bind>
<opset="temp_I_V_ph "/>
</bind>
</comp>

<comp id="479" class="1005" name="j_V_reg_479">
<pin_list>
<pin id="480" dir="0" index="0" bw="5" slack="0"/>
<pin id="481" dir="1" index="1" bw="5" slack="0"/>
</pin_list>
<bind>
<opset="j_V "/>
</bind>
</comp>

<comp id="484" class="1005" name="Kvalues_V_addr_reg_484">
<pin_list>
<pin id="485" dir="0" index="0" bw="4" slack="1"/>
<pin id="486" dir="1" index="1" bw="4" slack="1"/>
</pin_list>
<bind>
<opset="Kvalues_V_addr "/>
</bind>
</comp>

<comp id="489" class="1005" name="angles_V_addr_reg_489">
<pin_list>
<pin id="490" dir="0" index="0" bw="4" slack="1"/>
<pin id="491" dir="1" index="1" bw="4" slack="1"/>
</pin_list>
<bind>
<opset="angles_V_addr "/>
</bind>
</comp>

<comp id="494" class="1005" name="tmp_6_reg_494">
<pin_list>
<pin id="495" dir="0" index="0" bw="1" slack="2"/>
<pin id="496" dir="1" index="1" bw="1" slack="2"/>
</pin_list>
<bind>
<opset="tmp_6 "/>
</bind>
</comp>

<comp id="500" class="1005" name="Kvalues_V_load_reg_500">
<pin_list>
<pin id="501" dir="0" index="0" bw="14" slack="1"/>
<pin id="502" dir="1" index="1" bw="14" slack="1"/>
</pin_list>
<bind>
<opset="Kvalues_V_load "/>
</bind>
</comp>

<comp id="506" class="1005" name="curr_T_V_reg_506">
<pin_list>
<pin id="507" dir="0" index="0" bw="20" slack="1"/>
<pin id="508" dir="1" index="1" bw="20" slack="1"/>
</pin_list>
<bind>
<opset="curr_T_V "/>
</bind>
</comp>

<comp id="511" class="1005" name="OP2_V_1_cast1_reg_511">
<pin_list>
<pin id="512" dir="0" index="0" bw="33" slack="1"/>
<pin id="513" dir="1" index="1" bw="33" slack="1"/>
</pin_list>
<bind>
<opset="OP2_V_1_cast1 "/>
</bind>
</comp>

<comp id="517" class="1005" name="r_V_reg_517">
<pin_list>
<pin id="518" dir="0" index="0" bw="34" slack="1"/>
<pin id="519" dir="1" index="1" bw="34" slack="1"/>
</pin_list>
<bind>
<opset="r_V "/>
</bind>
</comp>

<comp id="523" class="1005" name="curr_I_V_reg_523">
<pin_list>
<pin id="524" dir="0" index="0" bw="20" slack="1"/>
<pin id="525" dir="1" index="1" bw="20" slack="1"/>
</pin_list>
<bind>
<opset="curr_I_V "/>
</bind>
</comp>

<comp id="528" class="1005" name="curr_Q_V_reg_528">
<pin_list>
<pin id="529" dir="0" index="0" bw="20" slack="1"/>
<pin id="530" dir="1" index="1" bw="20" slack="1"/>
</pin_list>
<bind>
<opset="curr_Q_V "/>
</bind>
</comp>

</comp_list>

<net_list>
<net id="72"><net_src comp="12" pin="0"/><net_sink comp="68" pin=0"/></net>

<net id="73"><net_src comp="2" pin="0"/><net_sink comp="68" pin=1"/></net>

<net id="78"><net_src comp="12" pin="0"/><net_sink comp="74" pin=0"/></net>

<net id="79"><net_src comp="0" pin="0"/><net_sink comp="74" pin=1"/></net>

<net id="85"><net_src comp="44" pin="0"/><net_sink comp="80" pin=0"/></net>

<net id="86"><net_src comp="6" pin="0"/><net_sink comp="80" pin=1"/></net>

<net id="92"><net_src comp="44" pin="0"/><net_sink comp="87" pin=0"/></net>

<net id="93"><net_src comp="4" pin="0"/><net_sink comp="87" pin=1"/></net>

<net id="99"><net_src comp="8" pin="0"/><net_sink comp="94" pin=0"/></net>

<net id="100"><net_src comp="42" pin="0"/><net_sink comp="94" pin=1"/></net>

<net id="105"><net_src comp="94" pin="3"/><net_sink comp="101" pin=0"/></net>

<net id="111"><net_src comp="10" pin="0"/><net_sink comp="106" pin=0"/></net>

<net id="112"><net_src comp="42" pin="0"/><net_sink comp="106" pin=1"/></net>

<net id="117"><net_src comp="106" pin="3"/><net_sink comp="113" pin=0"/></net>

<net id="127"><net_src comp="121" pin="4"/><net_sink comp="80" pin=2"/></net>

<net id="128"><net_src comp="121" pin="4"/><net_sink comp="118" pin=0"/></net>

<net id="138"><net_src comp="132" pin="4"/><net_sink comp="129" pin=0"/></net>

<net id="148"><net_src comp="142" pin="4"/><net_sink comp="139" pin=0"/></net>

<net id="152"><net_src comp="32" pin="0"/><net_sink comp="149" pin=0"/></net>

<net id="159"><net_src comp="149" pin="1"/><net_sink comp="153" pin=2"/></net>

<net id="164"><net_src comp="68" pin="2"/><net_sink comp="160" pin=0"/></net>

<net id="165"><net_src comp="14" pin="0"/><net_sink comp="160" pin=1"/></net>

<net id="171"><net_src comp="22" pin="0"/><net_sink comp="166" pin=0"/></net>

<net id="172"><net_src comp="74" pin="2"/><net_sink comp="166" pin=1"/></net>

<net id="173"><net_src comp="24" pin="0"/><net_sink comp="166" pin=2"/></net>

<net id="178"><net_src comp="166" pin="3"/><net_sink comp="174" pin=0"/></net>

<net id="183"><net_src comp="14" pin="0"/><net_sink comp="179" pin=0"/></net>

<net id="184"><net_src comp="74" pin="2"/><net_sink comp="179" pin=1"/></net>

<net id="190"><net_src comp="174" pin="2"/><net_sink comp="185" pin=0"/></net>

<net id="191"><net_src comp="26" pin="0"/><net_sink comp="185" pin=1"/></net>

<net id="192"><net_src comp="28" pin="0"/><net_sink comp="185" pin=2"/></net>

<net id="198"><net_src comp="174" pin="2"/><net_sink comp="193" pin=0"/></net>

<net id="199"><net_src comp="74" pin="2"/><net_sink comp="193" pin=2"/></net>

<net id="205"><net_src comp="174" pin="2"/><net_sink comp="200" pin=0"/></net>

<net id="206"><net_src comp="179" pin="2"/><net_sink comp="200" pin=1"/></net>

<net id="211"><net_src comp="193" pin="3"/><net_sink comp="207" pin=0"/></net>

<net id="212"><net_src comp="200" pin="3"/><net_sink comp="207" pin=1"/></net>

<net id="218"><net_src comp="22" pin="0"/><net_sink comp="213" pin=0"/></net>

<net id="219"><net_src comp="207" pin="2"/><net_sink comp="213" pin=1"/></net>

<net id="220"><net_src comp="24" pin="0"/><net_sink comp="213" pin=2"/></net>

<net id="225"><net_src comp="14" pin="0"/><net_sink comp="221" pin=0"/></net>

<net id="226"><net_src comp="200" pin="3"/><net_sink comp="221" pin=1"/></net>

<net id="232"><net_src comp="174" pin="2"/><net_sink comp="227" pin=0"/></net>

<net id="233"><net_src comp="28" pin="0"/><net_sink comp="227" pin=1"/></net>

<net id="234"><net_src comp="30" pin="0"/><net_sink comp="227" pin=2"/></net>

<net id="240"><net_src comp="213" pin="3"/><net_sink comp="235" pin=0"/></net>

<net id="241"><net_src comp="227" pin="3"/><net_sink comp="235" pin=1"/></net>

<net id="242"><net_src comp="185" pin="3"/><net_sink comp="235" pin=2"/></net>

<net id="246"><net_src comp="235" pin="3"/><net_sink comp="243" pin=0"/></net>

<net id="252"><net_src comp="213" pin="3"/><net_sink comp="247" pin=0"/></net>

<net id="253"><net_src comp="74" pin="2"/><net_sink comp="247" pin=1"/></net>

<net id="254"><net_src comp="200" pin="3"/><net_sink comp="247" pin=2"/></net>

<net id="260"><net_src comp="213" pin="3"/><net_sink comp="255" pin=0"/></net>

<net id="261"><net_src comp="221" pin="2"/><net_sink comp="255" pin=1"/></net>

<net id="262"><net_src comp="193" pin="3"/><net_sink comp="255" pin=2"/></net>

<net id="267"><net_src comp="153" pin="4"/><net_sink comp="263" pin=0"/></net>

<net id="268"><net_src comp="34" pin="0"/><net_sink comp="263" pin=1"/></net>

<net id="273"><net_src comp="153" pin="4"/><net_sink comp="269" pin=0"/></net>

<net id="274"><net_src comp="40" pin="0"/><net_sink comp="269" pin=1"/></net>

<net id="278"><net_src comp="153" pin="4"/><net_sink comp="275" pin=0"/></net>

<net id="279"><net_src comp="275" pin="1"/><net_sink comp="94" pin=2"/></net>

<net id="280"><net_src comp="275" pin="1"/><net_sink comp="106" pin=2"/></net>

<net id="284"><net_src comp="142" pin="4"/><net_sink comp="281" pin=0"/></net>

<net id="291"><net_src comp="48" pin="0"/><net_sink comp="285" pin=0"/></net>

<net id="292"><net_src comp="50" pin="0"/><net_sink comp="285" pin=2"/></net>

<net id="293"><net_src comp="52" pin="0"/><net_sink comp="285" pin=3"/></net>

<net id="294"><net_src comp="285" pin="4"/><net_sink comp="87" pin=2"/></net>

<net id="300"><net_src comp="22" pin="0"/><net_sink comp="295" pin=0"/></net>

<net id="301"><net_src comp="129" pin="1"/><net_sink comp="295" pin=1"/></net>

<net id="302"><net_src comp="24" pin="0"/><net_sink comp="295" pin=2"/></net>

<net id="306"><net_src comp="113" pin="2"/><net_sink comp="303" pin=0"/></net>

<net id="311"><net_src comp="54" pin="0"/><net_sink comp="307" pin=0"/></net>

<net id="312"><net_src comp="303" pin="1"/><net_sink comp="307" pin=1"/></net>

<net id="318"><net_src comp="295" pin="3"/><net_sink comp="313" pin=0"/></net>

<net id="319"><net_src comp="303" pin="1"/><net_sink comp="313" pin=1"/></net>

<net id="320"><net_src comp="307" pin="2"/><net_sink comp="313" pin=2"/></net>

<net id="324"><net_src comp="313" pin="3"/><net_sink comp="321" pin=0"/></net>

<net id="329"><net_src comp="118" pin="1"/><net_sink comp="325" pin=0"/></net>

<net id="330"><net_src comp="321" pin="1"/><net_sink comp="325" pin=1"/></net>

<net id="340"><net_src comp="129" pin="1"/><net_sink comp="337" pin=0"/></net>

<net id="344"><net_src comp="139" pin="1"/><net_sink comp="341" pin=0"/></net>

<net id="349"><net_src comp="56" pin="0"/><net_sink comp="345" pin=0"/></net>

<net id="355"><net_src comp="58" pin="0"/><net_sink comp="350" pin=0"/></net>

<net id="356"><net_src comp="139" pin="1"/><net_sink comp="350" pin=1"/></net>

<net id="357"><net_src comp="60" pin="0"/><net_sink comp="350" pin=2"/></net>

<net id="361"><net_src comp="350" pin="3"/><net_sink comp="358" pin=0"/></net>

<net id="367"><net_src comp="345" pin="2"/><net_sink comp="362" pin=2"/></net>

<net id="371"><net_src comp="362" pin="3"/><net_sink comp="368" pin=0"/></net>

<net id="376"><net_src comp="358" pin="1"/><net_sink comp="372" pin=0"/></net>

<net id="377"><net_src comp="368" pin="1"/><net_sink comp="372" pin=1"/></net>

<net id="384"><net_src comp="62" pin="0"/><net_sink comp="378" pin=0"/></net>

<net id="385"><net_src comp="372" pin="2"/><net_sink comp="378" pin=1"/></net>

<net id="386"><net_src comp="50" pin="0"/><net_sink comp="378" pin=2"/></net>

<net id="387"><net_src comp="52" pin="0"/><net_sink comp="378" pin=3"/></net>

<net id="392"><net_src comp="64" pin="0"/><net_sink comp="388" pin=0"/></net>

<net id="398"><net_src comp="388" pin="2"/><net_sink comp="393" pin=2"/></net>

<net id="402"><net_src comp="393" pin="3"/><net_sink comp="399" pin=0"/></net>

<net id="408"><net_src comp="58" pin="0"/><net_sink comp="403" pin=0"/></net>

<net id="409"><net_src comp="129" pin="1"/><net_sink comp="403" pin=1"/></net>

<net id="410"><net_src comp="60" pin="0"/><net_sink comp="403" pin=2"/></net>

<net id="414"><net_src comp="403" pin="3"/><net_sink comp="411" pin=0"/></net>

<net id="419"><net_src comp="411" pin="1"/><net_sink comp="415" pin=0"/></net>

<net id="420"><net_src comp="399" pin="1"/><net_sink comp="415" pin=1"/></net>

<net id="427"><net_src comp="66" pin="0"/><net_sink comp="421" pin=0"/></net>

<net id="428"><net_src comp="415" pin="2"/><net_sink comp="421" pin=1"/></net>

<net id="429"><net_src comp="50" pin="0"/><net_sink comp="421" pin=2"/></net>

<net id="430"><net_src comp="52" pin="0"/><net_sink comp="421" pin=3"/></net>

<net id="435"><net_src comp="337" pin="1"/><net_sink comp="431" pin=0"/></net>

<net id="436"><net_src comp="334" pin="1"/><net_sink comp="431" pin=1"/></net>

<net id="441"><net_src comp="281" pin="1"/><net_sink comp="437" pin=0"/></net>

<net id="442"><net_src comp="46" pin="0"/><net_sink comp="437" pin=1"/></net>

<net id="443"><net_src comp="437" pin="2"/><net_sink comp="285" pin=1"/></net>

<net id="448"><net_src comp="341" pin="1"/><net_sink comp="444" pin=0"/></net>

<net id="449"><net_src comp="331" pin="1"/><net_sink comp="444" pin=1"/></net>

<net id="453"><net_src comp="68" pin="2"/><net_sink comp="450" pin=0"/></net>

<net id="454"><net_src comp="450" pin="1"/><net_sink comp="193" pin=1"/></net>

<net id="455"><net_src comp="450" pin="1"/><net_sink comp="200" pin=2"/></net>

<net id="459"><net_src comp="160" pin="2"/><net_sink comp="456" pin=0"/></net>

<net id="460"><net_src comp="456" pin="1"/><net_sink comp="174" pin=1"/></net>

<net id="464"><net_src comp="243" pin="1"/><net_sink comp="461" pin=0"/></net>

<net id="465"><net_src comp="461" pin="1"/><net_sink comp="121" pin=2"/></net>

<net id="469"><net_src comp="247" pin="3"/><net_sink comp="466" pin=0"/></net>

<net id="470"><net_src comp="466" pin="1"/><net_sink comp="132" pin=2"/></net>

<net id="474"><net_src comp="255" pin="3"/><net_sink comp="471" pin=0"/></net>

<net id="475"><net_src comp="471" pin="1"/><net_sink comp="142" pin=2"/></net>

<net id="482"><net_src comp="269" pin="2"/><net_sink comp="479" pin=0"/></net>

<net id="483"><net_src comp="479" pin="1"/><net_sink comp="153" pin=0"/></net>

<net id="487"><net_src comp="94" pin="3"/><net_sink comp="484" pin=0"/></net>

<net id="488"><net_src comp="484" pin="1"/><net_sink comp="101" pin=0"/></net>

<net id="492"><net_src comp="106" pin="3"/><net_sink comp="489" pin=0"/></net>

<net id="493"><net_src comp="489" pin="1"/><net_sink comp="113" pin=0"/></net>

<net id="497"><net_src comp="295" pin="3"/><net_sink comp="494" pin=0"/></net>

<net id="498"><net_src comp="494" pin="1"/><net_sink comp="362" pin=0"/></net>

<net id="499"><net_src comp="494" pin="1"/><net_sink comp="393" pin=0"/></net>

<net id="503"><net_src comp="101" pin="2"/><net_sink comp="500" pin=0"/></net>

<net id="504"><net_src comp="500" pin="1"/><net_sink comp="331" pin=0"/></net>

<net id="505"><net_src comp="500" pin="1"/><net_sink comp="334" pin=0"/></net>

<net id="509"><net_src comp="325" pin="2"/><net_sink comp="506" pin=0"/></net>

<net id="510"><net_src comp="506" pin="1"/><net_sink comp="121" pin=0"/></net>

<net id="514"><net_src comp="431" pin="2"/><net_sink comp="511" pin=0"/></net>

<net id="515"><net_src comp="511" pin="1"/><net_sink comp="345" pin=1"/></net>

<net id="516"><net_src comp="511" pin="1"/><net_sink comp="362" pin=1"/></net>

<net id="520"><net_src comp="444" pin="2"/><net_sink comp="517" pin=0"/></net>

<net id="521"><net_src comp="517" pin="1"/><net_sink comp="388" pin=1"/></net>

<net id="522"><net_src comp="517" pin="1"/><net_sink comp="393" pin=1"/></net>

<net id="526"><net_src comp="378" pin="4"/><net_sink comp="523" pin=0"/></net>

<net id="527"><net_src comp="523" pin="1"/><net_sink comp="142" pin=0"/></net>

<net id="531"><net_src comp="421" pin="4"/><net_sink comp="528" pin=0"/></net>

<net id="532"><net_src comp="528" pin="1"/><net_sink comp="132" pin=0"/></net>

</net_list>

</model> 
---------------- Datapath Model END ------------------

* FSMD analyzer results:
  - Output states:
	Port: r_V_3 | {3 }
	Port: theta_V | {3 }
  - Chain level:
	State 1
	State 2
		or_cond_i : 1
		p_Val2_2_cast_cast : 1
		p_read2_read1_i : 1
		p_Val2_1 : 1
		tmp_2_i : 2
		tmp_5 : 2
		p_Val2_5_i : 2
		p_Val2_7_i : 1
		p_Val2_9_ph : 3
		p_Val2_9_ph_cast : 4
		p_Val2_7_ph : 3
		temp_I_V_ph : 3
	State 3
		exitcond : 1
		j_V : 1
		stg_37 : 2
		tmp_2 : 1
		Kvalues_V_addr : 2
		Kvalues_V_load : 3
		angles_V_addr : 2
		angles_V_load : 3
		stg_43 : 1
		OP1_V_cast : 1
		p_Val2_s_8 : 2
		tmp_s : 3
		stg_47 : 4
	State 4
		angles_V_load_cast : 1
		mf : 2
		p_Val2_s : 3
		p_Val2_cast : 4
		curr_T_V : 5
	State 5
		OP2_V_1_cast1 : 1
		r_V : 1
	State 6
		tmp_4_cast4_cast : 1
		tmp_8 : 1
		tmp_5_cast : 2
		p_Val2_3 : 3
		curr_I_V : 4
		tmp_9 : 1
		tmp_8_cast : 2
		tmp_7_cast7_cast : 1
		p_Val2_5 : 3
		curr_Q_V : 4


============================================================
+ Verbose Summary: Datapath Resource usage 
============================================================

* Functional unit list:
|----------|---------------------------|---------|---------|---------|
| Operation|      Functional Unit      |  DSP48E |    FF   |   LUT   |
|----------|---------------------------|---------|---------|---------|
|          | p_Val2_2_cast_cast_fu_185 |    0    |    0    |    15   |
|          |   p_read2_read1_i_fu_193  |    0    |    0    |    20   |
|          |      p_Val2_1_fu_200      |    0    |    0    |    20   |
|          |     p_Val2_7_i_fu_227     |    0    |    0    |    15   |
|  select  |     p_Val2_9_ph_fu_235    |    0    |    0    |    15   |
|          |     p_Val2_7_ph_fu_247    |    0    |    0    |    20   |
|          |     temp_I_V_ph_fu_255    |    0    |    0    |    20   |
|          |      p_Val2_s_fu_313      |    0    |    0    |    14   |
|          |        tmp_8_fu_362       |    0    |    0    |    33   |
|          |        tmp_9_fu_393       |    0    |    0    |    34   |
|----------|---------------------------|---------|---------|---------|
|          |     p_Val2_1_i_fu_179     |    0    |    0    |    20   |
|          |     p_Val2_5_i_fu_221     |    0    |    0    |    20   |
|          |         mf_fu_307         |    0    |    0    |    13   |
|    sub   |      curr_T_V_fu_325      |    0    |    0    |    20   |
|          |      mf9_cast_fu_345      |    0    |    0    |    33   |
|          |      p_Val2_3_fu_372      |    0    |    0    |    33   |
|          |         mf1_fu_388        |    0    |    0    |    34   |
|----------|---------------------------|---------|---------|---------|
|    add   |         j_V_fu_269        |    0    |    0    |    5    |
|          |      p_Val2_5_fu_415      |    0    |    0    |    34   |
|----------|---------------------------|---------|---------|---------|
|    and   |      or_cond_i_fu_174     |    0    |    0    |    1    |
|          |       tmp_2_i_fu_207      |    0    |    0    |    26   |
|----------|---------------------------|---------|---------|---------|
|   icmp   |       tmp_1_i_fu_160      |    0    |    0    |    7    |
|          |      exitcond_fu_263      |    0    |    0    |    2    |
|----------|---------------------------|---------|---------|---------|
|          |    OP2_V_1_cast1_fu_431   |    1    |    0    |    0    |
|    mul   |     p_Val2_s_8_fu_437     |    1    |    0    |    0    |
|          |         r_V_fu_444        |    1    |    0    |    0    |
|----------|---------------------------|---------|---------|---------|
|   read   |    y_V_read_read_fu_68    |    0    |    0    |    0    |
|          |    x_V_read_read_fu_74    |    0    |    0    |    0    |
|----------|---------------------------|---------|---------|---------|
|   write  |     stg_43_write_fu_80    |    0    |    0    |    0    |
|          |     stg_47_write_fu_87    |    0    |    0    |    0    |
|----------|---------------------------|---------|---------|---------|
|          |        tmp_1_fu_166       |    0    |    0    |    0    |
| bitselect|        tmp_5_fu_213       |    0    |    0    |    0    |
|          |        tmp_6_fu_295       |    0    |    0    |    0    |
|----------|---------------------------|---------|---------|---------|
|          |  p_Val2_9_ph_cast_fu_243  |    0    |    0    |    0    |
|          |     OP1_V_cast_fu_281     |    0    |    0    |    0    |
|   sext   |     p_Val2_cast_fu_321    |    0    |    0    |    0    |
|          |        tmp_3_fu_337       |    0    |    0    |    0    |
|          |    OP1_V_2_cast_fu_341    |    0    |    0    |    0    |
|----------|---------------------------|---------|---------|---------|
|          |        tmp_2_fu_275       |    0    |    0    |    0    |
|          | angles_V_load_cast_fu_303 |    0    |    0    |    0    |
|          |     OP2_V_cast_fu_331     |    0    |    0    |    0    |
|   zext   |         tmp_fu_334        |    0    |    0    |    0    |
|          |  tmp_4_cast4_cast_fu_358  |    0    |    0    |    0    |
|          |     tmp_5_cast_fu_368     |    0    |    0    |    0    |
|          |     tmp_8_cast_fu_399     |    0    |    0    |    0    |
|          |  tmp_7_cast7_cast_fu_411  |    0    |    0    |    0    |
|----------|---------------------------|---------|---------|---------|
|          |        tmp_s_fu_285       |    0    |    0    |    0    |
|partselect|      curr_I_V_fu_378      |    0    |    0    |    0    |
|          |      curr_Q_V_fu_421      |    0    |    0    |    0    |
|----------|---------------------------|---------|---------|---------|
|bitconcatenate|        tmp_4_fu_350       |    0    |    0    |    0    |
|          |        tmp_7_fu_403       |    0    |    0    |    0    |
|----------|---------------------------|---------|---------|---------|
|   Total  |                           |    3    |    0    |   454   |
|----------|---------------------------|---------|---------|---------|

Memories:
+---------+--------+--------+--------+
|         |  BRAM  |   FF   |   LUT  |
+---------+--------+--------+--------+
|Kvalues_V|    0   |   14   |    4   |
| angles_V|    0   |   13   |    4   |
+---------+--------+--------+--------+
|  Total  |    0   |   27   |    8   |
+---------+--------+--------+--------+

* Register list:
+------------------------+--------+
|                        |   FF   |
+------------------------+--------+
| Kvalues_V_addr_reg_484 |    4   |
| Kvalues_V_load_reg_500 |   14   |
|  OP2_V_1_cast1_reg_511 |   33   |
|  angles_V_addr_reg_489 |    4   |
|    curr_I_V_reg_523    |   20   |
|    curr_Q_V_reg_528    |   20   |
|    curr_T_V_reg_506    |   20   |
|       j_V_reg_479      |    5   |
|    p_Val2_4_reg_129    |   20   |
|    p_Val2_6_reg_118    |   20   |
|   p_Val2_7_ph_reg_466  |   20   |
|p_Val2_9_ph_cast_reg_461|   20   |
|       p_s_reg_149      |    5   |
|       r_V_reg_517      |   34   |
|   temp_I_V_ph_reg_471  |   20   |
|    temp_I_V_reg_139    |   20   |
|     tmp_1_i_reg_456    |    1   |
|      tmp_6_reg_494     |    1   |
|    y_V_read_reg_450    |   20   |
+------------------------+--------+
|          Total         |   301  |
+------------------------+--------+

* Multiplexer (MUX) list: 
|-------------------|------|------|------|--------||---------||---------|
|        Comp       |  Pin | Size |  BW  | S x BW ||  Delay  ||   LUT   |
|-------------------|------|------|------|--------||---------||---------|
| grp_access_fu_101 |  p0  |   2  |   4  |    8   ||    4    |
| grp_access_fu_113 |  p0  |   2  |   4  |    8   ||    4    |
|-------------------|------|------|------|--------||---------||---------|
|       Total       |      |      |      |   16   ||  3.142  ||    8    |
|-------------------|------|------|------|--------||---------||---------|



* Summary:
+-----------+--------+--------+--------+--------+--------+
|           |  BRAM  | DSP48E |  Delay |   FF   |   LUT  |
+-----------+--------+--------+--------+--------+--------+
|  Function |    -   |    3   |    -   |    0   |   454  |
|   Memory  |    0   |    -   |    -   |   27   |    8   |
|Multiplexer|    -   |    -   |    3   |    -   |    8   |
|  Register |    -   |    -   |    -   |   301  |    -   |
+-----------+--------+--------+--------+--------+--------+
|   Total   |    0   |    3   |    3   |   328  |   470  |
+-----------+--------+--------+--------+--------+--------+
