

================================================================
== Vivado HLS Report for 'fir'
================================================================
* Date:           Tue Oct 04 02:02:24 2016

* Version:        2015.4 (Build 1412921 on Wed Nov 18 09:58:55 AM 2015)
* Project:        fir
* Solution:       fir128_optimized1
* Product family: zynq
* Target device:  xc7z020clg484-1


================================================================
== Performance Estimates
================================================================
+ Timing (ns): 
    * Summary: 
    +--------+-------+----------+------------+
    |  Clock | Target| Estimated| Uncertainty|
    +--------+-------+----------+------------+
    |ap_clk  |  10.00|      8.34|        1.25|
    +--------+-------+----------+------------+

+ Latency (clock cycles): 
    * Summary: 
    +-----+-----+-----+-----+---------+
    |  Latency  |  Interval | Pipeline|
    | min | max | min | max |   Type  |
    +-----+-----+-----+-----+---------+
    |  513|  513|  514|  514|   none  |
    +-----+-----+-----+-----+---------+

    + Detail: 
        * Instance: 
        N/A

        * Loop: 
        +--------------------+-----+-----+----------+-----------+-----------+------+----------+
        |                    |  Latency  | Iteration|  Initiation Interval  | Trip |          |
        |      Loop Name     | min | max |  Latency |  achieved |   target  | Count| Pipelined|
        +--------------------+-----+-----+----------+-----------+-----------+------+----------+
        |- Shift_Accum_Loop  |  512|  512|         4|          -|          -|   128|    no    |
        +--------------------+-----+-----+----------+-----------+-----------+------+----------+

============================================================
+ Verbose Summary: Synthesis Manager
============================================================
InlineROM: 1
ExposeGlobal: 0
============================================================
+ Verbose Summary: CDFG Model
============================================================
IsTopModel: 1
ResetActiveHigh: 1
IsCombinational: 0
IsDatapathOnly: 0
HasWiredReturn: 1
HasMFsm: 0
HasVarLatency: 1
IsPipeline: 0
IsRtlPipelined: 0
IsInstanceOverlapped: 0
IsDontTouch: 0
HasImplIP: 0
IsGatedGlobalClock: 0


============================================================
+ Verbose Summary: Schedule
============================================================
* Number of FSM states: 5
* Pipeline: 0
* Dataflow Pipeline: 0

* FSM state transitions: 
1 --> 
	2  / true
2 --> 
	3  / (!tmp_5)
3 --> 
	4  / true
4 --> 
	5  / true
5 --> 
	2  / true
* FSM state operations: 

 <State 1>: 1.57ns
ST_1: stg_6 [1/1] 0.00ns
.preheader.preheader:0  call void (...)* @_ssdm_op_SpecBitsMap(i32* %y) nounwind, !map !7

ST_1: stg_7 [1/1] 0.00ns
.preheader.preheader:1  call void (...)* @_ssdm_op_SpecBitsMap(i32 %x) nounwind, !map !11

ST_1: stg_8 [1/1] 0.00ns
.preheader.preheader:2  call void (...)* @_ssdm_op_SpecTopModule([4 x i8]* @fir_str) nounwind

ST_1: x_read [1/1] 0.00ns
.preheader.preheader:3  %x_read = call i32 @_ssdm_op_Read.ap_auto.i32(i32 %x) nounwind

ST_1: tmp [1/1] 0.00ns
.preheader.preheader:4  %tmp = trunc i32 %x_read to i8

ST_1: data_V [1/1] 0.00ns
.preheader.preheader:5  %data_V = trunc i32 %x_read to i16

ST_1: stg_12 [1/1] 1.57ns
.preheader.preheader:6  br label %0


 <State 2>: 4.43ns
ST_2: p_1 [1/1] 0.00ns
:0  %p_1 = phi i16 [ 0, %.preheader.preheader ], [ %acc_V, %4 ]

ST_2: t_V [1/1] 0.00ns
:1  %t_V = phi i8 [ 127, %.preheader.preheader ], [ %i_V, %4 ]

ST_2: tmp_5 [1/1] 0.00ns
:2  %tmp_5 = call i1 @_ssdm_op_BitSelect.i1.i8.i32(i8 %t_V, i32 7)

ST_2: empty [1/1] 0.00ns
:3  %empty = call i32 (...)* @_ssdm_op_SpecLoopTripCount(i64 128, i64 128, i64 128) nounwind

ST_2: stg_17 [1/1] 0.00ns
:4  br i1 %tmp_5, label %5, label %1

ST_2: stg_18 [1/1] 0.00ns
:0  call void (...)* @_ssdm_op_SpecLoopName([17 x i8]* @p_str) nounwind

ST_2: tmp_1 [1/1] 2.00ns
:1  %tmp_1 = icmp eq i8 %t_V, 0

ST_2: stg_20 [1/1] 0.00ns
:2  br i1 %tmp_1, label %2, label %3

ST_2: tmp_10 [1/1] 0.00ns
:1  %tmp_10 = trunc i8 %t_V to i7

ST_2: r_V [1/1] 1.72ns
:2  %r_V = add i7 -1, %tmp_10

ST_2: tmp_6 [1/1] 0.00ns
:3  %tmp_6 = zext i7 %r_V to i64

ST_2: shift_reg_V_addr [1/1] 0.00ns
:4  %shift_reg_V_addr = getelementptr [128 x i8]* @shift_reg_V, i64 0, i64 %tmp_6

ST_2: shift_reg_V_load [2/2] 2.71ns
:5  %shift_reg_V_load = load i8* %shift_reg_V_addr, align 1

ST_2: stg_26 [1/1] 2.71ns
:0  store i8 %tmp, i8* getelementptr inbounds ([128 x i8]* @shift_reg_V, i64 0, i64 0), align 16

ST_2: stg_27 [1/1] 1.57ns
:1  br label %4

ST_2: tmp_2 [1/1] 0.00ns
:0  %tmp_2 = sext i16 %p_1 to i32

ST_2: stg_29 [1/1] 0.00ns
:1  call void @_ssdm_op_Write.ap_auto.i32P(i32* %y, i32 %tmp_2) nounwind

ST_2: stg_30 [1/1] 0.00ns
:2  ret void


 <State 3>: 5.42ns
ST_3: tmp_3 [1/1] 0.00ns
:0  %tmp_3 = zext i8 %t_V to i64

ST_3: shift_reg_V_load [1/2] 2.71ns
:5  %shift_reg_V_load = load i8* %shift_reg_V_addr, align 1

ST_3: shift_reg_V_addr_1 [1/1] 0.00ns
:6  %shift_reg_V_addr_1 = getelementptr [128 x i8]* @shift_reg_V, i64 0, i64 %tmp_3

ST_3: stg_34 [1/1] 2.71ns
:7  store i8 %shift_reg_V_load, i8* %shift_reg_V_addr_1, align 1

ST_3: data_V_1 [1/1] 0.00ns
:8  %data_V_1 = sext i8 %shift_reg_V_load to i16

ST_3: stg_36 [1/1] 1.57ns
:9  br label %4

ST_3: tmp_7 [1/1] 0.00ns
:1  %tmp_7 = zext i8 %t_V to i64

ST_3: c_addr [1/1] 0.00ns
:2  %c_addr = getelementptr [128 x i5]* @c, i64 0, i64 %tmp_7

ST_3: c_load [2/2] 2.39ns
:3  %c_load = load i5* %c_addr, align 1

ST_3: i_V [1/1] 1.72ns
:7  %i_V = add i8 %t_V, -1


 <State 4>: 2.39ns
ST_4: p_2 [1/1] 0.00ns
:0  %p_2 = phi i16 [ %data_V, %2 ], [ %data_V_1, %3 ]

ST_4: c_load [1/2] 2.39ns
:3  %c_load = load i5* %c_addr, align 1


 <State 5>: 8.34ns
ST_5: tmp_8 [1/1] 0.00ns
:4  %tmp_8 = sext i5 %c_load to i16

ST_5: tmp_9 [1/1] 6.38ns
:5  %tmp_9 = mul i16 %p_2, %tmp_8

ST_5: acc_V [1/1] 1.96ns
:6  %acc_V = add i16 %tmp_9, %p_1

ST_5: stg_46 [1/1] 0.00ns
:8  br label %0



============================================================
+ Verbose Summary: Binding
============================================================
N/A
* FSMD analyzer results:
  - Output states:
  - Chain level:
	State 1
	State 2
	State 3
	State 4
	State 5


============================================================
+ Verbose Summary: Datapath Resource usage 
============================================================
N/A
