

================================================================
== Vivado HLS Report for 'fir'
================================================================
* Date:           Tue Oct 04 02:02:24 2016

* Version:        2015.4 (Build 1412921 on Wed Nov 18 09:58:55 AM 2015)
* Project:        fir
* Solution:       fir128_optimized1
* Product family: zynq
* Target device:  xc7z020clg484-1


================================================================
== Performance Estimates
================================================================
+ Timing (ns): 
    * Summary: 
    +--------+-------+----------+------------+
    |  Clock | Target| Estimated| Uncertainty|
    +--------+-------+----------+------------+
    |ap_clk  |  10.00|      8.34|        1.25|
    +--------+-------+----------+------------+

+ Latency (clock cycles): 
    * Summary: 
    +-----+-----+-----+-----+---------+
    |  Latency  |  Interval | Pipeline|
    | min | max | min | max |   Type  |
    +-----+-----+-----+-----+---------+
    |  513|  513|  514|  514|   none  |
    +-----+-----+-----+-----+---------+

    + Detail: 
        * Instance: 
        N/A

        * Loop: 
        +--------------------+-----+-----+----------+-----------+-----------+------+----------+
        |                    |  Latency  | Iteration|  Initiation Interval  | Trip |          |
        |      Loop Name     | min | max |  Latency |  achieved |   target  | Count| Pipelined|
        +--------------------+-----+-----+----------+-----------+-----------+------+----------+
        |- Shift_Accum_Loop  |  512|  512|         4|          -|          -|   128|    no    |
        +--------------------+-----+-----+----------+-----------+-----------+------+----------+



================================================================
== Utilization Estimates
================================================================
* Summary: 
+-----------------+---------+-------+--------+-------+
|       Name      | BRAM_18K| DSP48E|   FF   |  LUT  |
+-----------------+---------+-------+--------+-------+
|DSP              |        -|      -|       -|      -|
|Expression       |        -|      1|       0|     34|
|FIFO             |        -|      -|       -|      -|
|Instance         |        -|      -|       -|      -|
|Memory           |        1|      -|       5|     10|
|Multiplexer      |        -|      -|       -|     56|
|Register         |        -|      -|      83|      -|
+-----------------+---------+-------+--------+-------+
|Total            |        1|      1|      88|    100|
+-----------------+---------+-------+--------+-------+
|Available        |      280|    220|  106400|  53200|
+-----------------+---------+-------+--------+-------+
|Utilization (%)  |    ~0   |   ~0  |   ~0   |   ~0  |
+-----------------+---------+-------+--------+-------+

+ Detail: 
    * Instance: 
    N/A

    * DSP48: 
    N/A

    * Memory: 
    +---------------+-----------------+---------+---+----+------+-----+------+-------------+
    |     Memory    |      Module     | BRAM_18K| FF| LUT| Words| Bits| Banks| W*Bits*Banks|
    +---------------+-----------------+---------+---+----+------+-----+------+-------------+
    |c_U            |fir_c            |        0|  5|  10|   128|    5|     1|          640|
    |shift_reg_V_U  |fir_shift_reg_V  |        1|  0|   0|   128|    8|     1|         1024|
    +---------------+-----------------+---------+---+----+------+-----+------+-------------+
    |Total          |                 |        1|  5|  10|   256|   13|     2|         1664|
    +---------------+-----------------+---------+---+----+------+-----+------+-------------+

    * FIFO: 
    N/A

    * Expression: 
    +-----------------+----------+-------+---+----+------------+------------+
    |  Variable Name  | Operation| DSP48E| FF| LUT| Bitwidth P0| Bitwidth P1|
    +-----------------+----------+-------+---+----+------------+------------+
    |tmp_9_fu_190_p2  |     *    |      1|  0|   0|          16|           5|
    |acc_V_fu_196_p2  |     +    |      0|  0|  16|          16|          16|
    |i_V_fu_181_p2    |     +    |      0|  0|   8|           8|           2|
    |r_V_fu_151_p2    |     +    |      0|  0|   7|           2|           7|
    |tmp_1_fu_141_p2  |   icmp   |      0|  0|   3|           8|           1|
    +-----------------+----------+-------+---+----+------------+------------+
    |Total            |          |      1|  0|  34|          50|          31|
    +-----------------+----------+-------+---+----+------------+------------+

    * Multiplexer: 
    +----------------------+----+-----------+-----+-----------+
    |         Name         | LUT| Input Size| Bits| Total Bits|
    +----------------------+----+-----------+-----+-----------+
    |ap_NS_fsm             |   1|          6|    1|          6|
    |p_1_reg_91            |  16|          2|   16|         32|
    |p_2_reg_115           |  16|          2|   16|         32|
    |shift_reg_V_address0  |   7|          4|    7|         28|
    |shift_reg_V_d0        |   8|          3|    8|         24|
    |t_V_reg_103           |   8|          2|    8|         16|
    +----------------------+----+-----------+-----+-----------+
    |Total                 |  56|         19|   56|        138|
    +----------------------+----+-----------+-----+-----------+

    * Register: 
    +----------------+----+----+-----+-----------+
    |      Name      | FF | LUT| Bits| Const Bits|
    +----------------+----+----+-----+-----------+
    |ap_CS_fsm       |   5|   0|    5|          0|
    |c_load_reg_239  |   5|   0|    5|          0|
    |data_V_reg_207  |  16|   0|   16|          0|
    |i_V_reg_234     |   8|   0|    8|          0|
    |p_1_reg_91      |  16|   0|   16|          0|
    |p_2_reg_115     |  16|   0|   16|          0|
    |t_V_reg_103     |   8|   0|    8|          0|
    |tmp_1_reg_215   |   1|   0|    1|          0|
    |tmp_reg_202     |   8|   0|    8|          0|
    +----------------+----+----+-----+-----------+
    |Total           |  83|   0|   83|          0|
    +----------------+----+----+-----+-----------+



================================================================
== Interface
================================================================
* Summary: 
+----------+-----+-----+------------+--------------+--------------+
| RTL Ports| Dir | Bits|  Protocol  | Source Object|    C Type    |
+----------+-----+-----+------------+--------------+--------------+
|ap_clk    |  in |    1| ap_ctrl_hs |      fir     | return value |
|ap_rst    |  in |    1| ap_ctrl_hs |      fir     | return value |
|ap_start  |  in |    1| ap_ctrl_hs |      fir     | return value |
|ap_done   | out |    1| ap_ctrl_hs |      fir     | return value |
|ap_idle   | out |    1| ap_ctrl_hs |      fir     | return value |
|ap_ready  | out |    1| ap_ctrl_hs |      fir     | return value |
|y         | out |   32|   ap_vld   |       y      |    pointer   |
|y_ap_vld  | out |    1|   ap_vld   |       y      |    pointer   |
|x         |  in |   32|   ap_none  |       x      |    scalar    |
+----------+-----+-----+------------+--------------+--------------+

============================================================
+ Verbose Summary: Synthesis Manager
============================================================
InlineROM: 1
ExposeGlobal: 0
============================================================
+ Verbose Summary: CDFG Model
============================================================
IsTopModel: 1
ResetActiveHigh: 1
IsCombinational: 2
IsDatapathOnly: 2
HasWiredReturn: 1
HasMFsm: 0
HasVarLatency: 1
IsPipeline: 0
IsRtlPipelined: 0
IsInstanceOverlapped: 0
IsDontTouch: 0
HasImplIP: 0
IsGatedGlobalClock: 0


============================================================
+ Verbose Summary: Schedule
============================================================
* Number of FSM states: 5
* Pipeline: 0
* Dataflow Pipeline: 0

* FSM state transitions: 
1 --> 
	2  / true
2 --> 
	3  / (!tmp_5)
3 --> 
	4  / true
4 --> 
	5  / true
5 --> 
	2  / true
* FSM state operations: 

 <State 1>: 1.57ns
ST_1: stg_6 [1/1] 0.00ns
.preheader.preheader:0  call void (...)* @_ssdm_op_SpecBitsMap(i32* %y) nounwind, !map !7

ST_1: stg_7 [1/1] 0.00ns
.preheader.preheader:1  call void (...)* @_ssdm_op_SpecBitsMap(i32 %x) nounwind, !map !11

ST_1: stg_8 [1/1] 0.00ns
.preheader.preheader:2  call void (...)* @_ssdm_op_SpecTopModule([4 x i8]* @fir_str) nounwind

ST_1: x_read [1/1] 0.00ns
.preheader.preheader:3  %x_read = call i32 @_ssdm_op_Read.ap_auto.i32(i32 %x) nounwind

ST_1: tmp [1/1] 0.00ns
.preheader.preheader:4  %tmp = trunc i32 %x_read to i8

ST_1: data_V [1/1] 0.00ns
.preheader.preheader:5  %data_V = trunc i32 %x_read to i16

ST_1: stg_12 [1/1] 1.57ns
.preheader.preheader:6  br label %0


 <State 2>: 4.43ns
ST_2: p_1 [1/1] 0.00ns
:0  %p_1 = phi i16 [ 0, %.preheader.preheader ], [ %acc_V, %4 ]

ST_2: t_V [1/1] 0.00ns
:1  %t_V = phi i8 [ 127, %.preheader.preheader ], [ %i_V, %4 ]

ST_2: tmp_5 [1/1] 0.00ns
:2  %tmp_5 = call i1 @_ssdm_op_BitSelect.i1.i8.i32(i8 %t_V, i32 7)

ST_2: empty [1/1] 0.00ns
:3  %empty = call i32 (...)* @_ssdm_op_SpecLoopTripCount(i64 128, i64 128, i64 128) nounwind

ST_2: stg_17 [1/1] 0.00ns
:4  br i1 %tmp_5, label %5, label %1

ST_2: stg_18 [1/1] 0.00ns
:0  call void (...)* @_ssdm_op_SpecLoopName([17 x i8]* @p_str) nounwind

ST_2: tmp_1 [1/1] 2.00ns
:1  %tmp_1 = icmp eq i8 %t_V, 0

ST_2: stg_20 [1/1] 0.00ns
:2  br i1 %tmp_1, label %2, label %3

ST_2: tmp_10 [1/1] 0.00ns
:1  %tmp_10 = trunc i8 %t_V to i7

ST_2: r_V [1/1] 1.72ns
:2  %r_V = add i7 -1, %tmp_10

ST_2: tmp_6 [1/1] 0.00ns
:3  %tmp_6 = zext i7 %r_V to i64

ST_2: shift_reg_V_addr [1/1] 0.00ns
:4  %shift_reg_V_addr = getelementptr [128 x i8]* @shift_reg_V, i64 0, i64 %tmp_6

ST_2: shift_reg_V_load [2/2] 2.71ns
:5  %shift_reg_V_load = load i8* %shift_reg_V_addr, align 1

ST_2: stg_26 [1/1] 2.71ns
:0  store i8 %tmp, i8* getelementptr inbounds ([128 x i8]* @shift_reg_V, i64 0, i64 0), align 16

ST_2: stg_27 [1/1] 1.57ns
:1  br label %4

ST_2: tmp_2 [1/1] 0.00ns
:0  %tmp_2 = sext i16 %p_1 to i32

ST_2: stg_29 [1/1] 0.00ns
:1  call void @_ssdm_op_Write.ap_auto.i32P(i32* %y, i32 %tmp_2) nounwind

ST_2: stg_30 [1/1] 0.00ns
:2  ret void


 <State 3>: 5.42ns
ST_3: tmp_3 [1/1] 0.00ns
:0  %tmp_3 = zext i8 %t_V to i64

ST_3: shift_reg_V_load [1/2] 2.71ns
:5  %shift_reg_V_load = load i8* %shift_reg_V_addr, align 1

ST_3: shift_reg_V_addr_1 [1/1] 0.00ns
:6  %shift_reg_V_addr_1 = getelementptr [128 x i8]* @shift_reg_V, i64 0, i64 %tmp_3

ST_3: stg_34 [1/1] 2.71ns
:7  store i8 %shift_reg_V_load, i8* %shift_reg_V_addr_1, align 1

ST_3: data_V_1 [1/1] 0.00ns
:8  %data_V_1 = sext i8 %shift_reg_V_load to i16

ST_3: stg_36 [1/1] 1.57ns
:9  br label %4

ST_3: tmp_7 [1/1] 0.00ns
:1  %tmp_7 = zext i8 %t_V to i64

ST_3: c_addr [1/1] 0.00ns
:2  %c_addr = getelementptr [128 x i5]* @c, i64 0, i64 %tmp_7

ST_3: c_load [2/2] 2.39ns
:3  %c_load = load i5* %c_addr, align 1

ST_3: i_V [1/1] 1.72ns
:7  %i_V = add i8 %t_V, -1


 <State 4>: 2.39ns
ST_4: p_2 [1/1] 0.00ns
:0  %p_2 = phi i16 [ %data_V, %2 ], [ %data_V_1, %3 ]

ST_4: c_load [1/2] 2.39ns
:3  %c_load = load i5* %c_addr, align 1


 <State 5>: 8.34ns
ST_5: tmp_8 [1/1] 0.00ns
:4  %tmp_8 = sext i5 %c_load to i16

ST_5: tmp_9 [1/1] 6.38ns
:5  %tmp_9 = mul i16 %p_2, %tmp_8

ST_5: acc_V [1/1] 1.96ns
:6  %acc_V = add i16 %tmp_9, %p_1

ST_5: stg_46 [1/1] 0.00ns
:8  br label %0



============================================================
+ Verbose Summary: Binding
============================================================
STG Binding: 
---------------- STG Properties BEGIN ----------------
- Is combinational: 0
- Is one-state seq: 0
- Is datapath-only: 0
- Is clock enabled: 0
- Is pipelined: 0
- Is top level: 1
Port [ Return ] is wired: 1; IO mode=ap_ctrl_hs:ce=0
Port [ y]:  wired=1; compound=0; hidden=0; nouse=0; global=0; static=0; extern=0; dir=1; type=0; mode=0x186fca551a0; pingpong=0; private_global=0; IO mode=ap_vld:ce=0
Port [ x]:  wired=1; compound=0; hidden=0; nouse=0; global=0; static=0; extern=0; dir=0; type=0; mode=0x186fca55230; pingpong=0; private_global=0; IO mode=ap_none:ce=0
Port [ shift_reg_V]:  wired=0; compound=1; hidden=1; nouse=0; global=1; static=1; extern=0; dir=2; type=1; mode=0x186fca54f60; pingpong=0; private_global=1; linkage=7; visibility=0; MemPort=[23]; IO mode=ap_memory:ce=0
Port [ c]:  wired=0; compound=1; hidden=1; nouse=0; global=1; static=1; extern=0; dir=0; type=1; mode=0x186fca54e40; pingpong=0; private_global=1; linkage=7; visibility=0; MemPort=[1]; IO mode=ap_memory:ce=0
---------------- STG Properties END ------------------

---------------- Datapath Model BEGIN ----------------

<LifeTime>
<method=bitvector/>
stg_6              (specbitsmap      ) [ 000000]
stg_7              (specbitsmap      ) [ 000000]
stg_8              (spectopmodule    ) [ 000000]
x_read             (read             ) [ 000000]
tmp                (trunc            ) [ 001111]
data_V             (trunc            ) [ 001111]
stg_12             (br               ) [ 011111]
p_1                (phi              ) [ 001111]
t_V                (phi              ) [ 001100]
tmp_5              (bitselect        ) [ 001111]
empty              (speclooptripcount) [ 000000]
stg_17             (br               ) [ 000000]
stg_18             (specloopname     ) [ 000000]
tmp_1              (icmp             ) [ 001111]
stg_20             (br               ) [ 000000]
tmp_10             (trunc            ) [ 000000]
r_V                (add              ) [ 000000]
tmp_6              (zext             ) [ 000000]
shift_reg_V_addr   (getelementptr    ) [ 000100]
stg_26             (store            ) [ 000000]
stg_27             (br               ) [ 001111]
tmp_2              (sext             ) [ 000000]
stg_29             (write            ) [ 000000]
stg_30             (ret              ) [ 000000]
tmp_3              (zext             ) [ 000000]
shift_reg_V_load   (load             ) [ 000000]
shift_reg_V_addr_1 (getelementptr    ) [ 000000]
stg_34             (store            ) [ 000000]
data_V_1           (sext             ) [ 001111]
stg_36             (br               ) [ 001111]
tmp_7              (zext             ) [ 000000]
c_addr             (getelementptr    ) [ 000010]
i_V                (add              ) [ 011011]
p_2                (phi              ) [ 000011]
c_load             (load             ) [ 000001]
tmp_8              (sext             ) [ 000000]
tmp_9              (mul              ) [ 000000]
acc_V              (add              ) [ 011111]
stg_46             (br               ) [ 011111]
</LifeTime>

<model>

<comp_list>
<comp id="0" class="1000" name="y">
<pin_list>
<pin id="1" dir="1" index="0" bw="1" slack="0"/>
</pin_list>
<bind>
<StgValue><ssdm name="y"/></StgValue>
</bind>
</comp>

<comp id="2" class="1000" name="x">
<pin_list>
<pin id="3" dir="1" index="0" bw="1" slack="0"/>
</pin_list>
<bind>
<StgValue><ssdm name="x"/></StgValue>
</bind>
</comp>

<comp id="4" class="1000" name="shift_reg_V">
<pin_list>
<pin id="5" dir="1" index="0" bw="1" slack="0"/>
</pin_list>
<bind>
<StgValue><ssdm name="shift_reg_V"/><MemPortTyVec>2 3 </MemPortTyVec>
</StgValue>
</bind>
</comp>

<comp id="6" class="1000" name="c">
<pin_list>
<pin id="7" dir="1" index="0" bw="1" slack="0"/>
</pin_list>
<bind>
<StgValue><ssdm name="c"/><MemPortTyVec>1 </MemPortTyVec>
</StgValue>
</bind>
</comp>

<comp id="8" class="1001" name="const_8">
<pin_list>
<pin id="9" dir="1" index="0" bw="1" slack="2147483647"/>
</pin_list>
<bind>
<StgValue><ssdm name="_ssdm_op_SpecBitsMap"/></StgValue>
</bind>
</comp>

<comp id="10" class="1001" name="const_10">
<pin_list>
<pin id="11" dir="1" index="0" bw="1" slack="2147483647"/>
</pin_list>
<bind>
<StgValue><ssdm name="_ssdm_op_SpecTopModule"/></StgValue>
</bind>
</comp>

<comp id="12" class="1001" name="const_12">
<pin_list>
<pin id="13" dir="1" index="0" bw="1" slack="2147483647"/>
</pin_list>
<bind>
<StgValue><ssdm name="fir_str"/></StgValue>
</bind>
</comp>

<comp id="14" class="1001" name="const_14">
<pin_list>
<pin id="15" dir="1" index="0" bw="1" slack="0"/>
</pin_list>
<bind>
<StgValue><ssdm name="_ssdm_op_Read.ap_auto.i32"/></StgValue>
</bind>
</comp>

<comp id="16" class="1001" name="const_16">
<pin_list>
<pin id="17" dir="1" index="0" bw="1" slack="1"/>
</pin_list>
<bind>
<StgValue><ssdm name=""/></StgValue>
</bind>
</comp>

<comp id="18" class="1001" name="const_18">
<pin_list>
<pin id="19" dir="1" index="0" bw="1" slack="1"/>
</pin_list>
<bind>
<StgValue><ssdm name=""/></StgValue>
</bind>
</comp>

<comp id="20" class="1001" name="const_20">
<pin_list>
<pin id="21" dir="1" index="0" bw="1" slack="0"/>
</pin_list>
<bind>
<StgValue><ssdm name="_ssdm_op_BitSelect.i1.i8.i32"/></StgValue>
</bind>
</comp>

<comp id="22" class="1001" name="const_22">
<pin_list>
<pin id="23" dir="1" index="0" bw="1" slack="0"/>
</pin_list>
<bind>
<StgValue><ssdm name=""/></StgValue>
</bind>
</comp>

<comp id="24" class="1001" name="const_24">
<pin_list>
<pin id="25" dir="1" index="0" bw="1" slack="2147483647"/>
</pin_list>
<bind>
<StgValue><ssdm name="_ssdm_op_SpecLoopTripCount"/></StgValue>
</bind>
</comp>

<comp id="26" class="1001" name="const_26">
<pin_list>
<pin id="27" dir="1" index="0" bw="1" slack="2147483647"/>
</pin_list>
<bind>
<StgValue><ssdm name=""/></StgValue>
</bind>
</comp>

<comp id="28" class="1001" name="const_28">
<pin_list>
<pin id="29" dir="1" index="0" bw="1" slack="2147483647"/>
</pin_list>
<bind>
<StgValue><ssdm name="_ssdm_op_SpecLoopName"/></StgValue>
</bind>
</comp>

<comp id="30" class="1001" name="const_30">
<pin_list>
<pin id="31" dir="1" index="0" bw="1" slack="2147483647"/>
</pin_list>
<bind>
<StgValue><ssdm name="p_str"/></StgValue>
</bind>
</comp>

<comp id="32" class="1001" name="const_32">
<pin_list>
<pin id="33" dir="1" index="0" bw="1" slack="0"/>
</pin_list>
<bind>
<StgValue><ssdm name=""/></StgValue>
</bind>
</comp>

<comp id="34" class="1001" name="const_34">
<pin_list>
<pin id="35" dir="1" index="0" bw="1" slack="0"/>
</pin_list>
<bind>
<StgValue><ssdm name=""/></StgValue>
</bind>
</comp>

<comp id="36" class="1001" name="const_36">
<pin_list>
<pin id="37" dir="1" index="0" bw="1" slack="0"/>
</pin_list>
<bind>
<StgValue><ssdm name=""/></StgValue>
</bind>
</comp>

<comp id="38" class="1001" name="const_38">
<pin_list>
<pin id="39" dir="1" index="0" bw="1" slack="0"/>
</pin_list>
<bind>
<StgValue><ssdm name=""/></StgValue>
</bind>
</comp>

<comp id="40" class="1001" name="const_40">
<pin_list>
<pin id="41" dir="1" index="0" bw="1" slack="0"/>
</pin_list>
<bind>
<StgValue><ssdm name="_ssdm_op_Write.ap_auto.i32P"/></StgValue>
</bind>
</comp>

<comp id="42" class="1001" name="const_42">
<pin_list>
<pin id="43" dir="1" index="0" bw="1" slack="0"/>
</pin_list>
<bind>
<StgValue><ssdm name=""/></StgValue>
</bind>
</comp>

<comp id="44" class="1004" name="x_read_read_fu_44">
<pin_list>
<pin id="45" dir="0" index="0" bw="32" slack="0"/>
<pin id="46" dir="0" index="1" bw="32" slack="0"/>
<pin id="47" dir="1" index="2" bw="32" slack="0"/>
</pin_list>
<bind>
<opcode="read(1150) " fcode="read"/>
<opset="x_read/1 "/>
</bind>
</comp>

<comp id="50" class="1004" name="stg_29_write_fu_50">
<pin_list>
<pin id="51" dir="0" index="0" bw="0" slack="0"/>
<pin id="52" dir="0" index="1" bw="32" slack="0"/>
<pin id="53" dir="0" index="2" bw="16" slack="0"/>
<pin id="54" dir="1" index="3" bw="0" slack="2147483647"/>
</pin_list>
<bind>
<opcode="write(1151) " fcode="write"/>
<opset="stg_29/2 "/>
</bind>
</comp>

<comp id="57" class="1004" name="shift_reg_V_addr_gep_fu_57">
<pin_list>
<pin id="58" dir="0" index="0" bw="8" slack="0"/>
<pin id="59" dir="0" index="1" bw="1" slack="0"/>
<pin id="60" dir="0" index="2" bw="7" slack="0"/>
<pin id="61" dir="1" index="3" bw="7" slack="0"/>
</pin_list>
<bind>
<opcode="getelementptr(29) " fcode="getelementptr"/>
<opset="shift_reg_V_addr/2 "/>
</bind>
</comp>

<comp id="64" class="1004" name="grp_access_fu_64">
<pin_list>
<pin id="65" dir="0" index="0" bw="7" slack="0"/>
<pin id="66" dir="0" index="1" bw="8" slack="0"/>
<pin id="67" dir="1" index="2" bw="8" slack="0"/>
</pin_list>
<bind>
<opcode="load(27) store(28) " fcode="store"/>
<opset="shift_reg_V_load/2 stg_26/2 stg_34/3 "/>
</bind>
</comp>

<comp id="70" class="1004" name="shift_reg_V_addr_1_gep_fu_70">
<pin_list>
<pin id="71" dir="0" index="0" bw="8" slack="0"/>
<pin id="72" dir="0" index="1" bw="1" slack="0"/>
<pin id="73" dir="0" index="2" bw="8" slack="0"/>
<pin id="74" dir="1" index="3" bw="7" slack="0"/>
</pin_list>
<bind>
<opcode="getelementptr(29) " fcode="getelementptr"/>
<opset="shift_reg_V_addr_1/3 "/>
</bind>
</comp>

<comp id="79" class="1004" name="c_addr_gep_fu_79">
<pin_list>
<pin id="80" dir="0" index="0" bw="5" slack="0"/>
<pin id="81" dir="0" index="1" bw="1" slack="0"/>
<pin id="82" dir="0" index="2" bw="8" slack="0"/>
<pin id="83" dir="1" index="3" bw="7" slack="0"/>
</pin_list>
<bind>
<opcode="getelementptr(29) " fcode="getelementptr"/>
<opset="c_addr/3 "/>
</bind>
</comp>

<comp id="86" class="1004" name="grp_access_fu_86">
<pin_list>
<pin id="87" dir="0" index="0" bw="7" slack="0"/>
<pin id="88" dir="0" index="1" bw="5" slack="2147483647"/>
<pin id="89" dir="1" index="2" bw="5" slack="1"/>
</pin_list>
<bind>
<opcode="load(27) " fcode="load"/>
<opset="c_load/3 "/>
</bind>
</comp>

<comp id="91" class="1005" name="p_1_reg_91">
<pin_list>
<pin id="92" dir="0" index="0" bw="16" slack="1"/>
<pin id="93" dir="1" index="1" bw="16" slack="1"/>
</pin_list>
<bind>
<opset="p_1 (phireg) "/>
</bind>
</comp>

<comp id="95" class="1004" name="p_1_phi_fu_95">
<pin_list>
<pin id="96" dir="0" index="0" bw="1" slack="1"/>
<pin id="97" dir="0" index="1" bw="0" slack="2147483647"/>
<pin id="98" dir="0" index="2" bw="16" slack="1"/>
<pin id="99" dir="0" index="3" bw="0" slack="2147483647"/>
<pin id="100" dir="1" index="4" bw="16" slack="0"/>
</pin_list>
<bind>
<opcode="phi(47) " fcode="phi"/>
<opset="p_1/2 "/>
</bind>
</comp>

<comp id="103" class="1005" name="t_V_reg_103">
<pin_list>
<pin id="104" dir="0" index="0" bw="8" slack="1"/>
<pin id="105" dir="1" index="1" bw="8" slack="1"/>
</pin_list>
<bind>
<opset="t_V (phireg) "/>
</bind>
</comp>

<comp id="107" class="1004" name="t_V_phi_fu_107">
<pin_list>
<pin id="108" dir="0" index="0" bw="8" slack="1"/>
<pin id="109" dir="0" index="1" bw="0" slack="2147483647"/>
<pin id="110" dir="0" index="2" bw="8" slack="1"/>
<pin id="111" dir="0" index="3" bw="0" slack="2147483647"/>
<pin id="112" dir="1" index="4" bw="8" slack="0"/>
</pin_list>
<bind>
<opcode="phi(47) " fcode="phi"/>
<opset="t_V/2 "/>
</bind>
</comp>

<comp id="115" class="1005" name="p_2_reg_115">
<pin_list>
<pin id="116" dir="0" index="0" bw="16" slack="1"/>
<pin id="117" dir="1" index="1" bw="16" slack="1"/>
</pin_list>
<bind>
<opset="p_2 (phireg) "/>
</bind>
</comp>

<comp id="118" class="1004" name="p_2_phi_fu_118">
<pin_list>
<pin id="119" dir="0" index="0" bw="16" slack="3"/>
<pin id="120" dir="0" index="1" bw="0" slack="2147483647"/>
<pin id="121" dir="0" index="2" bw="8" slack="1"/>
<pin id="122" dir="0" index="3" bw="0" slack="2147483647"/>
<pin id="123" dir="1" index="4" bw="16" slack="1"/>
</pin_list>
<bind>
<opcode="phi(47) " fcode="phi"/>
<opset="p_2/4 "/>
</bind>
</comp>

<comp id="125" class="1004" name="tmp_fu_125">
<pin_list>
<pin id="126" dir="0" index="0" bw="32" slack="0"/>
<pin id="127" dir="1" index="1" bw="8" slack="1"/>
</pin_list>
<bind>
<opcode="trunc(33) " fcode="trunc"/>
<opset="tmp/1 "/>
</bind>
</comp>

<comp id="129" class="1004" name="data_V_fu_129">
<pin_list>
<pin id="130" dir="0" index="0" bw="32" slack="0"/>
<pin id="131" dir="1" index="1" bw="16" slack="3"/>
</pin_list>
<bind>
<opcode="trunc(33) " fcode="trunc"/>
<opset="data_V/1 "/>
</bind>
</comp>

<comp id="133" class="1004" name="tmp_5_fu_133">
<pin_list>
<pin id="134" dir="0" index="0" bw="1" slack="0"/>
<pin id="135" dir="0" index="1" bw="8" slack="0"/>
<pin id="136" dir="0" index="2" bw="4" slack="0"/>
<pin id="137" dir="1" index="3" bw="1" slack="2147483647"/>
</pin_list>
<bind>
<opcode="bitselect(1000) " fcode="bitselect"/>
<opset="tmp_5/2 "/>
</bind>
</comp>

<comp id="141" class="1004" name="tmp_1_fu_141">
<pin_list>
<pin id="142" dir="0" index="0" bw="8" slack="0"/>
<pin id="143" dir="0" index="1" bw="8" slack="0"/>
<pin id="144" dir="1" index="2" bw="1" slack="1"/>
</pin_list>
<bind>
<opcode="icmp(45) " fcode="icmp"/>
<opset="tmp_1/2 "/>
</bind>
</comp>

<comp id="147" class="1004" name="tmp_10_fu_147">
<pin_list>
<pin id="148" dir="0" index="0" bw="8" slack="0"/>
<pin id="149" dir="1" index="1" bw="7" slack="0"/>
</pin_list>
<bind>
<opcode="trunc(33) " fcode="trunc"/>
<opset="tmp_10/2 "/>
</bind>
</comp>

<comp id="151" class="1004" name="r_V_fu_151">
<pin_list>
<pin id="152" dir="0" index="0" bw="1" slack="0"/>
<pin id="153" dir="0" index="1" bw="7" slack="0"/>
<pin id="154" dir="1" index="2" bw="7" slack="0"/>
</pin_list>
<bind>
<opcode="add(8) " fcode="add"/>
<opset="r_V/2 "/>
</bind>
</comp>

<comp id="157" class="1004" name="tmp_6_fu_157">
<pin_list>
<pin id="158" dir="0" index="0" bw="7" slack="0"/>
<pin id="159" dir="1" index="1" bw="64" slack="0"/>
</pin_list>
<bind>
<opcode="zext(34) " fcode="zext"/>
<opset="tmp_6/2 "/>
</bind>
</comp>

<comp id="162" class="1004" name="tmp_2_fu_162">
<pin_list>
<pin id="163" dir="0" index="0" bw="16" slack="0"/>
<pin id="164" dir="1" index="1" bw="32" slack="0"/>
</pin_list>
<bind>
<opcode="sext(35) " fcode="sext"/>
<opset="tmp_2/2 "/>
</bind>
</comp>

<comp id="167" class="1004" name="tmp_3_fu_167">
<pin_list>
<pin id="168" dir="0" index="0" bw="8" slack="1"/>
<pin id="169" dir="1" index="1" bw="64" slack="0"/>
</pin_list>
<bind>
<opcode="zext(34) " fcode="zext"/>
<opset="tmp_3/3 "/>
</bind>
</comp>

<comp id="172" class="1004" name="data_V_1_fu_172">
<pin_list>
<pin id="173" dir="0" index="0" bw="8" slack="0"/>
<pin id="174" dir="1" index="1" bw="16" slack="1"/>
</pin_list>
<bind>
<opcode="sext(35) " fcode="sext"/>
<opset="data_V_1/3 "/>
</bind>
</comp>

<comp id="176" class="1004" name="tmp_7_fu_176">
<pin_list>
<pin id="177" dir="0" index="0" bw="8" slack="1"/>
<pin id="178" dir="1" index="1" bw="64" slack="0"/>
</pin_list>
<bind>
<opcode="zext(34) " fcode="zext"/>
<opset="tmp_7/3 "/>
</bind>
</comp>

<comp id="181" class="1004" name="i_V_fu_181">
<pin_list>
<pin id="182" dir="0" index="0" bw="8" slack="1"/>
<pin id="183" dir="0" index="1" bw="1" slack="0"/>
<pin id="184" dir="1" index="2" bw="8" slack="1"/>
</pin_list>
<bind>
<opcode="add(8) " fcode="add"/>
<opset="i_V/3 "/>
</bind>
</comp>

<comp id="187" class="1004" name="tmp_8_fu_187">
<pin_list>
<pin id="188" dir="0" index="0" bw="5" slack="1"/>
<pin id="189" dir="1" index="1" bw="16" slack="0"/>
</pin_list>
<bind>
<opcode="sext(35) " fcode="sext"/>
<opset="tmp_8/5 "/>
</bind>
</comp>

<comp id="190" class="1004" name="tmp_9_fu_190">
<pin_list>
<pin id="191" dir="0" index="0" bw="16" slack="1"/>
<pin id="192" dir="0" index="1" bw="5" slack="0"/>
<pin id="193" dir="1" index="2" bw="16" slack="0"/>
</pin_list>
<bind>
<opcode="mul(12) " fcode="mul"/>
<opset="tmp_9/5 "/>
</bind>
</comp>

<comp id="196" class="1004" name="acc_V_fu_196">
<pin_list>
<pin id="197" dir="0" index="0" bw="16" slack="0"/>
<pin id="198" dir="0" index="1" bw="16" slack="3"/>
<pin id="199" dir="1" index="2" bw="16" slack="1"/>
</pin_list>
<bind>
<opcode="add(8) " fcode="add"/>
<opset="acc_V/5 "/>
</bind>
</comp>

<comp id="202" class="1005" name="tmp_reg_202">
<pin_list>
<pin id="203" dir="0" index="0" bw="8" slack="1"/>
<pin id="204" dir="1" index="1" bw="8" slack="1"/>
</pin_list>
<bind>
<opset="tmp "/>
</bind>
</comp>

<comp id="207" class="1005" name="data_V_reg_207">
<pin_list>
<pin id="208" dir="0" index="0" bw="16" slack="3"/>
<pin id="209" dir="1" index="1" bw="16" slack="3"/>
</pin_list>
<bind>
<opset="data_V "/>
</bind>
</comp>

<comp id="215" class="1005" name="tmp_1_reg_215">
<pin_list>
<pin id="216" dir="0" index="0" bw="1" slack="1"/>
<pin id="217" dir="1" index="1" bw="1" slack="2147483647"/>
</pin_list>
<bind>
<opset="tmp_1 "/>
</bind>
</comp>

<comp id="219" class="1005" name="shift_reg_V_addr_reg_219">
<pin_list>
<pin id="220" dir="0" index="0" bw="7" slack="1"/>
<pin id="221" dir="1" index="1" bw="7" slack="1"/>
</pin_list>
<bind>
<opset="shift_reg_V_addr "/>
</bind>
</comp>

<comp id="224" class="1005" name="data_V_1_reg_224">
<pin_list>
<pin id="225" dir="0" index="0" bw="16" slack="1"/>
<pin id="226" dir="1" index="1" bw="16" slack="1"/>
</pin_list>
<bind>
<opset="data_V_1 "/>
</bind>
</comp>

<comp id="229" class="1005" name="c_addr_reg_229">
<pin_list>
<pin id="230" dir="0" index="0" bw="7" slack="1"/>
<pin id="231" dir="1" index="1" bw="7" slack="1"/>
</pin_list>
<bind>
<opset="c_addr "/>
</bind>
</comp>

<comp id="234" class="1005" name="i_V_reg_234">
<pin_list>
<pin id="235" dir="0" index="0" bw="8" slack="1"/>
<pin id="236" dir="1" index="1" bw="8" slack="1"/>
</pin_list>
<bind>
<opset="i_V "/>
</bind>
</comp>

<comp id="239" class="1005" name="c_load_reg_239">
<pin_list>
<pin id="240" dir="0" index="0" bw="5" slack="1"/>
<pin id="241" dir="1" index="1" bw="5" slack="1"/>
</pin_list>
<bind>
<opset="c_load "/>
</bind>
</comp>

<comp id="244" class="1005" name="acc_V_reg_244">
<pin_list>
<pin id="245" dir="0" index="0" bw="16" slack="1"/>
<pin id="246" dir="1" index="1" bw="16" slack="1"/>
</pin_list>
<bind>
<opset="acc_V "/>
</bind>
</comp>

</comp_list>

<net_list>
<net id="48"><net_src comp="14" pin="0"/><net_sink comp="44" pin=0"/></net>

<net id="49"><net_src comp="2" pin="0"/><net_sink comp="44" pin=1"/></net>

<net id="55"><net_src comp="40" pin="0"/><net_sink comp="50" pin=0"/></net>

<net id="56"><net_src comp="0" pin="0"/><net_sink comp="50" pin=1"/></net>

<net id="62"><net_src comp="4" pin="0"/><net_sink comp="57" pin=0"/></net>

<net id="63"><net_src comp="36" pin="0"/><net_sink comp="57" pin=1"/></net>

<net id="68"><net_src comp="57" pin="3"/><net_sink comp="64" pin=0"/></net>

<net id="69"><net_src comp="38" pin="0"/><net_sink comp="64" pin=0"/></net>

<net id="75"><net_src comp="4" pin="0"/><net_sink comp="70" pin=0"/></net>

<net id="76"><net_src comp="36" pin="0"/><net_sink comp="70" pin=1"/></net>

<net id="77"><net_src comp="64" pin="2"/><net_sink comp="64" pin=1"/></net>

<net id="78"><net_src comp="70" pin="3"/><net_sink comp="64" pin=0"/></net>

<net id="84"><net_src comp="6" pin="0"/><net_sink comp="79" pin=0"/></net>

<net id="85"><net_src comp="36" pin="0"/><net_sink comp="79" pin=1"/></net>

<net id="90"><net_src comp="79" pin="3"/><net_sink comp="86" pin=0"/></net>

<net id="94"><net_src comp="16" pin="0"/><net_sink comp="91" pin=0"/></net>

<net id="101"><net_src comp="91" pin="1"/><net_sink comp="95" pin=0"/></net>

<net id="102"><net_src comp="95" pin="4"/><net_sink comp="91" pin=0"/></net>

<net id="106"><net_src comp="18" pin="0"/><net_sink comp="103" pin=0"/></net>

<net id="113"><net_src comp="103" pin="1"/><net_sink comp="107" pin=0"/></net>

<net id="114"><net_src comp="107" pin="4"/><net_sink comp="103" pin=0"/></net>

<net id="124"><net_src comp="118" pin="4"/><net_sink comp="115" pin=0"/></net>

<net id="128"><net_src comp="44" pin="2"/><net_sink comp="125" pin=0"/></net>

<net id="132"><net_src comp="44" pin="2"/><net_sink comp="129" pin=0"/></net>

<net id="138"><net_src comp="20" pin="0"/><net_sink comp="133" pin=0"/></net>

<net id="139"><net_src comp="107" pin="4"/><net_sink comp="133" pin=1"/></net>

<net id="140"><net_src comp="22" pin="0"/><net_sink comp="133" pin=2"/></net>

<net id="145"><net_src comp="107" pin="4"/><net_sink comp="141" pin=0"/></net>

<net id="146"><net_src comp="32" pin="0"/><net_sink comp="141" pin=1"/></net>

<net id="150"><net_src comp="107" pin="4"/><net_sink comp="147" pin=0"/></net>

<net id="155"><net_src comp="34" pin="0"/><net_sink comp="151" pin=0"/></net>

<net id="156"><net_src comp="147" pin="1"/><net_sink comp="151" pin=1"/></net>

<net id="160"><net_src comp="151" pin="2"/><net_sink comp="157" pin=0"/></net>

<net id="161"><net_src comp="157" pin="1"/><net_sink comp="57" pin=2"/></net>

<net id="165"><net_src comp="95" pin="4"/><net_sink comp="162" pin=0"/></net>

<net id="166"><net_src comp="162" pin="1"/><net_sink comp="50" pin=2"/></net>

<net id="170"><net_src comp="103" pin="1"/><net_sink comp="167" pin=0"/></net>

<net id="171"><net_src comp="167" pin="1"/><net_sink comp="70" pin=2"/></net>

<net id="175"><net_src comp="64" pin="2"/><net_sink comp="172" pin=0"/></net>

<net id="179"><net_src comp="103" pin="1"/><net_sink comp="176" pin=0"/></net>

<net id="180"><net_src comp="176" pin="1"/><net_sink comp="79" pin=2"/></net>

<net id="185"><net_src comp="103" pin="1"/><net_sink comp="181" pin=0"/></net>

<net id="186"><net_src comp="42" pin="0"/><net_sink comp="181" pin=1"/></net>

<net id="194"><net_src comp="115" pin="1"/><net_sink comp="190" pin=0"/></net>

<net id="195"><net_src comp="187" pin="1"/><net_sink comp="190" pin=1"/></net>

<net id="200"><net_src comp="190" pin="2"/><net_sink comp="196" pin=0"/></net>

<net id="201"><net_src comp="91" pin="1"/><net_sink comp="196" pin=1"/></net>

<net id="205"><net_src comp="125" pin="1"/><net_sink comp="202" pin=0"/></net>

<net id="206"><net_src comp="202" pin="1"/><net_sink comp="64" pin=1"/></net>

<net id="210"><net_src comp="129" pin="1"/><net_sink comp="207" pin=0"/></net>

<net id="211"><net_src comp="207" pin="1"/><net_sink comp="118" pin=0"/></net>

<net id="218"><net_src comp="141" pin="2"/><net_sink comp="215" pin=0"/></net>

<net id="222"><net_src comp="57" pin="3"/><net_sink comp="219" pin=0"/></net>

<net id="223"><net_src comp="219" pin="1"/><net_sink comp="64" pin=0"/></net>

<net id="227"><net_src comp="172" pin="1"/><net_sink comp="224" pin=0"/></net>

<net id="228"><net_src comp="224" pin="1"/><net_sink comp="118" pin=2"/></net>

<net id="232"><net_src comp="79" pin="3"/><net_sink comp="229" pin=0"/></net>

<net id="233"><net_src comp="229" pin="1"/><net_sink comp="86" pin=0"/></net>

<net id="237"><net_src comp="181" pin="2"/><net_sink comp="234" pin=0"/></net>

<net id="238"><net_src comp="234" pin="1"/><net_sink comp="107" pin=2"/></net>

<net id="242"><net_src comp="86" pin="2"/><net_sink comp="239" pin=0"/></net>

<net id="243"><net_src comp="239" pin="1"/><net_sink comp="187" pin=0"/></net>

<net id="247"><net_src comp="196" pin="2"/><net_sink comp="244" pin=0"/></net>

<net id="248"><net_src comp="244" pin="1"/><net_sink comp="95" pin=2"/></net>

</net_list>

</model> 
---------------- Datapath Model END ------------------

* FSMD analyzer results:
  - Output states:
	Port: y | {2 }
  - Chain level:
	State 1
	State 2
		tmp_5 : 1
		stg_17 : 2
		tmp_1 : 1
		stg_20 : 2
		tmp_10 : 1
		r_V : 2
		tmp_6 : 3
		shift_reg_V_addr : 4
		shift_reg_V_load : 5
		tmp_2 : 1
		stg_29 : 2
	State 3
		shift_reg_V_addr_1 : 1
		stg_34 : 2
		data_V_1 : 1
		c_addr : 1
		c_load : 2
	State 4
	State 5
		tmp_9 : 1
		acc_V : 2


============================================================
+ Verbose Summary: Datapath Resource usage 
============================================================

* Functional unit list:
|----------|--------------------|---------|---------|---------|
| Operation|   Functional Unit  |  DSP48E |    FF   |   LUT   |
|----------|--------------------|---------|---------|---------|
|          |     r_V_fu_151     |    0    |    0    |    7    |
|    add   |     i_V_fu_181     |    0    |    0    |    8    |
|          |    acc_V_fu_196    |    0    |    0    |    16   |
|----------|--------------------|---------|---------|---------|
|   icmp   |    tmp_1_fu_141    |    0    |    0    |    3    |
|----------|--------------------|---------|---------|---------|
|    mul   |    tmp_9_fu_190    |    1    |    0    |    0    |
|----------|--------------------|---------|---------|---------|
|   read   |  x_read_read_fu_44 |    0    |    0    |    0    |
|----------|--------------------|---------|---------|---------|
|   write  | stg_29_write_fu_50 |    0    |    0    |    0    |
|----------|--------------------|---------|---------|---------|
|          |     tmp_fu_125     |    0    |    0    |    0    |
|   trunc  |    data_V_fu_129   |    0    |    0    |    0    |
|          |    tmp_10_fu_147   |    0    |    0    |    0    |
|----------|--------------------|---------|---------|---------|
| bitselect|    tmp_5_fu_133    |    0    |    0    |    0    |
|----------|--------------------|---------|---------|---------|
|          |    tmp_6_fu_157    |    0    |    0    |    0    |
|   zext   |    tmp_3_fu_167    |    0    |    0    |    0    |
|          |    tmp_7_fu_176    |    0    |    0    |    0    |
|----------|--------------------|---------|---------|---------|
|          |    tmp_2_fu_162    |    0    |    0    |    0    |
|   sext   |   data_V_1_fu_172  |    0    |    0    |    0    |
|          |    tmp_8_fu_187    |    0    |    0    |    0    |
|----------|--------------------|---------|---------|---------|
|   Total  |                    |    1    |    0    |    34   |
|----------|--------------------|---------|---------|---------|

Memories:
+-----------+--------+--------+--------+
|           |  BRAM  |   FF   |   LUT  |
+-----------+--------+--------+--------+
|     c     |    0   |    5   |   10   |
|shift_reg_V|    1   |    0   |    0   |
+-----------+--------+--------+--------+
|   Total   |    1   |    5   |   10   |
+-----------+--------+--------+--------+

* Register list:
+------------------------+--------+
|                        |   FF   |
+------------------------+--------+
|      acc_V_reg_244     |   16   |
|     c_addr_reg_229     |    7   |
|     c_load_reg_239     |    5   |
|    data_V_1_reg_224    |   16   |
|     data_V_reg_207     |   16   |
|       i_V_reg_234      |    8   |
|       p_1_reg_91       |   16   |
|       p_2_reg_115      |   16   |
|shift_reg_V_addr_reg_219|    7   |
|       t_V_reg_103      |    8   |
|      tmp_1_reg_215     |    1   |
|       tmp_reg_202      |    8   |
+------------------------+--------+
|          Total         |   124  |
+------------------------+--------+

* Multiplexer (MUX) list: 
|------------------|------|------|------|--------||---------||---------|
|       Comp       |  Pin | Size |  BW  | S x BW ||  Delay  ||   LUT   |
|------------------|------|------|------|--------||---------||---------|
| grp_access_fu_64 |  p0  |   4  |   7  |   28   ||    7    |
| grp_access_fu_64 |  p1  |   2  |   8  |   16   ||    8    |
| grp_access_fu_86 |  p0  |   2  |   7  |   14   ||    7    |
|    p_1_reg_91    |  p0  |   2  |  16  |   32   ||    16   |
|    t_V_reg_103   |  p0  |   2  |   8  |   16   ||    8    |
|------------------|------|------|------|--------||---------||---------|
|       Total      |      |      |      |   106  ||  7.855  ||    46   |
|------------------|------|------|------|--------||---------||---------|



* Summary:
+-----------+--------+--------+--------+--------+--------+
|           |  BRAM  | DSP48E |  Delay |   FF   |   LUT  |
+-----------+--------+--------+--------+--------+--------+
|  Function |    -   |    1   |    -   |    0   |   34   |
|   Memory  |    1   |    -   |    -   |    5   |   10   |
|Multiplexer|    -   |    -   |    7   |    -   |   46   |
|  Register |    -   |    -   |    -   |   124  |    -   |
+-----------+--------+--------+--------+--------+--------+
|   Total   |    1   |    1   |    7   |   129  |   90   |
+-----------+--------+--------+--------+--------+--------+
