; ModuleID = 'D:/Projects/vivado/project_3/dft_256_precomputed/dft/dft256_stream/.autopilot/db/a.o.3.bc'
target datalayout = "e-p:64:64:64-i1:8:8-i8:8:8-i16:16:16-i32:32:32-i64:64:64-f32:32:32-f64:64:64-v64:64:64-v128:128:128-a0:0:64-s0:64:64-f80:128:128-n8:16:32:64-S128"
target triple = "x86_64-w64-mingw32"

@sct = internal unnamed_addr constant [256 x float] [float 0.000000e+00, float 0xBF992146A0000000, float 0xBFA91F70E0000000, float 0xBFB2D527E0000000, float 0xBFB917A460000000, float 0xBFBF5653C0000000, float 0xBFC2C80C80000000, float 0xBFC5E21540000000, float 0xBFC8F8B580000000, float 0xBFCC0B8060000000, float 0xBFCF19F800000000, float 0xBFD111D360000000, float 0xBFD2940780000000, float 0xBFD4135DA0000000, float 0xBFD58F9B20000000, float 0xBFD7088500000000, float 0xBFD87DE0E0000000, float 0xBFD9EF7800000000, float 0xBFDB5D0FA0000000, float 0xBFDCC66D40000000, float 0xBFDE2B5E60000000, float 0xBFDF8BA400000000, float 0xBFE0738820000000, float 0xBFE11EB420000000, float 0xBFE1C73AC0000000, float 0xBFE26D04E0000000, float 0xBFE30FF760000000, float 0xBFE3AFFB00000000, float 0xBFE44CF280000000, float 0xBFE4E6CB20000000, float 0xBFE57D6940000000, float 0xBFE610B840000000, float 0xBFE6A09EE0000000, float 0xBFE72D0800000000, float 0xBFE7B5DEE0000000, float 0xBFE83B0E60000000, float 0xBFE8BC7F80000000, float 0xBFE93A2160000000, float 0xBFE9B3E140000000, float 0xBFEA29A800000000, float 0xBFEA9B6700000000, float 0xBFEB090B40000000, float 0xBFEB728420000000, float 0xBFEBD7C0C0000000, float 0xBFEC38B260000000, float 0xBFEC954A80000000, float 0xBFECED7A60000000, float 0xBFED413560000000, float 0xBFED906CC0000000, float 0xBFEDDB1420000000, float 0xBFEE2120E0000000, float 0xBFEE628880000000, float 0xBFEE9F40A0000000, float 0xBFEED740C0000000, float 0xBFEF0A7E80000000, float 0xBFEF38F360000000, float 0xBFEF629740000000, float 0xBFEF8765C0000000, float 0xBFEFA75680000000, float 0xBFEFC26560000000, float 0xBFEFD88E40000000, float 0xBFEFE9CCC0000000, float 0xBFEFF620E0000000, float 0xBFEFFD88C0000000, float -1.000000e+00, float 0xBFEFFD88C0000000, float 0xBFEFF620E0000000, float 0xBFEFE9CCC0000000, float 0xBFEFD88E40000000, float 0xBFEFC26560000000, float 0xBFEFA75680000000, float 0xBFEF8765C0000000, float 0xBFEF629740000000, float 0xBFEF38F360000000, float 0xBFEF0A7E80000000, float 0xBFEED740C0000000, float 0xBFEE9F40A0000000, float 0xBFEE628880000000, float 0xBFEE2120E0000000, float 0xBFEDDB1420000000, float 0xBFED906CC0000000, float 0xBFED413560000000, float 0xBFECED7A60000000, float 0xBFEC954A80000000, float 0xBFEC38B260000000, float 0xBFEBD7C0C0000000, float 0xBFEB728420000000, float 0xBFEB090B40000000, float 0xBFEA9B6700000000, float 0xBFEA29A800000000, float 0xBFE9B3E140000000, float 0xBFE93A2160000000, float 0xBFE8BC7F80000000, float 0xBFE83B0E60000000, float 0xBFE7B5DEE0000000, float 0xBFE72D0800000000, float 0xBFE6A09EE0000000, float 0xBFE610B840000000, float 0xBFE57D6940000000, float 0xBFE4E6CB20000000, float 0xBFE44CF280000000, float 0xBFE3AFFB00000000, float 0xBFE30FF760000000, float 0xBFE26D04E0000000, float 0xBFE1C73AC0000000, float 0xBFE11EB420000000, float 0xBFE0738820000000, float 0xBFDF8BA400000000, float 0xBFDE2B5E60000000, float 0xBFDCC66D40000000, float 0xBFDB5D0FA0000000, float 0xBFD9EF7800000000, float 0xBFD87DE0E0000000, float 0xBFD7088500000000, float 0xBFD58F9B20000000, float 0xBFD4135DA0000000, float 0xBFD2940780000000, float 0xBFD111D360000000, float 0xBFCF19F800000000, float 0xBFCC0B8060000000, float 0xBFC8F8B580000000, float 0xBFC5E21540000000, float 0xBFC2C80C80000000, float 0xBFBF5653C0000000, float 0xBFB917A460000000, float 0xBFB2D527E0000000, float 0xBFA91F70E0000000, float 0xBF992146A0000000, float -0.000000e+00, float 0x3F992146A0000000, float 0x3FA91F70E0000000, float 0x3FB2D527E0000000, float 0x3FB917A460000000, float 0x3FBF5653C0000000, float 0x3FC2C80C80000000, float 0x3FC5E21540000000, float 0x3FC8F8B580000000, float 0x3FCC0B8060000000, float 0x3FCF19F800000000, float 0x3FD111D360000000, float 0x3FD2940780000000, float 0x3FD4135DA0000000, float 0x3FD58F9B20000000, float 0x3FD7088500000000, float 0x3FD87DE0E0000000, float 0x3FD9EF7800000000, float 0x3FDB5D0FA0000000, float 0x3FDCC66D40000000, float 0x3FDE2B5E60000000, float 0x3FDF8BA400000000, float 0x3FE0738820000000, float 0x3FE11EB420000000, float 0x3FE1C73AC0000000, float 0x3FE26D04E0000000, float 0x3FE30FF760000000, float 0x3FE3AFFB00000000, float 0x3FE44CF280000000, float 0x3FE4E6CB20000000, float 0x3FE57D6940000000, float 0x3FE610B840000000, float 0x3FE6A09EE0000000, float 0x3FE72D0800000000, float 0x3FE7B5DEE0000000, float 0x3FE83B0E60000000, float 0x3FE8BC7F80000000, float 0x3FE93A2160000000, float 0x3FE9B3E140000000, float 0x3FEA29A800000000, float 0x3FEA9B6700000000, float 0x3FEB090B40000000, float 0x3FEB728420000000, float 0x3FEBD7C0C0000000, float 0x3FEC38B260000000, float 0x3FEC954A80000000, float 0x3FECED7A60000000, float 0x3FED413560000000, float 0x3FED906CC0000000, float 0x3FEDDB1420000000, float 0x3FEE2120E0000000, float 0x3FEE628880000000, float 0x3FEE9F40A0000000, float 0x3FEED740C0000000, float 0x3FEF0A7E80000000, float 0x3FEF38F360000000, float 0x3FEF629740000000, float 0x3FEF8765C0000000, float 0x3FEFA75680000000, float 0x3FEFC26560000000, float 0x3FEFD88E40000000, float 0x3FEFE9CCC0000000, float 0x3FEFF620E0000000, float 0x3FEFFD88C0000000, float 1.000000e+00, float 0x3FEFFD88C0000000, float 0x3FEFF620E0000000, float 0x3FEFE9CCC0000000, float 0x3FEFD88E40000000, float 0x3FEFC26560000000, float 0x3FEFA75680000000, float 0x3FEF8765C0000000, float 0x3FEF629740000000, float 0x3FEF38F360000000, float 0x3FEF0A7E80000000, float 0x3FEED740C0000000, float 0x3FEE9F40A0000000, float 0x3FEE628880000000, float 0x3FEE2120E0000000, float 0x3FEDDB1420000000, float 0x3FED906CC0000000, float 0x3FED413560000000, float 0x3FECED7A60000000, float 0x3FEC954A80000000, float 0x3FEC38B260000000, float 0x3FEBD7C0C0000000, float 0x3FEB728420000000, float 0x3FEB090B40000000, float 0x3FEA9B6700000000, float 0x3FEA29A800000000, float 0x3FE9B3E140000000, float 0x3FE93A2160000000, float 0x3FE8BC7F80000000, float 0x3FE83B0E60000000, float 0x3FE7B5DEE0000000, float 0x3FE72D0800000000, float 0x3FE6A09EE0000000, float 0x3FE610B840000000, float 0x3FE57D6940000000, float 0x3FE4E6CB20000000, float 0x3FE44CF280000000, float 0x3FE3AFFB00000000, float 0x3FE30FF760000000, float 0x3FE26D04E0000000, float 0x3FE1C73AC0000000, float 0x3FE11EB420000000, float 0x3FE0738820000000, float 0x3FDF8BA400000000, float 0x3FDE2B5E60000000, float 0x3FDCC66D40000000, float 0x3FDB5D0FA0000000, float 0x3FD9EF7800000000, float 0x3FD87DE0E0000000, float 0x3FD7088500000000, float 0x3FD58F9B20000000, float 0x3FD4135DA0000000, float 0x3FD2940780000000, float 0x3FD111D360000000, float 0x3FCF19F800000000, float 0x3FCC0B8060000000, float 0x3FC8F8B580000000, float 0x3FC5E21540000000, float 0x3FC2C80C80000000, float 0x3FBF5653C0000000, float 0x3FB917A460000000, float 0x3FB2D527E0000000, float 0x3FA91F70E0000000, float 0x3F992146A0000000], align 16 ; [#uses=1 type=[256 x float]*]
@real_i = global [256 x float] zeroinitializer, align 16 ; [#uses=2 type=[256 x float]*]
@llvm_global_ctors_1 = appending global [1 x void ()*] [void ()* @_GLOBAL__I_a] ; [#uses=0 type=[1 x void ()*]*]
@llvm_global_ctors_0 = appending global [1 x i32] [i32 65535] ; [#uses=0 type=[1 x i32]*]
@imag_i = global [256 x float] zeroinitializer, align 16 ; [#uses=2 type=[256 x float]*]
@dft_str = internal unnamed_addr constant [4 x i8] c"dft\00" ; [#uses=1 type=[4 x i8]*]
@cct = internal unnamed_addr constant [256 x float] [float 1.000000e+00, float 0x3FEFFD88C0000000, float 0x3FEFF620E0000000, float 0x3FEFE9CCC0000000, float 0x3FEFD88E40000000, float 0x3FEFC26560000000, float 0x3FEFA75680000000, float 0x3FEF8765C0000000, float 0x3FEF629740000000, float 0x3FEF38F360000000, float 0x3FEF0A7E80000000, float 0x3FEED740C0000000, float 0x3FEE9F40A0000000, float 0x3FEE628880000000, float 0x3FEE2120E0000000, float 0x3FEDDB1420000000, float 0x3FED906CC0000000, float 0x3FED413560000000, float 0x3FECED7A60000000, float 0x3FEC954A80000000, float 0x3FEC38B260000000, float 0x3FEBD7C0C0000000, float 0x3FEB728420000000, float 0x3FEB090B40000000, float 0x3FEA9B6700000000, float 0x3FEA29A800000000, float 0x3FE9B3E140000000, float 0x3FE93A2160000000, float 0x3FE8BC7F80000000, float 0x3FE83B0E60000000, float 0x3FE7B5DEE0000000, float 0x3FE72D0800000000, float 0x3FE6A09EE0000000, float 0x3FE610B840000000, float 0x3FE57D6940000000, float 0x3FE4E6CB20000000, float 0x3FE44CF280000000, float 0x3FE3AFFB00000000, float 0x3FE30FF760000000, float 0x3FE26D04E0000000, float 0x3FE1C73AC0000000, float 0x3FE11EB420000000, float 0x3FE0738820000000, float 0x3FDF8BA400000000, float 0x3FDE2B5E60000000, float 0x3FDCC66D40000000, float 0x3FDB5D0FA0000000, float 0x3FD9EF7800000000, float 0x3FD87DE0E0000000, float 0x3FD7088500000000, float 0x3FD58F9B20000000, float 0x3FD4135DA0000000, float 0x3FD2940780000000, float 0x3FD111D360000000, float 0x3FCF19F800000000, float 0x3FCC0B8060000000, float 0x3FC8F8B580000000, float 0x3FC5E21540000000, float 0x3FC2C80C80000000, float 0x3FBF5653C0000000, float 0x3FB917A460000000, float 0x3FB2D527E0000000, float 0x3FA91F70E0000000, float 0x3F992146A0000000, float 0.000000e+00, float 0xBF992146A0000000, float 0xBFA91F70E0000000, float 0xBFB2D527E0000000, float 0xBFB917A460000000, float 0xBFBF5653C0000000, float 0xBFC2C80C80000000, float 0xBFC5E21540000000, float 0xBFC8F8B580000000, float 0xBFCC0B8060000000, float 0xBFCF19F800000000, float 0xBFD111D360000000, float 0xBFD2940780000000, float 0xBFD4135DA0000000, float 0xBFD58F9B20000000, float 0xBFD7088500000000, float 0xBFD87DE0E0000000, float 0xBFD9EF7800000000, float 0xBFDB5D0FA0000000, float 0xBFDCC66D40000000, float 0xBFDE2B5E60000000, float 0xBFDF8BA400000000, float 0xBFE0738820000000, float 0xBFE11EB420000000, float 0xBFE1C73AC0000000, float 0xBFE26D04E0000000, float 0xBFE30FF760000000, float 0xBFE3AFFB00000000, float 0xBFE44CF280000000, float 0xBFE4E6CB20000000, float 0xBFE57D6940000000, float 0xBFE610B840000000, float 0xBFE6A09EE0000000, float 0xBFE72D0800000000, float 0xBFE7B5DEE0000000, float 0xBFE83B0E60000000, float 0xBFE8BC7F80000000, float 0xBFE93A2160000000, float 0xBFE9B3E140000000, float 0xBFEA29A800000000, float 0xBFEA9B6700000000, float 0xBFEB090B40000000, float 0xBFEB728420000000, float 0xBFEBD7C0C0000000, float 0xBFEC38B260000000, float 0xBFEC954A80000000, float 0xBFECED7A60000000, float 0xBFED413560000000, float 0xBFED906CC0000000, float 0xBFEDDB1420000000, float 0xBFEE2120E0000000, float 0xBFEE628880000000, float 0xBFEE9F40A0000000, float 0xBFEED740C0000000, float 0xBFEF0A7E80000000, float 0xBFEF38F360000000, float 0xBFEF629740000000, float 0xBFEF8765C0000000, float 0xBFEFA75680000000, float 0xBFEFC26560000000, float 0xBFEFD88E40000000, float 0xBFEFE9CCC0000000, float 0xBFEFF620E0000000, float 0xBFEFFD88C0000000, float -1.000000e+00, float 0xBFEFFD88C0000000, float 0xBFEFF620E0000000, float 0xBFEFE9CCC0000000, float 0xBFEFD88E40000000, float 0xBFEFC26560000000, float 0xBFEFA75680000000, float 0xBFEF8765C0000000, float 0xBFEF629740000000, float 0xBFEF38F360000000, float 0xBFEF0A7E80000000, float 0xBFEED740C0000000, float 0xBFEE9F40A0000000, float 0xBFEE628880000000, float 0xBFEE2120E0000000, float 0xBFEDDB1420000000, float 0xBFED906CC0000000, float 0xBFED413560000000, float 0xBFECED7A60000000, float 0xBFEC954A80000000, float 0xBFEC38B260000000, float 0xBFEBD7C0C0000000, float 0xBFEB728420000000, float 0xBFEB090B40000000, float 0xBFEA9B6700000000, float 0xBFEA29A800000000, float 0xBFE9B3E140000000, float 0xBFE93A2160000000, float 0xBFE8BC7F80000000, float 0xBFE83B0E60000000, float 0xBFE7B5DEE0000000, float 0xBFE72D0800000000, float 0xBFE6A09EE0000000, float 0xBFE610B840000000, float 0xBFE57D6940000000, float 0xBFE4E6CB20000000, float 0xBFE44CF280000000, float 0xBFE3AFFB00000000, float 0xBFE30FF760000000, float 0xBFE26D04E0000000, float 0xBFE1C73AC0000000, float 0xBFE11EB420000000, float 0xBFE0738820000000, float 0xBFDF8BA400000000, float 0xBFDE2B5E60000000, float 0xBFDCC66D40000000, float 0xBFDB5D0FA0000000, float 0xBFD9EF7800000000, float 0xBFD87DE0E0000000, float 0xBFD7088500000000, float 0xBFD58F9B20000000, float 0xBFD4135DA0000000, float 0xBFD2940780000000, float 0xBFD111D360000000, float 0xBFCF19F800000000, float 0xBFCC0B8060000000, float 0xBFC8F8B580000000, float 0xBFC5E21540000000, float 0xBFC2C80C80000000, float 0xBFBF5653C0000000, float 0xBFB917A460000000, float 0xBFB2D527E0000000, float 0xBFA91F70E0000000, float 0xBF992146A0000000, float -0.000000e+00, float 0x3F992146A0000000, float 0x3FA91F70E0000000, float 0x3FB2D527E0000000, float 0x3FB917A460000000, float 0x3FBF5653C0000000, float 0x3FC2C80C80000000, float 0x3FC5E21540000000, float 0x3FC8F8B580000000, float 0x3FCC0B8060000000, float 0x3FCF19F800000000, float 0x3FD111D360000000, float 0x3FD2940780000000, float 0x3FD4135DA0000000, float 0x3FD58F9B20000000, float 0x3FD7088500000000, float 0x3FD87DE0E0000000, float 0x3FD9EF7800000000, float 0x3FDB5D0FA0000000, float 0x3FDCC66D40000000, float 0x3FDE2B5E60000000, float 0x3FDF8BA400000000, float 0x3FE0738820000000, float 0x3FE11EB420000000, float 0x3FE1C73AC0000000, float 0x3FE26D04E0000000, float 0x3FE30FF760000000, float 0x3FE3AFFB00000000, float 0x3FE44CF280000000, float 0x3FE4E6CB20000000, float 0x3FE57D6940000000, float 0x3FE610B840000000, float 0x3FE6A09EE0000000, float 0x3FE72D0800000000, float 0x3FE7B5DEE0000000, float 0x3FE83B0E60000000, float 0x3FE8BC7F80000000, float 0x3FE93A2160000000, float 0x3FE9B3E140000000, float 0x3FEA29A800000000, float 0x3FEA9B6700000000, float 0x3FEB090B40000000, float 0x3FEB728420000000, float 0x3FEBD7C0C0000000, float 0x3FEC38B260000000, float 0x3FEC954A80000000, float 0x3FECED7A60000000, float 0x3FED413560000000, float 0x3FED906CC0000000, float 0x3FEDDB1420000000, float 0x3FEE2120E0000000, float 0x3FEE628880000000, float 0x3FEE9F40A0000000, float 0x3FEED740C0000000, float 0x3FEF0A7E80000000, float 0x3FEF38F360000000, float 0x3FEF629740000000, float 0x3FEF8765C0000000, float 0x3FEFA75680000000, float 0x3FEFC26560000000, float 0x3FEFD88E40000000, float 0x3FEFE9CCC0000000, float 0x3FEFF620E0000000, float 0x3FEFFD88C0000000], align 16 ; [#uses=1 type=[256 x float]*]
@ap_fifo_str = internal unnamed_addr constant [8 x i8] c"ap_fifo\00" ; [#uses=4 type=[8 x i8]*]
@p_str = internal unnamed_addr constant [1 x i8] zeroinitializer ; [#uses=16 type=[1 x i8]*]

; [#uses=16]
declare void @llvm.dbg.value(metadata, i64, metadata) nounwind readnone

; [#uses=0]
define void @dft(float* %stream_i_real_V, float* %stream_i_imag_V, float* %stream_o_real_V, float* %stream_o_imag_V) {
  %empty = call i32 (...)* @_ssdm_op_SpecInterface(float* %stream_o_imag_V, [8 x i8]* @ap_fifo_str, i32 0, i32 0, i32 0, i32 0, [1 x i8]* @p_str, [1 x i8]* @p_str, [1 x i8]* @p_str, [1 x i8]* @p_str) ; [#uses=0 type=i32]
  %empty_3 = call i32 (...)* @_ssdm_op_SpecInterface(float* %stream_o_real_V, [8 x i8]* @ap_fifo_str, i32 0, i32 0, i32 0, i32 0, [1 x i8]* @p_str, [1 x i8]* @p_str, [1 x i8]* @p_str, [1 x i8]* @p_str) ; [#uses=0 type=i32]
  %empty_4 = call i32 (...)* @_ssdm_op_SpecInterface(float* %stream_i_imag_V, [8 x i8]* @ap_fifo_str, i32 0, i32 0, i32 0, i32 0, [1 x i8]* @p_str, [1 x i8]* @p_str, [1 x i8]* @p_str, [1 x i8]* @p_str) ; [#uses=0 type=i32]
  %empty_5 = call i32 (...)* @_ssdm_op_SpecInterface(float* %stream_i_real_V, [8 x i8]* @ap_fifo_str, i32 0, i32 0, i32 0, i32 0, [1 x i8]* @p_str, [1 x i8]* @p_str, [1 x i8]* @p_str, [1 x i8]* @p_str) ; [#uses=0 type=i32]
  call void (...)* @_ssdm_op_SpecBitsMap(float* %stream_i_real_V), !map !19
  call void (...)* @_ssdm_op_SpecBitsMap(float* %stream_i_imag_V), !map !23
  call void (...)* @_ssdm_op_SpecBitsMap(float* %stream_o_real_V), !map !27
  call void (...)* @_ssdm_op_SpecBitsMap(float* %stream_o_imag_V), !map !31
  call void (...)* @_ssdm_op_SpecTopModule([4 x i8]* @dft_str) nounwind
  call void @llvm.dbg.value(metadata !{float* %stream_i_real_V}, i64 0, metadata !35), !dbg !112 ; [debug line = 14:17] [debug variable = stream_i.real.V]
  call void @llvm.dbg.value(metadata !{float* %stream_i_imag_V}, i64 0, metadata !113), !dbg !112 ; [debug line = 14:17] [debug variable = stream_i.imag.V]
  call void @llvm.dbg.value(metadata !{float* %stream_o_real_V}, i64 0, metadata !114), !dbg !116 ; [debug line = 14:34] [debug variable = stream_o.real.V]
  call void @llvm.dbg.value(metadata !{float* %stream_o_imag_V}, i64 0, metadata !117), !dbg !116 ; [debug line = 14:34] [debug variable = stream_o.imag.V]
  call void @llvm.dbg.value(metadata !{float* %stream_i_real_V}, i64 0, metadata !118), !dbg !125 ; [debug line = 7:25@17:2] [debug variable = stream.real.V]
  call void @llvm.dbg.value(metadata !{float* %stream_i_imag_V}, i64 0, metadata !126), !dbg !125 ; [debug line = 7:25@17:2] [debug variable = stream.imag.V]
  br label %1, !dbg !127                          ; [debug line = 8:15@17:2]

; <label>:1                                       ; preds = %2, %0
  %i_i = phi i9 [ 0, %0 ], [ %i_1, %2 ]           ; [#uses=3 type=i9]
  %exitcond_i = icmp eq i9 %i_i, -256, !dbg !127  ; [#uses=1 type=i1] [debug line = 8:15@17:2]
  %empty_6 = call i32 (...)* @_ssdm_op_SpecLoopTripCount(i64 256, i64 256, i64 256) ; [#uses=0 type=i32]
  %i_1 = add i9 %i_i, 1, !dbg !130                ; [#uses=1 type=i9] [debug line = 8:44@17:2]
  br i1 %exitcond_i, label %save_stream.exit, label %2, !dbg !127 ; [debug line = 8:15@17:2]

; <label>:2                                       ; preds = %1
  %tmp_4 = call float @_ssdm_op_Read.ap_fifo.volatile.floatP(float* %stream_i_real_V), !dbg !131 ; [#uses=1 type=float] [debug line = 131:9@9:15@17:2]
  call void @llvm.dbg.value(metadata !{float %tmp_4}, i64 0, metadata !136), !dbg !131 ; [debug line = 131:9@9:15@17:2] [debug variable = tmp]
  %tmp_1_i = zext i9 %i_i to i64, !dbg !134       ; [#uses=2 type=i64] [debug line = 9:15@17:2]
  %real_i_addr_1 = getelementptr inbounds [256 x float]* @real_i, i64 0, i64 %tmp_1_i, !dbg !134 ; [#uses=1 type=float*] [debug line = 9:15@17:2]
  store float %tmp_4, float* %real_i_addr_1, align 4, !dbg !134 ; [debug line = 9:15@17:2]
  %tmp_11 = call float @_ssdm_op_Read.ap_fifo.volatile.floatP(float* %stream_i_imag_V), !dbg !137 ; [#uses=1 type=float] [debug line = 131:9@10:15@17:2]
  call void @llvm.dbg.value(metadata !{float %tmp_11}, i64 0, metadata !136), !dbg !137 ; [debug line = 131:9@10:15@17:2] [debug variable = tmp]
  %imag_i_addr_1 = getelementptr inbounds [256 x float]* @imag_i, i64 0, i64 %tmp_1_i, !dbg !138 ; [#uses=1 type=float*] [debug line = 10:15@17:2]
  store float %tmp_11, float* %imag_i_addr_1, align 4, !dbg !138 ; [debug line = 10:15@17:2]
  call void @llvm.dbg.value(metadata !{i9 %i_1}, i64 0, metadata !139), !dbg !130 ; [debug line = 8:44@17:2] [debug variable = i]
  br label %1, !dbg !130                          ; [debug line = 8:44@17:2]

save_stream.exit:                                 ; preds = %4, %1
  %i = phi i9 [ %i_2, %4 ], [ 0, %1 ]             ; [#uses=3 type=i9]
  %tmp = trunc i9 %i to i8, !dbg !141             ; [#uses=1 type=i8] [debug line = 26:43]
  %exitcond5 = icmp eq i9 %i, -256, !dbg !146     ; [#uses=1 type=i1] [debug line = 19:15]
  %empty_7 = call i32 (...)* @_ssdm_op_SpecLoopTripCount(i64 256, i64 256, i64 256) ; [#uses=0 type=i32]
  %i_2 = add i9 1, %i, !dbg !147                  ; [#uses=1 type=i9] [debug line = 19:44]
  br i1 %exitcond5, label %5, label %.preheader, !dbg !146 ; [debug line = 19:15]

.preheader:                                       ; preds = %3, %save_stream.exit
  %tmp_5 = phi float [ %imag_tmp, %3 ], [ 0.000000e+00, %save_stream.exit ] ; [#uses=2 type=float]
  %tmp_3 = phi float [ %real_tmp, %3 ], [ 0.000000e+00, %save_stream.exit ] ; [#uses=2 type=float]
  %j = phi i9 [ %j_1, %3 ], [ 0, %save_stream.exit ] ; [#uses=4 type=i9]
  %tmp_12 = trunc i9 %j to i8, !dbg !141          ; [#uses=1 type=i8] [debug line = 26:43]
  %exitcond = icmp eq i9 %j, -256, !dbg !148      ; [#uses=1 type=i1] [debug line = 25:16]
  %empty_8 = call i32 (...)* @_ssdm_op_SpecLoopTripCount(i64 256, i64 256, i64 256) ; [#uses=0 type=i32]
  %j_1 = add i9 1, %j, !dbg !149                  ; [#uses=1 type=i9] [debug line = 25:45]
  br i1 %exitcond, label %4, label %3, !dbg !148  ; [debug line = 25:16]

; <label>:3                                       ; preds = %.preheader
  %index = mul i8 %tmp, %tmp_12, !dbg !141        ; [#uses=1 type=i8] [debug line = 26:43]
  call void @llvm.dbg.value(metadata !{i8 %index}, i64 0, metadata !150), !dbg !141 ; [debug line = 26:43] [debug variable = index]
  %tmp_9 = zext i9 %j to i64, !dbg !151           ; [#uses=2 type=i64] [debug line = 28:4]
  %real_i_addr = getelementptr inbounds [256 x float]* @real_i, i64 0, i64 %tmp_9, !dbg !151 ; [#uses=1 type=float*] [debug line = 28:4]
  %real_i_load = load float* %real_i_addr, align 4, !dbg !151 ; [#uses=2 type=float] [debug line = 28:4]
  %tmp_s = zext i8 %index to i64, !dbg !151       ; [#uses=2 type=i64] [debug line = 28:4]
  %cct_addr = getelementptr inbounds [256 x float]* @cct, i64 0, i64 %tmp_s, !dbg !151 ; [#uses=1 type=float*] [debug line = 28:4]
  %cct_load = load float* %cct_addr, align 4, !dbg !151 ; [#uses=2 type=float] [debug line = 28:4]
  %tmp_1 = fmul float %real_i_load, %cct_load, !dbg !151 ; [#uses=1 type=float] [debug line = 28:4]
  %imag_i_addr = getelementptr inbounds [256 x float]* @imag_i, i64 0, i64 %tmp_9, !dbg !151 ; [#uses=1 type=float*] [debug line = 28:4]
  %imag_i_load = load float* %imag_i_addr, align 4, !dbg !151 ; [#uses=2 type=float] [debug line = 28:4]
  %sct_addr = getelementptr inbounds [256 x float]* @sct, i64 0, i64 %tmp_s, !dbg !151 ; [#uses=1 type=float*] [debug line = 28:4]
  %sct_load = load float* %sct_addr, align 4, !dbg !151 ; [#uses=2 type=float] [debug line = 28:4]
  %tmp_2 = fmul float %imag_i_load, %sct_load, !dbg !151 ; [#uses=1 type=float] [debug line = 28:4]
  %tmp_6 = fsub float %tmp_1, %tmp_2, !dbg !151   ; [#uses=1 type=float] [debug line = 28:4]
  %real_tmp = fadd float %tmp_3, %tmp_6, !dbg !151 ; [#uses=1 type=float] [debug line = 28:4]
  call void @llvm.dbg.value(metadata !{float %real_tmp}, i64 0, metadata !152), !dbg !151 ; [debug line = 28:4] [debug variable = real_tmp]
  %tmp_7 = fmul float %real_i_load, %sct_load, !dbg !153 ; [#uses=1 type=float] [debug line = 29:4]
  %tmp_8 = fmul float %imag_i_load, %cct_load, !dbg !153 ; [#uses=1 type=float] [debug line = 29:4]
  %tmp_10 = fadd float %tmp_7, %tmp_8, !dbg !153  ; [#uses=1 type=float] [debug line = 29:4]
  %imag_tmp = fadd float %tmp_5, %tmp_10, !dbg !153 ; [#uses=1 type=float] [debug line = 29:4]
  call void @llvm.dbg.value(metadata !{float %imag_tmp}, i64 0, metadata !154), !dbg !153 ; [debug line = 29:4] [debug variable = imag_tmp]
  call void @llvm.dbg.value(metadata !{i9 %j_1}, i64 0, metadata !155), !dbg !149 ; [debug line = 25:45] [debug variable = j]
  br label %.preheader, !dbg !149                 ; [debug line = 25:45]

; <label>:4                                       ; preds = %.preheader
  call void @llvm.dbg.value(metadata !{float %tmp_3}, i64 0, metadata !156), !dbg !159 ; [debug line = 145:31@32:3] [debug variable = tmp]
  call void @_ssdm_op_Write.ap_fifo.volatile.floatP(float* %stream_o_real_V, float %tmp_3), !dbg !161 ; [debug line = 146:9@32:3]
  call void @llvm.dbg.value(metadata !{float %tmp_5}, i64 0, metadata !156), !dbg !162 ; [debug line = 145:31@33:3] [debug variable = tmp]
  call void @_ssdm_op_Write.ap_fifo.volatile.floatP(float* %stream_o_imag_V, float %tmp_5), !dbg !164 ; [debug line = 146:9@33:3]
  call void @llvm.dbg.value(metadata !{i9 %i_2}, i64 0, metadata !165), !dbg !147 ; [debug line = 19:44] [debug variable = i]
  br label %save_stream.exit, !dbg !147           ; [debug line = 19:44]

; <label>:5                                       ; preds = %save_stream.exit
  ret void, !dbg !166                             ; [debug line = 36:1]
}

; [#uses=2]
define weak void @_ssdm_op_Write.ap_fifo.volatile.floatP(float*, float) {
entry:
  %empty = call float @_autotb_FifoWrite_float(float* %0, float %1) ; [#uses=0 type=float]
  ret void
}

; [#uses=1]
define weak void @_ssdm_op_SpecTopModule(...) {
entry:
  ret void
}

; [#uses=3]
define weak i32 @_ssdm_op_SpecLoopTripCount(...) {
entry:
  ret i32 0
}

; [#uses=4]
define weak i32 @_ssdm_op_SpecInterface(...) {
entry:
  ret i32 0
}

; [#uses=4]
define weak void @_ssdm_op_SpecBitsMap(...) {
entry:
  ret void
}

; [#uses=2]
define weak float @_ssdm_op_Read.ap_fifo.volatile.floatP(float*) {
entry:
  %empty = call float @_autotb_FifoRead_float(float* %0) ; [#uses=1 type=float]
  ret float %empty
}

; [#uses=0]
declare i8 @_ssdm_op_PartSelect.i8.i9.i32.i32(i9, i32, i32) nounwind readnone

; [#uses=0]
declare i16 @_ssdm_op_HSub(...)

; [#uses=0]
declare i16 @_ssdm_op_HMul(...)

; [#uses=0]
declare i16 @_ssdm_op_HDiv(...)

; [#uses=0]
declare i16 @_ssdm_op_HAdd(...)

; [#uses=1]
declare float @_autotb_FifoWrite_float(float*, float)

; [#uses=1]
declare float @_autotb_FifoRead_float(float*)

; [#uses=1]
declare void @_GLOBAL__I_a() nounwind

!hls.encrypted.func = !{}
!llvm.map.gv = !{!0, !7, !14}

!0 = metadata !{metadata !1, [256 x float]* @real_i}
!1 = metadata !{metadata !2}
!2 = metadata !{i32 0, i32 31, metadata !3}
!3 = metadata !{metadata !4}
!4 = metadata !{metadata !"real_i", metadata !5, metadata !"float", i32 0, i32 31}
!5 = metadata !{metadata !6}
!6 = metadata !{i32 0, i32 255, i32 1}
!7 = metadata !{metadata !8, [1 x i32]* @llvm_global_ctors_0}
!8 = metadata !{metadata !9}
!9 = metadata !{i32 0, i32 31, metadata !10}
!10 = metadata !{metadata !11}
!11 = metadata !{metadata !"llvm.global_ctors.0", metadata !12, metadata !"", i32 0, i32 31}
!12 = metadata !{metadata !13}
!13 = metadata !{i32 0, i32 0, i32 1}
!14 = metadata !{metadata !15, [256 x float]* @imag_i}
!15 = metadata !{metadata !16}
!16 = metadata !{i32 0, i32 31, metadata !17}
!17 = metadata !{metadata !18}
!18 = metadata !{metadata !"imag_i", metadata !5, metadata !"float", i32 0, i32 31}
!19 = metadata !{metadata !20}
!20 = metadata !{i32 0, i32 31, metadata !21}
!21 = metadata !{metadata !22}
!22 = metadata !{metadata !"stream_i.real.V", metadata !12, metadata !"float", i32 0, i32 31}
!23 = metadata !{metadata !24}
!24 = metadata !{i32 0, i32 31, metadata !25}
!25 = metadata !{metadata !26}
!26 = metadata !{metadata !"stream_i.imag.V", metadata !12, metadata !"float", i32 0, i32 31}
!27 = metadata !{metadata !28}
!28 = metadata !{i32 0, i32 31, metadata !29}
!29 = metadata !{metadata !30}
!30 = metadata !{metadata !"stream_o.real.V", metadata !12, metadata !"float", i32 0, i32 31}
!31 = metadata !{metadata !32}
!32 = metadata !{i32 0, i32 31, metadata !33}
!33 = metadata !{metadata !34}
!34 = metadata !{metadata !"stream_o.imag.V", metadata !12, metadata !"float", i32 0, i32 31}
!35 = metadata !{i32 790531, metadata !36, metadata !"stream_i.real.V", null, i32 14, metadata !107, i32 0, i32 0} ; [ DW_TAG_arg_variable_field ]
!36 = metadata !{i32 786689, metadata !37, metadata !"stream_i", metadata !38, i32 16777230, metadata !41, i32 0, i32 0} ; [ DW_TAG_arg_variable ]
!37 = metadata !{i32 786478, i32 0, metadata !38, metadata !"dft", metadata !"dft", metadata !"_Z3dftR5DTYPES0_", metadata !38, i32 14, metadata !39, i1 false, i1 true, i32 0, i32 0, null, i32 256, i1 false, null, null, null, metadata !57, i32 15} ; [ DW_TAG_subprogram ]
!38 = metadata !{i32 786473, metadata !"dft.cpp", metadata !"d:/Projects/vivado/project_3/dft_256_precomputed", null} ; [ DW_TAG_file_type ]
!39 = metadata !{i32 786453, i32 0, metadata !"", i32 0, i32 0, i64 0, i64 0, i64 0, i32 0, null, metadata !40, i32 0, i32 0} ; [ DW_TAG_subroutine_type ]
!40 = metadata !{null, metadata !41, metadata !41}
!41 = metadata !{i32 786448, null, null, null, i32 0, i64 0, i64 0, i64 0, i32 0, metadata !42} ; [ DW_TAG_reference_type ]
!42 = metadata !{i32 786454, null, metadata !"DTYPE", metadata !38, i32 13, i64 0, i64 0, i64 0, i32 0, metadata !43} ; [ DW_TAG_typedef ]
!43 = metadata !{i32 786434, null, metadata !"", metadata !44, i32 10, i64 64, i64 32, i32 0, i32 0, null, metadata !45, i32 0, null, null} ; [ DW_TAG_class_type ]
!44 = metadata !{i32 786473, metadata !"./dft.h", metadata !"d:/Projects/vivado/project_3/dft_256_precomputed", null} ; [ DW_TAG_file_type ]
!45 = metadata !{metadata !46, metadata !106}
!46 = metadata !{i32 786445, metadata !43, metadata !"real", metadata !44, i32 11, i64 32, i64 32, i64 0, i32 0, metadata !47} ; [ DW_TAG_member ]
!47 = metadata !{i32 786434, metadata !48, metadata !"stream<float>", metadata !49, i32 79, i64 32, i64 32, i32 0, i32 0, null, metadata !50, i32 0, null, metadata !104} ; [ DW_TAG_class_type ]
!48 = metadata !{i32 786489, null, metadata !"hls", metadata !49, i32 69} ; [ DW_TAG_namespace ]
!49 = metadata !{i32 786473, metadata !"D:/Xilinx/Vivado_HLS/2015.4/common/technology/autopilot\5Chls_stream.h", metadata !"d:/Projects/vivado/project_3/dft_256_precomputed", null} ; [ DW_TAG_file_type ]
!50 = metadata !{metadata !51, metadata !53, metadata !59, metadata !65, metadata !70, metadata !74, metadata !78, metadata !83, metadata !88, metadata !89, metadata !90, metadata !93, metadata !96, metadata !97, metadata !100}
!51 = metadata !{i32 786445, metadata !47, metadata !"V", metadata !49, i32 163, i64 32, i64 32, i64 0, i32 1, metadata !52} ; [ DW_TAG_member ]
!52 = metadata !{i32 786468, null, metadata !"float", null, i32 0, i64 32, i64 32, i64 0, i32 0, i32 4} ; [ DW_TAG_base_type ]
!53 = metadata !{i32 786478, i32 0, metadata !47, metadata !"stream", metadata !"stream", metadata !"", metadata !49, i32 83, metadata !54, i1 false, i1 false, i32 0, i32 0, null, i32 256, i1 false, null, null, i32 0, metadata !57, i32 83} ; [ DW_TAG_subprogram ]
!54 = metadata !{i32 786453, i32 0, metadata !"", i32 0, i32 0, i64 0, i64 0, i64 0, i32 0, null, metadata !55, i32 0, i32 0} ; [ DW_TAG_subroutine_type ]
!55 = metadata !{null, metadata !56}
!56 = metadata !{i32 786447, i32 0, metadata !"", i32 0, i32 0, i64 64, i64 64, i64 0, i32 64, metadata !47} ; [ DW_TAG_pointer_type ]
!57 = metadata !{metadata !58}
!58 = metadata !{i32 786468}                      ; [ DW_TAG_base_type ]
!59 = metadata !{i32 786478, i32 0, metadata !47, metadata !"stream", metadata !"stream", metadata !"", metadata !49, i32 86, metadata !60, i1 false, i1 false, i32 0, i32 0, null, i32 256, i1 false, null, null, i32 0, metadata !57, i32 86} ; [ DW_TAG_subprogram ]
!60 = metadata !{i32 786453, i32 0, metadata !"", i32 0, i32 0, i64 0, i64 0, i64 0, i32 0, null, metadata !61, i32 0, i32 0} ; [ DW_TAG_subroutine_type ]
!61 = metadata !{null, metadata !56, metadata !62}
!62 = metadata !{i32 786447, null, metadata !"", null, i32 0, i64 64, i64 64, i64 0, i32 0, metadata !63} ; [ DW_TAG_pointer_type ]
!63 = metadata !{i32 786470, null, metadata !"", null, i32 0, i64 0, i64 0, i64 0, i32 0, metadata !64} ; [ DW_TAG_const_type ]
!64 = metadata !{i32 786468, null, metadata !"char", null, i32 0, i64 8, i64 8, i64 0, i32 0, i32 6} ; [ DW_TAG_base_type ]
!65 = metadata !{i32 786478, i32 0, metadata !47, metadata !"stream", metadata !"stream", metadata !"", metadata !49, i32 91, metadata !66, i1 false, i1 false, i32 0, i32 0, null, i32 257, i1 false, null, null, i32 0, metadata !57, i32 91} ; [ DW_TAG_subprogram ]
!66 = metadata !{i32 786453, i32 0, metadata !"", i32 0, i32 0, i64 0, i64 0, i64 0, i32 0, null, metadata !67, i32 0, i32 0} ; [ DW_TAG_subroutine_type ]
!67 = metadata !{null, metadata !56, metadata !68}
!68 = metadata !{i32 786448, null, null, null, i32 0, i64 0, i64 0, i64 0, i32 0, metadata !69} ; [ DW_TAG_reference_type ]
!69 = metadata !{i32 786470, null, metadata !"", null, i32 0, i64 0, i64 0, i64 0, i32 0, metadata !47} ; [ DW_TAG_const_type ]
!70 = metadata !{i32 786478, i32 0, metadata !47, metadata !"operator=", metadata !"operator=", metadata !"_ZN3hls6streamIfEaSERKS1_", metadata !49, i32 94, metadata !71, i1 false, i1 false, i32 0, i32 0, null, i32 257, i1 false, null, null, i32 0, metadata !57, i32 94} ; [ DW_TAG_subprogram ]
!71 = metadata !{i32 786453, i32 0, metadata !"", i32 0, i32 0, i64 0, i64 0, i64 0, i32 0, null, metadata !72, i32 0, i32 0} ; [ DW_TAG_subroutine_type ]
!72 = metadata !{metadata !73, metadata !56, metadata !68}
!73 = metadata !{i32 786448, null, null, null, i32 0, i64 0, i64 0, i64 0, i32 0, metadata !47} ; [ DW_TAG_reference_type ]
!74 = metadata !{i32 786478, i32 0, metadata !47, metadata !"operator>>", metadata !"operator>>", metadata !"_ZN3hls6streamIfErsERf", metadata !49, i32 101, metadata !75, i1 false, i1 false, i32 0, i32 0, null, i32 256, i1 false, null, null, i32 0, metadata !57, i32 101} ; [ DW_TAG_subprogram ]
!75 = metadata !{i32 786453, i32 0, metadata !"", i32 0, i32 0, i64 0, i64 0, i64 0, i32 0, null, metadata !76, i32 0, i32 0} ; [ DW_TAG_subroutine_type ]
!76 = metadata !{null, metadata !56, metadata !77}
!77 = metadata !{i32 786448, null, null, null, i32 0, i64 0, i64 0, i64 0, i32 0, metadata !52} ; [ DW_TAG_reference_type ]
!78 = metadata !{i32 786478, i32 0, metadata !47, metadata !"operator<<", metadata !"operator<<", metadata !"_ZN3hls6streamIfElsERKf", metadata !49, i32 105, metadata !79, i1 false, i1 false, i32 0, i32 0, null, i32 256, i1 false, null, null, i32 0, metadata !57, i32 105} ; [ DW_TAG_subprogram ]
!79 = metadata !{i32 786453, i32 0, metadata !"", i32 0, i32 0, i64 0, i64 0, i64 0, i32 0, null, metadata !80, i32 0, i32 0} ; [ DW_TAG_subroutine_type ]
!80 = metadata !{null, metadata !56, metadata !81}
!81 = metadata !{i32 786448, null, null, null, i32 0, i64 0, i64 0, i64 0, i32 0, metadata !82} ; [ DW_TAG_reference_type ]
!82 = metadata !{i32 786470, null, metadata !"", null, i32 0, i64 0, i64 0, i64 0, i32 0, metadata !52} ; [ DW_TAG_const_type ]
!83 = metadata !{i32 786478, i32 0, metadata !47, metadata !"empty", metadata !"empty", metadata !"_ZNK3hls6streamIfE5emptyEv", metadata !49, i32 112, metadata !84, i1 false, i1 false, i32 0, i32 0, null, i32 256, i1 false, null, null, i32 0, metadata !57, i32 112} ; [ DW_TAG_subprogram ]
!84 = metadata !{i32 786453, i32 0, metadata !"", i32 0, i32 0, i64 0, i64 0, i64 0, i32 0, null, metadata !85, i32 0, i32 0} ; [ DW_TAG_subroutine_type ]
!85 = metadata !{metadata !86, metadata !87}
!86 = metadata !{i32 786468, null, metadata !"bool", null, i32 0, i64 8, i64 8, i64 0, i32 0, i32 2} ; [ DW_TAG_base_type ]
!87 = metadata !{i32 786447, i32 0, metadata !"", i32 0, i32 0, i64 64, i64 64, i64 0, i32 64, metadata !69} ; [ DW_TAG_pointer_type ]
!88 = metadata !{i32 786478, i32 0, metadata !47, metadata !"full", metadata !"full", metadata !"_ZNK3hls6streamIfE4fullEv", metadata !49, i32 117, metadata !84, i1 false, i1 false, i32 0, i32 0, null, i32 256, i1 false, null, null, i32 0, metadata !57, i32 117} ; [ DW_TAG_subprogram ]
!89 = metadata !{i32 786478, i32 0, metadata !47, metadata !"read", metadata !"read", metadata !"_ZN3hls6streamIfE4readERf", metadata !49, i32 123, metadata !75, i1 false, i1 false, i32 0, i32 0, null, i32 256, i1 false, null, null, i32 0, metadata !57, i32 123} ; [ DW_TAG_subprogram ]
!90 = metadata !{i32 786478, i32 0, metadata !47, metadata !"read", metadata !"read", metadata !"_ZN3hls6streamIfE4readEv", metadata !49, i32 129, metadata !91, i1 false, i1 false, i32 0, i32 0, null, i32 256, i1 false, null, null, i32 0, metadata !57, i32 129} ; [ DW_TAG_subprogram ]
!91 = metadata !{i32 786453, i32 0, metadata !"", i32 0, i32 0, i64 0, i64 0, i64 0, i32 0, null, metadata !92, i32 0, i32 0} ; [ DW_TAG_subroutine_type ]
!92 = metadata !{metadata !52, metadata !56}
!93 = metadata !{i32 786478, i32 0, metadata !47, metadata !"read_nb", metadata !"read_nb", metadata !"_ZN3hls6streamIfE7read_nbERf", metadata !49, i32 136, metadata !94, i1 false, i1 false, i32 0, i32 0, null, i32 256, i1 false, null, null, i32 0, metadata !57, i32 136} ; [ DW_TAG_subprogram ]
!94 = metadata !{i32 786453, i32 0, metadata !"", i32 0, i32 0, i64 0, i64 0, i64 0, i32 0, null, metadata !95, i32 0, i32 0} ; [ DW_TAG_subroutine_type ]
!95 = metadata !{metadata !86, metadata !56, metadata !77}
!96 = metadata !{i32 786478, i32 0, metadata !47, metadata !"write", metadata !"write", metadata !"_ZN3hls6streamIfE5writeERKf", metadata !49, i32 144, metadata !79, i1 false, i1 false, i32 0, i32 0, null, i32 256, i1 false, null, null, i32 0, metadata !57, i32 144} ; [ DW_TAG_subprogram ]
!97 = metadata !{i32 786478, i32 0, metadata !47, metadata !"write_nb", metadata !"write_nb", metadata !"_ZN3hls6streamIfE8write_nbERKf", metadata !49, i32 150, metadata !98, i1 false, i1 false, i32 0, i32 0, null, i32 256, i1 false, null, null, i32 0, metadata !57, i32 150} ; [ DW_TAG_subprogram ]
!98 = metadata !{i32 786453, i32 0, metadata !"", i32 0, i32 0, i64 0, i64 0, i64 0, i32 0, null, metadata !99, i32 0, i32 0} ; [ DW_TAG_subroutine_type ]
!99 = metadata !{metadata !86, metadata !56, metadata !81}
!100 = metadata !{i32 786478, i32 0, metadata !47, metadata !"size", metadata !"size", metadata !"_ZN3hls6streamIfE4sizeEv", metadata !49, i32 157, metadata !101, i1 false, i1 false, i32 0, i32 0, null, i32 256, i1 false, null, null, i32 0, metadata !57, i32 157} ; [ DW_TAG_subprogram ]
!101 = metadata !{i32 786453, i32 0, metadata !"", i32 0, i32 0, i64 0, i64 0, i64 0, i32 0, null, metadata !102, i32 0, i32 0} ; [ DW_TAG_subroutine_type ]
!102 = metadata !{metadata !103, metadata !56}
!103 = metadata !{i32 786468, null, metadata !"unsigned int", null, i32 0, i64 32, i64 32, i64 0, i32 0, i32 7} ; [ DW_TAG_base_type ]
!104 = metadata !{metadata !105}
!105 = metadata !{i32 786479, null, metadata !"__STREAM_T__", metadata !52, null, i32 0, i32 0} ; [ DW_TAG_template_type_parameter ]
!106 = metadata !{i32 786445, metadata !43, metadata !"imag", metadata !44, i32 12, i64 32, i64 32, i64 32, i32 0, metadata !47} ; [ DW_TAG_member ]
!107 = metadata !{i32 786447, null, metadata !"", null, i32 0, i64 0, i64 0, i64 0, i32 0, metadata !108} ; [ DW_TAG_pointer_type ]
!108 = metadata !{i32 786438, null, metadata !"", metadata !44, i32 10, i64 32, i64 32, i32 0, i32 0, null, metadata !109, i32 0, null, null} ; [ DW_TAG_class_field_type ]
!109 = metadata !{metadata !110}
!110 = metadata !{i32 786438, metadata !48, metadata !"stream<float>", metadata !49, i32 79, i64 32, i64 32, i32 0, i32 0, null, metadata !111, i32 0, null, metadata !104} ; [ DW_TAG_class_field_type ]
!111 = metadata !{metadata !51}
!112 = metadata !{i32 14, i32 17, metadata !37, null}
!113 = metadata !{i32 790531, metadata !36, metadata !"stream_i.imag.V", null, i32 14, metadata !107, i32 0, i32 0} ; [ DW_TAG_arg_variable_field ]
!114 = metadata !{i32 790531, metadata !115, metadata !"stream_o.real.V", null, i32 14, metadata !107, i32 0, i32 0} ; [ DW_TAG_arg_variable_field ]
!115 = metadata !{i32 786689, metadata !37, metadata !"stream_o", metadata !38, i32 33554446, metadata !41, i32 0, i32 0} ; [ DW_TAG_arg_variable ]
!116 = metadata !{i32 14, i32 34, metadata !37, null}
!117 = metadata !{i32 790531, metadata !115, metadata !"stream_o.imag.V", null, i32 14, metadata !107, i32 0, i32 0} ; [ DW_TAG_arg_variable_field ]
!118 = metadata !{i32 790531, metadata !119, metadata !"stream.real.V", null, i32 7, metadata !107, i32 0, metadata !123} ; [ DW_TAG_arg_variable_field ]
!119 = metadata !{i32 786689, metadata !120, metadata !"stream", metadata !38, i32 16777223, metadata !41, i32 0, i32 0} ; [ DW_TAG_arg_variable ]
!120 = metadata !{i32 786478, i32 0, metadata !38, metadata !"save_stream", metadata !"save_stream", metadata !"_Z11save_streamR5DTYPE", metadata !38, i32 7, metadata !121, i1 false, i1 true, i32 0, i32 0, null, i32 256, i1 false, null, null, null, metadata !57, i32 7} ; [ DW_TAG_subprogram ]
!121 = metadata !{i32 786453, i32 0, metadata !"", i32 0, i32 0, i64 0, i64 0, i64 0, i32 0, null, metadata !122, i32 0, i32 0} ; [ DW_TAG_subroutine_type ]
!122 = metadata !{null, metadata !41}
!123 = metadata !{i32 17, i32 2, metadata !124, null}
!124 = metadata !{i32 786443, metadata !37, i32 15, i32 1, metadata !38, i32 3} ; [ DW_TAG_lexical_block ]
!125 = metadata !{i32 7, i32 25, metadata !120, metadata !123}
!126 = metadata !{i32 790531, metadata !119, metadata !"stream.imag.V", null, i32 7, metadata !107, i32 0, metadata !123} ; [ DW_TAG_arg_variable_field ]
!127 = metadata !{i32 8, i32 15, metadata !128, metadata !123}
!128 = metadata !{i32 786443, metadata !129, i32 8, i32 2, metadata !38, i32 1} ; [ DW_TAG_lexical_block ]
!129 = metadata !{i32 786443, metadata !120, i32 7, i32 33, metadata !38, i32 0} ; [ DW_TAG_lexical_block ]
!130 = metadata !{i32 8, i32 44, metadata !128, metadata !123}
!131 = metadata !{i32 131, i32 9, metadata !132, metadata !134}
!132 = metadata !{i32 786443, metadata !133, i32 129, i32 63, metadata !49, i32 9} ; [ DW_TAG_lexical_block ]
!133 = metadata !{i32 786478, i32 0, metadata !48, metadata !"read", metadata !"read", metadata !"_ZN3hls6streamIfE4readEv", metadata !49, i32 129, metadata !91, i1 false, i1 true, i32 0, i32 0, null, i32 256, i1 false, null, null, metadata !90, metadata !57, i32 129} ; [ DW_TAG_subprogram ]
!134 = metadata !{i32 9, i32 15, metadata !135, metadata !123}
!135 = metadata !{i32 786443, metadata !128, i32 8, i32 49, metadata !38, i32 2} ; [ DW_TAG_lexical_block ]
!136 = metadata !{i32 786688, metadata !132, metadata !"tmp", metadata !49, i32 130, metadata !52, i32 0, i32 0} ; [ DW_TAG_auto_variable ]
!137 = metadata !{i32 131, i32 9, metadata !132, metadata !138}
!138 = metadata !{i32 10, i32 15, metadata !135, metadata !123}
!139 = metadata !{i32 786688, metadata !128, metadata !"i", metadata !38, i32 8, metadata !140, i32 0, metadata !123} ; [ DW_TAG_auto_variable ]
!140 = metadata !{i32 786468, null, metadata !"int", null, i32 0, i64 32, i64 32, i64 0, i32 0, i32 5} ; [ DW_TAG_base_type ]
!141 = metadata !{i32 26, i32 43, metadata !142, null}
!142 = metadata !{i32 786443, metadata !143, i32 25, i32 50, metadata !38, i32 7} ; [ DW_TAG_lexical_block ]
!143 = metadata !{i32 786443, metadata !144, i32 25, i32 3, metadata !38, i32 6} ; [ DW_TAG_lexical_block ]
!144 = metadata !{i32 786443, metadata !145, i32 19, i32 49, metadata !38, i32 5} ; [ DW_TAG_lexical_block ]
!145 = metadata !{i32 786443, metadata !124, i32 19, i32 2, metadata !38, i32 4} ; [ DW_TAG_lexical_block ]
!146 = metadata !{i32 19, i32 15, metadata !145, null}
!147 = metadata !{i32 19, i32 44, metadata !145, null}
!148 = metadata !{i32 25, i32 16, metadata !143, null}
!149 = metadata !{i32 25, i32 45, metadata !143, null}
!150 = metadata !{i32 786688, metadata !142, metadata !"index", metadata !38, i32 26, metadata !140, i32 0, i32 0} ; [ DW_TAG_auto_variable ]
!151 = metadata !{i32 28, i32 4, metadata !142, null}
!152 = metadata !{i32 786688, metadata !144, metadata !"real_tmp", metadata !38, i32 20, metadata !52, i32 0, i32 0} ; [ DW_TAG_auto_variable ]
!153 = metadata !{i32 29, i32 4, metadata !142, null}
!154 = metadata !{i32 786688, metadata !144, metadata !"imag_tmp", metadata !38, i32 21, metadata !52, i32 0, i32 0} ; [ DW_TAG_auto_variable ]
!155 = metadata !{i32 786688, metadata !143, metadata !"j", metadata !38, i32 25, metadata !140, i32 0, i32 0} ; [ DW_TAG_auto_variable ]
!156 = metadata !{i32 786688, metadata !157, metadata !"tmp", metadata !49, i32 145, metadata !52, i32 0, i32 0} ; [ DW_TAG_auto_variable ]
!157 = metadata !{i32 786443, metadata !158, i32 144, i32 79, metadata !49, i32 8} ; [ DW_TAG_lexical_block ]
!158 = metadata !{i32 786478, i32 0, metadata !48, metadata !"write", metadata !"write", metadata !"_ZN3hls6streamIfE5writeERKf", metadata !49, i32 144, metadata !79, i1 false, i1 true, i32 0, i32 0, null, i32 256, i1 false, null, null, metadata !96, metadata !57, i32 144} ; [ DW_TAG_subprogram ]
!159 = metadata !{i32 145, i32 31, metadata !157, metadata !160}
!160 = metadata !{i32 32, i32 3, metadata !144, null}
!161 = metadata !{i32 146, i32 9, metadata !157, metadata !160}
!162 = metadata !{i32 145, i32 31, metadata !157, metadata !163}
!163 = metadata !{i32 33, i32 3, metadata !144, null}
!164 = metadata !{i32 146, i32 9, metadata !157, metadata !163}
!165 = metadata !{i32 786688, metadata !145, metadata !"i", metadata !38, i32 19, metadata !140, i32 0, i32 0} ; [ DW_TAG_auto_variable ]
!166 = metadata !{i32 36, i32 1, metadata !124, null}
