

================================================================
== Vivado HLS Report for 'dft'
================================================================
* Date:           Thu Nov 03 12:55:28 2016

* Version:        2015.4 (Build 1412921 on Wed Nov 18 09:58:55 AM 2015)
* Project:        dft
* Solution:       dft256_stream
* Product family: zynq
* Target device:  xc7z020clg484-1


================================================================
== Performance Estimates
================================================================
+ Timing (ns): 
    * Summary: 
    +--------+-------+----------+------------+
    |  Clock | Target| Estimated| Uncertainty|
    +--------+-------+----------+------------+
    |ap_clk  |  10.00|      8.41|        1.25|
    +--------+-------+----------+------------+

+ Latency (clock cycles): 
    * Summary: 
    +---------+---------+---------+---------+---------+
    |      Latency      |      Interval     | Pipeline|
    |   min   |   max   |   min   |   max   |   Type  |
    +---------+---------+---------+---------+---------+
    |  1049346|  1049346|  1049347|  1049347|   none  |
    +---------+---------+---------+---------+---------+

    + Detail: 
        * Instance: 
        N/A

        * Loop: 
        +-------------+---------+---------+----------+-----------+-----------+------+----------+
        |             |      Latency      | Iteration|  Initiation Interval  | Trip |          |
        |  Loop Name  |   min   |   max   |  Latency |  achieved |   target  | Count| Pipelined|
        +-------------+---------+---------+----------+-----------+-----------+------+----------+
        |- Loop 1     |      256|      256|         1|          -|          -|   256|    no    |
        |- Loop 2     |  1049088|  1049088|      4098|          -|          -|   256|    no    |
        | + Loop 2.1  |     4096|     4096|        16|          -|          -|   256|    no    |
        +-------------+---------+---------+----------+-----------+-----------+------+----------+

============================================================
+ Verbose Summary: Synthesis Manager
============================================================
InlineROM: 1
ExposeGlobal: 0
============================================================
+ Verbose Summary: CDFG Model
============================================================
IsTopModel: 1
ResetActiveHigh: 1
IsCombinational: 0
IsDatapathOnly: 0
HasWiredReturn: 1
HasMFsm: 0
HasVarLatency: 1
IsPipeline: 0
IsRtlPipelined: 0
IsInstanceOverlapped: 0
IsDontTouch: 0
HasImplIP: 0
IsGatedGlobalClock: 0


============================================================
+ Verbose Summary: Schedule
============================================================
* Number of FSM states: 19
* Pipeline: 0
* Dataflow Pipeline: 0

* FSM state transitions: 
1 --> 
	2  / true
2 --> 
	3  / (exitcond_i)
	2  / (!exitcond_i)
3 --> 
	4  / (!exitcond5)
4 --> 
	5  / (!exitcond)
	3  / (exitcond)
5 --> 
	6  / true
6 --> 
	7  / true
7 --> 
	8  / true
8 --> 
	9  / true
9 --> 
	10  / true
10 --> 
	11  / true
11 --> 
	12  / true
12 --> 
	13  / true
13 --> 
	14  / true
14 --> 
	15  / true
15 --> 
	16  / true
16 --> 
	17  / true
17 --> 
	18  / true
18 --> 
	19  / true
19 --> 
	4  / true
* FSM state operations: 

 <State 1>: 1.57ns
ST_1: empty [1/1] 0.00ns
:0  %empty = call i32 (...)* @_ssdm_op_SpecInterface(float* %stream_o_imag_V, [8 x i8]* @ap_fifo_str, i32 0, i32 0, i32 0, i32 0, [1 x i8]* @p_str, [1 x i8]* @p_str, [1 x i8]* @p_str, [1 x i8]* @p_str)

ST_1: empty_3 [1/1] 0.00ns
:1  %empty_3 = call i32 (...)* @_ssdm_op_SpecInterface(float* %stream_o_real_V, [8 x i8]* @ap_fifo_str, i32 0, i32 0, i32 0, i32 0, [1 x i8]* @p_str, [1 x i8]* @p_str, [1 x i8]* @p_str, [1 x i8]* @p_str)

ST_1: empty_4 [1/1] 0.00ns
:2  %empty_4 = call i32 (...)* @_ssdm_op_SpecInterface(float* %stream_i_imag_V, [8 x i8]* @ap_fifo_str, i32 0, i32 0, i32 0, i32 0, [1 x i8]* @p_str, [1 x i8]* @p_str, [1 x i8]* @p_str, [1 x i8]* @p_str)

ST_1: empty_5 [1/1] 0.00ns
:3  %empty_5 = call i32 (...)* @_ssdm_op_SpecInterface(float* %stream_i_real_V, [8 x i8]* @ap_fifo_str, i32 0, i32 0, i32 0, i32 0, [1 x i8]* @p_str, [1 x i8]* @p_str, [1 x i8]* @p_str, [1 x i8]* @p_str)

ST_1: stg_24 [1/1] 0.00ns
:4  call void (...)* @_ssdm_op_SpecBitsMap(float* %stream_i_real_V), !map !19

ST_1: stg_25 [1/1] 0.00ns
:5  call void (...)* @_ssdm_op_SpecBitsMap(float* %stream_i_imag_V), !map !23

ST_1: stg_26 [1/1] 0.00ns
:6  call void (...)* @_ssdm_op_SpecBitsMap(float* %stream_o_real_V), !map !27

ST_1: stg_27 [1/1] 0.00ns
:7  call void (...)* @_ssdm_op_SpecBitsMap(float* %stream_o_imag_V), !map !31

ST_1: stg_28 [1/1] 0.00ns
:8  call void (...)* @_ssdm_op_SpecTopModule([4 x i8]* @dft_str) nounwind

ST_1: stg_29 [1/1] 1.57ns
:9  br label %1


 <State 2>: 7.09ns
ST_2: i_i [1/1] 0.00ns
:0  %i_i = phi i9 [ 0, %0 ], [ %i_1, %2 ]

ST_2: exitcond_i [1/1] 2.03ns
:1  %exitcond_i = icmp eq i9 %i_i, -256

ST_2: empty_6 [1/1] 0.00ns
:2  %empty_6 = call i32 (...)* @_ssdm_op_SpecLoopTripCount(i64 256, i64 256, i64 256)

ST_2: i_1 [1/1] 1.84ns
:3  %i_1 = add i9 %i_i, 1

ST_2: stg_34 [1/1] 1.57ns
:4  br i1 %exitcond_i, label %save_stream.exit, label %2

ST_2: tmp_4 [1/1] 4.38ns
:0  %tmp_4 = call float @_ssdm_op_Read.ap_fifo.volatile.floatP(float* %stream_i_real_V)

ST_2: tmp_1_i [1/1] 0.00ns
:1  %tmp_1_i = zext i9 %i_i to i64

ST_2: real_i_addr_1 [1/1] 0.00ns
:2  %real_i_addr_1 = getelementptr inbounds [256 x float]* @real_i, i64 0, i64 %tmp_1_i

ST_2: stg_38 [1/1] 2.71ns
:3  store float %tmp_4, float* %real_i_addr_1, align 4

ST_2: tmp_11 [1/1] 4.38ns
:4  %tmp_11 = call float @_ssdm_op_Read.ap_fifo.volatile.floatP(float* %stream_i_imag_V)

ST_2: imag_i_addr_1 [1/1] 0.00ns
:5  %imag_i_addr_1 = getelementptr inbounds [256 x float]* @imag_i, i64 0, i64 %tmp_1_i

ST_2: stg_41 [1/1] 2.71ns
:6  store float %tmp_11, float* %imag_i_addr_1, align 4

ST_2: stg_42 [1/1] 0.00ns
:7  br label %1


 <State 3>: 3.60ns
ST_3: i [1/1] 0.00ns
save_stream.exit:0  %i = phi i9 [ %i_2, %4 ], [ 0, %1 ]

ST_3: tmp [1/1] 0.00ns
save_stream.exit:1  %tmp = trunc i9 %i to i8

ST_3: exitcond5 [1/1] 2.03ns
save_stream.exit:2  %exitcond5 = icmp eq i9 %i, -256

ST_3: empty_7 [1/1] 0.00ns
save_stream.exit:3  %empty_7 = call i32 (...)* @_ssdm_op_SpecLoopTripCount(i64 256, i64 256, i64 256)

ST_3: i_2 [1/1] 1.84ns
save_stream.exit:4  %i_2 = add i9 1, %i

ST_3: stg_48 [1/1] 1.57ns
save_stream.exit:5  br i1 %exitcond5, label %5, label %.preheader

ST_3: stg_49 [1/1] 0.00ns
:0  ret void


 <State 4>: 6.38ns
ST_4: tmp_5 [1/1] 0.00ns
.preheader:0  %tmp_5 = phi float [ %imag_tmp, %3 ], [ 0.000000e+00, %save_stream.exit ]

ST_4: tmp_3 [1/1] 0.00ns
.preheader:1  %tmp_3 = phi float [ %real_tmp, %3 ], [ 0.000000e+00, %save_stream.exit ]

ST_4: j [1/1] 0.00ns
.preheader:2  %j = phi i9 [ %j_1, %3 ], [ 0, %save_stream.exit ]

ST_4: tmp_12 [1/1] 0.00ns
.preheader:3  %tmp_12 = trunc i9 %j to i8

ST_4: exitcond [1/1] 2.03ns
.preheader:4  %exitcond = icmp eq i9 %j, -256

ST_4: empty_8 [1/1] 0.00ns
.preheader:5  %empty_8 = call i32 (...)* @_ssdm_op_SpecLoopTripCount(i64 256, i64 256, i64 256)

ST_4: j_1 [1/1] 1.84ns
.preheader:6  %j_1 = add i9 1, %j

ST_4: stg_57 [1/1] 0.00ns
.preheader:7  br i1 %exitcond, label %4, label %3

ST_4: index [1/1] 6.38ns
:0  %index = mul i8 %tmp, %tmp_12

ST_4: stg_59 [1/1] 4.38ns
:0  call void @_ssdm_op_Write.ap_fifo.volatile.floatP(float* %stream_o_real_V, float %tmp_3)

ST_4: stg_60 [1/1] 4.38ns
:1  call void @_ssdm_op_Write.ap_fifo.volatile.floatP(float* %stream_o_imag_V, float %tmp_5)

ST_4: stg_61 [1/1] 0.00ns
:2  br label %save_stream.exit


 <State 5>: 2.71ns
ST_5: tmp_9 [1/1] 0.00ns
:1  %tmp_9 = zext i9 %j to i64

ST_5: real_i_addr [1/1] 0.00ns
:2  %real_i_addr = getelementptr inbounds [256 x float]* @real_i, i64 0, i64 %tmp_9

ST_5: real_i_load [2/2] 2.71ns
:3  %real_i_load = load float* %real_i_addr, align 4

ST_5: tmp_s [1/1] 0.00ns
:4  %tmp_s = zext i8 %index to i64

ST_5: cct_addr [1/1] 0.00ns
:5  %cct_addr = getelementptr inbounds [256 x float]* @cct, i64 0, i64 %tmp_s

ST_5: cct_load [2/2] 2.39ns
:6  %cct_load = load float* %cct_addr, align 4

ST_5: imag_i_addr [1/1] 0.00ns
:8  %imag_i_addr = getelementptr inbounds [256 x float]* @imag_i, i64 0, i64 %tmp_9

ST_5: imag_i_load [2/2] 2.71ns
:9  %imag_i_load = load float* %imag_i_addr, align 4

ST_5: sct_addr [1/1] 0.00ns
:10  %sct_addr = getelementptr inbounds [256 x float]* @sct, i64 0, i64 %tmp_s

ST_5: sct_load [2/2] 2.39ns
:11  %sct_load = load float* %sct_addr, align 4


 <State 6>: 8.41ns
ST_6: real_i_load [1/2] 2.71ns
:3  %real_i_load = load float* %real_i_addr, align 4

ST_6: cct_load [1/2] 2.39ns
:6  %cct_load = load float* %cct_addr, align 4

ST_6: tmp_1 [4/4] 5.70ns
:7  %tmp_1 = fmul float %real_i_load, %cct_load

ST_6: imag_i_load [1/2] 2.71ns
:9  %imag_i_load = load float* %imag_i_addr, align 4

ST_6: sct_load [1/2] 2.39ns
:11  %sct_load = load float* %sct_addr, align 4

ST_6: tmp_2 [4/4] 5.70ns
:12  %tmp_2 = fmul float %imag_i_load, %sct_load

ST_6: tmp_7 [4/4] 5.70ns
:15  %tmp_7 = fmul float %real_i_load, %sct_load

ST_6: tmp_8 [4/4] 5.70ns
:16  %tmp_8 = fmul float %imag_i_load, %cct_load


 <State 7>: 5.70ns
ST_7: tmp_1 [3/4] 5.70ns
:7  %tmp_1 = fmul float %real_i_load, %cct_load

ST_7: tmp_2 [3/4] 5.70ns
:12  %tmp_2 = fmul float %imag_i_load, %sct_load

ST_7: tmp_7 [3/4] 5.70ns
:15  %tmp_7 = fmul float %real_i_load, %sct_load

ST_7: tmp_8 [3/4] 5.70ns
:16  %tmp_8 = fmul float %imag_i_load, %cct_load


 <State 8>: 5.70ns
ST_8: tmp_1 [2/4] 5.70ns
:7  %tmp_1 = fmul float %real_i_load, %cct_load

ST_8: tmp_2 [2/4] 5.70ns
:12  %tmp_2 = fmul float %imag_i_load, %sct_load

ST_8: tmp_7 [2/4] 5.70ns
:15  %tmp_7 = fmul float %real_i_load, %sct_load

ST_8: tmp_8 [2/4] 5.70ns
:16  %tmp_8 = fmul float %imag_i_load, %cct_load


 <State 9>: 5.70ns
ST_9: tmp_1 [1/4] 5.70ns
:7  %tmp_1 = fmul float %real_i_load, %cct_load

ST_9: tmp_2 [1/4] 5.70ns
:12  %tmp_2 = fmul float %imag_i_load, %sct_load

ST_9: tmp_7 [1/4] 5.70ns
:15  %tmp_7 = fmul float %real_i_load, %sct_load

ST_9: tmp_8 [1/4] 5.70ns
:16  %tmp_8 = fmul float %imag_i_load, %cct_load


 <State 10>: 7.26ns
ST_10: tmp_6 [5/5] 7.26ns
:13  %tmp_6 = fsub float %tmp_1, %tmp_2

ST_10: tmp_10 [5/5] 7.26ns
:17  %tmp_10 = fadd float %tmp_7, %tmp_8


 <State 11>: 7.26ns
ST_11: tmp_6 [4/5] 7.26ns
:13  %tmp_6 = fsub float %tmp_1, %tmp_2

ST_11: tmp_10 [4/5] 7.26ns
:17  %tmp_10 = fadd float %tmp_7, %tmp_8


 <State 12>: 7.26ns
ST_12: tmp_6 [3/5] 7.26ns
:13  %tmp_6 = fsub float %tmp_1, %tmp_2

ST_12: tmp_10 [3/5] 7.26ns
:17  %tmp_10 = fadd float %tmp_7, %tmp_8


 <State 13>: 7.26ns
ST_13: tmp_6 [2/5] 7.26ns
:13  %tmp_6 = fsub float %tmp_1, %tmp_2

ST_13: tmp_10 [2/5] 7.26ns
:17  %tmp_10 = fadd float %tmp_7, %tmp_8


 <State 14>: 7.26ns
ST_14: tmp_6 [1/5] 7.26ns
:13  %tmp_6 = fsub float %tmp_1, %tmp_2

ST_14: tmp_10 [1/5] 7.26ns
:17  %tmp_10 = fadd float %tmp_7, %tmp_8


 <State 15>: 7.26ns
ST_15: real_tmp [5/5] 7.26ns
:14  %real_tmp = fadd float %tmp_3, %tmp_6

ST_15: imag_tmp [5/5] 7.26ns
:18  %imag_tmp = fadd float %tmp_5, %tmp_10


 <State 16>: 7.26ns
ST_16: real_tmp [4/5] 7.26ns
:14  %real_tmp = fadd float %tmp_3, %tmp_6

ST_16: imag_tmp [4/5] 7.26ns
:18  %imag_tmp = fadd float %tmp_5, %tmp_10


 <State 17>: 7.26ns
ST_17: real_tmp [3/5] 7.26ns
:14  %real_tmp = fadd float %tmp_3, %tmp_6

ST_17: imag_tmp [3/5] 7.26ns
:18  %imag_tmp = fadd float %tmp_5, %tmp_10


 <State 18>: 7.26ns
ST_18: real_tmp [2/5] 7.26ns
:14  %real_tmp = fadd float %tmp_3, %tmp_6

ST_18: imag_tmp [2/5] 7.26ns
:18  %imag_tmp = fadd float %tmp_5, %tmp_10


 <State 19>: 7.26ns
ST_19: real_tmp [1/5] 7.26ns
:14  %real_tmp = fadd float %tmp_3, %tmp_6

ST_19: imag_tmp [1/5] 7.26ns
:18  %imag_tmp = fadd float %tmp_5, %tmp_10

ST_19: stg_112 [1/1] 0.00ns
:19  br label %.preheader



============================================================
+ Verbose Summary: Binding
============================================================
N/A
* FSMD analyzer results:
  - Output states:
  - Chain level:
	State 1
	State 2
	State 3
	State 4
	State 5
	State 6
	State 7
	State 8
	State 9
	State 10
	State 11
	State 12
	State 13
	State 14
	State 15
	State 16
	State 17
	State 18
	State 19


============================================================
+ Verbose Summary: Datapath Resource usage 
============================================================
N/A
