

================================================================
== Vivado HLS Report for 'dft_loop_flow4'
================================================================
* Date:           Tue Nov 01 19:34:02 2016

* Version:        2015.4 (Build 1412921 on Wed Nov 18 09:58:55 AM 2015)
* Project:        dft
* Solution:       dft_best4
* Product family: zynq
* Target device:  xc7z020clg484-1


================================================================
== Performance Estimates
================================================================
+ Timing (ns): 
    * Summary: 
    +--------+-------+----------+------------+
    |  Clock | Target| Estimated| Uncertainty|
    +--------+-------+----------+------------+
    |ap_clk  |  10.00|      7.26|        1.25|
    +--------+-------+----------+------------+

+ Latency (clock cycles): 
    * Summary: 
    +-----+-----+-----+-----+---------+
    |  Latency  |  Interval | Pipeline|
    | min | max | min | max |   Type  |
    +-----+-----+-----+-----+---------+
    |   11|   11|   11|   11|   none  |
    +-----+-----+-----+-----+---------+

    + Detail: 
        * Instance: 
        N/A

        * Loop: 
        +----------+-----+-----+----------+-----------+-----------+------+----------+
        |          |  Latency  | Iteration|  Initiation Interval  | Trip |          |
        | Loop Name| min | max |  Latency |  achieved |   target  | Count| Pipelined|
        +----------+-----+-----+----------+-----------+-----------+------+----------+
        |- Loop 1  |    9|    9|         6|          1|          1|     5|    yes   |
        +----------+-----+-----+----------+-----------+-----------+------+----------+



================================================================
== Utilization Estimates
================================================================
* Summary: 
+-----------------+---------+-------+--------+-------+
|       Name      | BRAM_18K| DSP48E|   FF   |  LUT  |
+-----------------+---------+-------+--------+-------+
|DSP              |        -|      -|       -|      -|
|Expression       |        -|      -|       0|    410|
|FIFO             |        -|      -|       -|      -|
|Instance         |        -|      4|     410|    780|
|Memory           |        -|      -|       -|      -|
|Multiplexer      |        -|      -|       -|      9|
|Register         |        -|      -|     146|      2|
+-----------------+---------+-------+--------+-------+
|Total            |        0|      4|     556|   1201|
+-----------------+---------+-------+--------+-------+
|Available        |      280|    220|  106400|  53200|
+-----------------+---------+-------+--------+-------+
|Utilization (%)  |        0|      1|   ~0   |      2|
+-----------------+---------+-------+--------+-------+

+ Detail: 
    * Instance: 
    +---------------------------------------+----------------------------------+---------+-------+-----+-----+
    |                Instance               |              Module              | BRAM_18K| DSP48E|  FF | LUT |
    +---------------------------------------+----------------------------------+---------+-------+-----+-----+
    |dft_fadd_32ns_32ns_32_5_full_dsp_U317  |dft_fadd_32ns_32ns_32_5_full_dsp  |        0|      2|  205|  390|
    |dft_fadd_32ns_32ns_32_5_full_dsp_U318  |dft_fadd_32ns_32ns_32_5_full_dsp  |        0|      2|  205|  390|
    +---------------------------------------+----------------------------------+---------+-------+-----+-----+
    |Total                                  |                                  |        0|      4|  410|  780|
    +---------------------------------------+----------------------------------+---------+-------+-----+-----+

    * DSP48: 
    N/A

    * Memory: 
    N/A

    * FIFO: 
    N/A

    * Expression: 
    +--------------------------------+----------+-------+---+----+------------+------------+
    |          Variable Name         | Operation| DSP48E| FF| LUT| Bitwidth P0| Bitwidth P1|
    +--------------------------------+----------+-------+---+----+------------+------------+
    |i_V_fu_188_p2                   |     +    |      0|  0|   3|           3|           1|
    |j_V_fu_324_p2                   |     +    |      0|  0|   4|           4|           2|
    |imag_arr8_load_1_phi_fu_317_p3  |  Select  |      0|  0|  32|           1|          32|
    |imag_arr8_load_phi_fu_297_p3    |  Select  |      0|  0|  32|           1|          32|
    |real_arr8_load_1_phi_fu_273_p3  |  Select  |      0|  0|  32|           1|          32|
    |real_arr8_load_phi_fu_229_p3    |  Select  |      0|  0|  32|           1|          32|
    |sel_tmp10_fu_284_p3             |  Select  |      0|  0|  32|           1|          32|
    |sel_tmp11_fu_290_p3             |  Select  |      0|  0|  32|           1|          32|
    |sel_tmp12_fu_304_p3             |  Select  |      0|  0|  32|           1|          32|
    |sel_tmp13_fu_310_p3             |  Select  |      0|  0|  32|           1|          32|
    |sel_tmp1_fu_204_p3              |  Select  |      0|  0|  32|           1|          32|
    |sel_tmp3_fu_216_p3              |  Select  |      0|  0|  32|           1|          32|
    |sel_tmp7_fu_248_p3              |  Select  |      0|  0|  32|           1|          32|
    |sel_tmp9_fu_260_p3              |  Select  |      0|  0|  32|           1|          32|
    |exitcond_fu_182_p2              |   icmp   |      0|  0|   2|           3|           3|
    |sel_tmp2_fu_210_p2              |   icmp   |      0|  0|   2|           3|           4|
    |sel_tmp4_fu_223_p2              |   icmp   |      0|  0|   2|           3|           1|
    |sel_tmp5_fu_267_p2              |   icmp   |      0|  0|   2|           3|           1|
    |sel_tmp6_fu_242_p2              |   icmp   |      0|  0|   2|           3|           2|
    |sel_tmp8_fu_254_p2              |   icmp   |      0|  0|   2|           3|           3|
    |sel_tmp_fu_198_p2               |   icmp   |      0|  0|   2|           3|           2|
    |r_V_fu_236_p2                   |    or    |      0|  0|   5|           3|           1|
    +--------------------------------+----------+-------+---+----+------------+------------+
    |Total                           |          |      0|  0| 410|          43|         404|
    +--------------------------------+----------+-------+---+----+------------+------------+

    * Multiplexer: 
    +-----------------------+----+-----------+-----+-----------+
    |          Name         | LUT| Input Size| Bits| Total Bits|
    +-----------------------+----+-----------+-----+-----------+
    |ap_NS_fsm              |   1|          4|    1|          4|
    |ap_reg_ppiten_pp0_it5  |   1|          2|    1|          2|
    |p_3_reg_99             |   3|          2|    3|          6|
    |p_s_reg_88             |   4|          2|    4|          8|
    +-----------------------+----+-----------+-----+-----------+
    |Total                  |   9|         10|    9|         20|
    +-----------------------+----+-----------+-----+-----------+

    * Register: 
    +------------------------------+----+----+-----+-----------+
    |             Name             | FF | LUT| Bits| Const Bits|
    +------------------------------+----+----+-----+-----------+
    |ap_CS_fsm                     |   3|   0|    3|          0|
    |ap_reg_ppiten_pp0_it0         |   1|   0|    1|          0|
    |ap_reg_ppiten_pp0_it1         |   1|   0|    1|          0|
    |ap_reg_ppiten_pp0_it2         |   1|   0|    1|          0|
    |ap_reg_ppiten_pp0_it3         |   1|   0|    1|          0|
    |ap_reg_ppiten_pp0_it4         |   1|   0|    1|          0|
    |ap_reg_ppiten_pp0_it5         |   1|   0|    1|          0|
    |imag_arr8_load_1_phi_reg_486  |  32|   0|   32|          0|
    |imag_arr8_load_phi_reg_481    |  32|   0|   32|          0|
    |p_3_reg_99                    |   3|   0|    3|          0|
    |p_s_reg_88                    |   4|   0|    4|          0|
    |real_arr8_load_1_phi_reg_472  |  32|   0|   32|          0|
    |real_arr8_load_phi_reg_467    |  32|   0|   32|          0|
    |tmp_5_reg_477                 |   2|   0|    2|          0|
    |tmp_5_reg_477                 |   0|   2|    2|          0|
    +------------------------------+----+----+-----+-----------+
    |Total                         | 146|   2|  148|          0|
    +------------------------------+----+----+-----+-----------+



================================================================
== Interface
================================================================
* Summary: 
+--------------------+-----+-----+------------+----------------+--------------+
|      RTL Ports     | Dir | Bits|  Protocol  |  Source Object |    C Type    |
+--------------------+-----+-----+------------+----------------+--------------+
|ap_clk              |  in |    1| ap_ctrl_hs | dft_loop_flow4 | return value |
|ap_rst              |  in |    1| ap_ctrl_hs | dft_loop_flow4 | return value |
|ap_start            |  in |    1| ap_ctrl_hs | dft_loop_flow4 | return value |
|ap_done             | out |    1| ap_ctrl_hs | dft_loop_flow4 | return value |
|ap_idle             | out |    1| ap_ctrl_hs | dft_loop_flow4 | return value |
|ap_ready            | out |    1| ap_ctrl_hs | dft_loop_flow4 | return value |
|real_arr8_6         |  in |   32|   ap_none  |   real_arr8_6  |    pointer   |
|real_arr8_7         |  in |   32|   ap_none  |   real_arr8_7  |    pointer   |
|imag_arr8_6         |  in |   32|   ap_none  |   imag_arr8_6  |    pointer   |
|imag_arr8_7         |  in |   32|   ap_none  |   imag_arr8_7  |    pointer   |
|imag_arr8_1         |  in |   32|   ap_none  |   imag_arr8_1  |    pointer   |
|imag_arr8_3         |  in |   32|   ap_none  |   imag_arr8_3  |    pointer   |
|imag_arr8_5         |  in |   32|   ap_none  |   imag_arr8_5  |    pointer   |
|imag_arr8_0         |  in |   32|   ap_none  |   imag_arr8_0  |    pointer   |
|imag_arr8_2         |  in |   32|   ap_none  |   imag_arr8_2  |    pointer   |
|imag_arr8_4         |  in |   32|   ap_none  |   imag_arr8_4  |    pointer   |
|real_arr8_1         |  in |   32|   ap_none  |   real_arr8_1  |    pointer   |
|real_arr8_3         |  in |   32|   ap_none  |   real_arr8_3  |    pointer   |
|real_arr8_5         |  in |   32|   ap_none  |   real_arr8_5  |    pointer   |
|real_arr8_0         |  in |   32|   ap_none  |   real_arr8_0  |    pointer   |
|real_arr8_2         |  in |   32|   ap_none  |   real_arr8_2  |    pointer   |
|real_arr8_4         |  in |   32|   ap_none  |   real_arr8_4  |    pointer   |
|imag_arr4_0         | out |   32|   ap_vld   |   imag_arr4_0  |    pointer   |
|imag_arr4_0_ap_vld  | out |    1|   ap_vld   |   imag_arr4_0  |    pointer   |
|imag_arr4_1         | out |   32|   ap_vld   |   imag_arr4_1  |    pointer   |
|imag_arr4_1_ap_vld  | out |    1|   ap_vld   |   imag_arr4_1  |    pointer   |
|imag_arr4_2         | out |   32|   ap_vld   |   imag_arr4_2  |    pointer   |
|imag_arr4_2_ap_vld  | out |    1|   ap_vld   |   imag_arr4_2  |    pointer   |
|imag_arr4_3         | out |   32|   ap_vld   |   imag_arr4_3  |    pointer   |
|imag_arr4_3_ap_vld  | out |    1|   ap_vld   |   imag_arr4_3  |    pointer   |
|real_arr4_0         | out |   32|   ap_vld   |   real_arr4_0  |    pointer   |
|real_arr4_0_ap_vld  | out |    1|   ap_vld   |   real_arr4_0  |    pointer   |
|real_arr4_1         | out |   32|   ap_vld   |   real_arr4_1  |    pointer   |
|real_arr4_1_ap_vld  | out |    1|   ap_vld   |   real_arr4_1  |    pointer   |
|real_arr4_2         | out |   32|   ap_vld   |   real_arr4_2  |    pointer   |
|real_arr4_2_ap_vld  | out |    1|   ap_vld   |   real_arr4_2  |    pointer   |
|real_arr4_3         | out |   32|   ap_vld   |   real_arr4_3  |    pointer   |
|real_arr4_3_ap_vld  | out |    1|   ap_vld   |   real_arr4_3  |    pointer   |
+--------------------+-----+-----+------------+----------------+--------------+

============================================================
+ Verbose Summary: Synthesis Manager
============================================================
InlineROM: 1
ExposeGlobal: 0
============================================================
+ Verbose Summary: CDFG Model
============================================================
IsTopModel: 0
ResetActiveHigh: 1
IsCombinational: 2
IsDatapathOnly: 2
HasWiredReturn: 1
HasMFsm: 0
HasVarLatency: 1
IsPipeline: 0
IsRtlPipelined: 0
IsInstanceOverlapped: 0
IsDontTouch: 0
HasImplIP: 0
IsGatedGlobalClock: 0

+ Individual pipeline summary: 
  * Pipeline-0: initiation interval (II) = 1, depth = 6


============================================================
+ Verbose Summary: Schedule
============================================================
* Number of FSM states: 8
* Pipeline: 1
  Pipeline-0: II = 1, D = 6, States = { 2 3 4 5 6 7 }
* Dataflow Pipeline: 0

* FSM state transitions: 
1 --> 
	2  / true
2 --> 
	8  / (exitcond)
	3  / (!exitcond)
3 --> 
	4  / true
4 --> 
	5  / true
5 --> 
	6  / true
6 --> 
	7  / true
7 --> 
	2  / true
8 --> 
* FSM state operations: 

 <State 1>: 1.57ns
ST_1: real_arr8_6_load [1/1] 0.00ns
:0  %real_arr8_6_load = load float* @real_arr8_6, align 8

ST_1: real_arr8_7_load [1/1] 0.00ns
:1  %real_arr8_7_load = load float* @real_arr8_7, align 4

ST_1: imag_arr8_6_load [1/1] 0.00ns
:2  %imag_arr8_6_load = load float* @imag_arr8_6, align 8

ST_1: imag_arr8_7_load [1/1] 0.00ns
:3  %imag_arr8_7_load = load float* @imag_arr8_7, align 4

ST_1: imag_arr8_1_load [1/1] 0.00ns
:4  %imag_arr8_1_load = load float* @imag_arr8_1, align 4

ST_1: imag_arr8_3_load [1/1] 0.00ns
:5  %imag_arr8_3_load = load float* @imag_arr8_3, align 4

ST_1: imag_arr8_5_load [1/1] 0.00ns
:6  %imag_arr8_5_load = load float* @imag_arr8_5, align 4

ST_1: imag_arr8_0_load [1/1] 0.00ns
:7  %imag_arr8_0_load = load float* @imag_arr8_0, align 8

ST_1: imag_arr8_2_load [1/1] 0.00ns
:8  %imag_arr8_2_load = load float* @imag_arr8_2, align 8

ST_1: imag_arr8_4_load [1/1] 0.00ns
:9  %imag_arr8_4_load = load float* @imag_arr8_4, align 8

ST_1: real_arr8_1_load [1/1] 0.00ns
:10  %real_arr8_1_load = load float* @real_arr8_1, align 4

ST_1: real_arr8_3_load [1/1] 0.00ns
:11  %real_arr8_3_load = load float* @real_arr8_3, align 4

ST_1: real_arr8_5_load [1/1] 0.00ns
:12  %real_arr8_5_load = load float* @real_arr8_5, align 4

ST_1: real_arr8_0_load [1/1] 0.00ns
:13  %real_arr8_0_load = load float* @real_arr8_0, align 8

ST_1: real_arr8_2_load [1/1] 0.00ns
:14  %real_arr8_2_load = load float* @real_arr8_2, align 8

ST_1: real_arr8_4_load [1/1] 0.00ns
:15  %real_arr8_4_load = load float* @real_arr8_4, align 8

ST_1: stg_25 [1/1] 1.57ns
:16  br label %1


 <State 2>: 5.73ns
ST_2: p_s [1/1] 0.00ns
:0  %p_s = phi i4 [ 0, %0 ], [ %j_V, %2 ]

ST_2: p_3 [1/1] 0.00ns
:1  %p_3 = phi i3 [ 0, %0 ], [ %i_V, %2 ]

ST_2: exitcond [1/1] 1.62ns
:2  %exitcond = icmp eq i3 %p_3, -3

ST_2: i_V [1/1] 0.80ns
:3  %i_V = add i3 %p_3, 1

ST_2: stg_30 [1/1] 0.00ns
:4  br i1 %exitcond, label %3, label %_ifconv

ST_2: tmp_3 [1/1] 0.00ns
_ifconv:3  %tmp_3 = trunc i4 %p_s to i3

ST_2: sel_tmp [1/1] 1.62ns
_ifconv:4  %sel_tmp = icmp eq i3 %tmp_3, 2

ST_2: sel_tmp1 [1/1] 1.37ns
_ifconv:5  %sel_tmp1 = select i1 %sel_tmp, float %real_arr8_2_load, float %real_arr8_6_load

ST_2: sel_tmp2 [1/1] 1.62ns
_ifconv:6  %sel_tmp2 = icmp eq i3 %tmp_3, -4

ST_2: sel_tmp3 [1/1] 1.37ns
_ifconv:7  %sel_tmp3 = select i1 %sel_tmp2, float %real_arr8_4_load, float %sel_tmp1

ST_2: sel_tmp4 [1/1] 1.62ns
_ifconv:8  %sel_tmp4 = icmp eq i3 %tmp_3, 0

ST_2: real_arr8_load_phi [1/1] 1.37ns
_ifconv:9  %real_arr8_load_phi = select i1 %sel_tmp4, float %real_arr8_0_load, float %sel_tmp3

ST_2: r_V [1/1] 0.00ns
_ifconv:10  %r_V = or i3 %tmp_3, 1

ST_2: sel_tmp6 [1/1] 1.62ns
_ifconv:11  %sel_tmp6 = icmp eq i3 %r_V, 3

ST_2: sel_tmp7 [1/1] 1.37ns
_ifconv:12  %sel_tmp7 = select i1 %sel_tmp6, float %real_arr8_3_load, float %real_arr8_7_load

ST_2: sel_tmp8 [1/1] 1.62ns
_ifconv:13  %sel_tmp8 = icmp eq i3 %r_V, -3

ST_2: sel_tmp9 [1/1] 1.37ns
_ifconv:14  %sel_tmp9 = select i1 %sel_tmp8, float %real_arr8_5_load, float %sel_tmp7

ST_2: sel_tmp5 [1/1] 1.62ns
_ifconv:15  %sel_tmp5 = icmp eq i3 %r_V, 1

ST_2: real_arr8_load_1_phi [1/1] 1.37ns
_ifconv:16  %real_arr8_load_1_phi = select i1 %sel_tmp5, float %real_arr8_1_load, float %sel_tmp9

ST_2: tmp_5 [1/1] 0.00ns
_ifconv:18  %tmp_5 = trunc i3 %p_3 to i2

ST_2: stg_46 [1/1] 1.88ns
_ifconv:19  switch i2 %tmp_5, label %branch39 [
    i2 0, label %branch36
    i2 1, label %branch37
    i2 -2, label %branch38
  ]

ST_2: sel_tmp10 [1/1] 1.37ns
_ifconv12:0  %sel_tmp10 = select i1 %sel_tmp, float %imag_arr8_2_load, float %imag_arr8_6_load

ST_2: sel_tmp11 [1/1] 1.37ns
_ifconv12:1  %sel_tmp11 = select i1 %sel_tmp2, float %imag_arr8_4_load, float %sel_tmp10

ST_2: imag_arr8_load_phi [1/1] 1.37ns
_ifconv12:2  %imag_arr8_load_phi = select i1 %sel_tmp4, float %imag_arr8_0_load, float %sel_tmp11

ST_2: sel_tmp12 [1/1] 1.37ns
_ifconv12:3  %sel_tmp12 = select i1 %sel_tmp6, float %imag_arr8_3_load, float %imag_arr8_7_load

ST_2: sel_tmp13 [1/1] 1.37ns
_ifconv12:4  %sel_tmp13 = select i1 %sel_tmp8, float %imag_arr8_5_load, float %sel_tmp12

ST_2: imag_arr8_load_1_phi [1/1] 1.37ns
_ifconv12:5  %imag_arr8_load_1_phi = select i1 %sel_tmp5, float %imag_arr8_1_load, float %sel_tmp13

ST_2: stg_53 [1/1] 1.88ns
_ifconv12:7  switch i2 %tmp_5, label %branch35 [
    i2 0, label %branch32
    i2 1, label %branch33
    i2 -2, label %branch34
  ]

ST_2: j_V [1/1] 0.80ns
:1  %j_V = add i4 %p_s, 2


 <State 3>: 7.26ns
ST_3: tmp_4 [5/5] 7.26ns
_ifconv:17  %tmp_4 = fadd float %real_arr8_load_phi, %real_arr8_load_1_phi

ST_3: tmp_6 [5/5] 7.26ns
_ifconv12:6  %tmp_6 = fadd float %imag_arr8_load_phi, %imag_arr8_load_1_phi


 <State 4>: 7.26ns
ST_4: tmp_4 [4/5] 7.26ns
_ifconv:17  %tmp_4 = fadd float %real_arr8_load_phi, %real_arr8_load_1_phi

ST_4: tmp_6 [4/5] 7.26ns
_ifconv12:6  %tmp_6 = fadd float %imag_arr8_load_phi, %imag_arr8_load_1_phi


 <State 5>: 7.26ns
ST_5: tmp_4 [3/5] 7.26ns
_ifconv:17  %tmp_4 = fadd float %real_arr8_load_phi, %real_arr8_load_1_phi

ST_5: tmp_6 [3/5] 7.26ns
_ifconv12:6  %tmp_6 = fadd float %imag_arr8_load_phi, %imag_arr8_load_1_phi


 <State 6>: 7.26ns
ST_6: tmp_4 [2/5] 7.26ns
_ifconv:17  %tmp_4 = fadd float %real_arr8_load_phi, %real_arr8_load_1_phi

ST_6: tmp_6 [2/5] 7.26ns
_ifconv12:6  %tmp_6 = fadd float %imag_arr8_load_phi, %imag_arr8_load_1_phi


 <State 7>: 7.26ns
ST_7: empty [1/1] 0.00ns
_ifconv:0  %empty = call i32 (...)* @_ssdm_op_SpecLoopTripCount(i64 5, i64 5, i64 5) nounwind

ST_7: tmp [1/1] 0.00ns
_ifconv:1  %tmp = call i32 (...)* @_ssdm_op_SpecRegionBegin([12 x i8]* @p_str7) nounwind

ST_7: stg_65 [1/1] 0.00ns
_ifconv:2  call void (...)* @_ssdm_op_SpecPipeline(i32 1, i32 1, i32 1, i32 0, [1 x i8]* @p_str1) nounwind

ST_7: tmp_4 [1/5] 7.26ns
_ifconv:17  %tmp_4 = fadd float %real_arr8_load_phi, %real_arr8_load_1_phi

ST_7: stg_67 [1/1] 0.00ns
branch38:0  store float %tmp_4, float* @real_arr4_2, align 4

ST_7: stg_68 [1/1] 0.00ns
branch38:1  br label %_ifconv12

ST_7: stg_69 [1/1] 0.00ns
branch37:0  store float %tmp_4, float* @real_arr4_1, align 4

ST_7: stg_70 [1/1] 0.00ns
branch37:1  br label %_ifconv12

ST_7: stg_71 [1/1] 0.00ns
branch36:0  store float %tmp_4, float* @real_arr4_0, align 4

ST_7: stg_72 [1/1] 0.00ns
branch36:1  br label %_ifconv12

ST_7: stg_73 [1/1] 0.00ns
branch39:0  store float %tmp_4, float* @real_arr4_3, align 4

ST_7: stg_74 [1/1] 0.00ns
branch39:1  br label %_ifconv12

ST_7: tmp_6 [1/5] 7.26ns
_ifconv12:6  %tmp_6 = fadd float %imag_arr8_load_phi, %imag_arr8_load_1_phi

ST_7: stg_76 [1/1] 0.00ns
branch34:0  store float %tmp_6, float* @imag_arr4_2, align 4

ST_7: stg_77 [1/1] 0.00ns
branch34:1  br label %2

ST_7: stg_78 [1/1] 0.00ns
branch33:0  store float %tmp_6, float* @imag_arr4_1, align 4

ST_7: stg_79 [1/1] 0.00ns
branch33:1  br label %2

ST_7: stg_80 [1/1] 0.00ns
branch32:0  store float %tmp_6, float* @imag_arr4_0, align 4

ST_7: stg_81 [1/1] 0.00ns
branch32:1  br label %2

ST_7: stg_82 [1/1] 0.00ns
branch35:0  store float %tmp_6, float* @imag_arr4_3, align 4

ST_7: stg_83 [1/1] 0.00ns
branch35:1  br label %2

ST_7: empty_8 [1/1] 0.00ns
:0  %empty_8 = call i32 (...)* @_ssdm_op_SpecRegionEnd([12 x i8]* @p_str7, i32 %tmp) nounwind

ST_7: stg_85 [1/1] 0.00ns
:2  br label %1


 <State 8>: 0.00ns
ST_8: stg_86 [1/1] 0.00ns
:0  ret void



============================================================
+ Verbose Summary: Binding
============================================================
STG Binding: 
---------------- STG Properties BEGIN ----------------
- Is combinational: 0
- Is one-state seq: 0
- Is datapath-only: 0
- Is clock enabled: 0
- Is pipelined: 0
- Is top level: 0
Port [ Return ] is wired: 1; IO mode=ap_ctrl_hs:ce=0
Port [ real_arr8_6]:  wired=1; compound=0; hidden=0; nouse=0; global=1; static=0; extern=0; dir=0; type=0; mode=0x1e5ff3b50e0; pingpong=0; private_global=0; linkage=0; visibility=0; IO mode=ap_none:ce=0
Port [ real_arr8_7]:  wired=1; compound=0; hidden=0; nouse=0; global=1; static=0; extern=0; dir=0; type=0; mode=0x1e5ff3b5320; pingpong=0; private_global=0; linkage=0; visibility=0; IO mode=ap_none:ce=0
Port [ imag_arr8_6]:  wired=1; compound=0; hidden=0; nouse=0; global=1; static=0; extern=0; dir=0; type=0; mode=0x1e5ff3b5c20; pingpong=0; private_global=0; linkage=0; visibility=0; IO mode=ap_none:ce=0
Port [ imag_arr8_7]:  wired=1; compound=0; hidden=0; nouse=0; global=1; static=0; extern=0; dir=0; type=0; mode=0x1e5ff3b4a20; pingpong=0; private_global=0; linkage=0; visibility=0; IO mode=ap_none:ce=0
Port [ imag_arr8_1]:  wired=1; compound=0; hidden=0; nouse=0; global=1; static=0; extern=0; dir=0; type=0; mode=0x1e5ff3b5170; pingpong=0; private_global=0; linkage=0; visibility=0; IO mode=ap_none:ce=0
Port [ imag_arr8_3]:  wired=1; compound=0; hidden=0; nouse=0; global=1; static=0; extern=0; dir=0; type=0; mode=0x1e5ff3b62e0; pingpong=0; private_global=0; linkage=0; visibility=0; IO mode=ap_none:ce=0
Port [ imag_arr8_5]:  wired=1; compound=0; hidden=0; nouse=0; global=1; static=0; extern=0; dir=0; type=0; mode=0x1e5ff3b67f0; pingpong=0; private_global=0; linkage=0; visibility=0; IO mode=ap_none:ce=0
Port [ imag_arr8_0]:  wired=1; compound=0; hidden=0; nouse=0; global=1; static=0; extern=0; dir=0; type=0; mode=0x1e5ff3b6130; pingpong=0; private_global=0; linkage=0; visibility=0; IO mode=ap_none:ce=0
Port [ imag_arr8_2]:  wired=1; compound=0; hidden=0; nouse=0; global=1; static=0; extern=0; dir=0; type=0; mode=0x1e5ff3b53b0; pingpong=0; private_global=0; linkage=0; visibility=0; IO mode=ap_none:ce=0
Port [ imag_arr8_4]:  wired=1; compound=0; hidden=0; nouse=0; global=1; static=0; extern=0; dir=0; type=0; mode=0x1e5ff3b4510; pingpong=0; private_global=0; linkage=0; visibility=0; IO mode=ap_none:ce=0
Port [ real_arr8_1]:  wired=1; compound=0; hidden=0; nouse=0; global=1; static=0; extern=0; dir=0; type=0; mode=0x1e5ff3b4cf0; pingpong=0; private_global=0; linkage=0; visibility=0; IO mode=ap_none:ce=0
Port [ real_arr8_3]:  wired=1; compound=0; hidden=0; nouse=0; global=1; static=0; extern=0; dir=0; type=0; mode=0x1e5ff3b5d40; pingpong=0; private_global=0; linkage=0; visibility=0; IO mode=ap_none:ce=0
Port [ real_arr8_5]:  wired=1; compound=0; hidden=0; nouse=0; global=1; static=0; extern=0; dir=0; type=0; mode=0x1e5ff3b45a0; pingpong=0; private_global=0; linkage=0; visibility=0; IO mode=ap_none:ce=0
Port [ real_arr8_0]:  wired=1; compound=0; hidden=0; nouse=0; global=1; static=0; extern=0; dir=0; type=0; mode=0x1e5ff3b5680; pingpong=0; private_global=0; linkage=0; visibility=0; IO mode=ap_none:ce=0
Port [ real_arr8_2]:  wired=1; compound=0; hidden=0; nouse=0; global=1; static=0; extern=0; dir=0; type=0; mode=0x1e5ff3b6010; pingpong=0; private_global=0; linkage=0; visibility=0; IO mode=ap_none:ce=0
Port [ real_arr8_4]:  wired=1; compound=0; hidden=0; nouse=0; global=1; static=0; extern=0; dir=0; type=0; mode=0x1e5ff3b6250; pingpong=0; private_global=0; linkage=0; visibility=0; IO mode=ap_none:ce=0
Port [ imag_arr4_0]:  wired=1; compound=0; hidden=0; nouse=0; global=1; static=0; extern=0; dir=1; type=0; mode=0x1e5ff3b4630; pingpong=0; private_global=0; linkage=0; visibility=0; IO mode=ap_vld:ce=0
Port [ imag_arr4_1]:  wired=1; compound=0; hidden=0; nouse=0; global=1; static=0; extern=0; dir=1; type=0; mode=0x1e5ff3b5200; pingpong=0; private_global=0; linkage=0; visibility=0; IO mode=ap_vld:ce=0
Port [ imag_arr4_2]:  wired=1; compound=0; hidden=0; nouse=0; global=1; static=0; extern=0; dir=1; type=0; mode=0x1e5ff3b6520; pingpong=0; private_global=0; linkage=0; visibility=0; IO mode=ap_vld:ce=0
Port [ imag_arr4_3]:  wired=1; compound=0; hidden=0; nouse=0; global=1; static=0; extern=0; dir=1; type=0; mode=0x1e5ff3b5560; pingpong=0; private_global=0; linkage=0; visibility=0; IO mode=ap_vld:ce=0
Port [ real_arr4_0]:  wired=1; compound=0; hidden=0; nouse=0; global=1; static=0; extern=0; dir=1; type=0; mode=0x1e5ff3b46c0; pingpong=0; private_global=0; linkage=0; visibility=0; IO mode=ap_vld:ce=0
Port [ real_arr4_1]:  wired=1; compound=0; hidden=0; nouse=0; global=1; static=0; extern=0; dir=1; type=0; mode=0x1e5ff3b6400; pingpong=0; private_global=0; linkage=0; visibility=0; IO mode=ap_vld:ce=0
Port [ real_arr4_2]:  wired=1; compound=0; hidden=0; nouse=0; global=1; static=0; extern=0; dir=1; type=0; mode=0x1e5ff3b58c0; pingpong=0; private_global=0; linkage=0; visibility=0; IO mode=ap_vld:ce=0
Port [ real_arr4_3]:  wired=1; compound=0; hidden=0; nouse=0; global=1; static=0; extern=0; dir=1; type=0; mode=0x1e5ff3b4c60; pingpong=0; private_global=0; linkage=0; visibility=0; IO mode=ap_vld:ce=0
---------------- STG Properties END ------------------

---------------- Datapath Model BEGIN ----------------

<LifeTime>
<method=bitvector/>
real_arr8_6_load     (load             ) [ 001111110]
real_arr8_7_load     (load             ) [ 001111110]
imag_arr8_6_load     (load             ) [ 001111110]
imag_arr8_7_load     (load             ) [ 001111110]
imag_arr8_1_load     (load             ) [ 001111110]
imag_arr8_3_load     (load             ) [ 001111110]
imag_arr8_5_load     (load             ) [ 001111110]
imag_arr8_0_load     (load             ) [ 001111110]
imag_arr8_2_load     (load             ) [ 001111110]
imag_arr8_4_load     (load             ) [ 001111110]
real_arr8_1_load     (load             ) [ 001111110]
real_arr8_3_load     (load             ) [ 001111110]
real_arr8_5_load     (load             ) [ 001111110]
real_arr8_0_load     (load             ) [ 001111110]
real_arr8_2_load     (load             ) [ 001111110]
real_arr8_4_load     (load             ) [ 001111110]
stg_25               (br               ) [ 011111110]
p_s                  (phi              ) [ 001000000]
p_3                  (phi              ) [ 001000000]
exitcond             (icmp             ) [ 001111110]
i_V                  (add              ) [ 011111110]
stg_30               (br               ) [ 000000000]
tmp_3                (trunc            ) [ 000000000]
sel_tmp              (icmp             ) [ 000000000]
sel_tmp1             (select           ) [ 000000000]
sel_tmp2             (icmp             ) [ 000000000]
sel_tmp3             (select           ) [ 000000000]
sel_tmp4             (icmp             ) [ 000000000]
real_arr8_load_phi   (select           ) [ 001111110]
r_V                  (or               ) [ 000000000]
sel_tmp6             (icmp             ) [ 000000000]
sel_tmp7             (select           ) [ 000000000]
sel_tmp8             (icmp             ) [ 000000000]
sel_tmp9             (select           ) [ 000000000]
sel_tmp5             (icmp             ) [ 000000000]
real_arr8_load_1_phi (select           ) [ 001111110]
tmp_5                (trunc            ) [ 001111110]
stg_46               (switch           ) [ 000000000]
sel_tmp10            (select           ) [ 000000000]
sel_tmp11            (select           ) [ 000000000]
imag_arr8_load_phi   (select           ) [ 001111110]
sel_tmp12            (select           ) [ 000000000]
sel_tmp13            (select           ) [ 000000000]
imag_arr8_load_1_phi (select           ) [ 001111110]
stg_53               (switch           ) [ 000000000]
j_V                  (add              ) [ 011111110]
empty                (speclooptripcount) [ 000000000]
tmp                  (specregionbegin  ) [ 000000000]
stg_65               (specpipeline     ) [ 000000000]
tmp_4                (fadd             ) [ 000000000]
stg_67               (store            ) [ 000000000]
stg_68               (br               ) [ 000000000]
stg_69               (store            ) [ 000000000]
stg_70               (br               ) [ 000000000]
stg_71               (store            ) [ 000000000]
stg_72               (br               ) [ 000000000]
stg_73               (store            ) [ 000000000]
stg_74               (br               ) [ 000000000]
tmp_6                (fadd             ) [ 000000000]
stg_76               (store            ) [ 000000000]
stg_77               (br               ) [ 000000000]
stg_78               (store            ) [ 000000000]
stg_79               (br               ) [ 000000000]
stg_80               (store            ) [ 000000000]
stg_81               (br               ) [ 000000000]
stg_82               (store            ) [ 000000000]
stg_83               (br               ) [ 000000000]
empty_8              (specregionend    ) [ 000000000]
stg_85               (br               ) [ 011111110]
stg_86               (ret              ) [ 000000000]
</LifeTime>

<model>

<comp_list>
<comp id="0" class="1000" name="real_arr8_6">
<pin_list>
<pin id="1" dir="1" index="0" bw="1" slack="0"/>
</pin_list>
<bind>
<StgValue><ssdm name="real_arr8_6"/></StgValue>
</bind>
</comp>

<comp id="2" class="1000" name="real_arr8_7">
<pin_list>
<pin id="3" dir="1" index="0" bw="1" slack="0"/>
</pin_list>
<bind>
<StgValue><ssdm name="real_arr8_7"/></StgValue>
</bind>
</comp>

<comp id="4" class="1000" name="imag_arr8_6">
<pin_list>
<pin id="5" dir="1" index="0" bw="1" slack="0"/>
</pin_list>
<bind>
<StgValue><ssdm name="imag_arr8_6"/></StgValue>
</bind>
</comp>

<comp id="6" class="1000" name="imag_arr8_7">
<pin_list>
<pin id="7" dir="1" index="0" bw="1" slack="0"/>
</pin_list>
<bind>
<StgValue><ssdm name="imag_arr8_7"/></StgValue>
</bind>
</comp>

<comp id="8" class="1000" name="imag_arr8_1">
<pin_list>
<pin id="9" dir="1" index="0" bw="1" slack="0"/>
</pin_list>
<bind>
<StgValue><ssdm name="imag_arr8_1"/></StgValue>
</bind>
</comp>

<comp id="10" class="1000" name="imag_arr8_3">
<pin_list>
<pin id="11" dir="1" index="0" bw="1" slack="0"/>
</pin_list>
<bind>
<StgValue><ssdm name="imag_arr8_3"/></StgValue>
</bind>
</comp>

<comp id="12" class="1000" name="imag_arr8_5">
<pin_list>
<pin id="13" dir="1" index="0" bw="1" slack="0"/>
</pin_list>
<bind>
<StgValue><ssdm name="imag_arr8_5"/></StgValue>
</bind>
</comp>

<comp id="14" class="1000" name="imag_arr8_0">
<pin_list>
<pin id="15" dir="1" index="0" bw="1" slack="0"/>
</pin_list>
<bind>
<StgValue><ssdm name="imag_arr8_0"/></StgValue>
</bind>
</comp>

<comp id="16" class="1000" name="imag_arr8_2">
<pin_list>
<pin id="17" dir="1" index="0" bw="1" slack="0"/>
</pin_list>
<bind>
<StgValue><ssdm name="imag_arr8_2"/></StgValue>
</bind>
</comp>

<comp id="18" class="1000" name="imag_arr8_4">
<pin_list>
<pin id="19" dir="1" index="0" bw="1" slack="0"/>
</pin_list>
<bind>
<StgValue><ssdm name="imag_arr8_4"/></StgValue>
</bind>
</comp>

<comp id="20" class="1000" name="real_arr8_1">
<pin_list>
<pin id="21" dir="1" index="0" bw="1" slack="0"/>
</pin_list>
<bind>
<StgValue><ssdm name="real_arr8_1"/></StgValue>
</bind>
</comp>

<comp id="22" class="1000" name="real_arr8_3">
<pin_list>
<pin id="23" dir="1" index="0" bw="1" slack="0"/>
</pin_list>
<bind>
<StgValue><ssdm name="real_arr8_3"/></StgValue>
</bind>
</comp>

<comp id="24" class="1000" name="real_arr8_5">
<pin_list>
<pin id="25" dir="1" index="0" bw="1" slack="0"/>
</pin_list>
<bind>
<StgValue><ssdm name="real_arr8_5"/></StgValue>
</bind>
</comp>

<comp id="26" class="1000" name="real_arr8_0">
<pin_list>
<pin id="27" dir="1" index="0" bw="1" slack="0"/>
</pin_list>
<bind>
<StgValue><ssdm name="real_arr8_0"/></StgValue>
</bind>
</comp>

<comp id="28" class="1000" name="real_arr8_2">
<pin_list>
<pin id="29" dir="1" index="0" bw="1" slack="0"/>
</pin_list>
<bind>
<StgValue><ssdm name="real_arr8_2"/></StgValue>
</bind>
</comp>

<comp id="30" class="1000" name="real_arr8_4">
<pin_list>
<pin id="31" dir="1" index="0" bw="1" slack="0"/>
</pin_list>
<bind>
<StgValue><ssdm name="real_arr8_4"/></StgValue>
</bind>
</comp>

<comp id="32" class="1000" name="imag_arr4_0">
<pin_list>
<pin id="33" dir="1" index="0" bw="1" slack="0"/>
</pin_list>
<bind>
<StgValue><ssdm name="imag_arr4_0"/></StgValue>
</bind>
</comp>

<comp id="34" class="1000" name="imag_arr4_1">
<pin_list>
<pin id="35" dir="1" index="0" bw="1" slack="0"/>
</pin_list>
<bind>
<StgValue><ssdm name="imag_arr4_1"/></StgValue>
</bind>
</comp>

<comp id="36" class="1000" name="imag_arr4_2">
<pin_list>
<pin id="37" dir="1" index="0" bw="1" slack="0"/>
</pin_list>
<bind>
<StgValue><ssdm name="imag_arr4_2"/></StgValue>
</bind>
</comp>

<comp id="38" class="1000" name="imag_arr4_3">
<pin_list>
<pin id="39" dir="1" index="0" bw="1" slack="0"/>
</pin_list>
<bind>
<StgValue><ssdm name="imag_arr4_3"/></StgValue>
</bind>
</comp>

<comp id="40" class="1000" name="real_arr4_0">
<pin_list>
<pin id="41" dir="1" index="0" bw="1" slack="0"/>
</pin_list>
<bind>
<StgValue><ssdm name="real_arr4_0"/></StgValue>
</bind>
</comp>

<comp id="42" class="1000" name="real_arr4_1">
<pin_list>
<pin id="43" dir="1" index="0" bw="1" slack="0"/>
</pin_list>
<bind>
<StgValue><ssdm name="real_arr4_1"/></StgValue>
</bind>
</comp>

<comp id="44" class="1000" name="real_arr4_2">
<pin_list>
<pin id="45" dir="1" index="0" bw="1" slack="0"/>
</pin_list>
<bind>
<StgValue><ssdm name="real_arr4_2"/></StgValue>
</bind>
</comp>

<comp id="46" class="1000" name="real_arr4_3">
<pin_list>
<pin id="47" dir="1" index="0" bw="1" slack="0"/>
</pin_list>
<bind>
<StgValue><ssdm name="real_arr4_3"/></StgValue>
</bind>
</comp>

<comp id="48" class="1001" name="const_48">
<pin_list>
<pin id="49" dir="1" index="0" bw="1" slack="1"/>
</pin_list>
<bind>
<StgValue><ssdm name=""/></StgValue>
</bind>
</comp>

<comp id="50" class="1001" name="const_50">
<pin_list>
<pin id="51" dir="1" index="0" bw="1" slack="0"/>
</pin_list>
<bind>
<StgValue><ssdm name=""/></StgValue>
</bind>
</comp>

<comp id="52" class="1001" name="const_52">
<pin_list>
<pin id="53" dir="1" index="0" bw="1" slack="0"/>
</pin_list>
<bind>
<StgValue><ssdm name=""/></StgValue>
</bind>
</comp>

<comp id="54" class="1001" name="const_54">
<pin_list>
<pin id="55" dir="1" index="0" bw="1" slack="0"/>
</pin_list>
<bind>
<StgValue><ssdm name=""/></StgValue>
</bind>
</comp>

<comp id="56" class="1001" name="const_56">
<pin_list>
<pin id="57" dir="1" index="0" bw="1" slack="0"/>
</pin_list>
<bind>
<StgValue><ssdm name=""/></StgValue>
</bind>
</comp>

<comp id="58" class="1001" name="const_58">
<pin_list>
<pin id="59" dir="1" index="0" bw="1" slack="0"/>
</pin_list>
<bind>
<StgValue><ssdm name=""/></StgValue>
</bind>
</comp>

<comp id="60" class="1001" name="const_60">
<pin_list>
<pin id="61" dir="1" index="0" bw="1" slack="0"/>
</pin_list>
<bind>
<StgValue><ssdm name=""/></StgValue>
</bind>
</comp>

<comp id="62" class="1001" name="const_62">
<pin_list>
<pin id="63" dir="1" index="0" bw="1" slack="2147483647"/>
</pin_list>
<bind>
<StgValue><ssdm name=""/></StgValue>
</bind>
</comp>

<comp id="64" class="1001" name="const_64">
<pin_list>
<pin id="65" dir="1" index="0" bw="1" slack="2147483647"/>
</pin_list>
<bind>
<StgValue><ssdm name=""/></StgValue>
</bind>
</comp>

<comp id="66" class="1001" name="const_66">
<pin_list>
<pin id="67" dir="1" index="0" bw="1" slack="2147483647"/>
</pin_list>
<bind>
<StgValue><ssdm name=""/></StgValue>
</bind>
</comp>

<comp id="68" class="1001" name="const_68">
<pin_list>
<pin id="69" dir="1" index="0" bw="1" slack="0"/>
</pin_list>
<bind>
<StgValue><ssdm name=""/></StgValue>
</bind>
</comp>

<comp id="70" class="1001" name="const_70">
<pin_list>
<pin id="71" dir="1" index="0" bw="1" slack="2147483647"/>
</pin_list>
<bind>
<StgValue><ssdm name="_ssdm_op_SpecLoopTripCount"/></StgValue>
</bind>
</comp>

<comp id="72" class="1001" name="const_72">
<pin_list>
<pin id="73" dir="1" index="0" bw="1" slack="2147483647"/>
</pin_list>
<bind>
<StgValue><ssdm name=""/></StgValue>
</bind>
</comp>

<comp id="74" class="1001" name="const_74">
<pin_list>
<pin id="75" dir="1" index="0" bw="1" slack="2147483647"/>
</pin_list>
<bind>
<StgValue><ssdm name="_ssdm_op_SpecRegionBegin"/></StgValue>
</bind>
</comp>

<comp id="76" class="1001" name="const_76">
<pin_list>
<pin id="77" dir="1" index="0" bw="1" slack="2147483647"/>
</pin_list>
<bind>
<StgValue><ssdm name="p_str7"/></StgValue>
</bind>
</comp>

<comp id="78" class="1001" name="const_78">
<pin_list>
<pin id="79" dir="1" index="0" bw="1" slack="2147483647"/>
</pin_list>
<bind>
<StgValue><ssdm name="_ssdm_op_SpecPipeline"/></StgValue>
</bind>
</comp>

<comp id="80" class="1001" name="const_80">
<pin_list>
<pin id="81" dir="1" index="0" bw="1" slack="2147483647"/>
</pin_list>
<bind>
<StgValue><ssdm name=""/></StgValue>
</bind>
</comp>

<comp id="82" class="1001" name="const_82">
<pin_list>
<pin id="83" dir="1" index="0" bw="1" slack="2147483647"/>
</pin_list>
<bind>
<StgValue><ssdm name=""/></StgValue>
</bind>
</comp>

<comp id="84" class="1001" name="const_84">
<pin_list>
<pin id="85" dir="1" index="0" bw="1" slack="2147483647"/>
</pin_list>
<bind>
<StgValue><ssdm name="p_str1"/></StgValue>
</bind>
</comp>

<comp id="86" class="1001" name="const_86">
<pin_list>
<pin id="87" dir="1" index="0" bw="1" slack="2147483647"/>
</pin_list>
<bind>
<StgValue><ssdm name="_ssdm_op_SpecRegionEnd"/></StgValue>
</bind>
</comp>

<comp id="88" class="1005" name="p_s_reg_88">
<pin_list>
<pin id="89" dir="0" index="0" bw="4" slack="1"/>
<pin id="90" dir="1" index="1" bw="4" slack="1"/>
</pin_list>
<bind>
<opset="p_s (phireg) "/>
</bind>
</comp>

<comp id="92" class="1004" name="p_s_phi_fu_92">
<pin_list>
<pin id="93" dir="0" index="0" bw="1" slack="1"/>
<pin id="94" dir="0" index="1" bw="0" slack="2147483647"/>
<pin id="95" dir="0" index="2" bw="4" slack="0"/>
<pin id="96" dir="0" index="3" bw="0" slack="2147483647"/>
<pin id="97" dir="1" index="4" bw="4" slack="0"/>
</pin_list>
<bind>
<opcode="phi(47) " fcode="phi"/>
<opset="p_s/2 "/>
</bind>
</comp>

<comp id="99" class="1005" name="p_3_reg_99">
<pin_list>
<pin id="100" dir="0" index="0" bw="3" slack="1"/>
<pin id="101" dir="1" index="1" bw="3" slack="1"/>
</pin_list>
<bind>
<opset="p_3 (phireg) "/>
</bind>
</comp>

<comp id="103" class="1004" name="p_3_phi_fu_103">
<pin_list>
<pin id="104" dir="0" index="0" bw="1" slack="1"/>
<pin id="105" dir="0" index="1" bw="0" slack="2147483647"/>
<pin id="106" dir="0" index="2" bw="3" slack="0"/>
<pin id="107" dir="0" index="3" bw="0" slack="2147483647"/>
<pin id="108" dir="1" index="4" bw="3" slack="0"/>
</pin_list>
<bind>
<opcode="phi(47) " fcode="phi"/>
<opset="p_3/2 "/>
</bind>
</comp>

<comp id="110" class="1004" name="grp_fu_110">
<pin_list>
<pin id="111" dir="0" index="0" bw="32" slack="1"/>
<pin id="112" dir="0" index="1" bw="32" slack="1"/>
<pin id="113" dir="1" index="2" bw="32" slack="0"/>
</pin_list>
<bind>
<opcode="fadd(9) " fcode="fadd"/>
<opset="tmp_4/3 "/>
</bind>
</comp>

<comp id="114" class="1004" name="grp_fu_114">
<pin_list>
<pin id="115" dir="0" index="0" bw="32" slack="1"/>
<pin id="116" dir="0" index="1" bw="32" slack="1"/>
<pin id="117" dir="1" index="2" bw="32" slack="0"/>
</pin_list>
<bind>
<opcode="fadd(9) " fcode="fadd"/>
<opset="tmp_6/3 "/>
</bind>
</comp>

<comp id="118" class="1004" name="real_arr8_6_load_load_fu_118">
<pin_list>
<pin id="119" dir="0" index="0" bw="32" slack="0"/>
<pin id="120" dir="1" index="1" bw="32" slack="1"/>
</pin_list>
<bind>
<opcode="load(27) " fcode="load"/>
<opset="real_arr8_6_load/1 "/>
</bind>
</comp>

<comp id="122" class="1004" name="real_arr8_7_load_load_fu_122">
<pin_list>
<pin id="123" dir="0" index="0" bw="32" slack="0"/>
<pin id="124" dir="1" index="1" bw="32" slack="1"/>
</pin_list>
<bind>
<opcode="load(27) " fcode="load"/>
<opset="real_arr8_7_load/1 "/>
</bind>
</comp>

<comp id="126" class="1004" name="imag_arr8_6_load_load_fu_126">
<pin_list>
<pin id="127" dir="0" index="0" bw="32" slack="0"/>
<pin id="128" dir="1" index="1" bw="32" slack="1"/>
</pin_list>
<bind>
<opcode="load(27) " fcode="load"/>
<opset="imag_arr8_6_load/1 "/>
</bind>
</comp>

<comp id="130" class="1004" name="imag_arr8_7_load_load_fu_130">
<pin_list>
<pin id="131" dir="0" index="0" bw="32" slack="0"/>
<pin id="132" dir="1" index="1" bw="32" slack="1"/>
</pin_list>
<bind>
<opcode="load(27) " fcode="load"/>
<opset="imag_arr8_7_load/1 "/>
</bind>
</comp>

<comp id="134" class="1004" name="imag_arr8_1_load_load_fu_134">
<pin_list>
<pin id="135" dir="0" index="0" bw="32" slack="0"/>
<pin id="136" dir="1" index="1" bw="32" slack="1"/>
</pin_list>
<bind>
<opcode="load(27) " fcode="load"/>
<opset="imag_arr8_1_load/1 "/>
</bind>
</comp>

<comp id="138" class="1004" name="imag_arr8_3_load_load_fu_138">
<pin_list>
<pin id="139" dir="0" index="0" bw="32" slack="0"/>
<pin id="140" dir="1" index="1" bw="32" slack="1"/>
</pin_list>
<bind>
<opcode="load(27) " fcode="load"/>
<opset="imag_arr8_3_load/1 "/>
</bind>
</comp>

<comp id="142" class="1004" name="imag_arr8_5_load_load_fu_142">
<pin_list>
<pin id="143" dir="0" index="0" bw="32" slack="0"/>
<pin id="144" dir="1" index="1" bw="32" slack="1"/>
</pin_list>
<bind>
<opcode="load(27) " fcode="load"/>
<opset="imag_arr8_5_load/1 "/>
</bind>
</comp>

<comp id="146" class="1004" name="imag_arr8_0_load_load_fu_146">
<pin_list>
<pin id="147" dir="0" index="0" bw="32" slack="0"/>
<pin id="148" dir="1" index="1" bw="32" slack="1"/>
</pin_list>
<bind>
<opcode="load(27) " fcode="load"/>
<opset="imag_arr8_0_load/1 "/>
</bind>
</comp>

<comp id="150" class="1004" name="imag_arr8_2_load_load_fu_150">
<pin_list>
<pin id="151" dir="0" index="0" bw="32" slack="0"/>
<pin id="152" dir="1" index="1" bw="32" slack="1"/>
</pin_list>
<bind>
<opcode="load(27) " fcode="load"/>
<opset="imag_arr8_2_load/1 "/>
</bind>
</comp>

<comp id="154" class="1004" name="imag_arr8_4_load_load_fu_154">
<pin_list>
<pin id="155" dir="0" index="0" bw="32" slack="0"/>
<pin id="156" dir="1" index="1" bw="32" slack="1"/>
</pin_list>
<bind>
<opcode="load(27) " fcode="load"/>
<opset="imag_arr8_4_load/1 "/>
</bind>
</comp>

<comp id="158" class="1004" name="real_arr8_1_load_load_fu_158">
<pin_list>
<pin id="159" dir="0" index="0" bw="32" slack="0"/>
<pin id="160" dir="1" index="1" bw="32" slack="1"/>
</pin_list>
<bind>
<opcode="load(27) " fcode="load"/>
<opset="real_arr8_1_load/1 "/>
</bind>
</comp>

<comp id="162" class="1004" name="real_arr8_3_load_load_fu_162">
<pin_list>
<pin id="163" dir="0" index="0" bw="32" slack="0"/>
<pin id="164" dir="1" index="1" bw="32" slack="1"/>
</pin_list>
<bind>
<opcode="load(27) " fcode="load"/>
<opset="real_arr8_3_load/1 "/>
</bind>
</comp>

<comp id="166" class="1004" name="real_arr8_5_load_load_fu_166">
<pin_list>
<pin id="167" dir="0" index="0" bw="32" slack="0"/>
<pin id="168" dir="1" index="1" bw="32" slack="1"/>
</pin_list>
<bind>
<opcode="load(27) " fcode="load"/>
<opset="real_arr8_5_load/1 "/>
</bind>
</comp>

<comp id="170" class="1004" name="real_arr8_0_load_load_fu_170">
<pin_list>
<pin id="171" dir="0" index="0" bw="32" slack="0"/>
<pin id="172" dir="1" index="1" bw="32" slack="1"/>
</pin_list>
<bind>
<opcode="load(27) " fcode="load"/>
<opset="real_arr8_0_load/1 "/>
</bind>
</comp>

<comp id="174" class="1004" name="real_arr8_2_load_load_fu_174">
<pin_list>
<pin id="175" dir="0" index="0" bw="32" slack="0"/>
<pin id="176" dir="1" index="1" bw="32" slack="1"/>
</pin_list>
<bind>
<opcode="load(27) " fcode="load"/>
<opset="real_arr8_2_load/1 "/>
</bind>
</comp>

<comp id="178" class="1004" name="real_arr8_4_load_load_fu_178">
<pin_list>
<pin id="179" dir="0" index="0" bw="32" slack="0"/>
<pin id="180" dir="1" index="1" bw="32" slack="1"/>
</pin_list>
<bind>
<opcode="load(27) " fcode="load"/>
<opset="real_arr8_4_load/1 "/>
</bind>
</comp>

<comp id="182" class="1004" name="exitcond_fu_182">
<pin_list>
<pin id="183" dir="0" index="0" bw="3" slack="0"/>
<pin id="184" dir="0" index="1" bw="3" slack="0"/>
<pin id="185" dir="1" index="2" bw="1" slack="5"/>
</pin_list>
<bind>
<opcode="icmp(45) " fcode="icmp"/>
<opset="exitcond/2 "/>
</bind>
</comp>

<comp id="188" class="1004" name="i_V_fu_188">
<pin_list>
<pin id="189" dir="0" index="0" bw="3" slack="0"/>
<pin id="190" dir="0" index="1" bw="1" slack="0"/>
<pin id="191" dir="1" index="2" bw="3" slack="0"/>
</pin_list>
<bind>
<opcode="add(8) " fcode="add"/>
<opset="i_V/2 "/>
</bind>
</comp>

<comp id="194" class="1004" name="tmp_3_fu_194">
<pin_list>
<pin id="195" dir="0" index="0" bw="4" slack="0"/>
<pin id="196" dir="1" index="1" bw="3" slack="0"/>
</pin_list>
<bind>
<opcode="trunc(33) " fcode="trunc"/>
<opset="tmp_3/2 "/>
</bind>
</comp>

<comp id="198" class="1004" name="sel_tmp_fu_198">
<pin_list>
<pin id="199" dir="0" index="0" bw="3" slack="0"/>
<pin id="200" dir="0" index="1" bw="3" slack="0"/>
<pin id="201" dir="1" index="2" bw="1" slack="0"/>
</pin_list>
<bind>
<opcode="icmp(45) " fcode="icmp"/>
<opset="sel_tmp/2 "/>
</bind>
</comp>

<comp id="204" class="1004" name="sel_tmp1_fu_204">
<pin_list>
<pin id="205" dir="0" index="0" bw="1" slack="0"/>
<pin id="206" dir="0" index="1" bw="32" slack="1"/>
<pin id="207" dir="0" index="2" bw="32" slack="1"/>
<pin id="208" dir="1" index="3" bw="32" slack="0"/>
</pin_list>
<bind>
<opcode="select(49) " fcode="select"/>
<opset="sel_tmp1/2 "/>
</bind>
</comp>

<comp id="210" class="1004" name="sel_tmp2_fu_210">
<pin_list>
<pin id="211" dir="0" index="0" bw="3" slack="0"/>
<pin id="212" dir="0" index="1" bw="3" slack="0"/>
<pin id="213" dir="1" index="2" bw="1" slack="0"/>
</pin_list>
<bind>
<opcode="icmp(45) " fcode="icmp"/>
<opset="sel_tmp2/2 "/>
</bind>
</comp>

<comp id="216" class="1004" name="sel_tmp3_fu_216">
<pin_list>
<pin id="217" dir="0" index="0" bw="1" slack="0"/>
<pin id="218" dir="0" index="1" bw="32" slack="1"/>
<pin id="219" dir="0" index="2" bw="32" slack="0"/>
<pin id="220" dir="1" index="3" bw="32" slack="0"/>
</pin_list>
<bind>
<opcode="select(49) " fcode="select"/>
<opset="sel_tmp3/2 "/>
</bind>
</comp>

<comp id="223" class="1004" name="sel_tmp4_fu_223">
<pin_list>
<pin id="224" dir="0" index="0" bw="3" slack="0"/>
<pin id="225" dir="0" index="1" bw="3" slack="0"/>
<pin id="226" dir="1" index="2" bw="1" slack="0"/>
</pin_list>
<bind>
<opcode="icmp(45) " fcode="icmp"/>
<opset="sel_tmp4/2 "/>
</bind>
</comp>

<comp id="229" class="1004" name="real_arr8_load_phi_fu_229">
<pin_list>
<pin id="230" dir="0" index="0" bw="1" slack="0"/>
<pin id="231" dir="0" index="1" bw="32" slack="1"/>
<pin id="232" dir="0" index="2" bw="32" slack="0"/>
<pin id="233" dir="1" index="3" bw="32" slack="1"/>
</pin_list>
<bind>
<opcode="select(49) " fcode="select"/>
<opset="real_arr8_load_phi/2 "/>
</bind>
</comp>

<comp id="236" class="1004" name="r_V_fu_236">
<pin_list>
<pin id="237" dir="0" index="0" bw="3" slack="0"/>
<pin id="238" dir="0" index="1" bw="3" slack="0"/>
<pin id="239" dir="1" index="2" bw="3" slack="0"/>
</pin_list>
<bind>
<opcode="or(24) " fcode="or"/>
<opset="r_V/2 "/>
</bind>
</comp>

<comp id="242" class="1004" name="sel_tmp6_fu_242">
<pin_list>
<pin id="243" dir="0" index="0" bw="3" slack="0"/>
<pin id="244" dir="0" index="1" bw="3" slack="0"/>
<pin id="245" dir="1" index="2" bw="1" slack="0"/>
</pin_list>
<bind>
<opcode="icmp(45) " fcode="icmp"/>
<opset="sel_tmp6/2 "/>
</bind>
</comp>

<comp id="248" class="1004" name="sel_tmp7_fu_248">
<pin_list>
<pin id="249" dir="0" index="0" bw="1" slack="0"/>
<pin id="250" dir="0" index="1" bw="32" slack="1"/>
<pin id="251" dir="0" index="2" bw="32" slack="1"/>
<pin id="252" dir="1" index="3" bw="32" slack="0"/>
</pin_list>
<bind>
<opcode="select(49) " fcode="select"/>
<opset="sel_tmp7/2 "/>
</bind>
</comp>

<comp id="254" class="1004" name="sel_tmp8_fu_254">
<pin_list>
<pin id="255" dir="0" index="0" bw="3" slack="0"/>
<pin id="256" dir="0" index="1" bw="3" slack="0"/>
<pin id="257" dir="1" index="2" bw="1" slack="0"/>
</pin_list>
<bind>
<opcode="icmp(45) " fcode="icmp"/>
<opset="sel_tmp8/2 "/>
</bind>
</comp>

<comp id="260" class="1004" name="sel_tmp9_fu_260">
<pin_list>
<pin id="261" dir="0" index="0" bw="1" slack="0"/>
<pin id="262" dir="0" index="1" bw="32" slack="1"/>
<pin id="263" dir="0" index="2" bw="32" slack="0"/>
<pin id="264" dir="1" index="3" bw="32" slack="0"/>
</pin_list>
<bind>
<opcode="select(49) " fcode="select"/>
<opset="sel_tmp9/2 "/>
</bind>
</comp>

<comp id="267" class="1004" name="sel_tmp5_fu_267">
<pin_list>
<pin id="268" dir="0" index="0" bw="3" slack="0"/>
<pin id="269" dir="0" index="1" bw="3" slack="0"/>
<pin id="270" dir="1" index="2" bw="1" slack="0"/>
</pin_list>
<bind>
<opcode="icmp(45) " fcode="icmp"/>
<opset="sel_tmp5/2 "/>
</bind>
</comp>

<comp id="273" class="1004" name="real_arr8_load_1_phi_fu_273">
<pin_list>
<pin id="274" dir="0" index="0" bw="1" slack="0"/>
<pin id="275" dir="0" index="1" bw="32" slack="1"/>
<pin id="276" dir="0" index="2" bw="32" slack="0"/>
<pin id="277" dir="1" index="3" bw="32" slack="1"/>
</pin_list>
<bind>
<opcode="select(49) " fcode="select"/>
<opset="real_arr8_load_1_phi/2 "/>
</bind>
</comp>

<comp id="280" class="1004" name="tmp_5_fu_280">
<pin_list>
<pin id="281" dir="0" index="0" bw="3" slack="0"/>
<pin id="282" dir="1" index="1" bw="2" slack="5"/>
</pin_list>
<bind>
<opcode="trunc(33) " fcode="trunc"/>
<opset="tmp_5/2 "/>
</bind>
</comp>

<comp id="284" class="1004" name="sel_tmp10_fu_284">
<pin_list>
<pin id="285" dir="0" index="0" bw="1" slack="0"/>
<pin id="286" dir="0" index="1" bw="32" slack="1"/>
<pin id="287" dir="0" index="2" bw="32" slack="1"/>
<pin id="288" dir="1" index="3" bw="32" slack="0"/>
</pin_list>
<bind>
<opcode="select(49) " fcode="select"/>
<opset="sel_tmp10/2 "/>
</bind>
</comp>

<comp id="290" class="1004" name="sel_tmp11_fu_290">
<pin_list>
<pin id="291" dir="0" index="0" bw="1" slack="0"/>
<pin id="292" dir="0" index="1" bw="32" slack="1"/>
<pin id="293" dir="0" index="2" bw="32" slack="0"/>
<pin id="294" dir="1" index="3" bw="32" slack="0"/>
</pin_list>
<bind>
<opcode="select(49) " fcode="select"/>
<opset="sel_tmp11/2 "/>
</bind>
</comp>

<comp id="297" class="1004" name="imag_arr8_load_phi_fu_297">
<pin_list>
<pin id="298" dir="0" index="0" bw="1" slack="0"/>
<pin id="299" dir="0" index="1" bw="32" slack="1"/>
<pin id="300" dir="0" index="2" bw="32" slack="0"/>
<pin id="301" dir="1" index="3" bw="32" slack="1"/>
</pin_list>
<bind>
<opcode="select(49) " fcode="select"/>
<opset="imag_arr8_load_phi/2 "/>
</bind>
</comp>

<comp id="304" class="1004" name="sel_tmp12_fu_304">
<pin_list>
<pin id="305" dir="0" index="0" bw="1" slack="0"/>
<pin id="306" dir="0" index="1" bw="32" slack="1"/>
<pin id="307" dir="0" index="2" bw="32" slack="1"/>
<pin id="308" dir="1" index="3" bw="32" slack="0"/>
</pin_list>
<bind>
<opcode="select(49) " fcode="select"/>
<opset="sel_tmp12/2 "/>
</bind>
</comp>

<comp id="310" class="1004" name="sel_tmp13_fu_310">
<pin_list>
<pin id="311" dir="0" index="0" bw="1" slack="0"/>
<pin id="312" dir="0" index="1" bw="32" slack="1"/>
<pin id="313" dir="0" index="2" bw="32" slack="0"/>
<pin id="314" dir="1" index="3" bw="32" slack="0"/>
</pin_list>
<bind>
<opcode="select(49) " fcode="select"/>
<opset="sel_tmp13/2 "/>
</bind>
</comp>

<comp id="317" class="1004" name="imag_arr8_load_1_phi_fu_317">
<pin_list>
<pin id="318" dir="0" index="0" bw="1" slack="0"/>
<pin id="319" dir="0" index="1" bw="32" slack="1"/>
<pin id="320" dir="0" index="2" bw="32" slack="0"/>
<pin id="321" dir="1" index="3" bw="32" slack="1"/>
</pin_list>
<bind>
<opcode="select(49) " fcode="select"/>
<opset="imag_arr8_load_1_phi/2 "/>
</bind>
</comp>

<comp id="324" class="1004" name="j_V_fu_324">
<pin_list>
<pin id="325" dir="0" index="0" bw="4" slack="0"/>
<pin id="326" dir="0" index="1" bw="3" slack="0"/>
<pin id="327" dir="1" index="2" bw="4" slack="0"/>
</pin_list>
<bind>
<opcode="add(8) " fcode="add"/>
<opset="j_V/2 "/>
</bind>
</comp>

<comp id="330" class="1004" name="stg_67_store_fu_330">
<pin_list>
<pin id="331" dir="0" index="0" bw="32" slack="0"/>
<pin id="332" dir="0" index="1" bw="32" slack="0"/>
<pin id="333" dir="1" index="2" bw="0" slack="2147483647"/>
</pin_list>
<bind>
<opcode="store(28) " fcode="store"/>
<opset="stg_67/7 "/>
</bind>
</comp>

<comp id="336" class="1004" name="stg_69_store_fu_336">
<pin_list>
<pin id="337" dir="0" index="0" bw="32" slack="0"/>
<pin id="338" dir="0" index="1" bw="32" slack="0"/>
<pin id="339" dir="1" index="2" bw="0" slack="2147483647"/>
</pin_list>
<bind>
<opcode="store(28) " fcode="store"/>
<opset="stg_69/7 "/>
</bind>
</comp>

<comp id="342" class="1004" name="stg_71_store_fu_342">
<pin_list>
<pin id="343" dir="0" index="0" bw="32" slack="0"/>
<pin id="344" dir="0" index="1" bw="32" slack="0"/>
<pin id="345" dir="1" index="2" bw="0" slack="2147483647"/>
</pin_list>
<bind>
<opcode="store(28) " fcode="store"/>
<opset="stg_71/7 "/>
</bind>
</comp>

<comp id="348" class="1004" name="stg_73_store_fu_348">
<pin_list>
<pin id="349" dir="0" index="0" bw="32" slack="0"/>
<pin id="350" dir="0" index="1" bw="32" slack="0"/>
<pin id="351" dir="1" index="2" bw="0" slack="2147483647"/>
</pin_list>
<bind>
<opcode="store(28) " fcode="store"/>
<opset="stg_73/7 "/>
</bind>
</comp>

<comp id="354" class="1004" name="stg_76_store_fu_354">
<pin_list>
<pin id="355" dir="0" index="0" bw="32" slack="0"/>
<pin id="356" dir="0" index="1" bw="32" slack="0"/>
<pin id="357" dir="1" index="2" bw="0" slack="2147483647"/>
</pin_list>
<bind>
<opcode="store(28) " fcode="store"/>
<opset="stg_76/7 "/>
</bind>
</comp>

<comp id="360" class="1004" name="stg_78_store_fu_360">
<pin_list>
<pin id="361" dir="0" index="0" bw="32" slack="0"/>
<pin id="362" dir="0" index="1" bw="32" slack="0"/>
<pin id="363" dir="1" index="2" bw="0" slack="2147483647"/>
</pin_list>
<bind>
<opcode="store(28) " fcode="store"/>
<opset="stg_78/7 "/>
</bind>
</comp>

<comp id="366" class="1004" name="stg_80_store_fu_366">
<pin_list>
<pin id="367" dir="0" index="0" bw="32" slack="0"/>
<pin id="368" dir="0" index="1" bw="32" slack="0"/>
<pin id="369" dir="1" index="2" bw="0" slack="2147483647"/>
</pin_list>
<bind>
<opcode="store(28) " fcode="store"/>
<opset="stg_80/7 "/>
</bind>
</comp>

<comp id="372" class="1004" name="stg_82_store_fu_372">
<pin_list>
<pin id="373" dir="0" index="0" bw="32" slack="0"/>
<pin id="374" dir="0" index="1" bw="32" slack="0"/>
<pin id="375" dir="1" index="2" bw="0" slack="2147483647"/>
</pin_list>
<bind>
<opcode="store(28) " fcode="store"/>
<opset="stg_82/7 "/>
</bind>
</comp>

<comp id="378" class="1005" name="real_arr8_6_load_reg_378">
<pin_list>
<pin id="379" dir="0" index="0" bw="32" slack="1"/>
<pin id="380" dir="1" index="1" bw="32" slack="1"/>
</pin_list>
<bind>
<opset="real_arr8_6_load "/>
</bind>
</comp>

<comp id="383" class="1005" name="real_arr8_7_load_reg_383">
<pin_list>
<pin id="384" dir="0" index="0" bw="32" slack="1"/>
<pin id="385" dir="1" index="1" bw="32" slack="1"/>
</pin_list>
<bind>
<opset="real_arr8_7_load "/>
</bind>
</comp>

<comp id="388" class="1005" name="imag_arr8_6_load_reg_388">
<pin_list>
<pin id="389" dir="0" index="0" bw="32" slack="1"/>
<pin id="390" dir="1" index="1" bw="32" slack="1"/>
</pin_list>
<bind>
<opset="imag_arr8_6_load "/>
</bind>
</comp>

<comp id="393" class="1005" name="imag_arr8_7_load_reg_393">
<pin_list>
<pin id="394" dir="0" index="0" bw="32" slack="1"/>
<pin id="395" dir="1" index="1" bw="32" slack="1"/>
</pin_list>
<bind>
<opset="imag_arr8_7_load "/>
</bind>
</comp>

<comp id="398" class="1005" name="imag_arr8_1_load_reg_398">
<pin_list>
<pin id="399" dir="0" index="0" bw="32" slack="1"/>
<pin id="400" dir="1" index="1" bw="32" slack="1"/>
</pin_list>
<bind>
<opset="imag_arr8_1_load "/>
</bind>
</comp>

<comp id="403" class="1005" name="imag_arr8_3_load_reg_403">
<pin_list>
<pin id="404" dir="0" index="0" bw="32" slack="1"/>
<pin id="405" dir="1" index="1" bw="32" slack="1"/>
</pin_list>
<bind>
<opset="imag_arr8_3_load "/>
</bind>
</comp>

<comp id="408" class="1005" name="imag_arr8_5_load_reg_408">
<pin_list>
<pin id="409" dir="0" index="0" bw="32" slack="1"/>
<pin id="410" dir="1" index="1" bw="32" slack="1"/>
</pin_list>
<bind>
<opset="imag_arr8_5_load "/>
</bind>
</comp>

<comp id="413" class="1005" name="imag_arr8_0_load_reg_413">
<pin_list>
<pin id="414" dir="0" index="0" bw="32" slack="1"/>
<pin id="415" dir="1" index="1" bw="32" slack="1"/>
</pin_list>
<bind>
<opset="imag_arr8_0_load "/>
</bind>
</comp>

<comp id="418" class="1005" name="imag_arr8_2_load_reg_418">
<pin_list>
<pin id="419" dir="0" index="0" bw="32" slack="1"/>
<pin id="420" dir="1" index="1" bw="32" slack="1"/>
</pin_list>
<bind>
<opset="imag_arr8_2_load "/>
</bind>
</comp>

<comp id="423" class="1005" name="imag_arr8_4_load_reg_423">
<pin_list>
<pin id="424" dir="0" index="0" bw="32" slack="1"/>
<pin id="425" dir="1" index="1" bw="32" slack="1"/>
</pin_list>
<bind>
<opset="imag_arr8_4_load "/>
</bind>
</comp>

<comp id="428" class="1005" name="real_arr8_1_load_reg_428">
<pin_list>
<pin id="429" dir="0" index="0" bw="32" slack="1"/>
<pin id="430" dir="1" index="1" bw="32" slack="1"/>
</pin_list>
<bind>
<opset="real_arr8_1_load "/>
</bind>
</comp>

<comp id="433" class="1005" name="real_arr8_3_load_reg_433">
<pin_list>
<pin id="434" dir="0" index="0" bw="32" slack="1"/>
<pin id="435" dir="1" index="1" bw="32" slack="1"/>
</pin_list>
<bind>
<opset="real_arr8_3_load "/>
</bind>
</comp>

<comp id="438" class="1005" name="real_arr8_5_load_reg_438">
<pin_list>
<pin id="439" dir="0" index="0" bw="32" slack="1"/>
<pin id="440" dir="1" index="1" bw="32" slack="1"/>
</pin_list>
<bind>
<opset="real_arr8_5_load "/>
</bind>
</comp>

<comp id="443" class="1005" name="real_arr8_0_load_reg_443">
<pin_list>
<pin id="444" dir="0" index="0" bw="32" slack="1"/>
<pin id="445" dir="1" index="1" bw="32" slack="1"/>
</pin_list>
<bind>
<opset="real_arr8_0_load "/>
</bind>
</comp>

<comp id="448" class="1005" name="real_arr8_2_load_reg_448">
<pin_list>
<pin id="449" dir="0" index="0" bw="32" slack="1"/>
<pin id="450" dir="1" index="1" bw="32" slack="1"/>
</pin_list>
<bind>
<opset="real_arr8_2_load "/>
</bind>
</comp>

<comp id="453" class="1005" name="real_arr8_4_load_reg_453">
<pin_list>
<pin id="454" dir="0" index="0" bw="32" slack="1"/>
<pin id="455" dir="1" index="1" bw="32" slack="1"/>
</pin_list>
<bind>
<opset="real_arr8_4_load "/>
</bind>
</comp>

<comp id="458" class="1005" name="exitcond_reg_458">
<pin_list>
<pin id="459" dir="0" index="0" bw="1" slack="5"/>
<pin id="460" dir="1" index="1" bw="1" slack="2147483647"/>
</pin_list>
<bind>
<opset="exitcond "/>
</bind>
</comp>

<comp id="462" class="1005" name="i_V_reg_462">
<pin_list>
<pin id="463" dir="0" index="0" bw="3" slack="0"/>
<pin id="464" dir="1" index="1" bw="3" slack="0"/>
</pin_list>
<bind>
<opset="i_V "/>
</bind>
</comp>

<comp id="467" class="1005" name="real_arr8_load_phi_reg_467">
<pin_list>
<pin id="468" dir="0" index="0" bw="32" slack="1"/>
<pin id="469" dir="1" index="1" bw="32" slack="1"/>
</pin_list>
<bind>
<opset="real_arr8_load_phi "/>
</bind>
</comp>

<comp id="472" class="1005" name="real_arr8_load_1_phi_reg_472">
<pin_list>
<pin id="473" dir="0" index="0" bw="32" slack="1"/>
<pin id="474" dir="1" index="1" bw="32" slack="1"/>
</pin_list>
<bind>
<opset="real_arr8_load_1_phi "/>
</bind>
</comp>

<comp id="477" class="1005" name="tmp_5_reg_477">
<pin_list>
<pin id="478" dir="0" index="0" bw="2" slack="5"/>
<pin id="479" dir="1" index="1" bw="2" slack="2147483647"/>
</pin_list>
<bind>
<opset="tmp_5 "/>
</bind>
</comp>

<comp id="481" class="1005" name="imag_arr8_load_phi_reg_481">
<pin_list>
<pin id="482" dir="0" index="0" bw="32" slack="1"/>
<pin id="483" dir="1" index="1" bw="32" slack="1"/>
</pin_list>
<bind>
<opset="imag_arr8_load_phi "/>
</bind>
</comp>

<comp id="486" class="1005" name="imag_arr8_load_1_phi_reg_486">
<pin_list>
<pin id="487" dir="0" index="0" bw="32" slack="1"/>
<pin id="488" dir="1" index="1" bw="32" slack="1"/>
</pin_list>
<bind>
<opset="imag_arr8_load_1_phi "/>
</bind>
</comp>

<comp id="491" class="1005" name="j_V_reg_491">
<pin_list>
<pin id="492" dir="0" index="0" bw="4" slack="0"/>
<pin id="493" dir="1" index="1" bw="4" slack="0"/>
</pin_list>
<bind>
<opset="j_V "/>
</bind>
</comp>

</comp_list>

<net_list>
<net id="91"><net_src comp="48" pin="0"/><net_sink comp="88" pin=0"/></net>

<net id="98"><net_src comp="88" pin="1"/><net_sink comp="92" pin=0"/></net>

<net id="102"><net_src comp="50" pin="0"/><net_sink comp="99" pin=0"/></net>

<net id="109"><net_src comp="99" pin="1"/><net_sink comp="103" pin=0"/></net>

<net id="121"><net_src comp="0" pin="0"/><net_sink comp="118" pin=0"/></net>

<net id="125"><net_src comp="2" pin="0"/><net_sink comp="122" pin=0"/></net>

<net id="129"><net_src comp="4" pin="0"/><net_sink comp="126" pin=0"/></net>

<net id="133"><net_src comp="6" pin="0"/><net_sink comp="130" pin=0"/></net>

<net id="137"><net_src comp="8" pin="0"/><net_sink comp="134" pin=0"/></net>

<net id="141"><net_src comp="10" pin="0"/><net_sink comp="138" pin=0"/></net>

<net id="145"><net_src comp="12" pin="0"/><net_sink comp="142" pin=0"/></net>

<net id="149"><net_src comp="14" pin="0"/><net_sink comp="146" pin=0"/></net>

<net id="153"><net_src comp="16" pin="0"/><net_sink comp="150" pin=0"/></net>

<net id="157"><net_src comp="18" pin="0"/><net_sink comp="154" pin=0"/></net>

<net id="161"><net_src comp="20" pin="0"/><net_sink comp="158" pin=0"/></net>

<net id="165"><net_src comp="22" pin="0"/><net_sink comp="162" pin=0"/></net>

<net id="169"><net_src comp="24" pin="0"/><net_sink comp="166" pin=0"/></net>

<net id="173"><net_src comp="26" pin="0"/><net_sink comp="170" pin=0"/></net>

<net id="177"><net_src comp="28" pin="0"/><net_sink comp="174" pin=0"/></net>

<net id="181"><net_src comp="30" pin="0"/><net_sink comp="178" pin=0"/></net>

<net id="186"><net_src comp="103" pin="4"/><net_sink comp="182" pin=0"/></net>

<net id="187"><net_src comp="52" pin="0"/><net_sink comp="182" pin=1"/></net>

<net id="192"><net_src comp="103" pin="4"/><net_sink comp="188" pin=0"/></net>

<net id="193"><net_src comp="54" pin="0"/><net_sink comp="188" pin=1"/></net>

<net id="197"><net_src comp="92" pin="4"/><net_sink comp="194" pin=0"/></net>

<net id="202"><net_src comp="194" pin="1"/><net_sink comp="198" pin=0"/></net>

<net id="203"><net_src comp="56" pin="0"/><net_sink comp="198" pin=1"/></net>

<net id="209"><net_src comp="198" pin="2"/><net_sink comp="204" pin=0"/></net>

<net id="214"><net_src comp="194" pin="1"/><net_sink comp="210" pin=0"/></net>

<net id="215"><net_src comp="58" pin="0"/><net_sink comp="210" pin=1"/></net>

<net id="221"><net_src comp="210" pin="2"/><net_sink comp="216" pin=0"/></net>

<net id="222"><net_src comp="204" pin="3"/><net_sink comp="216" pin=2"/></net>

<net id="227"><net_src comp="194" pin="1"/><net_sink comp="223" pin=0"/></net>

<net id="228"><net_src comp="50" pin="0"/><net_sink comp="223" pin=1"/></net>

<net id="234"><net_src comp="223" pin="2"/><net_sink comp="229" pin=0"/></net>

<net id="235"><net_src comp="216" pin="3"/><net_sink comp="229" pin=2"/></net>

<net id="240"><net_src comp="194" pin="1"/><net_sink comp="236" pin=0"/></net>

<net id="241"><net_src comp="54" pin="0"/><net_sink comp="236" pin=1"/></net>

<net id="246"><net_src comp="236" pin="2"/><net_sink comp="242" pin=0"/></net>

<net id="247"><net_src comp="60" pin="0"/><net_sink comp="242" pin=1"/></net>

<net id="253"><net_src comp="242" pin="2"/><net_sink comp="248" pin=0"/></net>

<net id="258"><net_src comp="236" pin="2"/><net_sink comp="254" pin=0"/></net>

<net id="259"><net_src comp="52" pin="0"/><net_sink comp="254" pin=1"/></net>

<net id="265"><net_src comp="254" pin="2"/><net_sink comp="260" pin=0"/></net>

<net id="266"><net_src comp="248" pin="3"/><net_sink comp="260" pin=2"/></net>

<net id="271"><net_src comp="236" pin="2"/><net_sink comp="267" pin=0"/></net>

<net id="272"><net_src comp="54" pin="0"/><net_sink comp="267" pin=1"/></net>

<net id="278"><net_src comp="267" pin="2"/><net_sink comp="273" pin=0"/></net>

<net id="279"><net_src comp="260" pin="3"/><net_sink comp="273" pin=2"/></net>

<net id="283"><net_src comp="103" pin="4"/><net_sink comp="280" pin=0"/></net>

<net id="289"><net_src comp="198" pin="2"/><net_sink comp="284" pin=0"/></net>

<net id="295"><net_src comp="210" pin="2"/><net_sink comp="290" pin=0"/></net>

<net id="296"><net_src comp="284" pin="3"/><net_sink comp="290" pin=2"/></net>

<net id="302"><net_src comp="223" pin="2"/><net_sink comp="297" pin=0"/></net>

<net id="303"><net_src comp="290" pin="3"/><net_sink comp="297" pin=2"/></net>

<net id="309"><net_src comp="242" pin="2"/><net_sink comp="304" pin=0"/></net>

<net id="315"><net_src comp="254" pin="2"/><net_sink comp="310" pin=0"/></net>

<net id="316"><net_src comp="304" pin="3"/><net_sink comp="310" pin=2"/></net>

<net id="322"><net_src comp="267" pin="2"/><net_sink comp="317" pin=0"/></net>

<net id="323"><net_src comp="310" pin="3"/><net_sink comp="317" pin=2"/></net>

<net id="328"><net_src comp="92" pin="4"/><net_sink comp="324" pin=0"/></net>

<net id="329"><net_src comp="68" pin="0"/><net_sink comp="324" pin=1"/></net>

<net id="334"><net_src comp="110" pin="2"/><net_sink comp="330" pin=0"/></net>

<net id="335"><net_src comp="44" pin="0"/><net_sink comp="330" pin=1"/></net>

<net id="340"><net_src comp="110" pin="2"/><net_sink comp="336" pin=0"/></net>

<net id="341"><net_src comp="42" pin="0"/><net_sink comp="336" pin=1"/></net>

<net id="346"><net_src comp="110" pin="2"/><net_sink comp="342" pin=0"/></net>

<net id="347"><net_src comp="40" pin="0"/><net_sink comp="342" pin=1"/></net>

<net id="352"><net_src comp="110" pin="2"/><net_sink comp="348" pin=0"/></net>

<net id="353"><net_src comp="46" pin="0"/><net_sink comp="348" pin=1"/></net>

<net id="358"><net_src comp="114" pin="2"/><net_sink comp="354" pin=0"/></net>

<net id="359"><net_src comp="36" pin="0"/><net_sink comp="354" pin=1"/></net>

<net id="364"><net_src comp="114" pin="2"/><net_sink comp="360" pin=0"/></net>

<net id="365"><net_src comp="34" pin="0"/><net_sink comp="360" pin=1"/></net>

<net id="370"><net_src comp="114" pin="2"/><net_sink comp="366" pin=0"/></net>

<net id="371"><net_src comp="32" pin="0"/><net_sink comp="366" pin=1"/></net>

<net id="376"><net_src comp="114" pin="2"/><net_sink comp="372" pin=0"/></net>

<net id="377"><net_src comp="38" pin="0"/><net_sink comp="372" pin=1"/></net>

<net id="381"><net_src comp="118" pin="1"/><net_sink comp="378" pin=0"/></net>

<net id="382"><net_src comp="378" pin="1"/><net_sink comp="204" pin=2"/></net>

<net id="386"><net_src comp="122" pin="1"/><net_sink comp="383" pin=0"/></net>

<net id="387"><net_src comp="383" pin="1"/><net_sink comp="248" pin=2"/></net>

<net id="391"><net_src comp="126" pin="1"/><net_sink comp="388" pin=0"/></net>

<net id="392"><net_src comp="388" pin="1"/><net_sink comp="284" pin=2"/></net>

<net id="396"><net_src comp="130" pin="1"/><net_sink comp="393" pin=0"/></net>

<net id="397"><net_src comp="393" pin="1"/><net_sink comp="304" pin=2"/></net>

<net id="401"><net_src comp="134" pin="1"/><net_sink comp="398" pin=0"/></net>

<net id="402"><net_src comp="398" pin="1"/><net_sink comp="317" pin=1"/></net>

<net id="406"><net_src comp="138" pin="1"/><net_sink comp="403" pin=0"/></net>

<net id="407"><net_src comp="403" pin="1"/><net_sink comp="304" pin=1"/></net>

<net id="411"><net_src comp="142" pin="1"/><net_sink comp="408" pin=0"/></net>

<net id="412"><net_src comp="408" pin="1"/><net_sink comp="310" pin=1"/></net>

<net id="416"><net_src comp="146" pin="1"/><net_sink comp="413" pin=0"/></net>

<net id="417"><net_src comp="413" pin="1"/><net_sink comp="297" pin=1"/></net>

<net id="421"><net_src comp="150" pin="1"/><net_sink comp="418" pin=0"/></net>

<net id="422"><net_src comp="418" pin="1"/><net_sink comp="284" pin=1"/></net>

<net id="426"><net_src comp="154" pin="1"/><net_sink comp="423" pin=0"/></net>

<net id="427"><net_src comp="423" pin="1"/><net_sink comp="290" pin=1"/></net>

<net id="431"><net_src comp="158" pin="1"/><net_sink comp="428" pin=0"/></net>

<net id="432"><net_src comp="428" pin="1"/><net_sink comp="273" pin=1"/></net>

<net id="436"><net_src comp="162" pin="1"/><net_sink comp="433" pin=0"/></net>

<net id="437"><net_src comp="433" pin="1"/><net_sink comp="248" pin=1"/></net>

<net id="441"><net_src comp="166" pin="1"/><net_sink comp="438" pin=0"/></net>

<net id="442"><net_src comp="438" pin="1"/><net_sink comp="260" pin=1"/></net>

<net id="446"><net_src comp="170" pin="1"/><net_sink comp="443" pin=0"/></net>

<net id="447"><net_src comp="443" pin="1"/><net_sink comp="229" pin=1"/></net>

<net id="451"><net_src comp="174" pin="1"/><net_sink comp="448" pin=0"/></net>

<net id="452"><net_src comp="448" pin="1"/><net_sink comp="204" pin=1"/></net>

<net id="456"><net_src comp="178" pin="1"/><net_sink comp="453" pin=0"/></net>

<net id="457"><net_src comp="453" pin="1"/><net_sink comp="216" pin=1"/></net>

<net id="461"><net_src comp="182" pin="2"/><net_sink comp="458" pin=0"/></net>

<net id="465"><net_src comp="188" pin="2"/><net_sink comp="462" pin=0"/></net>

<net id="466"><net_src comp="462" pin="1"/><net_sink comp="103" pin=2"/></net>

<net id="470"><net_src comp="229" pin="3"/><net_sink comp="467" pin=0"/></net>

<net id="471"><net_src comp="467" pin="1"/><net_sink comp="110" pin=0"/></net>

<net id="475"><net_src comp="273" pin="3"/><net_sink comp="472" pin=0"/></net>

<net id="476"><net_src comp="472" pin="1"/><net_sink comp="110" pin=1"/></net>

<net id="480"><net_src comp="280" pin="1"/><net_sink comp="477" pin=0"/></net>

<net id="484"><net_src comp="297" pin="3"/><net_sink comp="481" pin=0"/></net>

<net id="485"><net_src comp="481" pin="1"/><net_sink comp="114" pin=0"/></net>

<net id="489"><net_src comp="317" pin="3"/><net_sink comp="486" pin=0"/></net>

<net id="490"><net_src comp="486" pin="1"/><net_sink comp="114" pin=1"/></net>

<net id="494"><net_src comp="324" pin="2"/><net_sink comp="491" pin=0"/></net>

<net id="495"><net_src comp="491" pin="1"/><net_sink comp="92" pin=2"/></net>

</net_list>

</model> 
---------------- Datapath Model END ------------------

* FSMD analyzer results:
  - Output states:
	Port: real_arr8_6 | {}
	Port: real_arr8_7 | {}
	Port: imag_arr8_6 | {}
	Port: imag_arr8_7 | {}
	Port: imag_arr8_1 | {}
	Port: imag_arr8_3 | {}
	Port: imag_arr8_5 | {}
	Port: imag_arr8_0 | {}
	Port: imag_arr8_2 | {}
	Port: imag_arr8_4 | {}
	Port: real_arr8_1 | {}
	Port: real_arr8_3 | {}
	Port: real_arr8_5 | {}
	Port: real_arr8_0 | {}
	Port: real_arr8_2 | {}
	Port: real_arr8_4 | {}
	Port: imag_arr4_0 | {}
	Port: imag_arr4_1 | {}
	Port: imag_arr4_2 | {}
	Port: imag_arr4_3 | {}
	Port: real_arr4_0 | {}
	Port: real_arr4_1 | {}
	Port: real_arr4_2 | {}
	Port: real_arr4_3 | {}
  - Chain level:
	State 1
	State 2
		exitcond : 1
		i_V : 1
		stg_30 : 2
		tmp_3 : 1
		sel_tmp : 2
		sel_tmp1 : 3
		sel_tmp2 : 2
		sel_tmp3 : 4
		sel_tmp4 : 2
		real_arr8_load_phi : 5
		r_V : 2
		sel_tmp6 : 2
		sel_tmp7 : 3
		sel_tmp8 : 2
		sel_tmp9 : 4
		sel_tmp5 : 2
		real_arr8_load_1_phi : 5
		tmp_5 : 1
		stg_46 : 2
		sel_tmp10 : 3
		sel_tmp11 : 4
		imag_arr8_load_phi : 5
		sel_tmp12 : 3
		sel_tmp13 : 4
		imag_arr8_load_1_phi : 5
		stg_53 : 2
		j_V : 1
	State 3
	State 4
	State 5
	State 6
	State 7
		stg_67 : 1
		stg_69 : 1
		stg_71 : 1
		stg_73 : 1
		stg_76 : 1
		stg_78 : 1
		stg_80 : 1
		stg_82 : 1
		empty_8 : 1
	State 8


============================================================
+ Verbose Summary: Datapath Resource usage 
============================================================

* Functional unit list:
|----------|-----------------------------|---------|---------|---------|
| Operation|       Functional Unit       |  DSP48E |    FF   |   LUT   |
|----------|-----------------------------|---------|---------|---------|
|   fadd   |          grp_fu_110         |    2    |   205   |   390   |
|          |          grp_fu_114         |    2    |   205   |   390   |
|----------|-----------------------------|---------|---------|---------|
|          |       sel_tmp1_fu_204       |    0    |    0    |    32   |
|          |       sel_tmp3_fu_216       |    0    |    0    |    32   |
|          |  real_arr8_load_phi_fu_229  |    0    |    0    |    32   |
|          |       sel_tmp7_fu_248       |    0    |    0    |    32   |
|          |       sel_tmp9_fu_260       |    0    |    0    |    32   |
|  select  | real_arr8_load_1_phi_fu_273 |    0    |    0    |    32   |
|          |       sel_tmp10_fu_284      |    0    |    0    |    32   |
|          |       sel_tmp11_fu_290      |    0    |    0    |    32   |
|          |  imag_arr8_load_phi_fu_297  |    0    |    0    |    32   |
|          |       sel_tmp12_fu_304      |    0    |    0    |    32   |
|          |       sel_tmp13_fu_310      |    0    |    0    |    32   |
|          | imag_arr8_load_1_phi_fu_317 |    0    |    0    |    32   |
|----------|-----------------------------|---------|---------|---------|
|          |       exitcond_fu_182       |    0    |    0    |    2    |
|          |        sel_tmp_fu_198       |    0    |    0    |    2    |
|          |       sel_tmp2_fu_210       |    0    |    0    |    2    |
|   icmp   |       sel_tmp4_fu_223       |    0    |    0    |    2    |
|          |       sel_tmp6_fu_242       |    0    |    0    |    2    |
|          |       sel_tmp8_fu_254       |    0    |    0    |    2    |
|          |       sel_tmp5_fu_267       |    0    |    0    |    2    |
|----------|-----------------------------|---------|---------|---------|
|    add   |          i_V_fu_188         |    0    |    0    |    3    |
|          |          j_V_fu_324         |    0    |    0    |    4    |
|----------|-----------------------------|---------|---------|---------|
|   trunc  |         tmp_3_fu_194        |    0    |    0    |    0    |
|          |         tmp_5_fu_280        |    0    |    0    |    0    |
|----------|-----------------------------|---------|---------|---------|
|    or    |          r_V_fu_236         |    0    |    0    |    0    |
|----------|-----------------------------|---------|---------|---------|
|   Total  |                             |    4    |   410   |   1185  |
|----------|-----------------------------|---------|---------|---------|

Memories:
N/A

* Register list:
+----------------------------+--------+
|                            |   FF   |
+----------------------------+--------+
|      exitcond_reg_458      |    1   |
|         i_V_reg_462        |    3   |
|  imag_arr8_0_load_reg_413  |   32   |
|  imag_arr8_1_load_reg_398  |   32   |
|  imag_arr8_2_load_reg_418  |   32   |
|  imag_arr8_3_load_reg_403  |   32   |
|  imag_arr8_4_load_reg_423  |   32   |
|  imag_arr8_5_load_reg_408  |   32   |
|  imag_arr8_6_load_reg_388  |   32   |
|  imag_arr8_7_load_reg_393  |   32   |
|imag_arr8_load_1_phi_reg_486|   32   |
| imag_arr8_load_phi_reg_481 |   32   |
|         j_V_reg_491        |    4   |
|         p_3_reg_99         |    3   |
|         p_s_reg_88         |    4   |
|  real_arr8_0_load_reg_443  |   32   |
|  real_arr8_1_load_reg_428  |   32   |
|  real_arr8_2_load_reg_448  |   32   |
|  real_arr8_3_load_reg_433  |   32   |
|  real_arr8_4_load_reg_453  |   32   |
|  real_arr8_5_load_reg_438  |   32   |
|  real_arr8_6_load_reg_378  |   32   |
|  real_arr8_7_load_reg_383  |   32   |
|real_arr8_load_1_phi_reg_472|   32   |
| real_arr8_load_phi_reg_467 |   32   |
|        tmp_5_reg_477       |    2   |
+----------------------------+--------+
|            Total           |   657  |
+----------------------------+--------+

* Multiplexer (MUX) list: 
|--------|------|------|------|--------|
|  Comp  |  Pin | Size |  BW  | S x BW |
|--------|------|------|------|--------|
|  Total |      |      |      |    0   |
|--------|------|------|------|--------|



* Summary:
+-----------+--------+--------+--------+
|           | DSP48E |   FF   |   LUT  |
+-----------+--------+--------+--------+
|  Function |    4   |   410  |  1185  |
|   Memory  |    -   |    -   |    -   |
|Multiplexer|    -   |    -   |    -   |
|  Register |    -   |   657  |    -   |
+-----------+--------+--------+--------+
|   Total   |    4   |  1067  |  1185  |
+-----------+--------+--------+--------+
