

================================================================
== Vivado HLS Report for 'fft_stage_first_Loop_butterfly_proc'
================================================================
* Date:           Fri Nov 11 03:30:42 2016

* Version:        2015.4 (Build 1412921 on Wed Nov 18 09:58:55 AM 2015)
* Project:        fft_stage_first
* Solution:       solution3
* Product family: zynq
* Target device:  xc7z020clg484-1


================================================================
== Performance Estimates
================================================================
+ Timing (ns): 
    * Summary: 
    +--------+-------+----------+------------+
    |  Clock | Target| Estimated| Uncertainty|
    +--------+-------+----------+------------+
    |ap_clk  |  10.00|      8.41|        1.25|
    +--------+-------+----------+------------+

+ Latency (clock cycles): 
    * Summary: 
    +-----+-----+-----+-----+---------+
    |  Latency  |  Interval | Pipeline|
    | min | max | min | max |   Type  |
    +-----+-----+-----+-----+---------+
    |  531|  531|  531|  531|   none  |
    +-----+-----+-----+-----+---------+

    + Detail: 
        * Instance: 
        N/A

        * Loop: 
        +-------------+-----+-----+----------+-----------+-----------+------+----------+
        |             |  Latency  | Iteration|  Initiation Interval  | Trip |          |
        |  Loop Name  | min | max |  Latency |  achieved |   target  | Count| Pipelined|
        +-------------+-----+-----+----------+-----------+-----------+------+----------+
        |- butterfly  |  530|  530|       530|          -|          -|     1|    no    |
        | + DFTpts    |  526|  526|        16|          1|          1|   512|    yes   |
        +-------------+-----+-----+----------+-----------+-----------+------+----------+



================================================================
== Utilization Estimates
================================================================
* Summary: 
+-----------------+---------+-------+--------+-------+
|       Name      | BRAM_18K| DSP48E|   FF   |  LUT  |
+-----------------+---------+-------+--------+-------+
|DSP              |        -|      -|       -|      -|
|Expression       |        -|      -|       0|     25|
|FIFO             |        -|      -|       -|      -|
|Instance         |        -|     24|    1802|   3624|
|Memory           |        2|      -|       0|      0|
|Multiplexer      |        -|      -|       -|     23|
|Register         |        -|      -|     503|     11|
+-----------------+---------+-------+--------+-------+
|Total            |        2|     24|    2305|   3683|
+-----------------+---------+-------+--------+-------+
|Available        |      280|    220|  106400|  53200|
+-----------------+---------+-------+--------+-------+
|Utilization (%)  |    ~0   |     10|       2|      6|
+-----------------+---------+-------+--------+-------+

+ Detail: 
    * Instance: 
    +-------------------------------------------------+----------------------------------------------+---------+-------+-----+-----+
    |                     Instance                    |                    Module                    | BRAM_18K| DSP48E|  FF | LUT |
    +-------------------------------------------------+----------------------------------------------+---------+-------+-----+-----+
    |fft_stage_first_fadd_32ns_32ns_32_5_full_dsp_U1  |fft_stage_first_fadd_32ns_32ns_32_5_full_dsp  |        0|      2|  205|  390|
    |fft_stage_first_fadd_32ns_32ns_32_5_full_dsp_U4  |fft_stage_first_fadd_32ns_32ns_32_5_full_dsp  |        0|      2|  205|  390|
    |fft_stage_first_fadd_32ns_32ns_32_5_full_dsp_U5  |fft_stage_first_fadd_32ns_32ns_32_5_full_dsp  |        0|      2|  205|  390|
    |fft_stage_first_fmul_32ns_32ns_32_4_max_dsp_U6   |fft_stage_first_fmul_32ns_32ns_32_4_max_dsp   |        0|      3|  143|  321|
    |fft_stage_first_fmul_32ns_32ns_32_4_max_dsp_U7   |fft_stage_first_fmul_32ns_32ns_32_4_max_dsp   |        0|      3|  143|  321|
    |fft_stage_first_fmul_32ns_32ns_32_4_max_dsp_U8   |fft_stage_first_fmul_32ns_32ns_32_4_max_dsp   |        0|      3|  143|  321|
    |fft_stage_first_fmul_32ns_32ns_32_4_max_dsp_U9   |fft_stage_first_fmul_32ns_32ns_32_4_max_dsp   |        0|      3|  143|  321|
    |fft_stage_first_fsub_32ns_32ns_32_5_full_dsp_U0  |fft_stage_first_fsub_32ns_32ns_32_5_full_dsp  |        0|      2|  205|  390|
    |fft_stage_first_fsub_32ns_32ns_32_5_full_dsp_U2  |fft_stage_first_fsub_32ns_32ns_32_5_full_dsp  |        0|      2|  205|  390|
    |fft_stage_first_fsub_32ns_32ns_32_5_full_dsp_U3  |fft_stage_first_fsub_32ns_32ns_32_5_full_dsp  |        0|      2|  205|  390|
    +-------------------------------------------------+----------------------------------------------+---------+-------+-----+-----+
    |Total                                            |                                              |        0|     24| 1802| 3624|
    +-------------------------------------------------+----------------------------------------------+---------+-------+-----+-----+

    * DSP48: 
    N/A

    * Memory: 
    +----------+--------------------------------------------+---------+---+----+------+-----+------+-------------+
    |  Memory  |                   Module                   | BRAM_18K| FF| LUT| Words| Bits| Banks| W*Bits*Banks|
    +----------+--------------------------------------------+---------+---+----+------+-----+------+-------------+
    |W_imag_U  |fft_stage_first_Loop_butterfly_proc_W_imag  |        1|  0|   0|   512|   32|     1|        16384|
    |W_real_U  |fft_stage_first_Loop_butterfly_proc_W_real  |        1|  0|   0|   512|   32|     1|        16384|
    +----------+--------------------------------------------+---------+---+----+------+-----+------+-------------+
    |Total     |                                            |        2|  0|   0|  1024|   64|     2|        32768|
    +----------+--------------------------------------------+---------+---+----+------+-----+------+-------------+

    * FIFO: 
    N/A

    * Expression: 
    +----------------+----------+-------+---+----+------------+------------+
    |  Variable Name | Operation| DSP48E| FF| LUT| Bitwidth P0| Bitwidth P1|
    +----------------+----------+-------+---+----+------------+------------+
    |i_1_fu_294_p2   |     +    |      0|  0|  11|          11|           2|
    |ap_sig_bdd_304  |    or    |      0|  0|   1|           1|           1|
    |k_fu_300_p2     |    xor   |      0|  0|  13|          10|          11|
    +----------------+----------+-------+---+----+------------+------------+
    |Total           |          |      0|  0|  25|          22|          14|
    +----------------+----------+-------+---+----+------------+------------+

    * Multiplexer: 
    +------------------------+----+-----------+-----+-----------+
    |          Name          | LUT| Input Size| Bits| Total Bits|
    +------------------------+----+-----------+-----+-----------+
    |ap_NS_fsm               |   1|          6|    1|          6|
    |ap_reg_ppiten_pp0_it15  |   1|          2|    1|          2|
    |i_0_i_i_reg_209         |  11|          2|   11|         22|
    |k_0_i_i_reg_184         |  10|          2|   10|         20|
    +------------------------+----+-----------+-----+-----------+
    |Total                   |  23|         12|   23|         50|
    +------------------------+----+-----------+-----+-----------+

    * Register: 
    +------------------------+----+----+-----+-----------+
    |          Name          | FF | LUT| Bits| Const Bits|
    +------------------------+----+----+-----+-----------+
    |ap_CS_fsm               |   5|   0|    5|          0|
    |ap_done_reg             |   1|   0|    1|          0|
    |ap_reg_ppiten_pp0_it0   |   1|   0|    1|          0|
    |ap_reg_ppiten_pp0_it1   |   1|   0|    1|          0|
    |ap_reg_ppiten_pp0_it10  |   1|   0|    1|          0|
    |ap_reg_ppiten_pp0_it11  |   1|   0|    1|          0|
    |ap_reg_ppiten_pp0_it12  |   1|   0|    1|          0|
    |ap_reg_ppiten_pp0_it13  |   1|   0|    1|          0|
    |ap_reg_ppiten_pp0_it14  |   1|   0|    1|          0|
    |ap_reg_ppiten_pp0_it15  |   1|   0|    1|          0|
    |ap_reg_ppiten_pp0_it2   |   1|   0|    1|          0|
    |ap_reg_ppiten_pp0_it3   |   1|   0|    1|          0|
    |ap_reg_ppiten_pp0_it4   |   1|   0|    1|          0|
    |ap_reg_ppiten_pp0_it5   |   1|   0|    1|          0|
    |ap_reg_ppiten_pp0_it6   |   1|   0|    1|          0|
    |ap_reg_ppiten_pp0_it7   |   1|   0|    1|          0|
    |ap_reg_ppiten_pp0_it8   |   1|   0|    1|          0|
    |ap_reg_ppiten_pp0_it9   |   1|   0|    1|          0|
    |c_reg_316               |  32|   0|   32|          0|
    |i_0_i_i_reg_209         |  11|   0|   11|          0|
    |i_reg_196               |   1|   0|    1|          0|
    |imag_i_0_load_reg_417   |  32|   0|   32|          0|
    |k_0_i_i_reg_184         |  10|   0|   10|          0|
    |newIndex2_reg_332       |  10|   0|   64|         54|
    |real_i_0_load_reg_411   |  32|   0|   32|          0|
    |s_reg_322               |  32|   0|   32|          0|
    |temp_I_reg_405          |  32|   0|   32|          0|
    |temp_R_reg_399          |  32|   0|   32|          0|
    |tmp_10_i_reg_438        |  32|   0|   32|          0|
    |tmp_2_reg_328           |   1|   0|    1|          0|
    |tmp_3_i_reg_369         |  32|   0|   32|          0|
    |tmp_4_i_reg_374         |  32|   0|   32|          0|
    |tmp_5_i_reg_379         |  32|   0|   32|          0|
    |tmp_6_i_reg_384         |  32|   0|   32|          0|
    |tmp_8_i_reg_423         |  32|   0|   32|          0|
    |tmp_9_i_reg_428         |  32|   0|   32|          0|
    |tmp_i_8_reg_433         |  32|   0|   32|          0|
    |newIndex2_reg_332       |   0|  10|   64|         54|
    |tmp_2_reg_328           |   0|   1|    1|          0|
    +------------------------+----+----+-----+-----------+
    |Total                   | 503|  11|  622|        108|
    +------------------------+----+----+-----+-----------+



================================================================
== Interface
================================================================
* Summary: 
+-------------------+-----+-----+------------+-------------------------------------+--------------+
|     RTL Ports     | Dir | Bits|  Protocol  |            Source Object            |    C Type    |
+-------------------+-----+-----+------------+-------------------------------------+--------------+
|ap_clk             |  in |    1| ap_ctrl_hs | fft_stage_first_Loop_butterfly_proc | return value |
|ap_rst             |  in |    1| ap_ctrl_hs | fft_stage_first_Loop_butterfly_proc | return value |
|ap_start           |  in |    1| ap_ctrl_hs | fft_stage_first_Loop_butterfly_proc | return value |
|ap_done            | out |    1| ap_ctrl_hs | fft_stage_first_Loop_butterfly_proc | return value |
|ap_continue        |  in |    1| ap_ctrl_hs | fft_stage_first_Loop_butterfly_proc | return value |
|ap_idle            | out |    1| ap_ctrl_hs | fft_stage_first_Loop_butterfly_proc | return value |
|ap_ready           | out |    1| ap_ctrl_hs | fft_stage_first_Loop_butterfly_proc | return value |
|imag_o_0_address0  | out |    9|  ap_memory |               imag_o_0              |     array    |
|imag_o_0_ce0       | out |    1|  ap_memory |               imag_o_0              |     array    |
|imag_o_0_we0       | out |    1|  ap_memory |               imag_o_0              |     array    |
|imag_o_0_d0        | out |   32|  ap_memory |               imag_o_0              |     array    |
|imag_o_1_address0  | out |    9|  ap_memory |               imag_o_1              |     array    |
|imag_o_1_ce0       | out |    1|  ap_memory |               imag_o_1              |     array    |
|imag_o_1_we0       | out |    1|  ap_memory |               imag_o_1              |     array    |
|imag_o_1_d0        | out |   32|  ap_memory |               imag_o_1              |     array    |
|real_o_0_address0  | out |    9|  ap_memory |               real_o_0              |     array    |
|real_o_0_ce0       | out |    1|  ap_memory |               real_o_0              |     array    |
|real_o_0_we0       | out |    1|  ap_memory |               real_o_0              |     array    |
|real_o_0_d0        | out |   32|  ap_memory |               real_o_0              |     array    |
|real_o_1_address0  | out |    9|  ap_memory |               real_o_1              |     array    |
|real_o_1_ce0       | out |    1|  ap_memory |               real_o_1              |     array    |
|real_o_1_we0       | out |    1|  ap_memory |               real_o_1              |     array    |
|real_o_1_d0        | out |   32|  ap_memory |               real_o_1              |     array    |
|imag_i_0_address0  | out |    9|  ap_memory |               imag_i_0              |     array    |
|imag_i_0_ce0       | out |    1|  ap_memory |               imag_i_0              |     array    |
|imag_i_0_q0        |  in |   32|  ap_memory |               imag_i_0              |     array    |
|imag_i_1_address0  | out |    9|  ap_memory |               imag_i_1              |     array    |
|imag_i_1_ce0       | out |    1|  ap_memory |               imag_i_1              |     array    |
|imag_i_1_q0        |  in |   32|  ap_memory |               imag_i_1              |     array    |
|real_i_0_address0  | out |    9|  ap_memory |               real_i_0              |     array    |
|real_i_0_ce0       | out |    1|  ap_memory |               real_i_0              |     array    |
|real_i_0_q0        |  in |   32|  ap_memory |               real_i_0              |     array    |
|real_i_1_address0  | out |    9|  ap_memory |               real_i_1              |     array    |
|real_i_1_ce0       | out |    1|  ap_memory |               real_i_1              |     array    |
|real_i_1_q0        |  in |   32|  ap_memory |               real_i_1              |     array    |
+-------------------+-----+-----+------------+-------------------------------------+--------------+

============================================================
+ Verbose Summary: Synthesis Manager
============================================================
InlineROM: 1
ExposeGlobal: 0
============================================================
+ Verbose Summary: CDFG Model
============================================================
IsTopModel: 0
ResetActiveHigh: 1
IsCombinational: 2
IsDatapathOnly: 0
HasWiredReturn: 1
HasMFsm: 0
HasVarLatency: 1
IsPipeline: 0
IsRtlPipelined: 0
IsInstanceOverlapped: 0
IsDontTouch: 0
HasImplIP: 0
IsGatedGlobalClock: 0

+ Individual pipeline summary: 
  * Pipeline-0: initiation interval (II) = 1, depth = 16


============================================================
+ Verbose Summary: Schedule
============================================================
* Number of FSM states: 20
* Pipeline: 1
  Pipeline-0: II = 1, D = 16, States = { 4 5 6 7 8 9 10 11 12 13 14 15 16 17 18 19 }
* Dataflow Pipeline: 0

* FSM state transitions: 
1 --> 
	2  / true
2 --> 
	3  / (!i)
3 --> 
	4  / true
4 --> 
	20  / (tmp_2)
	5  / (!tmp_2)
5 --> 
	6  / true
6 --> 
	7  / true
7 --> 
	8  / true
8 --> 
	9  / true
9 --> 
	10  / true
10 --> 
	11  / true
11 --> 
	12  / true
12 --> 
	13  / true
13 --> 
	14  / true
14 --> 
	15  / true
15 --> 
	16  / true
16 --> 
	17  / true
17 --> 
	18  / true
18 --> 
	19  / true
19 --> 
	4  / true
20 --> 
	2  / true
* FSM state operations: 

 <State 1>: 1.57ns
ST_1: stg_21 [1/1] 1.57ns
newFuncRoot:0  br label %0


 <State 2>: 2.39ns
ST_2: k_0_i_i [1/1] 0.00ns
:0  %k_0_i_i = phi i10 [ 0, %newFuncRoot ], [ %k, %1 ]

ST_2: i [1/1] 0.00ns
:1  %i = phi i1 [ false, %newFuncRoot ], [ true, %1 ]

ST_2: stg_24 [1/1] 0.00ns
:2  br i1 %i, label %fft_stage_first_.exit2.exitStub, label %3

ST_2: tmp_i [1/1] 0.00ns
:3  %tmp_i = zext i10 %k_0_i_i to i64

ST_2: W_real_addr [1/1] 0.00ns
:4  %W_real_addr = getelementptr inbounds [512 x float]* @W_real, i64 0, i64 %tmp_i

ST_2: c [2/2] 2.39ns
:5  %c = load float* %W_real_addr, align 16

ST_2: W_imag_addr [1/1] 0.00ns
:6  %W_imag_addr = getelementptr inbounds [512 x float]* @W_imag, i64 0, i64 %tmp_i

ST_2: s [2/2] 2.39ns
:7  %s = load float* %W_imag_addr, align 16

ST_2: stg_30 [1/1] 0.00ns
fft_stage_first_.exit2.exitStub:0  ret void


 <State 3>: 2.39ns
ST_3: stg_31 [1/1] 0.00ns
:0  call void (...)* @_ssdm_op_SpecLoopTripCount(i64 1, i64 1, i64 1)

ST_3: stg_32 [1/1] 0.00ns
:1  call void (...)* @_ssdm_op_SpecLoopName([10 x i8]* @p_str2) nounwind

ST_3: tmp [1/1] 0.00ns
:2  %tmp = call i32 (...)* @_ssdm_op_SpecRegionBegin([10 x i8]* @p_str2) nounwind

ST_3: c [1/2] 2.39ns
:5  %c = load float* %W_real_addr, align 16

ST_3: s [1/2] 2.39ns
:7  %s = load float* %W_imag_addr, align 16

ST_3: stg_36 [1/1] 1.57ns
:8  br label %2


 <State 4>: 2.71ns
ST_4: i_0_i_i [1/1] 0.00ns
:0  %i_0_i_i = phi i11 [ 0, %3 ], [ %i_1, %_ifconv ]

ST_4: tmp_2 [1/1] 0.00ns
:1  %tmp_2 = call i1 @_ssdm_op_BitSelect.i1.i11.i32(i11 %i_0_i_i, i32 10)

ST_4: stg_39 [1/1] 0.00ns
:2  call void (...)* @_ssdm_op_SpecLoopTripCount(i64 512, i64 512, i64 512)

ST_4: stg_40 [1/1] 0.00ns
:3  br i1 %tmp_2, label %1, label %_ifconv

ST_4: tmp_3 [1/1] 0.00ns
_ifconv:3  %tmp_3 = call i10 @_ssdm_op_PartSelect.i10.i11.i32.i32(i11 %i_0_i_i, i32 1, i32 10)

ST_4: newIndex2 [1/1] 0.00ns
_ifconv:4  %newIndex2 = zext i10 %tmp_3 to i64

ST_4: real_i_1_addr [1/1] 0.00ns
_ifconv:5  %real_i_1_addr = getelementptr [512 x float]* %real_i_1, i64 0, i64 %newIndex2

ST_4: real_i_1_load [2/2] 2.71ns
_ifconv:6  %real_i_1_load = load float* %real_i_1_addr, align 4

ST_4: imag_i_1_addr [1/1] 0.00ns
_ifconv:8  %imag_i_1_addr = getelementptr [512 x float]* %imag_i_1, i64 0, i64 %newIndex2

ST_4: imag_i_1_load [2/2] 2.71ns
_ifconv:9  %imag_i_1_load = load float* %imag_i_1_addr, align 4

ST_4: i_1 [1/1] 1.84ns
_ifconv:32  %i_1 = add i11 %i_0_i_i, 2


 <State 5>: 8.41ns
ST_5: real_i_1_load [1/2] 2.71ns
_ifconv:6  %real_i_1_load = load float* %real_i_1_addr, align 4

ST_5: tmp_3_i [4/4] 5.70ns
_ifconv:7  %tmp_3_i = fmul float %real_i_1_load, %c

ST_5: imag_i_1_load [1/2] 2.71ns
_ifconv:9  %imag_i_1_load = load float* %imag_i_1_addr, align 4

ST_5: tmp_4_i [4/4] 5.70ns
_ifconv:10  %tmp_4_i = fmul float %imag_i_1_load, %s

ST_5: tmp_5_i [4/4] 5.70ns
_ifconv:12  %tmp_5_i = fmul float %imag_i_1_load, %c

ST_5: tmp_6_i [4/4] 5.70ns
_ifconv:13  %tmp_6_i = fmul float %real_i_1_load, %s


 <State 6>: 5.70ns
ST_6: tmp_3_i [3/4] 5.70ns
_ifconv:7  %tmp_3_i = fmul float %real_i_1_load, %c

ST_6: tmp_4_i [3/4] 5.70ns
_ifconv:10  %tmp_4_i = fmul float %imag_i_1_load, %s

ST_6: tmp_5_i [3/4] 5.70ns
_ifconv:12  %tmp_5_i = fmul float %imag_i_1_load, %c

ST_6: tmp_6_i [3/4] 5.70ns
_ifconv:13  %tmp_6_i = fmul float %real_i_1_load, %s


 <State 7>: 5.70ns
ST_7: tmp_3_i [2/4] 5.70ns
_ifconv:7  %tmp_3_i = fmul float %real_i_1_load, %c

ST_7: tmp_4_i [2/4] 5.70ns
_ifconv:10  %tmp_4_i = fmul float %imag_i_1_load, %s

ST_7: tmp_5_i [2/4] 5.70ns
_ifconv:12  %tmp_5_i = fmul float %imag_i_1_load, %c

ST_7: tmp_6_i [2/4] 5.70ns
_ifconv:13  %tmp_6_i = fmul float %real_i_1_load, %s


 <State 8>: 5.70ns
ST_8: tmp_3_i [1/4] 5.70ns
_ifconv:7  %tmp_3_i = fmul float %real_i_1_load, %c

ST_8: tmp_4_i [1/4] 5.70ns
_ifconv:10  %tmp_4_i = fmul float %imag_i_1_load, %s

ST_8: tmp_5_i [1/4] 5.70ns
_ifconv:12  %tmp_5_i = fmul float %imag_i_1_load, %c

ST_8: tmp_6_i [1/4] 5.70ns
_ifconv:13  %tmp_6_i = fmul float %real_i_1_load, %s


 <State 9>: 7.26ns
ST_9: temp_R [5/5] 7.26ns
_ifconv:11  %temp_R = fsub float %tmp_3_i, %tmp_4_i

ST_9: temp_I [5/5] 7.26ns
_ifconv:14  %temp_I = fadd float %tmp_5_i, %tmp_6_i


 <State 10>: 7.26ns
ST_10: temp_R [4/5] 7.26ns
_ifconv:11  %temp_R = fsub float %tmp_3_i, %tmp_4_i

ST_10: temp_I [4/5] 7.26ns
_ifconv:14  %temp_I = fadd float %tmp_5_i, %tmp_6_i


 <State 11>: 7.26ns
ST_11: temp_R [3/5] 7.26ns
_ifconv:11  %temp_R = fsub float %tmp_3_i, %tmp_4_i

ST_11: temp_I [3/5] 7.26ns
_ifconv:14  %temp_I = fadd float %tmp_5_i, %tmp_6_i


 <State 12>: 7.26ns
ST_12: temp_R [2/5] 7.26ns
_ifconv:11  %temp_R = fsub float %tmp_3_i, %tmp_4_i

ST_12: temp_I [2/5] 7.26ns
_ifconv:14  %temp_I = fadd float %tmp_5_i, %tmp_6_i

ST_12: real_i_0_addr [1/1] 0.00ns
_ifconv:15  %real_i_0_addr = getelementptr [512 x float]* %real_i_0, i64 0, i64 %newIndex2

ST_12: real_i_0_load [2/2] 2.71ns
_ifconv:16  %real_i_0_load = load float* %real_i_0_addr, align 4

ST_12: imag_i_0_addr [1/1] 0.00ns
_ifconv:20  %imag_i_0_addr = getelementptr [512 x float]* %imag_i_0, i64 0, i64 %newIndex2

ST_12: imag_i_0_load [2/2] 2.71ns
_ifconv:21  %imag_i_0_load = load float* %imag_i_0_addr, align 4


 <State 13>: 7.26ns
ST_13: temp_R [1/5] 7.26ns
_ifconv:11  %temp_R = fsub float %tmp_3_i, %tmp_4_i

ST_13: temp_I [1/5] 7.26ns
_ifconv:14  %temp_I = fadd float %tmp_5_i, %tmp_6_i

ST_13: real_i_0_load [1/2] 2.71ns
_ifconv:16  %real_i_0_load = load float* %real_i_0_addr, align 4

ST_13: imag_i_0_load [1/2] 2.71ns
_ifconv:21  %imag_i_0_load = load float* %imag_i_0_addr, align 4


 <State 14>: 7.26ns
ST_14: tmp_8_i [5/5] 7.26ns
_ifconv:17  %tmp_8_i = fsub float %real_i_0_load, %temp_R

ST_14: tmp_9_i [5/5] 7.26ns
_ifconv:22  %tmp_9_i = fsub float %imag_i_0_load, %temp_I

ST_14: tmp_i_8 [5/5] 7.26ns
_ifconv:25  %tmp_i_8 = fadd float %real_i_0_load, %temp_R

ST_14: tmp_10_i [5/5] 7.26ns
_ifconv:28  %tmp_10_i = fadd float %imag_i_0_load, %temp_I


 <State 15>: 7.26ns
ST_15: tmp_8_i [4/5] 7.26ns
_ifconv:17  %tmp_8_i = fsub float %real_i_0_load, %temp_R

ST_15: tmp_9_i [4/5] 7.26ns
_ifconv:22  %tmp_9_i = fsub float %imag_i_0_load, %temp_I

ST_15: tmp_i_8 [4/5] 7.26ns
_ifconv:25  %tmp_i_8 = fadd float %real_i_0_load, %temp_R

ST_15: tmp_10_i [4/5] 7.26ns
_ifconv:28  %tmp_10_i = fadd float %imag_i_0_load, %temp_I


 <State 16>: 7.26ns
ST_16: tmp_8_i [3/5] 7.26ns
_ifconv:17  %tmp_8_i = fsub float %real_i_0_load, %temp_R

ST_16: tmp_9_i [3/5] 7.26ns
_ifconv:22  %tmp_9_i = fsub float %imag_i_0_load, %temp_I

ST_16: tmp_i_8 [3/5] 7.26ns
_ifconv:25  %tmp_i_8 = fadd float %real_i_0_load, %temp_R

ST_16: tmp_10_i [3/5] 7.26ns
_ifconv:28  %tmp_10_i = fadd float %imag_i_0_load, %temp_I


 <State 17>: 7.26ns
ST_17: tmp_8_i [2/5] 7.26ns
_ifconv:17  %tmp_8_i = fsub float %real_i_0_load, %temp_R

ST_17: tmp_9_i [2/5] 7.26ns
_ifconv:22  %tmp_9_i = fsub float %imag_i_0_load, %temp_I

ST_17: tmp_i_8 [2/5] 7.26ns
_ifconv:25  %tmp_i_8 = fadd float %real_i_0_load, %temp_R

ST_17: tmp_10_i [2/5] 7.26ns
_ifconv:28  %tmp_10_i = fadd float %imag_i_0_load, %temp_I


 <State 18>: 7.26ns
ST_18: tmp_8_i [1/5] 7.26ns
_ifconv:17  %tmp_8_i = fsub float %real_i_0_load, %temp_R

ST_18: tmp_9_i [1/5] 7.26ns
_ifconv:22  %tmp_9_i = fsub float %imag_i_0_load, %temp_I

ST_18: tmp_i_8 [1/5] 7.26ns
_ifconv:25  %tmp_i_8 = fadd float %real_i_0_load, %temp_R

ST_18: tmp_10_i [1/5] 7.26ns
_ifconv:28  %tmp_10_i = fadd float %imag_i_0_load, %temp_I


 <State 19>: 2.71ns
ST_19: stg_102 [1/1] 0.00ns
_ifconv:0  call void (...)* @_ssdm_op_SpecLoopName([7 x i8]* @p_str3) nounwind

ST_19: tmp_1 [1/1] 0.00ns
_ifconv:1  %tmp_1 = call i32 (...)* @_ssdm_op_SpecRegionBegin([7 x i8]* @p_str3) nounwind

ST_19: stg_104 [1/1] 0.00ns
_ifconv:2  call void (...)* @_ssdm_op_SpecPipeline(i32 1, i32 1, i32 1, i32 0, [1 x i8]* @p_str1) nounwind

ST_19: real_o_1_addr [1/1] 0.00ns
_ifconv:18  %real_o_1_addr = getelementptr [512 x float]* %real_o_1, i64 0, i64 %newIndex2

ST_19: stg_106 [1/1] 2.71ns
_ifconv:19  store float %tmp_8_i, float* %real_o_1_addr, align 4

ST_19: imag_o_1_addr [1/1] 0.00ns
_ifconv:23  %imag_o_1_addr = getelementptr [512 x float]* %imag_o_1, i64 0, i64 %newIndex2

ST_19: stg_108 [1/1] 2.71ns
_ifconv:24  store float %tmp_9_i, float* %imag_o_1_addr, align 4

ST_19: real_o_0_addr [1/1] 0.00ns
_ifconv:26  %real_o_0_addr = getelementptr [512 x float]* %real_o_0, i64 0, i64 %newIndex2

ST_19: stg_110 [1/1] 2.71ns
_ifconv:27  store float %tmp_i_8, float* %real_o_0_addr, align 4

ST_19: imag_o_0_addr [1/1] 0.00ns
_ifconv:29  %imag_o_0_addr = getelementptr [512 x float]* %imag_o_0, i64 0, i64 %newIndex2

ST_19: stg_112 [1/1] 2.71ns
_ifconv:30  store float %tmp_10_i, float* %imag_o_0_addr, align 4

ST_19: empty_9 [1/1] 0.00ns
_ifconv:31  %empty_9 = call i32 (...)* @_ssdm_op_SpecRegionEnd([7 x i8]* @p_str3, i32 %tmp_1) nounwind

ST_19: stg_114 [1/1] 0.00ns
_ifconv:33  br label %2


 <State 20>: 1.37ns
ST_20: k [1/1] 1.37ns
:0  %k = xor i10 %k_0_i_i, -512

ST_20: empty [1/1] 0.00ns
:1  %empty = call i32 (...)* @_ssdm_op_SpecRegionEnd([10 x i8]* @p_str2, i32 %tmp) nounwind

ST_20: stg_117 [1/1] 0.00ns
:2  br label %0



============================================================
+ Verbose Summary: Binding
============================================================
STG Binding: 
---------------- STG Properties BEGIN ----------------
- Is combinational: 0
- Is one-state seq: 0
- Is datapath-only: 0
- Is clock enabled: 0
- Is pipelined: 0
- Is top level: 0
Port [ Return ] is wired: 1; IO mode=ap_ctrl_hs:ce=0
Port [ imag_o_0]:  wired=1; compound=1; hidden=0; nouse=0; global=0; static=0; extern=0; dir=1; type=1; mode=0x286860890f0; pingpong=0; private_global=0; MemPort=[03]; IO mode=ap_memory:ce=0
Port [ imag_o_1]:  wired=1; compound=1; hidden=0; nouse=0; global=0; static=0; extern=0; dir=1; type=1; mode=0x28686089570; pingpong=0; private_global=0; MemPort=[03]; IO mode=ap_memory:ce=0
Port [ real_o_0]:  wired=1; compound=1; hidden=0; nouse=0; global=0; static=0; extern=0; dir=1; type=1; mode=0x2868608b850; pingpong=0; private_global=0; MemPort=[03]; IO mode=ap_memory:ce=0
Port [ real_o_1]:  wired=1; compound=1; hidden=0; nouse=0; global=0; static=0; extern=0; dir=1; type=1; mode=0x28684097ac0; pingpong=0; private_global=0; MemPort=[03]; IO mode=ap_memory:ce=0
Port [ imag_i_0]:  wired=1; compound=1; hidden=0; nouse=0; global=0; static=0; extern=0; dir=0; type=1; mode=0x28684096d40; pingpong=0; private_global=0; MemPort=[13]; IO mode=ap_memory:ce=0
Port [ imag_i_1]:  wired=1; compound=1; hidden=0; nouse=0; global=0; static=0; extern=0; dir=0; type=1; mode=0x286840cbff0; pingpong=0; private_global=0; MemPort=[13]; IO mode=ap_memory:ce=0
Port [ real_i_0]:  wired=1; compound=1; hidden=0; nouse=0; global=0; static=0; extern=0; dir=0; type=1; mode=0x2868970a370; pingpong=0; private_global=0; MemPort=[13]; IO mode=ap_memory:ce=0
Port [ real_i_1]:  wired=1; compound=1; hidden=0; nouse=0; global=0; static=0; extern=0; dir=0; type=1; mode=0x286897095f0; pingpong=0; private_global=0; MemPort=[13]; IO mode=ap_memory:ce=0
Port [ W_real]:  wired=0; compound=1; hidden=1; nouse=0; global=1; static=1; extern=0; dir=0; type=1; mode=0x286897099e0; pingpong=0; private_global=1; linkage=7; visibility=0; MemPort=[1]; IO mode=ap_memory:ce=0
Port [ W_imag]:  wired=0; compound=1; hidden=1; nouse=0; global=1; static=1; extern=0; dir=0; type=1; mode=0x2868970a250; pingpong=0; private_global=1; linkage=7; visibility=0; MemPort=[1]; IO mode=ap_memory:ce=0
---------------- STG Properties END ------------------

---------------- Datapath Model BEGIN ----------------

<LifeTime>
<method=bitvector/>
stg_21        (br               ) [ 011111111111111111111]
k_0_i_i       (phi              ) [ 001111111111111111111]
i             (phi              ) [ 001111111111111111111]
stg_24        (br               ) [ 000000000000000000000]
tmp_i         (zext             ) [ 000000000000000000000]
W_real_addr   (getelementptr    ) [ 000100000000000000000]
W_imag_addr   (getelementptr    ) [ 000100000000000000000]
stg_30        (ret              ) [ 000000000000000000000]
stg_31        (speclooptripcount) [ 000000000000000000000]
stg_32        (specloopname     ) [ 000000000000000000000]
tmp           (specregionbegin  ) [ 000011111111111111111]
c             (load             ) [ 000011111111111111110]
s             (load             ) [ 000011111111111111110]
stg_36        (br               ) [ 001111111111111111111]
i_0_i_i       (phi              ) [ 000010000000000000000]
tmp_2         (bitselect        ) [ 001111111111111111111]
stg_39        (speclooptripcount) [ 000000000000000000000]
stg_40        (br               ) [ 000000000000000000000]
tmp_3         (partselect       ) [ 000000000000000000000]
newIndex2     (zext             ) [ 000011111111111111110]
real_i_1_addr (getelementptr    ) [ 000011000000000000000]
imag_i_1_addr (getelementptr    ) [ 000011000000000000000]
i_1           (add              ) [ 001111111111111111111]
real_i_1_load (load             ) [ 000010111000000000000]
imag_i_1_load (load             ) [ 000010111000000000000]
tmp_3_i       (fmul             ) [ 000010000111110000000]
tmp_4_i       (fmul             ) [ 000010000111110000000]
tmp_5_i       (fmul             ) [ 000010000111110000000]
tmp_6_i       (fmul             ) [ 000010000111110000000]
real_i_0_addr (getelementptr    ) [ 000010000000010000000]
imag_i_0_addr (getelementptr    ) [ 000010000000010000000]
temp_R        (fsub             ) [ 000010000000001111100]
temp_I        (fadd             ) [ 000010000000001111100]
real_i_0_load (load             ) [ 000010000000001111100]
imag_i_0_load (load             ) [ 000010000000001111100]
tmp_8_i       (fsub             ) [ 000010000000000000010]
tmp_9_i       (fsub             ) [ 000010000000000000010]
tmp_i_8       (fadd             ) [ 000010000000000000010]
tmp_10_i      (fadd             ) [ 000010000000000000010]
stg_102       (specloopname     ) [ 000000000000000000000]
tmp_1         (specregionbegin  ) [ 000000000000000000000]
stg_104       (specpipeline     ) [ 000000000000000000000]
real_o_1_addr (getelementptr    ) [ 000000000000000000000]
stg_106       (store            ) [ 000000000000000000000]
imag_o_1_addr (getelementptr    ) [ 000000000000000000000]
stg_108       (store            ) [ 000000000000000000000]
real_o_0_addr (getelementptr    ) [ 000000000000000000000]
stg_110       (store            ) [ 000000000000000000000]
imag_o_0_addr (getelementptr    ) [ 000000000000000000000]
stg_112       (store            ) [ 000000000000000000000]
empty_9       (specregionend    ) [ 000000000000000000000]
stg_114       (br               ) [ 001111111111111111111]
k             (xor              ) [ 011111111111111111111]
empty         (specregionend    ) [ 000000000000000000000]
stg_117       (br               ) [ 011111111111111111111]
</LifeTime>

<model>

<comp_list>
<comp id="0" class="1000" name="imag_o_0">
<pin_list>
<pin id="1" dir="1" index="0" bw="1" slack="0"/>
</pin_list>
<bind>
<StgValue><ssdm name="imag_o_0"/><MemPortTyVec>0 3 </MemPortTyVec>
</StgValue>
</bind>
</comp>

<comp id="2" class="1000" name="imag_o_1">
<pin_list>
<pin id="3" dir="1" index="0" bw="1" slack="0"/>
</pin_list>
<bind>
<StgValue><ssdm name="imag_o_1"/><MemPortTyVec>0 3 </MemPortTyVec>
</StgValue>
</bind>
</comp>

<comp id="4" class="1000" name="real_o_0">
<pin_list>
<pin id="5" dir="1" index="0" bw="1" slack="0"/>
</pin_list>
<bind>
<StgValue><ssdm name="real_o_0"/><MemPortTyVec>0 3 </MemPortTyVec>
</StgValue>
</bind>
</comp>

<comp id="6" class="1000" name="real_o_1">
<pin_list>
<pin id="7" dir="1" index="0" bw="1" slack="0"/>
</pin_list>
<bind>
<StgValue><ssdm name="real_o_1"/><MemPortTyVec>0 3 </MemPortTyVec>
</StgValue>
</bind>
</comp>

<comp id="8" class="1000" name="imag_i_0">
<pin_list>
<pin id="9" dir="1" index="0" bw="1" slack="0"/>
</pin_list>
<bind>
<StgValue><ssdm name="imag_i_0"/><MemPortTyVec>1 3 </MemPortTyVec>
</StgValue>
</bind>
</comp>

<comp id="10" class="1000" name="imag_i_1">
<pin_list>
<pin id="11" dir="1" index="0" bw="1" slack="0"/>
</pin_list>
<bind>
<StgValue><ssdm name="imag_i_1"/><MemPortTyVec>1 3 </MemPortTyVec>
</StgValue>
</bind>
</comp>

<comp id="12" class="1000" name="real_i_0">
<pin_list>
<pin id="13" dir="1" index="0" bw="1" slack="0"/>
</pin_list>
<bind>
<StgValue><ssdm name="real_i_0"/><MemPortTyVec>1 3 </MemPortTyVec>
</StgValue>
</bind>
</comp>

<comp id="14" class="1000" name="real_i_1">
<pin_list>
<pin id="15" dir="1" index="0" bw="1" slack="0"/>
</pin_list>
<bind>
<StgValue><ssdm name="real_i_1"/><MemPortTyVec>1 3 </MemPortTyVec>
</StgValue>
</bind>
</comp>

<comp id="16" class="1000" name="W_real">
<pin_list>
<pin id="17" dir="1" index="0" bw="1" slack="0"/>
</pin_list>
<bind>
<StgValue><ssdm name="W_real"/><MemPortTyVec>1 </MemPortTyVec>
</StgValue>
</bind>
</comp>

<comp id="18" class="1000" name="W_imag">
<pin_list>
<pin id="19" dir="1" index="0" bw="1" slack="0"/>
</pin_list>
<bind>
<StgValue><ssdm name="W_imag"/><MemPortTyVec>1 </MemPortTyVec>
</StgValue>
</bind>
</comp>

<comp id="20" class="1001" name="const_20">
<pin_list>
<pin id="21" dir="1" index="0" bw="1" slack="1"/>
</pin_list>
<bind>
<StgValue><ssdm name=""/></StgValue>
</bind>
</comp>

<comp id="22" class="1001" name="const_22">
<pin_list>
<pin id="23" dir="1" index="0" bw="1" slack="1"/>
</pin_list>
<bind>
<StgValue><ssdm name=""/></StgValue>
</bind>
</comp>

<comp id="24" class="1001" name="const_24">
<pin_list>
<pin id="25" dir="1" index="0" bw="1" slack="1"/>
</pin_list>
<bind>
<StgValue><ssdm name=""/></StgValue>
</bind>
</comp>

<comp id="26" class="1001" name="const_26">
<pin_list>
<pin id="27" dir="1" index="0" bw="1" slack="0"/>
</pin_list>
<bind>
<StgValue><ssdm name=""/></StgValue>
</bind>
</comp>

<comp id="28" class="1001" name="const_28">
<pin_list>
<pin id="29" dir="1" index="0" bw="1" slack="2147483647"/>
</pin_list>
<bind>
<StgValue><ssdm name="_ssdm_op_SpecLoopTripCount"/></StgValue>
</bind>
</comp>

<comp id="30" class="1001" name="const_30">
<pin_list>
<pin id="31" dir="1" index="0" bw="1" slack="2147483647"/>
</pin_list>
<bind>
<StgValue><ssdm name=""/></StgValue>
</bind>
</comp>

<comp id="32" class="1001" name="const_32">
<pin_list>
<pin id="33" dir="1" index="0" bw="1" slack="2147483647"/>
</pin_list>
<bind>
<StgValue><ssdm name="_ssdm_op_SpecLoopName"/></StgValue>
</bind>
</comp>

<comp id="34" class="1001" name="const_34">
<pin_list>
<pin id="35" dir="1" index="0" bw="1" slack="2147483647"/>
</pin_list>
<bind>
<StgValue><ssdm name="p_str2"/></StgValue>
</bind>
</comp>

<comp id="36" class="1001" name="const_36">
<pin_list>
<pin id="37" dir="1" index="0" bw="1" slack="2147483647"/>
</pin_list>
<bind>
<StgValue><ssdm name="_ssdm_op_SpecRegionBegin"/></StgValue>
</bind>
</comp>

<comp id="38" class="1001" name="const_38">
<pin_list>
<pin id="39" dir="1" index="0" bw="1" slack="1"/>
</pin_list>
<bind>
<StgValue><ssdm name=""/></StgValue>
</bind>
</comp>

<comp id="40" class="1001" name="const_40">
<pin_list>
<pin id="41" dir="1" index="0" bw="1" slack="0"/>
</pin_list>
<bind>
<StgValue><ssdm name="_ssdm_op_BitSelect.i1.i11.i32"/></StgValue>
</bind>
</comp>

<comp id="42" class="1001" name="const_42">
<pin_list>
<pin id="43" dir="1" index="0" bw="1" slack="0"/>
</pin_list>
<bind>
<StgValue><ssdm name=""/></StgValue>
</bind>
</comp>

<comp id="44" class="1001" name="const_44">
<pin_list>
<pin id="45" dir="1" index="0" bw="1" slack="2147483647"/>
</pin_list>
<bind>
<StgValue><ssdm name=""/></StgValue>
</bind>
</comp>

<comp id="46" class="1001" name="const_46">
<pin_list>
<pin id="47" dir="1" index="0" bw="1" slack="0"/>
</pin_list>
<bind>
<StgValue><ssdm name="_ssdm_op_PartSelect.i10.i11.i32.i32"/></StgValue>
</bind>
</comp>

<comp id="48" class="1001" name="const_48">
<pin_list>
<pin id="49" dir="1" index="0" bw="1" slack="0"/>
</pin_list>
<bind>
<StgValue><ssdm name=""/></StgValue>
</bind>
</comp>

<comp id="50" class="1001" name="const_50">
<pin_list>
<pin id="51" dir="1" index="0" bw="1" slack="0"/>
</pin_list>
<bind>
<StgValue><ssdm name=""/></StgValue>
</bind>
</comp>

<comp id="52" class="1001" name="const_52">
<pin_list>
<pin id="53" dir="1" index="0" bw="1" slack="2147483647"/>
</pin_list>
<bind>
<StgValue><ssdm name="p_str3"/></StgValue>
</bind>
</comp>

<comp id="54" class="1001" name="const_54">
<pin_list>
<pin id="55" dir="1" index="0" bw="1" slack="2147483647"/>
</pin_list>
<bind>
<StgValue><ssdm name="_ssdm_op_SpecPipeline"/></StgValue>
</bind>
</comp>

<comp id="56" class="1001" name="const_56">
<pin_list>
<pin id="57" dir="1" index="0" bw="1" slack="2147483647"/>
</pin_list>
<bind>
<StgValue><ssdm name=""/></StgValue>
</bind>
</comp>

<comp id="58" class="1001" name="const_58">
<pin_list>
<pin id="59" dir="1" index="0" bw="1" slack="2147483647"/>
</pin_list>
<bind>
<StgValue><ssdm name="p_str1"/></StgValue>
</bind>
</comp>

<comp id="60" class="1001" name="const_60">
<pin_list>
<pin id="61" dir="1" index="0" bw="1" slack="2147483647"/>
</pin_list>
<bind>
<StgValue><ssdm name="_ssdm_op_SpecRegionEnd"/></StgValue>
</bind>
</comp>

<comp id="62" class="1001" name="const_62">
<pin_list>
<pin id="63" dir="1" index="0" bw="1" slack="0"/>
</pin_list>
<bind>
<StgValue><ssdm name=""/></StgValue>
</bind>
</comp>

<comp id="64" class="1004" name="W_real_addr_gep_fu_64">
<pin_list>
<pin id="65" dir="0" index="0" bw="32" slack="0"/>
<pin id="66" dir="0" index="1" bw="1" slack="0"/>
<pin id="67" dir="0" index="2" bw="10" slack="0"/>
<pin id="68" dir="1" index="3" bw="9" slack="0"/>
</pin_list>
<bind>
<opcode="getelementptr(29) " fcode="getelementptr"/>
<opset="W_real_addr/2 "/>
</bind>
</comp>

<comp id="71" class="1004" name="grp_access_fu_71">
<pin_list>
<pin id="72" dir="0" index="0" bw="9" slack="0"/>
<pin id="73" dir="0" index="1" bw="32" slack="2147483647"/>
<pin id="74" dir="1" index="2" bw="32" slack="2"/>
</pin_list>
<bind>
<opcode="load(27) " fcode="load"/>
<opset="c/2 "/>
</bind>
</comp>

<comp id="76" class="1004" name="W_imag_addr_gep_fu_76">
<pin_list>
<pin id="77" dir="0" index="0" bw="32" slack="0"/>
<pin id="78" dir="0" index="1" bw="1" slack="0"/>
<pin id="79" dir="0" index="2" bw="10" slack="0"/>
<pin id="80" dir="1" index="3" bw="9" slack="0"/>
</pin_list>
<bind>
<opcode="getelementptr(29) " fcode="getelementptr"/>
<opset="W_imag_addr/2 "/>
</bind>
</comp>

<comp id="83" class="1004" name="grp_access_fu_83">
<pin_list>
<pin id="84" dir="0" index="0" bw="9" slack="0"/>
<pin id="85" dir="0" index="1" bw="32" slack="2147483647"/>
<pin id="86" dir="1" index="2" bw="32" slack="2"/>
</pin_list>
<bind>
<opcode="load(27) " fcode="load"/>
<opset="s/2 "/>
</bind>
</comp>

<comp id="88" class="1004" name="real_i_1_addr_gep_fu_88">
<pin_list>
<pin id="89" dir="0" index="0" bw="32" slack="0"/>
<pin id="90" dir="0" index="1" bw="1" slack="0"/>
<pin id="91" dir="0" index="2" bw="10" slack="0"/>
<pin id="92" dir="1" index="3" bw="9" slack="0"/>
</pin_list>
<bind>
<opcode="getelementptr(29) " fcode="getelementptr"/>
<opset="real_i_1_addr/4 "/>
</bind>
</comp>

<comp id="95" class="1004" name="grp_access_fu_95">
<pin_list>
<pin id="96" dir="0" index="0" bw="9" slack="0"/>
<pin id="97" dir="0" index="1" bw="32" slack="2147483647"/>
<pin id="98" dir="1" index="2" bw="32" slack="0"/>
</pin_list>
<bind>
<opcode="load(27) " fcode="load"/>
<opset="real_i_1_load/4 "/>
</bind>
</comp>

<comp id="100" class="1004" name="imag_i_1_addr_gep_fu_100">
<pin_list>
<pin id="101" dir="0" index="0" bw="32" slack="0"/>
<pin id="102" dir="0" index="1" bw="1" slack="0"/>
<pin id="103" dir="0" index="2" bw="10" slack="0"/>
<pin id="104" dir="1" index="3" bw="9" slack="0"/>
</pin_list>
<bind>
<opcode="getelementptr(29) " fcode="getelementptr"/>
<opset="imag_i_1_addr/4 "/>
</bind>
</comp>

<comp id="107" class="1004" name="grp_access_fu_107">
<pin_list>
<pin id="108" dir="0" index="0" bw="9" slack="0"/>
<pin id="109" dir="0" index="1" bw="32" slack="2147483647"/>
<pin id="110" dir="1" index="2" bw="32" slack="0"/>
</pin_list>
<bind>
<opcode="load(27) " fcode="load"/>
<opset="imag_i_1_load/4 "/>
</bind>
</comp>

<comp id="112" class="1004" name="real_i_0_addr_gep_fu_112">
<pin_list>
<pin id="113" dir="0" index="0" bw="32" slack="0"/>
<pin id="114" dir="0" index="1" bw="1" slack="0"/>
<pin id="115" dir="0" index="2" bw="10" slack="8"/>
<pin id="116" dir="1" index="3" bw="9" slack="0"/>
</pin_list>
<bind>
<opcode="getelementptr(29) " fcode="getelementptr"/>
<opset="real_i_0_addr/12 "/>
</bind>
</comp>

<comp id="119" class="1004" name="grp_access_fu_119">
<pin_list>
<pin id="120" dir="0" index="0" bw="9" slack="0"/>
<pin id="121" dir="0" index="1" bw="32" slack="2147483647"/>
<pin id="122" dir="1" index="2" bw="32" slack="1"/>
</pin_list>
<bind>
<opcode="load(27) " fcode="load"/>
<opset="real_i_0_load/12 "/>
</bind>
</comp>

<comp id="124" class="1004" name="imag_i_0_addr_gep_fu_124">
<pin_list>
<pin id="125" dir="0" index="0" bw="32" slack="0"/>
<pin id="126" dir="0" index="1" bw="1" slack="0"/>
<pin id="127" dir="0" index="2" bw="10" slack="8"/>
<pin id="128" dir="1" index="3" bw="9" slack="0"/>
</pin_list>
<bind>
<opcode="getelementptr(29) " fcode="getelementptr"/>
<opset="imag_i_0_addr/12 "/>
</bind>
</comp>

<comp id="131" class="1004" name="grp_access_fu_131">
<pin_list>
<pin id="132" dir="0" index="0" bw="9" slack="0"/>
<pin id="133" dir="0" index="1" bw="32" slack="2147483647"/>
<pin id="134" dir="1" index="2" bw="32" slack="1"/>
</pin_list>
<bind>
<opcode="load(27) " fcode="load"/>
<opset="imag_i_0_load/12 "/>
</bind>
</comp>

<comp id="136" class="1004" name="real_o_1_addr_gep_fu_136">
<pin_list>
<pin id="137" dir="0" index="0" bw="32" slack="0"/>
<pin id="138" dir="0" index="1" bw="1" slack="0"/>
<pin id="139" dir="0" index="2" bw="10" slack="15"/>
<pin id="140" dir="1" index="3" bw="9" slack="0"/>
</pin_list>
<bind>
<opcode="getelementptr(29) " fcode="getelementptr"/>
<opset="real_o_1_addr/19 "/>
</bind>
</comp>

<comp id="143" class="1004" name="stg_106_access_fu_143">
<pin_list>
<pin id="144" dir="0" index="0" bw="9" slack="0"/>
<pin id="145" dir="0" index="1" bw="32" slack="1"/>
<pin id="146" dir="1" index="2" bw="32" slack="2147483647"/>
</pin_list>
<bind>
<opcode="store(28) " fcode="store"/>
<opset="stg_106/19 "/>
</bind>
</comp>

<comp id="148" class="1004" name="imag_o_1_addr_gep_fu_148">
<pin_list>
<pin id="149" dir="0" index="0" bw="32" slack="0"/>
<pin id="150" dir="0" index="1" bw="1" slack="0"/>
<pin id="151" dir="0" index="2" bw="10" slack="15"/>
<pin id="152" dir="1" index="3" bw="9" slack="0"/>
</pin_list>
<bind>
<opcode="getelementptr(29) " fcode="getelementptr"/>
<opset="imag_o_1_addr/19 "/>
</bind>
</comp>

<comp id="155" class="1004" name="stg_108_access_fu_155">
<pin_list>
<pin id="156" dir="0" index="0" bw="9" slack="0"/>
<pin id="157" dir="0" index="1" bw="32" slack="1"/>
<pin id="158" dir="1" index="2" bw="32" slack="2147483647"/>
</pin_list>
<bind>
<opcode="store(28) " fcode="store"/>
<opset="stg_108/19 "/>
</bind>
</comp>

<comp id="160" class="1004" name="real_o_0_addr_gep_fu_160">
<pin_list>
<pin id="161" dir="0" index="0" bw="32" slack="0"/>
<pin id="162" dir="0" index="1" bw="1" slack="0"/>
<pin id="163" dir="0" index="2" bw="10" slack="15"/>
<pin id="164" dir="1" index="3" bw="9" slack="0"/>
</pin_list>
<bind>
<opcode="getelementptr(29) " fcode="getelementptr"/>
<opset="real_o_0_addr/19 "/>
</bind>
</comp>

<comp id="167" class="1004" name="stg_110_access_fu_167">
<pin_list>
<pin id="168" dir="0" index="0" bw="9" slack="0"/>
<pin id="169" dir="0" index="1" bw="32" slack="1"/>
<pin id="170" dir="1" index="2" bw="32" slack="2147483647"/>
</pin_list>
<bind>
<opcode="store(28) " fcode="store"/>
<opset="stg_110/19 "/>
</bind>
</comp>

<comp id="172" class="1004" name="imag_o_0_addr_gep_fu_172">
<pin_list>
<pin id="173" dir="0" index="0" bw="32" slack="0"/>
<pin id="174" dir="0" index="1" bw="1" slack="0"/>
<pin id="175" dir="0" index="2" bw="10" slack="15"/>
<pin id="176" dir="1" index="3" bw="9" slack="0"/>
</pin_list>
<bind>
<opcode="getelementptr(29) " fcode="getelementptr"/>
<opset="imag_o_0_addr/19 "/>
</bind>
</comp>

<comp id="179" class="1004" name="stg_112_access_fu_179">
<pin_list>
<pin id="180" dir="0" index="0" bw="9" slack="0"/>
<pin id="181" dir="0" index="1" bw="32" slack="1"/>
<pin id="182" dir="1" index="2" bw="32" slack="2147483647"/>
</pin_list>
<bind>
<opcode="store(28) " fcode="store"/>
<opset="stg_112/19 "/>
</bind>
</comp>

<comp id="184" class="1005" name="k_0_i_i_reg_184">
<pin_list>
<pin id="185" dir="0" index="0" bw="10" slack="1"/>
<pin id="186" dir="1" index="1" bw="10" slack="1"/>
</pin_list>
<bind>
<opset="k_0_i_i (phireg) "/>
</bind>
</comp>

<comp id="188" class="1004" name="k_0_i_i_phi_fu_188">
<pin_list>
<pin id="189" dir="0" index="0" bw="1" slack="1"/>
<pin id="190" dir="0" index="1" bw="0" slack="2147483647"/>
<pin id="191" dir="0" index="2" bw="10" slack="1"/>
<pin id="192" dir="0" index="3" bw="0" slack="2147483647"/>
<pin id="193" dir="1" index="4" bw="10" slack="0"/>
</pin_list>
<bind>
<opcode="phi(47) " fcode="phi"/>
<opset="k_0_i_i/2 "/>
</bind>
</comp>

<comp id="196" class="1005" name="i_reg_196">
<pin_list>
<pin id="197" dir="0" index="0" bw="1" slack="1"/>
<pin id="198" dir="1" index="1" bw="1" slack="1"/>
</pin_list>
<bind>
<opset="i (phireg) "/>
</bind>
</comp>

<comp id="201" class="1004" name="i_phi_fu_201">
<pin_list>
<pin id="202" dir="0" index="0" bw="1" slack="1"/>
<pin id="203" dir="0" index="1" bw="0" slack="2147483647"/>
<pin id="204" dir="0" index="2" bw="1" slack="1"/>
<pin id="205" dir="0" index="3" bw="0" slack="2147483647"/>
<pin id="206" dir="1" index="4" bw="1" slack="2147483647"/>
</pin_list>
<bind>
<opcode="phi(47) " fcode="phi"/>
<opset="i/2 "/>
</bind>
</comp>

<comp id="209" class="1005" name="i_0_i_i_reg_209">
<pin_list>
<pin id="210" dir="0" index="0" bw="11" slack="1"/>
<pin id="211" dir="1" index="1" bw="11" slack="1"/>
</pin_list>
<bind>
<opset="i_0_i_i (phireg) "/>
</bind>
</comp>

<comp id="213" class="1004" name="i_0_i_i_phi_fu_213">
<pin_list>
<pin id="214" dir="0" index="0" bw="1" slack="1"/>
<pin id="215" dir="0" index="1" bw="0" slack="2147483647"/>
<pin id="216" dir="0" index="2" bw="11" slack="0"/>
<pin id="217" dir="0" index="3" bw="0" slack="2147483647"/>
<pin id="218" dir="1" index="4" bw="11" slack="0"/>
</pin_list>
<bind>
<opcode="phi(47) " fcode="phi"/>
<opset="i_0_i_i/4 "/>
</bind>
</comp>

<comp id="220" class="1004" name="grp_fu_220">
<pin_list>
<pin id="221" dir="0" index="0" bw="32" slack="1"/>
<pin id="222" dir="0" index="1" bw="32" slack="1"/>
<pin id="223" dir="1" index="2" bw="32" slack="1"/>
</pin_list>
<bind>
<opcode="fsub(11) " fcode="fadd"/>
<opset="temp_R/9 "/>
</bind>
</comp>

<comp id="224" class="1004" name="grp_fu_224">
<pin_list>
<pin id="225" dir="0" index="0" bw="32" slack="1"/>
<pin id="226" dir="0" index="1" bw="32" slack="1"/>
<pin id="227" dir="1" index="2" bw="32" slack="1"/>
</pin_list>
<bind>
<opcode="fadd(9) " fcode="fadd"/>
<opset="temp_I/9 "/>
</bind>
</comp>

<comp id="228" class="1004" name="grp_fu_228">
<pin_list>
<pin id="229" dir="0" index="0" bw="32" slack="1"/>
<pin id="230" dir="0" index="1" bw="32" slack="1"/>
<pin id="231" dir="1" index="2" bw="32" slack="1"/>
</pin_list>
<bind>
<opcode="fsub(11) " fcode="fadd"/>
<opset="tmp_8_i/14 "/>
</bind>
</comp>

<comp id="232" class="1004" name="grp_fu_232">
<pin_list>
<pin id="233" dir="0" index="0" bw="32" slack="1"/>
<pin id="234" dir="0" index="1" bw="32" slack="1"/>
<pin id="235" dir="1" index="2" bw="32" slack="1"/>
</pin_list>
<bind>
<opcode="fsub(11) " fcode="fadd"/>
<opset="tmp_9_i/14 "/>
</bind>
</comp>

<comp id="236" class="1004" name="grp_fu_236">
<pin_list>
<pin id="237" dir="0" index="0" bw="32" slack="1"/>
<pin id="238" dir="0" index="1" bw="32" slack="1"/>
<pin id="239" dir="1" index="2" bw="32" slack="1"/>
</pin_list>
<bind>
<opcode="fadd(9) " fcode="fadd"/>
<opset="tmp_i_8/14 "/>
</bind>
</comp>

<comp id="240" class="1004" name="grp_fu_240">
<pin_list>
<pin id="241" dir="0" index="0" bw="32" slack="1"/>
<pin id="242" dir="0" index="1" bw="32" slack="1"/>
<pin id="243" dir="1" index="2" bw="32" slack="1"/>
</pin_list>
<bind>
<opcode="fadd(9) " fcode="fadd"/>
<opset="tmp_10_i/14 "/>
</bind>
</comp>

<comp id="244" class="1004" name="grp_fu_244">
<pin_list>
<pin id="245" dir="0" index="0" bw="32" slack="0"/>
<pin id="246" dir="0" index="1" bw="32" slack="2"/>
<pin id="247" dir="1" index="2" bw="32" slack="1"/>
</pin_list>
<bind>
<opcode="fmul(13) " fcode="fmul"/>
<opset="tmp_3_i/5 "/>
</bind>
</comp>

<comp id="249" class="1004" name="grp_fu_249">
<pin_list>
<pin id="250" dir="0" index="0" bw="32" slack="0"/>
<pin id="251" dir="0" index="1" bw="32" slack="2"/>
<pin id="252" dir="1" index="2" bw="32" slack="1"/>
</pin_list>
<bind>
<opcode="fmul(13) " fcode="fmul"/>
<opset="tmp_4_i/5 "/>
</bind>
</comp>

<comp id="254" class="1004" name="grp_fu_254">
<pin_list>
<pin id="255" dir="0" index="0" bw="32" slack="0"/>
<pin id="256" dir="0" index="1" bw="32" slack="2"/>
<pin id="257" dir="1" index="2" bw="32" slack="1"/>
</pin_list>
<bind>
<opcode="fmul(13) " fcode="fmul"/>
<opset="tmp_5_i/5 "/>
</bind>
</comp>

<comp id="259" class="1004" name="grp_fu_259">
<pin_list>
<pin id="260" dir="0" index="0" bw="32" slack="0"/>
<pin id="261" dir="0" index="1" bw="32" slack="2"/>
<pin id="262" dir="1" index="2" bw="32" slack="1"/>
</pin_list>
<bind>
<opcode="fmul(13) " fcode="fmul"/>
<opset="tmp_6_i/5 "/>
</bind>
</comp>

<comp id="264" class="1004" name="tmp_i_fu_264">
<pin_list>
<pin id="265" dir="0" index="0" bw="10" slack="0"/>
<pin id="266" dir="1" index="1" bw="64" slack="0"/>
</pin_list>
<bind>
<opcode="zext(34) " fcode="zext"/>
<opset="tmp_i/2 "/>
</bind>
</comp>

<comp id="270" class="1004" name="tmp_2_fu_270">
<pin_list>
<pin id="271" dir="0" index="0" bw="1" slack="0"/>
<pin id="272" dir="0" index="1" bw="11" slack="0"/>
<pin id="273" dir="0" index="2" bw="5" slack="0"/>
<pin id="274" dir="1" index="3" bw="1" slack="1"/>
</pin_list>
<bind>
<opcode="bitselect(1000) " fcode="bitselect"/>
<opset="tmp_2/4 "/>
</bind>
</comp>

<comp id="278" class="1004" name="tmp_3_fu_278">
<pin_list>
<pin id="279" dir="0" index="0" bw="10" slack="0"/>
<pin id="280" dir="0" index="1" bw="11" slack="0"/>
<pin id="281" dir="0" index="2" bw="1" slack="0"/>
<pin id="282" dir="0" index="3" bw="5" slack="0"/>
<pin id="283" dir="1" index="4" bw="10" slack="0"/>
</pin_list>
<bind>
<opcode="partselect(1002) " fcode="partselect"/>
<opset="tmp_3/4 "/>
</bind>
</comp>

<comp id="288" class="1004" name="newIndex2_fu_288">
<pin_list>
<pin id="289" dir="0" index="0" bw="10" slack="0"/>
<pin id="290" dir="1" index="1" bw="64" slack="0"/>
</pin_list>
<bind>
<opcode="zext(34) " fcode="zext"/>
<opset="newIndex2/4 "/>
</bind>
</comp>

<comp id="294" class="1004" name="i_1_fu_294">
<pin_list>
<pin id="295" dir="0" index="0" bw="11" slack="0"/>
<pin id="296" dir="0" index="1" bw="3" slack="0"/>
<pin id="297" dir="1" index="2" bw="11" slack="0"/>
</pin_list>
<bind>
<opcode="add(8) " fcode="add"/>
<opset="i_1/4 "/>
</bind>
</comp>

<comp id="300" class="1004" name="k_fu_300">
<pin_list>
<pin id="301" dir="0" index="0" bw="10" slack="3"/>
<pin id="302" dir="0" index="1" bw="10" slack="0"/>
<pin id="303" dir="1" index="2" bw="10" slack="1"/>
</pin_list>
<bind>
<opcode="xor(25) " fcode="xor"/>
<opset="k/20 "/>
</bind>
</comp>

<comp id="306" class="1005" name="W_real_addr_reg_306">
<pin_list>
<pin id="307" dir="0" index="0" bw="9" slack="1"/>
<pin id="308" dir="1" index="1" bw="9" slack="1"/>
</pin_list>
<bind>
<opset="W_real_addr "/>
</bind>
</comp>

<comp id="311" class="1005" name="W_imag_addr_reg_311">
<pin_list>
<pin id="312" dir="0" index="0" bw="9" slack="1"/>
<pin id="313" dir="1" index="1" bw="9" slack="1"/>
</pin_list>
<bind>
<opset="W_imag_addr "/>
</bind>
</comp>

<comp id="316" class="1005" name="c_reg_316">
<pin_list>
<pin id="317" dir="0" index="0" bw="32" slack="2"/>
<pin id="318" dir="1" index="1" bw="32" slack="2"/>
</pin_list>
<bind>
<opset="c "/>
</bind>
</comp>

<comp id="322" class="1005" name="s_reg_322">
<pin_list>
<pin id="323" dir="0" index="0" bw="32" slack="2"/>
<pin id="324" dir="1" index="1" bw="32" slack="2"/>
</pin_list>
<bind>
<opset="s "/>
</bind>
</comp>

<comp id="328" class="1005" name="tmp_2_reg_328">
<pin_list>
<pin id="329" dir="0" index="0" bw="1" slack="1"/>
<pin id="330" dir="1" index="1" bw="1" slack="2147483647"/>
</pin_list>
<bind>
<opset="tmp_2 "/>
</bind>
</comp>

<comp id="332" class="1005" name="newIndex2_reg_332">
<pin_list>
<pin id="333" dir="0" index="0" bw="64" slack="8"/>
<pin id="334" dir="1" index="1" bw="64" slack="8"/>
</pin_list>
<bind>
<opset="newIndex2 "/>
</bind>
</comp>

<comp id="342" class="1005" name="real_i_1_addr_reg_342">
<pin_list>
<pin id="343" dir="0" index="0" bw="9" slack="1"/>
<pin id="344" dir="1" index="1" bw="9" slack="1"/>
</pin_list>
<bind>
<opset="real_i_1_addr "/>
</bind>
</comp>

<comp id="347" class="1005" name="imag_i_1_addr_reg_347">
<pin_list>
<pin id="348" dir="0" index="0" bw="9" slack="1"/>
<pin id="349" dir="1" index="1" bw="9" slack="1"/>
</pin_list>
<bind>
<opset="imag_i_1_addr "/>
</bind>
</comp>

<comp id="352" class="1005" name="i_1_reg_352">
<pin_list>
<pin id="353" dir="0" index="0" bw="11" slack="0"/>
<pin id="354" dir="1" index="1" bw="11" slack="0"/>
</pin_list>
<bind>
<opset="i_1 "/>
</bind>
</comp>

<comp id="357" class="1005" name="real_i_1_load_reg_357">
<pin_list>
<pin id="358" dir="0" index="0" bw="32" slack="1"/>
<pin id="359" dir="1" index="1" bw="32" slack="1"/>
</pin_list>
<bind>
<opset="real_i_1_load "/>
</bind>
</comp>

<comp id="363" class="1005" name="imag_i_1_load_reg_363">
<pin_list>
<pin id="364" dir="0" index="0" bw="32" slack="1"/>
<pin id="365" dir="1" index="1" bw="32" slack="1"/>
</pin_list>
<bind>
<opset="imag_i_1_load "/>
</bind>
</comp>

<comp id="369" class="1005" name="tmp_3_i_reg_369">
<pin_list>
<pin id="370" dir="0" index="0" bw="32" slack="1"/>
<pin id="371" dir="1" index="1" bw="32" slack="1"/>
</pin_list>
<bind>
<opset="tmp_3_i "/>
</bind>
</comp>

<comp id="374" class="1005" name="tmp_4_i_reg_374">
<pin_list>
<pin id="375" dir="0" index="0" bw="32" slack="1"/>
<pin id="376" dir="1" index="1" bw="32" slack="1"/>
</pin_list>
<bind>
<opset="tmp_4_i "/>
</bind>
</comp>

<comp id="379" class="1005" name="tmp_5_i_reg_379">
<pin_list>
<pin id="380" dir="0" index="0" bw="32" slack="1"/>
<pin id="381" dir="1" index="1" bw="32" slack="1"/>
</pin_list>
<bind>
<opset="tmp_5_i "/>
</bind>
</comp>

<comp id="384" class="1005" name="tmp_6_i_reg_384">
<pin_list>
<pin id="385" dir="0" index="0" bw="32" slack="1"/>
<pin id="386" dir="1" index="1" bw="32" slack="1"/>
</pin_list>
<bind>
<opset="tmp_6_i "/>
</bind>
</comp>

<comp id="389" class="1005" name="real_i_0_addr_reg_389">
<pin_list>
<pin id="390" dir="0" index="0" bw="9" slack="1"/>
<pin id="391" dir="1" index="1" bw="9" slack="1"/>
</pin_list>
<bind>
<opset="real_i_0_addr "/>
</bind>
</comp>

<comp id="394" class="1005" name="imag_i_0_addr_reg_394">
<pin_list>
<pin id="395" dir="0" index="0" bw="9" slack="1"/>
<pin id="396" dir="1" index="1" bw="9" slack="1"/>
</pin_list>
<bind>
<opset="imag_i_0_addr "/>
</bind>
</comp>

<comp id="399" class="1005" name="temp_R_reg_399">
<pin_list>
<pin id="400" dir="0" index="0" bw="32" slack="1"/>
<pin id="401" dir="1" index="1" bw="32" slack="1"/>
</pin_list>
<bind>
<opset="temp_R "/>
</bind>
</comp>

<comp id="405" class="1005" name="temp_I_reg_405">
<pin_list>
<pin id="406" dir="0" index="0" bw="32" slack="1"/>
<pin id="407" dir="1" index="1" bw="32" slack="1"/>
</pin_list>
<bind>
<opset="temp_I "/>
</bind>
</comp>

<comp id="411" class="1005" name="real_i_0_load_reg_411">
<pin_list>
<pin id="412" dir="0" index="0" bw="32" slack="1"/>
<pin id="413" dir="1" index="1" bw="32" slack="1"/>
</pin_list>
<bind>
<opset="real_i_0_load "/>
</bind>
</comp>

<comp id="417" class="1005" name="imag_i_0_load_reg_417">
<pin_list>
<pin id="418" dir="0" index="0" bw="32" slack="1"/>
<pin id="419" dir="1" index="1" bw="32" slack="1"/>
</pin_list>
<bind>
<opset="imag_i_0_load "/>
</bind>
</comp>

<comp id="423" class="1005" name="tmp_8_i_reg_423">
<pin_list>
<pin id="424" dir="0" index="0" bw="32" slack="1"/>
<pin id="425" dir="1" index="1" bw="32" slack="1"/>
</pin_list>
<bind>
<opset="tmp_8_i "/>
</bind>
</comp>

<comp id="428" class="1005" name="tmp_9_i_reg_428">
<pin_list>
<pin id="429" dir="0" index="0" bw="32" slack="1"/>
<pin id="430" dir="1" index="1" bw="32" slack="1"/>
</pin_list>
<bind>
<opset="tmp_9_i "/>
</bind>
</comp>

<comp id="433" class="1005" name="tmp_i_8_reg_433">
<pin_list>
<pin id="434" dir="0" index="0" bw="32" slack="1"/>
<pin id="435" dir="1" index="1" bw="32" slack="1"/>
</pin_list>
<bind>
<opset="tmp_i_8 "/>
</bind>
</comp>

<comp id="438" class="1005" name="tmp_10_i_reg_438">
<pin_list>
<pin id="439" dir="0" index="0" bw="32" slack="1"/>
<pin id="440" dir="1" index="1" bw="32" slack="1"/>
</pin_list>
<bind>
<opset="tmp_10_i "/>
</bind>
</comp>

<comp id="443" class="1005" name="k_reg_443">
<pin_list>
<pin id="444" dir="0" index="0" bw="10" slack="1"/>
<pin id="445" dir="1" index="1" bw="10" slack="1"/>
</pin_list>
<bind>
<opset="k "/>
</bind>
</comp>

</comp_list>

<net_list>
<net id="69"><net_src comp="16" pin="0"/><net_sink comp="64" pin=0"/></net>

<net id="70"><net_src comp="26" pin="0"/><net_sink comp="64" pin=1"/></net>

<net id="75"><net_src comp="64" pin="3"/><net_sink comp="71" pin=0"/></net>

<net id="81"><net_src comp="18" pin="0"/><net_sink comp="76" pin=0"/></net>

<net id="82"><net_src comp="26" pin="0"/><net_sink comp="76" pin=1"/></net>

<net id="87"><net_src comp="76" pin="3"/><net_sink comp="83" pin=0"/></net>

<net id="93"><net_src comp="14" pin="0"/><net_sink comp="88" pin=0"/></net>

<net id="94"><net_src comp="26" pin="0"/><net_sink comp="88" pin=1"/></net>

<net id="99"><net_src comp="88" pin="3"/><net_sink comp="95" pin=0"/></net>

<net id="105"><net_src comp="10" pin="0"/><net_sink comp="100" pin=0"/></net>

<net id="106"><net_src comp="26" pin="0"/><net_sink comp="100" pin=1"/></net>

<net id="111"><net_src comp="100" pin="3"/><net_sink comp="107" pin=0"/></net>

<net id="117"><net_src comp="12" pin="0"/><net_sink comp="112" pin=0"/></net>

<net id="118"><net_src comp="26" pin="0"/><net_sink comp="112" pin=1"/></net>

<net id="123"><net_src comp="112" pin="3"/><net_sink comp="119" pin=0"/></net>

<net id="129"><net_src comp="8" pin="0"/><net_sink comp="124" pin=0"/></net>

<net id="130"><net_src comp="26" pin="0"/><net_sink comp="124" pin=1"/></net>

<net id="135"><net_src comp="124" pin="3"/><net_sink comp="131" pin=0"/></net>

<net id="141"><net_src comp="6" pin="0"/><net_sink comp="136" pin=0"/></net>

<net id="142"><net_src comp="26" pin="0"/><net_sink comp="136" pin=1"/></net>

<net id="147"><net_src comp="136" pin="3"/><net_sink comp="143" pin=0"/></net>

<net id="153"><net_src comp="2" pin="0"/><net_sink comp="148" pin=0"/></net>

<net id="154"><net_src comp="26" pin="0"/><net_sink comp="148" pin=1"/></net>

<net id="159"><net_src comp="148" pin="3"/><net_sink comp="155" pin=0"/></net>

<net id="165"><net_src comp="4" pin="0"/><net_sink comp="160" pin=0"/></net>

<net id="166"><net_src comp="26" pin="0"/><net_sink comp="160" pin=1"/></net>

<net id="171"><net_src comp="160" pin="3"/><net_sink comp="167" pin=0"/></net>

<net id="177"><net_src comp="0" pin="0"/><net_sink comp="172" pin=0"/></net>

<net id="178"><net_src comp="26" pin="0"/><net_sink comp="172" pin=1"/></net>

<net id="183"><net_src comp="172" pin="3"/><net_sink comp="179" pin=0"/></net>

<net id="187"><net_src comp="20" pin="0"/><net_sink comp="184" pin=0"/></net>

<net id="194"><net_src comp="184" pin="1"/><net_sink comp="188" pin=0"/></net>

<net id="195"><net_src comp="188" pin="4"/><net_sink comp="184" pin=0"/></net>

<net id="199"><net_src comp="22" pin="0"/><net_sink comp="196" pin=0"/></net>

<net id="200"><net_src comp="24" pin="0"/><net_sink comp="196" pin=0"/></net>

<net id="207"><net_src comp="196" pin="1"/><net_sink comp="201" pin=0"/></net>

<net id="208"><net_src comp="196" pin="1"/><net_sink comp="201" pin=2"/></net>

<net id="212"><net_src comp="38" pin="0"/><net_sink comp="209" pin=0"/></net>

<net id="219"><net_src comp="209" pin="1"/><net_sink comp="213" pin=0"/></net>

<net id="248"><net_src comp="95" pin="2"/><net_sink comp="244" pin=0"/></net>

<net id="253"><net_src comp="107" pin="2"/><net_sink comp="249" pin=0"/></net>

<net id="258"><net_src comp="107" pin="2"/><net_sink comp="254" pin=0"/></net>

<net id="263"><net_src comp="95" pin="2"/><net_sink comp="259" pin=0"/></net>

<net id="267"><net_src comp="188" pin="4"/><net_sink comp="264" pin=0"/></net>

<net id="268"><net_src comp="264" pin="1"/><net_sink comp="64" pin=2"/></net>

<net id="269"><net_src comp="264" pin="1"/><net_sink comp="76" pin=2"/></net>

<net id="275"><net_src comp="40" pin="0"/><net_sink comp="270" pin=0"/></net>

<net id="276"><net_src comp="213" pin="4"/><net_sink comp="270" pin=1"/></net>

<net id="277"><net_src comp="42" pin="0"/><net_sink comp="270" pin=2"/></net>

<net id="284"><net_src comp="46" pin="0"/><net_sink comp="278" pin=0"/></net>

<net id="285"><net_src comp="213" pin="4"/><net_sink comp="278" pin=1"/></net>

<net id="286"><net_src comp="48" pin="0"/><net_sink comp="278" pin=2"/></net>

<net id="287"><net_src comp="42" pin="0"/><net_sink comp="278" pin=3"/></net>

<net id="291"><net_src comp="278" pin="4"/><net_sink comp="288" pin=0"/></net>

<net id="292"><net_src comp="288" pin="1"/><net_sink comp="88" pin=2"/></net>

<net id="293"><net_src comp="288" pin="1"/><net_sink comp="100" pin=2"/></net>

<net id="298"><net_src comp="213" pin="4"/><net_sink comp="294" pin=0"/></net>

<net id="299"><net_src comp="50" pin="0"/><net_sink comp="294" pin=1"/></net>

<net id="304"><net_src comp="184" pin="1"/><net_sink comp="300" pin=0"/></net>

<net id="305"><net_src comp="62" pin="0"/><net_sink comp="300" pin=1"/></net>

<net id="309"><net_src comp="64" pin="3"/><net_sink comp="306" pin=0"/></net>

<net id="310"><net_src comp="306" pin="1"/><net_sink comp="71" pin=0"/></net>

<net id="314"><net_src comp="76" pin="3"/><net_sink comp="311" pin=0"/></net>

<net id="315"><net_src comp="311" pin="1"/><net_sink comp="83" pin=0"/></net>

<net id="319"><net_src comp="71" pin="2"/><net_sink comp="316" pin=0"/></net>

<net id="320"><net_src comp="316" pin="1"/><net_sink comp="244" pin=1"/></net>

<net id="321"><net_src comp="316" pin="1"/><net_sink comp="254" pin=1"/></net>

<net id="325"><net_src comp="83" pin="2"/><net_sink comp="322" pin=0"/></net>

<net id="326"><net_src comp="322" pin="1"/><net_sink comp="249" pin=1"/></net>

<net id="327"><net_src comp="322" pin="1"/><net_sink comp="259" pin=1"/></net>

<net id="331"><net_src comp="270" pin="3"/><net_sink comp="328" pin=0"/></net>

<net id="335"><net_src comp="288" pin="1"/><net_sink comp="332" pin=0"/></net>

<net id="336"><net_src comp="332" pin="1"/><net_sink comp="112" pin=2"/></net>

<net id="337"><net_src comp="332" pin="1"/><net_sink comp="124" pin=2"/></net>

<net id="338"><net_src comp="332" pin="1"/><net_sink comp="136" pin=2"/></net>

<net id="339"><net_src comp="332" pin="1"/><net_sink comp="148" pin=2"/></net>

<net id="340"><net_src comp="332" pin="1"/><net_sink comp="160" pin=2"/></net>

<net id="341"><net_src comp="332" pin="1"/><net_sink comp="172" pin=2"/></net>

<net id="345"><net_src comp="88" pin="3"/><net_sink comp="342" pin=0"/></net>

<net id="346"><net_src comp="342" pin="1"/><net_sink comp="95" pin=0"/></net>

<net id="350"><net_src comp="100" pin="3"/><net_sink comp="347" pin=0"/></net>

<net id="351"><net_src comp="347" pin="1"/><net_sink comp="107" pin=0"/></net>

<net id="355"><net_src comp="294" pin="2"/><net_sink comp="352" pin=0"/></net>

<net id="356"><net_src comp="352" pin="1"/><net_sink comp="213" pin=2"/></net>

<net id="360"><net_src comp="95" pin="2"/><net_sink comp="357" pin=0"/></net>

<net id="361"><net_src comp="357" pin="1"/><net_sink comp="244" pin=0"/></net>

<net id="362"><net_src comp="357" pin="1"/><net_sink comp="259" pin=0"/></net>

<net id="366"><net_src comp="107" pin="2"/><net_sink comp="363" pin=0"/></net>

<net id="367"><net_src comp="363" pin="1"/><net_sink comp="249" pin=0"/></net>

<net id="368"><net_src comp="363" pin="1"/><net_sink comp="254" pin=0"/></net>

<net id="372"><net_src comp="244" pin="2"/><net_sink comp="369" pin=0"/></net>

<net id="373"><net_src comp="369" pin="1"/><net_sink comp="220" pin=0"/></net>

<net id="377"><net_src comp="249" pin="2"/><net_sink comp="374" pin=0"/></net>

<net id="378"><net_src comp="374" pin="1"/><net_sink comp="220" pin=1"/></net>

<net id="382"><net_src comp="254" pin="2"/><net_sink comp="379" pin=0"/></net>

<net id="383"><net_src comp="379" pin="1"/><net_sink comp="224" pin=0"/></net>

<net id="387"><net_src comp="259" pin="2"/><net_sink comp="384" pin=0"/></net>

<net id="388"><net_src comp="384" pin="1"/><net_sink comp="224" pin=1"/></net>

<net id="392"><net_src comp="112" pin="3"/><net_sink comp="389" pin=0"/></net>

<net id="393"><net_src comp="389" pin="1"/><net_sink comp="119" pin=0"/></net>

<net id="397"><net_src comp="124" pin="3"/><net_sink comp="394" pin=0"/></net>

<net id="398"><net_src comp="394" pin="1"/><net_sink comp="131" pin=0"/></net>

<net id="402"><net_src comp="220" pin="2"/><net_sink comp="399" pin=0"/></net>

<net id="403"><net_src comp="399" pin="1"/><net_sink comp="228" pin=1"/></net>

<net id="404"><net_src comp="399" pin="1"/><net_sink comp="236" pin=1"/></net>

<net id="408"><net_src comp="224" pin="2"/><net_sink comp="405" pin=0"/></net>

<net id="409"><net_src comp="405" pin="1"/><net_sink comp="232" pin=1"/></net>

<net id="410"><net_src comp="405" pin="1"/><net_sink comp="240" pin=1"/></net>

<net id="414"><net_src comp="119" pin="2"/><net_sink comp="411" pin=0"/></net>

<net id="415"><net_src comp="411" pin="1"/><net_sink comp="228" pin=0"/></net>

<net id="416"><net_src comp="411" pin="1"/><net_sink comp="236" pin=0"/></net>

<net id="420"><net_src comp="131" pin="2"/><net_sink comp="417" pin=0"/></net>

<net id="421"><net_src comp="417" pin="1"/><net_sink comp="232" pin=0"/></net>

<net id="422"><net_src comp="417" pin="1"/><net_sink comp="240" pin=0"/></net>

<net id="426"><net_src comp="228" pin="2"/><net_sink comp="423" pin=0"/></net>

<net id="427"><net_src comp="423" pin="1"/><net_sink comp="143" pin=1"/></net>

<net id="431"><net_src comp="232" pin="2"/><net_sink comp="428" pin=0"/></net>

<net id="432"><net_src comp="428" pin="1"/><net_sink comp="155" pin=1"/></net>

<net id="436"><net_src comp="236" pin="2"/><net_sink comp="433" pin=0"/></net>

<net id="437"><net_src comp="433" pin="1"/><net_sink comp="167" pin=1"/></net>

<net id="441"><net_src comp="240" pin="2"/><net_sink comp="438" pin=0"/></net>

<net id="442"><net_src comp="438" pin="1"/><net_sink comp="179" pin=1"/></net>

<net id="446"><net_src comp="300" pin="2"/><net_sink comp="443" pin=0"/></net>

<net id="447"><net_src comp="443" pin="1"/><net_sink comp="188" pin=2"/></net>

</net_list>

</model> 
---------------- Datapath Model END ------------------

* FSMD analyzer results:
  - Output states:
	Port: imag_o_0 | {}
	Port: imag_o_1 | {}
	Port: real_o_0 | {}
	Port: real_o_1 | {}
	Port: imag_i_0 | {}
	Port: imag_i_1 | {}
	Port: real_i_0 | {}
	Port: real_i_1 | {}
	Port: W_real | {}
	Port: W_imag | {}
  - Chain level:
	State 1
	State 2
		stg_24 : 1
		tmp_i : 1
		W_real_addr : 2
		c : 3
		W_imag_addr : 2
		s : 3
	State 3
	State 4
		tmp_2 : 1
		stg_40 : 2
		tmp_3 : 1
		newIndex2 : 2
		real_i_1_addr : 3
		real_i_1_load : 4
		imag_i_1_addr : 3
		imag_i_1_load : 4
		i_1 : 1
	State 5
		tmp_3_i : 1
		tmp_4_i : 1
		tmp_5_i : 1
		tmp_6_i : 1
	State 6
	State 7
	State 8
	State 9
	State 10
	State 11
	State 12
		real_i_0_load : 1
		imag_i_0_load : 1
	State 13
	State 14
	State 15
	State 16
	State 17
	State 18
	State 19
		stg_106 : 1
		stg_108 : 1
		stg_110 : 1
		stg_112 : 1
		empty_9 : 1
	State 20


============================================================
+ Verbose Summary: Datapath Resource usage 
============================================================

* Functional unit list:
|----------|------------------|---------|---------|---------|
| Operation|  Functional Unit |  DSP48E |    FF   |   LUT   |
|----------|------------------|---------|---------|---------|
|          |    grp_fu_220    |    2    |   205   |   390   |
|          |    grp_fu_224    |    2    |   205   |   390   |
|   fadd   |    grp_fu_228    |    2    |   205   |   390   |
|          |    grp_fu_232    |    2    |   205   |   390   |
|          |    grp_fu_236    |    2    |   205   |   390   |
|          |    grp_fu_240    |    2    |   205   |   390   |
|----------|------------------|---------|---------|---------|
|          |    grp_fu_244    |    3    |   143   |   321   |
|   fmul   |    grp_fu_249    |    3    |   143   |   321   |
|          |    grp_fu_254    |    3    |   143   |   321   |
|          |    grp_fu_259    |    3    |   143   |   321   |
|----------|------------------|---------|---------|---------|
|    add   |    i_1_fu_294    |    0    |    0    |    11   |
|----------|------------------|---------|---------|---------|
|    xor   |     k_fu_300     |    0    |    0    |    11   |
|----------|------------------|---------|---------|---------|
|   zext   |   tmp_i_fu_264   |    0    |    0    |    0    |
|          | newIndex2_fu_288 |    0    |    0    |    0    |
|----------|------------------|---------|---------|---------|
| bitselect|   tmp_2_fu_270   |    0    |    0    |    0    |
|----------|------------------|---------|---------|---------|
|partselect|   tmp_3_fu_278   |    0    |    0    |    0    |
|----------|------------------|---------|---------|---------|
|   Total  |                  |    24   |   1802  |   3646  |
|----------|------------------|---------|---------|---------|

Memories:
N/A

* Register list:
+---------------------+--------+
|                     |   FF   |
+---------------------+--------+
| W_imag_addr_reg_311 |    9   |
| W_real_addr_reg_306 |    9   |
|      c_reg_316      |   32   |
|   i_0_i_i_reg_209   |   11   |
|     i_1_reg_352     |   11   |
|      i_reg_196      |    1   |
|imag_i_0_addr_reg_394|    9   |
|imag_i_0_load_reg_417|   32   |
|imag_i_1_addr_reg_347|    9   |
|imag_i_1_load_reg_363|   32   |
|   k_0_i_i_reg_184   |   10   |
|      k_reg_443      |   10   |
|  newIndex2_reg_332  |   64   |
|real_i_0_addr_reg_389|    9   |
|real_i_0_load_reg_411|   32   |
|real_i_1_addr_reg_342|    9   |
|real_i_1_load_reg_357|   32   |
|      s_reg_322      |   32   |
|    temp_I_reg_405   |   32   |
|    temp_R_reg_399   |   32   |
|   tmp_10_i_reg_438  |   32   |
|    tmp_2_reg_328    |    1   |
|   tmp_3_i_reg_369   |   32   |
|   tmp_4_i_reg_374   |   32   |
|   tmp_5_i_reg_379   |   32   |
|   tmp_6_i_reg_384   |   32   |
|   tmp_8_i_reg_423   |   32   |
|   tmp_9_i_reg_428   |   32   |
|   tmp_i_8_reg_433   |   32   |
+---------------------+--------+
|        Total        |   674  |
+---------------------+--------+

* Multiplexer (MUX) list: 
|-------------------|------|------|------|--------||---------||---------|
|        Comp       |  Pin | Size |  BW  | S x BW ||  Delay  ||   LUT   |
|-------------------|------|------|------|--------||---------||---------|
|  grp_access_fu_71 |  p0  |   2  |   9  |   18   ||    9    |
|  grp_access_fu_83 |  p0  |   2  |   9  |   18   ||    9    |
|  grp_access_fu_95 |  p0  |   2  |   9  |   18   ||    9    |
| grp_access_fu_107 |  p0  |   2  |   9  |   18   ||    9    |
| grp_access_fu_119 |  p0  |   2  |   9  |   18   ||    9    |
| grp_access_fu_131 |  p0  |   2  |   9  |   18   ||    9    |
|  k_0_i_i_reg_184  |  p0  |   2  |  10  |   20   ||    10   |
|     i_reg_196     |  p0  |   2  |   1  |    2   |
|     grp_fu_244    |  p0  |   2  |  32  |   64   ||    32   |
|     grp_fu_249    |  p0  |   2  |  32  |   64   ||    32   |
|     grp_fu_254    |  p0  |   2  |  32  |   64   ||    32   |
|     grp_fu_259    |  p0  |   2  |  32  |   64   ||    32   |
|-------------------|------|------|------|--------||---------||---------|
|       Total       |      |      |      |   386  ||  18.852 ||   192   |
|-------------------|------|------|------|--------||---------||---------|



* Summary:
+-----------+--------+--------+--------+--------+
|           | DSP48E |  Delay |   FF   |   LUT  |
+-----------+--------+--------+--------+--------+
|  Function |   24   |    -   |  1802  |  3646  |
|   Memory  |    -   |    -   |    -   |    -   |
|Multiplexer|    -   |   18   |    -   |   192  |
|  Register |    -   |    -   |   674  |    -   |
+-----------+--------+--------+--------+--------+
|   Total   |   24   |   18   |  2476  |  3838  |
+-----------+--------+--------+--------+--------+
