

================================================================
== Vivado HLS Report for 'bit_reverse'
================================================================
* Date:           Thu Nov 10 23:09:56 2016

* Version:        2015.4 (Build 1412921 on Wed Nov 18 09:58:55 AM 2015)
* Project:        bit_reverse
* Solution:       solution1
* Product family: zynq
* Target device:  xc7z020clg484-1


================================================================
== Performance Estimates
================================================================
+ Timing (ns): 
    * Summary: 
    +--------+-------+----------+------------+
    |  Clock | Target| Estimated| Uncertainty|
    +--------+-------+----------+------------+
    |ap_clk  |  10.00|      5.42|        1.25|
    +--------+-------+----------+------------+

+ Latency (clock cycles): 
    * Summary: 
    +------+------+------+------+----------+
    |   Latency   |   Interval  | Pipeline |
    |  min |  max |  min |  max |   Type   |
    +------+------+------+------+----------+
    |  3074|  3074|  3075|  3075| dataflow |
    +------+------+------+------+----------+

    + Detail: 
        * Instance: 
        +-------------------------------------+---------------------------+------+------+------+------+---------+
        |                                     |                           |   Latency   |   Interval  | Pipeline|
        |               Instance              |           Module          |  min |  max |  min |  max |   Type  |
        +-------------------------------------+---------------------------+------+------+------+------+---------+
        |grp_bit_reverse_Loop_rev_proc_fu_20  |bit_reverse_Loop_rev_proc  |  3074|  3074|  3074|  3074|   none  |
        +-------------------------------------+---------------------------+------+------+------+------+---------+

        * Loop: 
        N/A



================================================================
== Utilization Estimates
================================================================
* Summary: 
+-----------------+---------+-------+--------+-------+
|       Name      | BRAM_18K| DSP48E|   FF   |  LUT  |
+-----------------+---------+-------+--------+-------+
|DSP              |        -|      -|       -|      -|
|Expression       |        -|      -|       -|      -|
|FIFO             |        -|      -|       -|      -|
|Instance         |        1|      -|     147|     84|
|Memory           |        -|      -|       -|      -|
|Multiplexer      |        -|      -|       -|      -|
|Register         |        -|      -|       2|      -|
+-----------------+---------+-------+--------+-------+
|Total            |        1|      0|     149|     84|
+-----------------+---------+-------+--------+-------+
|Available        |      280|    220|  106400|  53200|
+-----------------+---------+-------+--------+-------+
|Utilization (%)  |    ~0   |      0|   ~0   |   ~0  |
+-----------------+---------+-------+--------+-------+

+ Detail: 
    * Instance: 
    +------------------------------+---------------------------+---------+-------+-----+----+
    |           Instance           |           Module          | BRAM_18K| DSP48E|  FF | LUT|
    +------------------------------+---------------------------+---------+-------+-----+----+
    |bit_reverse_Loop_rev_proc_U0  |bit_reverse_Loop_rev_proc  |        1|      0|  147|  84|
    +------------------------------+---------------------------+---------+-------+-----+----+
    |Total                         |                           |        1|      0|  147|  84|
    +------------------------------+---------------------------+---------+-------+-----+----+

    * DSP48: 
    N/A

    * Memory: 
    N/A

    * FIFO: 
    N/A

    * Expression: 
    N/A

    * Multiplexer: 
    N/A

    * Register: 
    +----------------------------------------------+---+----+-----+-----------+
    |                     Name                     | FF| LUT| Bits| Const Bits|
    +----------------------------------------------+---+----+-----+-----------+
    |ap_CS                                         |  1|   0|    1|          0|
    |ap_reg_procdone_bit_reverse_Loop_rev_proc_U0  |  1|   0|    1|          0|
    +----------------------------------------------+---+----+-----+-----------+
    |Total                                         |  2|   0|    2|          0|
    +----------------------------------------------+---+----+-----+-----------+



================================================================
== Interface
================================================================
* Summary: 
+-----------------+-----+-----+------------+--------------+--------------+
|    RTL Ports    | Dir | Bits|  Protocol  | Source Object|    C Type    |
+-----------------+-----+-----+------------+--------------+--------------+
|real_i_address0  | out |   10|  ap_memory |    real_i    |     array    |
|real_i_ce0       | out |    1|  ap_memory |    real_i    |     array    |
|real_i_d0        | out |   32|  ap_memory |    real_i    |     array    |
|real_i_q0        |  in |   32|  ap_memory |    real_i    |     array    |
|real_i_we0       | out |    1|  ap_memory |    real_i    |     array    |
|real_i_address1  | out |   10|  ap_memory |    real_i    |     array    |
|real_i_ce1       | out |    1|  ap_memory |    real_i    |     array    |
|real_i_d1        | out |   32|  ap_memory |    real_i    |     array    |
|real_i_q1        |  in |   32|  ap_memory |    real_i    |     array    |
|real_i_we1       | out |    1|  ap_memory |    real_i    |     array    |
|imag_i_address0  | out |   10|  ap_memory |    imag_i    |     array    |
|imag_i_ce0       | out |    1|  ap_memory |    imag_i    |     array    |
|imag_i_d0        | out |   32|  ap_memory |    imag_i    |     array    |
|imag_i_q0        |  in |   32|  ap_memory |    imag_i    |     array    |
|imag_i_we0       | out |    1|  ap_memory |    imag_i    |     array    |
|imag_i_address1  | out |   10|  ap_memory |    imag_i    |     array    |
|imag_i_ce1       | out |    1|  ap_memory |    imag_i    |     array    |
|imag_i_d1        | out |   32|  ap_memory |    imag_i    |     array    |
|imag_i_q1        |  in |   32|  ap_memory |    imag_i    |     array    |
|imag_i_we1       | out |    1|  ap_memory |    imag_i    |     array    |
|ap_clk           |  in |    1| ap_ctrl_hs |  bit_reverse | return value |
|ap_rst           |  in |    1| ap_ctrl_hs |  bit_reverse | return value |
|ap_done          | out |    1| ap_ctrl_hs |  bit_reverse | return value |
|ap_start         |  in |    1| ap_ctrl_hs |  bit_reverse | return value |
|ap_idle          | out |    1| ap_ctrl_hs |  bit_reverse | return value |
|ap_ready         | out |    1| ap_ctrl_hs |  bit_reverse | return value |
+-----------------+-----+-----+------------+--------------+--------------+

