

================================================================
== Vivado HLS Report for 'dft_loop_flow256'
================================================================
* Date:           Tue Nov 01 19:33:42 2016

* Version:        2015.4 (Build 1412921 on Wed Nov 18 09:58:55 AM 2015)
* Project:        dft
* Solution:       dft_best4
* Product family: zynq
* Target device:  xc7z020clg484-1


================================================================
== Performance Estimates
================================================================
+ Timing (ns): 
    * Summary: 
    +--------+-------+----------+------------+
    |  Clock | Target| Estimated| Uncertainty|
    +--------+-------+----------+------------+
    |ap_clk  |  10.00|      7.26|        1.25|
    +--------+-------+----------+------------+

+ Latency (clock cycles): 
    * Summary: 
    +-----+-----+-----+-----+---------+
    |  Latency  |  Interval | Pipeline|
    | min | max | min | max |   Type  |
    +-----+-----+-----+-----+---------+
    |   45|   45|   45|   45|   none  |
    +-----+-----+-----+-----+---------+

    + Detail: 
        * Instance: 
        N/A

        * Loop: 
        +----------+-----+-----+----------+-----------+-----------+------+----------+
        |          |  Latency  | Iteration|  Initiation Interval  | Trip |          |
        | Loop Name| min | max |  Latency |  achieved |   target  | Count| Pipelined|
        +----------+-----+-----+----------+-----------+-----------+------+----------+
        |- Loop 1  |   43|   43|        13|          1|          1|    32|    yes   |
        +----------+-----+-----+----------+-----------+-----------+------+----------+



================================================================
== Utilization Estimates
================================================================
* Summary: 
+-----------------+---------+-------+--------+-------+
|       Name      | BRAM_18K| DSP48E|   FF   |  LUT  |
+-----------------+---------+-------+--------+-------+
|DSP              |        -|      -|       -|      -|
|Expression       |        -|      8|       0|   1661|
|FIFO             |        -|      -|       -|      -|
|Instance         |        -|    128|    7856|  21120|
|Memory           |        0|      -|   16384|    256|
|Multiplexer      |        -|      -|       -|     11|
|Register         |        -|      -|    2773|     32|
+-----------------+---------+-------+--------+-------+
|Total            |        0|    136|   27013|  23080|
+-----------------+---------+-------+--------+-------+
|Available        |      280|    220|  106400|  53200|
+-----------------+---------+-------+--------+-------+
|Utilization (%)  |        0|     61|      25|     43|
+-----------------+---------+-------+--------+-------+

+ Detail: 
    * Instance: 
    +--------------------------------------+----------------------------------+---------+-------+-----+-----+
    |               Instance               |              Module              | BRAM_18K| DSP48E|  FF | LUT |
    +--------------------------------------+----------------------------------+---------+-------+-----+-----+
    |dft_fadd_32ns_32ns_32_5_full_dsp_U1   |dft_fadd_32ns_32ns_32_5_full_dsp  |        0|      2|  205|  390|
    |dft_fadd_32ns_32ns_32_5_full_dsp_U3   |dft_fadd_32ns_32ns_32_5_full_dsp  |        0|      2|  205|  390|
    |dft_fadd_32ns_32ns_32_5_full_dsp_U5   |dft_fadd_32ns_32ns_32_5_full_dsp  |        0|      2|  205|  390|
    |dft_fadd_32ns_32ns_32_5_full_dsp_U7   |dft_fadd_32ns_32ns_32_5_full_dsp  |        0|      2|  205|  390|
    |dft_fadd_32ns_32ns_32_5_full_dsp_U9   |dft_fadd_32ns_32ns_32_5_full_dsp  |        0|      2|  205|  390|
    |dft_fadd_32ns_32ns_32_5_full_dsp_U11  |dft_fadd_32ns_32ns_32_5_full_dsp  |        0|      2|  205|  390|
    |dft_fadd_32ns_32ns_32_5_full_dsp_U13  |dft_fadd_32ns_32ns_32_5_full_dsp  |        0|      2|  205|  390|
    |dft_fadd_32ns_32ns_32_5_full_dsp_U15  |dft_fadd_32ns_32ns_32_5_full_dsp  |        0|      2|  205|  390|
    |dft_fmul_32ns_32ns_32_4_max_dsp_U16   |dft_fmul_32ns_32ns_32_4_max_dsp   |        0|      3|  143|  321|
    |dft_fmul_32ns_32ns_32_4_max_dsp_U17   |dft_fmul_32ns_32ns_32_4_max_dsp   |        0|      3|  143|  321|
    |dft_fmul_32ns_32ns_32_4_max_dsp_U18   |dft_fmul_32ns_32ns_32_4_max_dsp   |        0|      3|  143|  321|
    |dft_fmul_32ns_32ns_32_4_max_dsp_U19   |dft_fmul_32ns_32ns_32_4_max_dsp   |        0|      3|  143|  321|
    |dft_fmul_32ns_32ns_32_4_max_dsp_U20   |dft_fmul_32ns_32ns_32_4_max_dsp   |        0|      3|  143|  321|
    |dft_fmul_32ns_32ns_32_4_max_dsp_U21   |dft_fmul_32ns_32ns_32_4_max_dsp   |        0|      3|  143|  321|
    |dft_fmul_32ns_32ns_32_4_max_dsp_U22   |dft_fmul_32ns_32ns_32_4_max_dsp   |        0|      3|  143|  321|
    |dft_fmul_32ns_32ns_32_4_max_dsp_U23   |dft_fmul_32ns_32ns_32_4_max_dsp   |        0|      3|  143|  321|
    |dft_fmul_32ns_32ns_32_4_max_dsp_U24   |dft_fmul_32ns_32ns_32_4_max_dsp   |        0|      3|  143|  321|
    |dft_fmul_32ns_32ns_32_4_max_dsp_U25   |dft_fmul_32ns_32ns_32_4_max_dsp   |        0|      3|  143|  321|
    |dft_fmul_32ns_32ns_32_4_max_dsp_U26   |dft_fmul_32ns_32ns_32_4_max_dsp   |        0|      3|  143|  321|
    |dft_fmul_32ns_32ns_32_4_max_dsp_U27   |dft_fmul_32ns_32ns_32_4_max_dsp   |        0|      3|  143|  321|
    |dft_fmul_32ns_32ns_32_4_max_dsp_U28   |dft_fmul_32ns_32ns_32_4_max_dsp   |        0|      3|  143|  321|
    |dft_fmul_32ns_32ns_32_4_max_dsp_U29   |dft_fmul_32ns_32ns_32_4_max_dsp   |        0|      3|  143|  321|
    |dft_fmul_32ns_32ns_32_4_max_dsp_U30   |dft_fmul_32ns_32ns_32_4_max_dsp   |        0|      3|  143|  321|
    |dft_fmul_32ns_32ns_32_4_max_dsp_U31   |dft_fmul_32ns_32ns_32_4_max_dsp   |        0|      3|  143|  321|
    |dft_fmul_32ns_32ns_32_4_max_dsp_U32   |dft_fmul_32ns_32ns_32_4_max_dsp   |        0|      3|  143|  321|
    |dft_fmul_32ns_32ns_32_4_max_dsp_U33   |dft_fmul_32ns_32ns_32_4_max_dsp   |        0|      3|  143|  321|
    |dft_fmul_32ns_32ns_32_4_max_dsp_U34   |dft_fmul_32ns_32ns_32_4_max_dsp   |        0|      3|  143|  321|
    |dft_fmul_32ns_32ns_32_4_max_dsp_U35   |dft_fmul_32ns_32ns_32_4_max_dsp   |        0|      3|  143|  321|
    |dft_fmul_32ns_32ns_32_4_max_dsp_U36   |dft_fmul_32ns_32ns_32_4_max_dsp   |        0|      3|  143|  321|
    |dft_fmul_32ns_32ns_32_4_max_dsp_U37   |dft_fmul_32ns_32ns_32_4_max_dsp   |        0|      3|  143|  321|
    |dft_fmul_32ns_32ns_32_4_max_dsp_U38   |dft_fmul_32ns_32ns_32_4_max_dsp   |        0|      3|  143|  321|
    |dft_fmul_32ns_32ns_32_4_max_dsp_U39   |dft_fmul_32ns_32ns_32_4_max_dsp   |        0|      3|  143|  321|
    |dft_fmul_32ns_32ns_32_4_max_dsp_U40   |dft_fmul_32ns_32ns_32_4_max_dsp   |        0|      3|  143|  321|
    |dft_fmul_32ns_32ns_32_4_max_dsp_U41   |dft_fmul_32ns_32ns_32_4_max_dsp   |        0|      3|  143|  321|
    |dft_fmul_32ns_32ns_32_4_max_dsp_U42   |dft_fmul_32ns_32ns_32_4_max_dsp   |        0|      3|  143|  321|
    |dft_fmul_32ns_32ns_32_4_max_dsp_U43   |dft_fmul_32ns_32ns_32_4_max_dsp   |        0|      3|  143|  321|
    |dft_fmul_32ns_32ns_32_4_max_dsp_U44   |dft_fmul_32ns_32ns_32_4_max_dsp   |        0|      3|  143|  321|
    |dft_fmul_32ns_32ns_32_4_max_dsp_U45   |dft_fmul_32ns_32ns_32_4_max_dsp   |        0|      3|  143|  321|
    |dft_fmul_32ns_32ns_32_4_max_dsp_U46   |dft_fmul_32ns_32ns_32_4_max_dsp   |        0|      3|  143|  321|
    |dft_fmul_32ns_32ns_32_4_max_dsp_U47   |dft_fmul_32ns_32ns_32_4_max_dsp   |        0|      3|  143|  321|
    |dft_fsub_32ns_32ns_32_5_full_dsp_U0   |dft_fsub_32ns_32ns_32_5_full_dsp  |        0|      2|  205|  390|
    |dft_fsub_32ns_32ns_32_5_full_dsp_U2   |dft_fsub_32ns_32ns_32_5_full_dsp  |        0|      2|  205|  390|
    |dft_fsub_32ns_32ns_32_5_full_dsp_U4   |dft_fsub_32ns_32ns_32_5_full_dsp  |        0|      2|  205|  390|
    |dft_fsub_32ns_32ns_32_5_full_dsp_U6   |dft_fsub_32ns_32ns_32_5_full_dsp  |        0|      2|  205|  390|
    |dft_fsub_32ns_32ns_32_5_full_dsp_U8   |dft_fsub_32ns_32ns_32_5_full_dsp  |        0|      2|  205|  390|
    |dft_fsub_32ns_32ns_32_5_full_dsp_U10  |dft_fsub_32ns_32ns_32_5_full_dsp  |        0|      2|  205|  390|
    |dft_fsub_32ns_32ns_32_5_full_dsp_U12  |dft_fsub_32ns_32ns_32_5_full_dsp  |        0|      2|  205|  390|
    |dft_fsub_32ns_32ns_32_5_full_dsp_U14  |dft_fsub_32ns_32ns_32_5_full_dsp  |        0|      2|  205|  390|
    |dft_mux_32to1_sel5_32_1_U48           |dft_mux_32to1_sel5_32_1           |        0|      0|    0|  288|
    |dft_mux_32to1_sel5_32_1_U49           |dft_mux_32to1_sel5_32_1           |        0|      0|    0|  288|
    |dft_mux_32to1_sel5_32_1_U50           |dft_mux_32to1_sel5_32_1           |        0|      0|    0|  288|
    |dft_mux_32to1_sel5_32_1_U51           |dft_mux_32to1_sel5_32_1           |        0|      0|    0|  288|
    |dft_mux_32to1_sel5_32_1_U52           |dft_mux_32to1_sel5_32_1           |        0|      0|    0|  288|
    |dft_mux_32to1_sel5_32_1_U53           |dft_mux_32to1_sel5_32_1           |        0|      0|    0|  288|
    |dft_mux_32to1_sel5_32_1_U54           |dft_mux_32to1_sel5_32_1           |        0|      0|    0|  288|
    |dft_mux_32to1_sel5_32_1_U55           |dft_mux_32to1_sel5_32_1           |        0|      0|    0|  288|
    |dft_mux_32to1_sel5_32_1_U56           |dft_mux_32to1_sel5_32_1           |        0|      0|    0|  288|
    |dft_mux_32to1_sel5_32_1_U57           |dft_mux_32to1_sel5_32_1           |        0|      0|    0|  288|
    |dft_mux_32to1_sel5_32_1_U58           |dft_mux_32to1_sel5_32_1           |        0|      0|    0|  288|
    |dft_mux_32to1_sel5_32_1_U59           |dft_mux_32to1_sel5_32_1           |        0|      0|    0|  288|
    |dft_mux_32to1_sel5_32_1_U60           |dft_mux_32to1_sel5_32_1           |        0|      0|    0|  288|
    |dft_mux_32to1_sel5_32_1_U61           |dft_mux_32to1_sel5_32_1           |        0|      0|    0|  288|
    |dft_mux_32to1_sel5_32_1_U62           |dft_mux_32to1_sel5_32_1           |        0|      0|    0|  288|
    |dft_mux_32to1_sel5_32_1_U63           |dft_mux_32to1_sel5_32_1           |        0|      0|    0|  288|
    +--------------------------------------+----------------------------------+---------+-------+-----+-----+
    |Total                                 |                                  |        0|    128| 7856|21120|
    +--------------------------------------+----------------------------------+---------+-------+-----+-----+

    * DSP48: 
    N/A

    * Memory: 
    +----------+-------------------------+---------+-----+----+------+-----+------+-------------+
    |  Memory  |          Module         | BRAM_18K|  FF | LUT| Words| Bits| Banks| W*Bits*Banks|
    +----------+-------------------------+---------+-----+----+------+-----+------+-------------+
    |cct_0_U   |dft_loop_flow256_cct_0   |        0|  256|   4|     8|   32|     1|          256|
    |cct_1_U   |dft_loop_flow256_cct_1   |        0|  256|   4|     8|   32|     1|          256|
    |cct_10_U  |dft_loop_flow256_cct_10  |        0|  256|   4|     8|   32|     1|          256|
    |cct_11_U  |dft_loop_flow256_cct_11  |        0|  256|   4|     8|   32|     1|          256|
    |cct_12_U  |dft_loop_flow256_cct_12  |        0|  256|   4|     8|   32|     1|          256|
    |cct_13_U  |dft_loop_flow256_cct_13  |        0|  256|   4|     8|   32|     1|          256|
    |cct_14_U  |dft_loop_flow256_cct_14  |        0|  256|   4|     8|   32|     1|          256|
    |cct_15_U  |dft_loop_flow256_cct_15  |        0|  256|   4|     8|   32|     1|          256|
    |cct_16_U  |dft_loop_flow256_cct_16  |        0|  256|   4|     8|   32|     1|          256|
    |cct_17_U  |dft_loop_flow256_cct_17  |        0|  256|   4|     8|   32|     1|          256|
    |cct_18_U  |dft_loop_flow256_cct_18  |        0|  256|   4|     8|   32|     1|          256|
    |cct_19_U  |dft_loop_flow256_cct_19  |        0|  256|   4|     8|   32|     1|          256|
    |cct_2_U   |dft_loop_flow256_cct_2   |        0|  256|   4|     8|   32|     1|          256|
    |cct_20_U  |dft_loop_flow256_cct_20  |        0|  256|   4|     8|   32|     1|          256|
    |cct_21_U  |dft_loop_flow256_cct_21  |        0|  256|   4|     8|   32|     1|          256|
    |cct_22_U  |dft_loop_flow256_cct_22  |        0|  256|   4|     8|   32|     1|          256|
    |cct_23_U  |dft_loop_flow256_cct_23  |        0|  256|   4|     8|   32|     1|          256|
    |cct_24_U  |dft_loop_flow256_cct_24  |        0|  256|   4|     8|   32|     1|          256|
    |cct_25_U  |dft_loop_flow256_cct_25  |        0|  256|   4|     8|   32|     1|          256|
    |cct_26_U  |dft_loop_flow256_cct_26  |        0|  256|   4|     8|   32|     1|          256|
    |cct_27_U  |dft_loop_flow256_cct_27  |        0|  256|   4|     8|   32|     1|          256|
    |cct_28_U  |dft_loop_flow256_cct_28  |        0|  256|   4|     8|   32|     1|          256|
    |cct_29_U  |dft_loop_flow256_cct_29  |        0|  256|   4|     8|   32|     1|          256|
    |cct_3_U   |dft_loop_flow256_cct_3   |        0|  256|   4|     8|   32|     1|          256|
    |cct_30_U  |dft_loop_flow256_cct_30  |        0|  256|   4|     8|   32|     1|          256|
    |cct_31_U  |dft_loop_flow256_cct_31  |        0|  256|   4|     8|   32|     1|          256|
    |cct_4_U   |dft_loop_flow256_cct_4   |        0|  256|   4|     8|   32|     1|          256|
    |cct_5_U   |dft_loop_flow256_cct_5   |        0|  256|   4|     8|   32|     1|          256|
    |cct_6_U   |dft_loop_flow256_cct_6   |        0|  256|   4|     8|   32|     1|          256|
    |cct_7_U   |dft_loop_flow256_cct_7   |        0|  256|   4|     8|   32|     1|          256|
    |cct_8_U   |dft_loop_flow256_cct_8   |        0|  256|   4|     8|   32|     1|          256|
    |cct_9_U   |dft_loop_flow256_cct_9   |        0|  256|   4|     8|   32|     1|          256|
    |sct_0_U   |dft_loop_flow256_sct_0   |        0|  256|   4|     8|   32|     1|          256|
    |sct_1_U   |dft_loop_flow256_sct_1   |        0|  256|   4|     8|   32|     1|          256|
    |sct_10_U  |dft_loop_flow256_sct_10  |        0|  256|   4|     8|   32|     1|          256|
    |sct_11_U  |dft_loop_flow256_sct_11  |        0|  256|   4|     8|   32|     1|          256|
    |sct_12_U  |dft_loop_flow256_sct_12  |        0|  256|   4|     8|   32|     1|          256|
    |sct_13_U  |dft_loop_flow256_sct_13  |        0|  256|   4|     8|   32|     1|          256|
    |sct_14_U  |dft_loop_flow256_sct_14  |        0|  256|   4|     8|   32|     1|          256|
    |sct_15_U  |dft_loop_flow256_sct_15  |        0|  256|   4|     8|   32|     1|          256|
    |sct_16_U  |dft_loop_flow256_sct_16  |        0|  256|   4|     8|   32|     1|          256|
    |sct_17_U  |dft_loop_flow256_sct_17  |        0|  256|   4|     8|   32|     1|          256|
    |sct_18_U  |dft_loop_flow256_sct_18  |        0|  256|   4|     8|   32|     1|          256|
    |sct_19_U  |dft_loop_flow256_sct_19  |        0|  256|   4|     8|   32|     1|          256|
    |sct_2_U   |dft_loop_flow256_sct_2   |        0|  256|   4|     8|   32|     1|          256|
    |sct_20_U  |dft_loop_flow256_sct_20  |        0|  256|   4|     8|   32|     1|          256|
    |sct_21_U  |dft_loop_flow256_sct_21  |        0|  256|   4|     8|   32|     1|          256|
    |sct_22_U  |dft_loop_flow256_sct_22  |        0|  256|   4|     8|   32|     1|          256|
    |sct_23_U  |dft_loop_flow256_sct_23  |        0|  256|   4|     8|   32|     1|          256|
    |sct_24_U  |dft_loop_flow256_sct_24  |        0|  256|   4|     8|   32|     1|          256|
    |sct_25_U  |dft_loop_flow256_sct_25  |        0|  256|   4|     8|   32|     1|          256|
    |sct_26_U  |dft_loop_flow256_sct_26  |        0|  256|   4|     8|   32|     1|          256|
    |sct_27_U  |dft_loop_flow256_sct_27  |        0|  256|   4|     8|   32|     1|          256|
    |sct_28_U  |dft_loop_flow256_sct_28  |        0|  256|   4|     8|   32|     1|          256|
    |sct_29_U  |dft_loop_flow256_sct_29  |        0|  256|   4|     8|   32|     1|          256|
    |sct_3_U   |dft_loop_flow256_sct_3   |        0|  256|   4|     8|   32|     1|          256|
    |sct_30_U  |dft_loop_flow256_sct_30  |        0|  256|   4|     8|   32|     1|          256|
    |sct_31_U  |dft_loop_flow256_sct_31  |        0|  256|   4|     8|   32|     1|          256|
    |sct_4_U   |dft_loop_flow256_sct_4   |        0|  256|   4|     8|   32|     1|          256|
    |sct_5_U   |dft_loop_flow256_sct_5   |        0|  256|   4|     8|   32|     1|          256|
    |sct_6_U   |dft_loop_flow256_sct_6   |        0|  256|   4|     8|   32|     1|          256|
    |sct_7_U   |dft_loop_flow256_sct_7   |        0|  256|   4|     8|   32|     1|          256|
    |sct_8_U   |dft_loop_flow256_sct_8   |        0|  256|   4|     8|   32|     1|          256|
    |sct_9_U   |dft_loop_flow256_sct_9   |        0|  256|   4|     8|   32|     1|          256|
    +----------+-------------------------+---------+-----+----+------+-----+------+-------------+
    |Total     |                         |        0|16384| 256|   512| 2048|    64|        16384|
    +----------+-------------------------+---------+-----+----+------+-----+------+-------------+

    * FIFO: 
    N/A

    * Expression: 
    +------------------------------+----------+-------+---+----+------------+------------+
    |         Variable Name        | Operation| DSP48E| FF| LUT| Bitwidth P0| Bitwidth P1|
    +------------------------------+----------+-------+---+----+------------+------------+
    |tmp1_fu_7243_p2               |     *    |      1|  0|   0|           9|           9|
    |tmp_1_fu_7310_p2              |     *    |      1|  0|   0|           9|           9|
    |tmp_2_fu_7357_p2              |     *    |      1|  0|   0|           9|           9|
    |tmp_3_fu_7404_p2              |     *    |      1|  0|   0|           9|           9|
    |tmp_4_fu_7451_p2              |     *    |      1|  0|   0|           9|           9|
    |tmp_5_fu_7508_p2              |     *    |      1|  0|   0|           9|           9|
    |tmp_6_fu_7565_p2              |     *    |      1|  0|   0|           9|           9|
    |tmp_7_fu_7622_p2              |     *    |      1|  0|   0|           9|           9|
    |j_V_7_fu_7673_p2              |     +    |      0|  0|   9|           4|           9|
    |imag_i_load_0_phi_fu_8386_p3  |  Select  |      0|  0|  32|           1|          32|
    |imag_i_load_1_phi_fu_8566_p3  |  Select  |      0|  0|  32|           1|          32|
    |imag_i_load_2_phi_fu_8746_p3  |  Select  |      0|  0|  32|           1|          32|
    |imag_i_load_3_phi_fu_8926_p3  |  Select  |      0|  0|  32|           1|          32|
    |imag_i_load_4_phi_fu_9106_p3  |  Select  |      0|  0|  32|           1|          32|
    |imag_i_load_5_phi_fu_9286_p3  |  Select  |      0|  0|  32|           1|          32|
    |imag_i_load_6_phi_fu_9466_p3  |  Select  |      0|  0|  32|           1|          32|
    |imag_i_load_7_phi_fu_9646_p3  |  Select  |      0|  0|  32|           1|          32|
    |real_i_load_0_phi_fu_8296_p3  |  Select  |      0|  0|  32|           1|          32|
    |real_i_load_1_phi_fu_8476_p3  |  Select  |      0|  0|  32|           1|          32|
    |real_i_load_2_phi_fu_8656_p3  |  Select  |      0|  0|  32|           1|          32|
    |real_i_load_3_phi_fu_8836_p3  |  Select  |      0|  0|  32|           1|          32|
    |real_i_load_4_phi_fu_9016_p3  |  Select  |      0|  0|  32|           1|          32|
    |real_i_load_5_phi_fu_9196_p3  |  Select  |      0|  0|  32|           1|          32|
    |real_i_load_6_phi_fu_9376_p3  |  Select  |      0|  0|  32|           1|          32|
    |real_i_load_7_phi_fu_9556_p3  |  Select  |      0|  0|  32|           1|          32|
    |sel_tmp13_fu_8462_p3          |  Select  |      0|  0|  32|           1|          32|
    |sel_tmp15_fu_8469_p3          |  Select  |      0|  0|  32|           1|          32|
    |sel_tmp17_fu_8552_p3          |  Select  |      0|  0|  32|           1|          32|
    |sel_tmp18_fu_8559_p3          |  Select  |      0|  0|  32|           1|          32|
    |sel_tmp1_fu_8282_p3           |  Select  |      0|  0|  32|           1|          32|
    |sel_tmp20_fu_8642_p3          |  Select  |      0|  0|  32|           1|          32|
    |sel_tmp22_fu_8649_p3          |  Select  |      0|  0|  32|           1|          32|
    |sel_tmp24_fu_8732_p3          |  Select  |      0|  0|  32|           1|          32|
    |sel_tmp25_fu_8739_p3          |  Select  |      0|  0|  32|           1|          32|
    |sel_tmp27_fu_8822_p3          |  Select  |      0|  0|  32|           1|          32|
    |sel_tmp29_fu_8829_p3          |  Select  |      0|  0|  32|           1|          32|
    |sel_tmp31_fu_8912_p3          |  Select  |      0|  0|  32|           1|          32|
    |sel_tmp32_fu_8919_p3          |  Select  |      0|  0|  32|           1|          32|
    |sel_tmp34_fu_9002_p3          |  Select  |      0|  0|  32|           1|          32|
    |sel_tmp36_fu_9009_p3          |  Select  |      0|  0|  32|           1|          32|
    |sel_tmp38_fu_9092_p3          |  Select  |      0|  0|  32|           1|          32|
    |sel_tmp39_fu_9099_p3          |  Select  |      0|  0|  32|           1|          32|
    |sel_tmp3_fu_8289_p3           |  Select  |      0|  0|  32|           1|          32|
    |sel_tmp41_fu_9182_p3          |  Select  |      0|  0|  32|           1|          32|
    |sel_tmp43_fu_9189_p3          |  Select  |      0|  0|  32|           1|          32|
    |sel_tmp45_fu_9272_p3          |  Select  |      0|  0|  32|           1|          32|
    |sel_tmp46_fu_9279_p3          |  Select  |      0|  0|  32|           1|          32|
    |sel_tmp48_fu_9362_p3          |  Select  |      0|  0|  32|           1|          32|
    |sel_tmp50_fu_9369_p3          |  Select  |      0|  0|  32|           1|          32|
    |sel_tmp52_fu_9452_p3          |  Select  |      0|  0|  32|           1|          32|
    |sel_tmp53_fu_9459_p3          |  Select  |      0|  0|  32|           1|          32|
    |sel_tmp55_fu_9542_p3          |  Select  |      0|  0|  32|           1|          32|
    |sel_tmp57_fu_9549_p3          |  Select  |      0|  0|  32|           1|          32|
    |sel_tmp59_fu_9632_p3          |  Select  |      0|  0|  32|           1|          32|
    |sel_tmp60_fu_9639_p3          |  Select  |      0|  0|  32|           1|          32|
    |sel_tmp7_fu_8372_p3           |  Select  |      0|  0|  32|           1|          32|
    |sel_tmp9_fu_8379_p3           |  Select  |      0|  0|  32|           1|          32|
    |exitcond_fu_7237_p2           |   icmp   |      0|  0|   4|           9|          10|
    |sel_tmp12_fu_7319_p2          |   icmp   |      0|  0|   2|           5|           1|
    |sel_tmp14_fu_7325_p2          |   icmp   |      0|  0|   2|           5|           4|
    |sel_tmp16_fu_7331_p2          |   icmp   |      0|  0|   2|           5|           5|
    |sel_tmp19_fu_7366_p2          |   icmp   |      0|  0|   2|           5|           2|
    |sel_tmp21_fu_7372_p2          |   icmp   |      0|  0|   2|           5|           4|
    |sel_tmp23_fu_7378_p2          |   icmp   |      0|  0|   2|           5|           5|
    |sel_tmp26_fu_7413_p2          |   icmp   |      0|  0|   2|           5|           2|
    |sel_tmp28_fu_7419_p2          |   icmp   |      0|  0|   2|           5|           4|
    |sel_tmp2_fu_7268_p2           |   icmp   |      0|  0|   2|           5|           4|
    |sel_tmp30_fu_7425_p2          |   icmp   |      0|  0|   2|           5|           5|
    |sel_tmp33_fu_7460_p2          |   icmp   |      0|  0|   2|           5|           3|
    |sel_tmp35_fu_7466_p2          |   icmp   |      0|  0|   2|           5|           4|
    |sel_tmp37_fu_7472_p2          |   icmp   |      0|  0|   2|           5|           5|
    |sel_tmp40_fu_7517_p2          |   icmp   |      0|  0|   2|           5|           3|
    |sel_tmp42_fu_7523_p2          |   icmp   |      0|  0|   2|           5|           4|
    |sel_tmp44_fu_7529_p2          |   icmp   |      0|  0|   2|           5|           5|
    |sel_tmp47_fu_7574_p2          |   icmp   |      0|  0|   2|           5|           3|
    |sel_tmp49_fu_7580_p2          |   icmp   |      0|  0|   2|           5|           4|
    |sel_tmp4_fu_7274_p2           |   icmp   |      0|  0|   3|           5|           6|
    |sel_tmp51_fu_7586_p2          |   icmp   |      0|  0|   2|           5|           5|
    |sel_tmp54_fu_7631_p2          |   icmp   |      0|  0|   2|           5|           3|
    |sel_tmp56_fu_7637_p2          |   icmp   |      0|  0|   2|           5|           4|
    |sel_tmp58_fu_7643_p2          |   icmp   |      0|  0|   2|           5|           5|
    |sel_tmp_fu_7262_p2            |   icmp   |      0|  0|   2|           5|           1|
    |j_V_1_fu_7304_p2              |    or    |      0|  0|   9|           9|           1|
    |j_V_2_fu_7559_p2              |    or    |      0|  0|   9|           9|           3|
    |j_V_3_fu_7616_p2              |    or    |      0|  0|   9|           9|           3|
    |j_V_6_fu_7398_p2              |    or    |      0|  0|   9|           9|           2|
    |j_V_8_fu_7445_p2              |    or    |      0|  0|   9|           9|           3|
    |j_V_9_fu_7502_p2              |    or    |      0|  0|   9|           9|           3|
    |j_V_s_fu_7351_p2              |    or    |      0|  0|   9|           9|           2|
    +------------------------------+----------+-------+---+----+------------+------------+
    |Total                         |          |      8|  0|1661|         316|        1735|
    +------------------------------+----------+-------+---+----+------------+------------+

    * Multiplexer: 
    +------------------------+----+-----------+-----+-----------+
    |          Name          | LUT| Input Size| Bits| Total Bits|
    +------------------------+----+-----------+-----+-----------+
    |ap_NS_fsm               |   1|          4|    1|          4|
    |ap_reg_ppiten_pp0_it12  |   1|          2|    1|          2|
    |p_s_reg_7034            |   9|          2|    9|         18|
    +------------------------+----+-----------+-----+-----------+
    |Total                   |  11|          8|   11|         24|
    +------------------------+----+-----------+-----+-----------+

    * Register: 
    +------------------------------------------+----+----+-----+-----------+
    |                   Name                   | FF | LUT| Bits| Const Bits|
    +------------------------------------------+----+----+-----+-----------+
    |ap_CS_fsm                                 |   3|   0|    3|          0|
    |ap_reg_ppiten_pp0_it0                     |   1|   0|    1|          0|
    |ap_reg_ppiten_pp0_it1                     |   1|   0|    1|          0|
    |ap_reg_ppiten_pp0_it10                    |   1|   0|    1|          0|
    |ap_reg_ppiten_pp0_it11                    |   1|   0|    1|          0|
    |ap_reg_ppiten_pp0_it12                    |   1|   0|    1|          0|
    |ap_reg_ppiten_pp0_it2                     |   1|   0|    1|          0|
    |ap_reg_ppiten_pp0_it3                     |   1|   0|    1|          0|
    |ap_reg_ppiten_pp0_it4                     |   1|   0|    1|          0|
    |ap_reg_ppiten_pp0_it5                     |   1|   0|    1|          0|
    |ap_reg_ppiten_pp0_it6                     |   1|   0|    1|          0|
    |ap_reg_ppiten_pp0_it7                     |   1|   0|    1|          0|
    |ap_reg_ppiten_pp0_it8                     |   1|   0|    1|          0|
    |ap_reg_ppiten_pp0_it9                     |   1|   0|    1|          0|
    |ap_reg_ppstg_sel_tmp12_reg_9808_pp0_it1   |   1|   0|    1|          0|
    |ap_reg_ppstg_sel_tmp14_reg_9814_pp0_it1   |   1|   0|    1|          0|
    |ap_reg_ppstg_sel_tmp16_reg_9820_pp0_it1   |   1|   0|    1|          0|
    |ap_reg_ppstg_sel_tmp19_reg_9837_pp0_it1   |   1|   0|    1|          0|
    |ap_reg_ppstg_sel_tmp21_reg_9843_pp0_it1   |   1|   0|    1|          0|
    |ap_reg_ppstg_sel_tmp23_reg_9849_pp0_it1   |   1|   0|    1|          0|
    |ap_reg_ppstg_sel_tmp26_reg_9866_pp0_it1   |   1|   0|    1|          0|
    |ap_reg_ppstg_sel_tmp28_reg_9872_pp0_it1   |   1|   0|    1|          0|
    |ap_reg_ppstg_sel_tmp2_reg_9780_pp0_it1    |   1|   0|    1|          0|
    |ap_reg_ppstg_sel_tmp30_reg_9878_pp0_it1   |   1|   0|    1|          0|
    |ap_reg_ppstg_sel_tmp33_reg_9895_pp0_it1   |   1|   0|    1|          0|
    |ap_reg_ppstg_sel_tmp35_reg_9901_pp0_it1   |   1|   0|    1|          0|
    |ap_reg_ppstg_sel_tmp37_reg_9907_pp0_it1   |   1|   0|    1|          0|
    |ap_reg_ppstg_sel_tmp40_reg_9929_pp0_it1   |   1|   0|    1|          0|
    |ap_reg_ppstg_sel_tmp42_reg_9935_pp0_it1   |   1|   0|    1|          0|
    |ap_reg_ppstg_sel_tmp44_reg_9941_pp0_it1   |   1|   0|    1|          0|
    |ap_reg_ppstg_sel_tmp47_reg_9963_pp0_it1   |   1|   0|    1|          0|
    |ap_reg_ppstg_sel_tmp49_reg_9969_pp0_it1   |   1|   0|    1|          0|
    |ap_reg_ppstg_sel_tmp4_reg_9786_pp0_it1    |   1|   0|    1|          0|
    |ap_reg_ppstg_sel_tmp51_reg_9975_pp0_it1   |   1|   0|    1|          0|
    |ap_reg_ppstg_sel_tmp54_reg_9997_pp0_it1   |   1|   0|    1|          0|
    |ap_reg_ppstg_sel_tmp56_reg_10003_pp0_it1  |   1|   0|    1|          0|
    |ap_reg_ppstg_sel_tmp58_reg_10009_pp0_it1  |   1|   0|    1|          0|
    |ap_reg_ppstg_sel_tmp_reg_9774_pp0_it1     |   1|   0|    1|          0|
    |ap_reg_ppstg_tmp_30_reg_9792_pp0_it1      |   5|   0|    5|          0|
    |ap_reg_ppstg_tmp_32_reg_9826_pp0_it1      |   5|   0|    5|          0|
    |ap_reg_ppstg_tmp_34_reg_9855_pp0_it1      |   5|   0|    5|          0|
    |ap_reg_ppstg_tmp_36_reg_9884_pp0_it1      |   5|   0|    5|          0|
    |ap_reg_ppstg_tmp_38_reg_9913_pp0_it1      |   5|   0|    5|          0|
    |ap_reg_ppstg_tmp_40_reg_9947_pp0_it1      |   5|   0|    5|          0|
    |ap_reg_ppstg_tmp_42_reg_9981_pp0_it1      |   5|   0|    5|          0|
    |ap_reg_ppstg_tmp_44_reg_10015_pp0_it1     |   5|   0|    5|          0|
    |exitcond_reg_9765                         |   1|   0|    1|          0|
    |imag_i_load_0_phi_reg_12928               |  32|   0|   32|          0|
    |imag_i_load_1_phi_reg_12952               |  32|   0|   32|          0|
    |imag_i_load_2_phi_reg_12976               |  32|   0|   32|          0|
    |imag_i_load_3_phi_reg_13000               |  32|   0|   32|          0|
    |imag_i_load_4_phi_reg_13024               |  32|   0|   32|          0|
    |imag_i_load_5_phi_reg_13048               |  32|   0|   32|          0|
    |imag_i_load_6_phi_reg_13072               |  32|   0|   32|          0|
    |imag_i_load_7_phi_reg_13096               |  32|   0|   32|          0|
    |index0_V_1_cast_reg_9832                  |   3|   0|    3|          0|
    |index0_V_2_cast_reg_9861                  |   3|   0|    3|          0|
    |index0_V_3_cast_reg_9890                  |   3|   0|    3|          0|
    |index0_V_4_cast_reg_9919                  |   3|   0|    3|          0|
    |index0_V_5_cast_reg_9953                  |   3|   0|    3|          0|
    |index0_V_6_cast_reg_9987                  |   3|   0|    3|          0|
    |index0_V_7_cast_reg_10021                 |   3|   0|    3|          0|
    |index0_V_cast_reg_9798                    |   3|   0|    3|          0|
    |newIndex12_reg_9958                       |   6|   0|    7|          1|
    |newIndex15_reg_9992                       |   6|   0|    7|          1|
    |newIndex18_reg_10026                      |   6|   0|    7|          1|
    |newIndex2_reg_9803                        |   7|   0|    7|          0|
    |newIndex8_reg_9924                        |   6|   0|    7|          1|
    |newIndex_reg_9769                         |   4|   0|    4|          0|
    |p_s_reg_7034                              |   9|   0|    9|          0|
    |real_i_load_0_phi_reg_12916               |  32|   0|   32|          0|
    |real_i_load_1_phi_reg_12940               |  32|   0|   32|          0|
    |real_i_load_2_phi_reg_12964               |  32|   0|   32|          0|
    |real_i_load_3_phi_reg_12988               |  32|   0|   32|          0|
    |real_i_load_4_phi_reg_13012               |  32|   0|   32|          0|
    |real_i_load_5_phi_reg_13036               |  32|   0|   32|          0|
    |real_i_load_6_phi_reg_13060               |  32|   0|   32|          0|
    |real_i_load_7_phi_reg_13084               |  32|   0|   32|          0|
    |sel_tmp12_reg_9808                        |   1|   0|    1|          0|
    |sel_tmp14_reg_9814                        |   1|   0|    1|          0|
    |sel_tmp16_reg_9820                        |   1|   0|    1|          0|
    |sel_tmp19_reg_9837                        |   1|   0|    1|          0|
    |sel_tmp21_reg_9843                        |   1|   0|    1|          0|
    |sel_tmp23_reg_9849                        |   1|   0|    1|          0|
    |sel_tmp26_reg_9866                        |   1|   0|    1|          0|
    |sel_tmp28_reg_9872                        |   1|   0|    1|          0|
    |sel_tmp2_reg_9780                         |   1|   0|    1|          0|
    |sel_tmp30_reg_9878                        |   1|   0|    1|          0|
    |sel_tmp33_reg_9895                        |   1|   0|    1|          0|
    |sel_tmp35_reg_9901                        |   1|   0|    1|          0|
    |sel_tmp37_reg_9907                        |   1|   0|    1|          0|
    |sel_tmp40_reg_9929                        |   1|   0|    1|          0|
    |sel_tmp42_reg_9935                        |   1|   0|    1|          0|
    |sel_tmp44_reg_9941                        |   1|   0|    1|          0|
    |sel_tmp47_reg_9963                        |   1|   0|    1|          0|
    |sel_tmp49_reg_9969                        |   1|   0|    1|          0|
    |sel_tmp4_reg_9786                         |   1|   0|    1|          0|
    |sel_tmp51_reg_9975                        |   1|   0|    1|          0|
    |sel_tmp54_reg_9997                        |   1|   0|    1|          0|
    |sel_tmp56_reg_10003                       |   1|   0|    1|          0|
    |sel_tmp58_reg_10009                       |   1|   0|    1|          0|
    |sel_tmp_reg_9774                          |   1|   0|    1|          0|
    |tmp_10_reg_13113                          |  32|   0|   32|          0|
    |tmp_11_1_reg_13128                        |  32|   0|   32|          0|
    |tmp_11_2_reg_13148                        |  32|   0|   32|          0|
    |tmp_11_3_reg_13168                        |  32|   0|   32|          0|
    |tmp_11_4_reg_13188                        |  32|   0|   32|          0|
    |tmp_11_5_reg_13208                        |  32|   0|   32|          0|
    |tmp_11_6_reg_13228                        |  32|   0|   32|          0|
    |tmp_11_7_reg_13248                        |  32|   0|   32|          0|
    |tmp_11_reg_13268                          |  32|   0|   32|          0|
    |tmp_12_1_reg_13133                        |  32|   0|   32|          0|
    |tmp_12_2_reg_13153                        |  32|   0|   32|          0|
    |tmp_12_3_reg_13173                        |  32|   0|   32|          0|
    |tmp_12_4_reg_13193                        |  32|   0|   32|          0|
    |tmp_12_5_reg_13213                        |  32|   0|   32|          0|
    |tmp_12_6_reg_13233                        |  32|   0|   32|          0|
    |tmp_12_7_reg_13253                        |  32|   0|   32|          0|
    |tmp_12_reg_13118                          |  32|   0|   32|          0|
    |tmp_13_1_reg_13278                        |  32|   0|   32|          0|
    |tmp_13_2_reg_13288                        |  32|   0|   32|          0|
    |tmp_13_3_reg_13298                        |  32|   0|   32|          0|
    |tmp_13_4_reg_13308                        |  32|   0|   32|          0|
    |tmp_13_5_reg_13318                        |  32|   0|   32|          0|
    |tmp_13_6_reg_13328                        |  32|   0|   32|          0|
    |tmp_13_7_reg_13338                        |  32|   0|   32|          0|
    |tmp_13_reg_13123                          |  32|   0|   32|          0|
    |tmp_14_1_reg_13138                        |  32|   0|   32|          0|
    |tmp_14_2_reg_13158                        |  32|   0|   32|          0|
    |tmp_14_3_reg_13178                        |  32|   0|   32|          0|
    |tmp_14_4_reg_13198                        |  32|   0|   32|          0|
    |tmp_14_5_reg_13218                        |  32|   0|   32|          0|
    |tmp_14_6_reg_13238                        |  32|   0|   32|          0|
    |tmp_14_7_reg_13258                        |  32|   0|   32|          0|
    |tmp_14_reg_13273                          |  32|   0|   32|          0|
    |tmp_15_1_reg_13143                        |  32|   0|   32|          0|
    |tmp_15_2_reg_13163                        |  32|   0|   32|          0|
    |tmp_15_3_reg_13183                        |  32|   0|   32|          0|
    |tmp_15_4_reg_13203                        |  32|   0|   32|          0|
    |tmp_15_5_reg_13223                        |  32|   0|   32|          0|
    |tmp_15_6_reg_13243                        |  32|   0|   32|          0|
    |tmp_15_7_reg_13263                        |  32|   0|   32|          0|
    |tmp_15_reg_12946                          |  32|   0|   32|          0|
    |tmp_16_1_reg_13283                        |  32|   0|   32|          0|
    |tmp_16_2_reg_13293                        |  32|   0|   32|          0|
    |tmp_16_3_reg_13303                        |  32|   0|   32|          0|
    |tmp_16_4_reg_13313                        |  32|   0|   32|          0|
    |tmp_16_5_reg_13323                        |  32|   0|   32|          0|
    |tmp_16_6_reg_13333                        |  32|   0|   32|          0|
    |tmp_16_7_reg_13343                        |  32|   0|   32|          0|
    |tmp_16_reg_12958                          |  32|   0|   32|          0|
    |tmp_17_reg_12970                          |  32|   0|   32|          0|
    |tmp_18_reg_12982                          |  32|   0|   32|          0|
    |tmp_19_reg_12994                          |  32|   0|   32|          0|
    |tmp_20_reg_13006                          |  32|   0|   32|          0|
    |tmp_21_reg_13018                          |  32|   0|   32|          0|
    |tmp_22_reg_13030                          |  32|   0|   32|          0|
    |tmp_23_reg_13042                          |  32|   0|   32|          0|
    |tmp_24_reg_13054                          |  32|   0|   32|          0|
    |tmp_25_reg_13066                          |  32|   0|   32|          0|
    |tmp_26_reg_13078                          |  32|   0|   32|          0|
    |tmp_27_reg_13090                          |  32|   0|   32|          0|
    |tmp_28_reg_13102                          |  32|   0|   32|          0|
    |tmp_30_reg_9792                           |   5|   0|    5|          0|
    |tmp_32_reg_9826                           |   5|   0|    5|          0|
    |tmp_34_reg_9855                           |   5|   0|    5|          0|
    |tmp_36_reg_9884                           |   5|   0|    5|          0|
    |tmp_38_reg_9913                           |   5|   0|    5|          0|
    |tmp_40_reg_9947                           |   5|   0|    5|          0|
    |tmp_42_reg_9981                           |   5|   0|    5|          0|
    |tmp_44_reg_10015                          |   5|   0|    5|          0|
    |tmp_8_reg_12922                           |  32|   0|   32|          0|
    |tmp_9_reg_12934                           |  32|   0|   32|          0|
    |tmp_s_reg_13108                           |  32|   0|   32|          0|
    |exitcond_reg_9765                         |   0|   1|    1|          0|
    |newIndex12_reg_9958                       |   0|   6|    7|          1|
    |newIndex15_reg_9992                       |   0|   6|    7|          1|
    |newIndex18_reg_10026                      |   0|   6|    7|          1|
    |newIndex2_reg_9803                        |   0|   7|    7|          0|
    |newIndex8_reg_9924                        |   0|   6|    7|          1|
    +------------------------------------------+----+----+-----+-----------+
    |Total                                     |2773|  32| 2813|          8|
    +------------------------------------------+----+----+-----+-----------+



================================================================
== Interface
================================================================
* Summary: 
+------------------------+-----+-----+------------+------------------+--------------+
|        RTL Ports       | Dir | Bits|  Protocol  |   Source Object  |    C Type    |
+------------------------+-----+-----+------------+------------------+--------------+
|ap_clk                  |  in |    1| ap_ctrl_hs | dft_loop_flow256 | return value |
|ap_rst                  |  in |    1| ap_ctrl_hs | dft_loop_flow256 | return value |
|ap_start                |  in |    1| ap_ctrl_hs | dft_loop_flow256 | return value |
|ap_done                 | out |    1| ap_ctrl_hs | dft_loop_flow256 | return value |
|ap_idle                 | out |    1| ap_ctrl_hs | dft_loop_flow256 | return value |
|ap_ready                | out |    1| ap_ctrl_hs | dft_loop_flow256 | return value |
|i_V_read                |  in |    9|   ap_none  |     i_V_read     |    scalar    |
|real_i_0_address0       | out |    3|  ap_memory |     real_i_0     |     array    |
|real_i_0_ce0            | out |    1|  ap_memory |     real_i_0     |     array    |
|real_i_0_q0             |  in |   32|  ap_memory |     real_i_0     |     array    |
|real_i_1_address0       | out |    3|  ap_memory |     real_i_1     |     array    |
|real_i_1_ce0            | out |    1|  ap_memory |     real_i_1     |     array    |
|real_i_1_q0             |  in |   32|  ap_memory |     real_i_1     |     array    |
|real_i_2_address0       | out |    3|  ap_memory |     real_i_2     |     array    |
|real_i_2_ce0            | out |    1|  ap_memory |     real_i_2     |     array    |
|real_i_2_q0             |  in |   32|  ap_memory |     real_i_2     |     array    |
|real_i_3_address0       | out |    3|  ap_memory |     real_i_3     |     array    |
|real_i_3_ce0            | out |    1|  ap_memory |     real_i_3     |     array    |
|real_i_3_q0             |  in |   32|  ap_memory |     real_i_3     |     array    |
|real_i_4_address0       | out |    3|  ap_memory |     real_i_4     |     array    |
|real_i_4_ce0            | out |    1|  ap_memory |     real_i_4     |     array    |
|real_i_4_q0             |  in |   32|  ap_memory |     real_i_4     |     array    |
|real_i_5_address0       | out |    3|  ap_memory |     real_i_5     |     array    |
|real_i_5_ce0            | out |    1|  ap_memory |     real_i_5     |     array    |
|real_i_5_q0             |  in |   32|  ap_memory |     real_i_5     |     array    |
|real_i_6_address0       | out |    3|  ap_memory |     real_i_6     |     array    |
|real_i_6_ce0            | out |    1|  ap_memory |     real_i_6     |     array    |
|real_i_6_q0             |  in |   32|  ap_memory |     real_i_6     |     array    |
|real_i_7_address0       | out |    3|  ap_memory |     real_i_7     |     array    |
|real_i_7_ce0            | out |    1|  ap_memory |     real_i_7     |     array    |
|real_i_7_q0             |  in |   32|  ap_memory |     real_i_7     |     array    |
|real_i_8_address0       | out |    3|  ap_memory |     real_i_8     |     array    |
|real_i_8_ce0            | out |    1|  ap_memory |     real_i_8     |     array    |
|real_i_8_q0             |  in |   32|  ap_memory |     real_i_8     |     array    |
|real_i_9_address0       | out |    3|  ap_memory |     real_i_9     |     array    |
|real_i_9_ce0            | out |    1|  ap_memory |     real_i_9     |     array    |
|real_i_9_q0             |  in |   32|  ap_memory |     real_i_9     |     array    |
|real_i_10_address0      | out |    3|  ap_memory |     real_i_10    |     array    |
|real_i_10_ce0           | out |    1|  ap_memory |     real_i_10    |     array    |
|real_i_10_q0            |  in |   32|  ap_memory |     real_i_10    |     array    |
|real_i_11_address0      | out |    3|  ap_memory |     real_i_11    |     array    |
|real_i_11_ce0           | out |    1|  ap_memory |     real_i_11    |     array    |
|real_i_11_q0            |  in |   32|  ap_memory |     real_i_11    |     array    |
|real_i_12_address0      | out |    3|  ap_memory |     real_i_12    |     array    |
|real_i_12_ce0           | out |    1|  ap_memory |     real_i_12    |     array    |
|real_i_12_q0            |  in |   32|  ap_memory |     real_i_12    |     array    |
|real_i_13_address0      | out |    3|  ap_memory |     real_i_13    |     array    |
|real_i_13_ce0           | out |    1|  ap_memory |     real_i_13    |     array    |
|real_i_13_q0            |  in |   32|  ap_memory |     real_i_13    |     array    |
|real_i_14_address0      | out |    3|  ap_memory |     real_i_14    |     array    |
|real_i_14_ce0           | out |    1|  ap_memory |     real_i_14    |     array    |
|real_i_14_q0            |  in |   32|  ap_memory |     real_i_14    |     array    |
|real_i_15_address0      | out |    3|  ap_memory |     real_i_15    |     array    |
|real_i_15_ce0           | out |    1|  ap_memory |     real_i_15    |     array    |
|real_i_15_q0            |  in |   32|  ap_memory |     real_i_15    |     array    |
|real_i_16_address0      | out |    3|  ap_memory |     real_i_16    |     array    |
|real_i_16_ce0           | out |    1|  ap_memory |     real_i_16    |     array    |
|real_i_16_q0            |  in |   32|  ap_memory |     real_i_16    |     array    |
|real_i_17_address0      | out |    3|  ap_memory |     real_i_17    |     array    |
|real_i_17_ce0           | out |    1|  ap_memory |     real_i_17    |     array    |
|real_i_17_q0            |  in |   32|  ap_memory |     real_i_17    |     array    |
|real_i_18_address0      | out |    3|  ap_memory |     real_i_18    |     array    |
|real_i_18_ce0           | out |    1|  ap_memory |     real_i_18    |     array    |
|real_i_18_q0            |  in |   32|  ap_memory |     real_i_18    |     array    |
|real_i_19_address0      | out |    3|  ap_memory |     real_i_19    |     array    |
|real_i_19_ce0           | out |    1|  ap_memory |     real_i_19    |     array    |
|real_i_19_q0            |  in |   32|  ap_memory |     real_i_19    |     array    |
|real_i_20_address0      | out |    3|  ap_memory |     real_i_20    |     array    |
|real_i_20_ce0           | out |    1|  ap_memory |     real_i_20    |     array    |
|real_i_20_q0            |  in |   32|  ap_memory |     real_i_20    |     array    |
|real_i_21_address0      | out |    3|  ap_memory |     real_i_21    |     array    |
|real_i_21_ce0           | out |    1|  ap_memory |     real_i_21    |     array    |
|real_i_21_q0            |  in |   32|  ap_memory |     real_i_21    |     array    |
|real_i_22_address0      | out |    3|  ap_memory |     real_i_22    |     array    |
|real_i_22_ce0           | out |    1|  ap_memory |     real_i_22    |     array    |
|real_i_22_q0            |  in |   32|  ap_memory |     real_i_22    |     array    |
|real_i_23_address0      | out |    3|  ap_memory |     real_i_23    |     array    |
|real_i_23_ce0           | out |    1|  ap_memory |     real_i_23    |     array    |
|real_i_23_q0            |  in |   32|  ap_memory |     real_i_23    |     array    |
|real_i_24_address0      | out |    3|  ap_memory |     real_i_24    |     array    |
|real_i_24_ce0           | out |    1|  ap_memory |     real_i_24    |     array    |
|real_i_24_q0            |  in |   32|  ap_memory |     real_i_24    |     array    |
|real_i_25_address0      | out |    3|  ap_memory |     real_i_25    |     array    |
|real_i_25_ce0           | out |    1|  ap_memory |     real_i_25    |     array    |
|real_i_25_q0            |  in |   32|  ap_memory |     real_i_25    |     array    |
|real_i_26_address0      | out |    3|  ap_memory |     real_i_26    |     array    |
|real_i_26_ce0           | out |    1|  ap_memory |     real_i_26    |     array    |
|real_i_26_q0            |  in |   32|  ap_memory |     real_i_26    |     array    |
|real_i_27_address0      | out |    3|  ap_memory |     real_i_27    |     array    |
|real_i_27_ce0           | out |    1|  ap_memory |     real_i_27    |     array    |
|real_i_27_q0            |  in |   32|  ap_memory |     real_i_27    |     array    |
|real_i_28_address0      | out |    3|  ap_memory |     real_i_28    |     array    |
|real_i_28_ce0           | out |    1|  ap_memory |     real_i_28    |     array    |
|real_i_28_q0            |  in |   32|  ap_memory |     real_i_28    |     array    |
|real_i_29_address0      | out |    3|  ap_memory |     real_i_29    |     array    |
|real_i_29_ce0           | out |    1|  ap_memory |     real_i_29    |     array    |
|real_i_29_q0            |  in |   32|  ap_memory |     real_i_29    |     array    |
|real_i_30_address0      | out |    3|  ap_memory |     real_i_30    |     array    |
|real_i_30_ce0           | out |    1|  ap_memory |     real_i_30    |     array    |
|real_i_30_q0            |  in |   32|  ap_memory |     real_i_30    |     array    |
|real_i_31_address0      | out |    3|  ap_memory |     real_i_31    |     array    |
|real_i_31_ce0           | out |    1|  ap_memory |     real_i_31    |     array    |
|real_i_31_q0            |  in |   32|  ap_memory |     real_i_31    |     array    |
|imag_i_0_address0       | out |    3|  ap_memory |     imag_i_0     |     array    |
|imag_i_0_ce0            | out |    1|  ap_memory |     imag_i_0     |     array    |
|imag_i_0_q0             |  in |   32|  ap_memory |     imag_i_0     |     array    |
|imag_i_1_address0       | out |    3|  ap_memory |     imag_i_1     |     array    |
|imag_i_1_ce0            | out |    1|  ap_memory |     imag_i_1     |     array    |
|imag_i_1_q0             |  in |   32|  ap_memory |     imag_i_1     |     array    |
|imag_i_2_address0       | out |    3|  ap_memory |     imag_i_2     |     array    |
|imag_i_2_ce0            | out |    1|  ap_memory |     imag_i_2     |     array    |
|imag_i_2_q0             |  in |   32|  ap_memory |     imag_i_2     |     array    |
|imag_i_3_address0       | out |    3|  ap_memory |     imag_i_3     |     array    |
|imag_i_3_ce0            | out |    1|  ap_memory |     imag_i_3     |     array    |
|imag_i_3_q0             |  in |   32|  ap_memory |     imag_i_3     |     array    |
|imag_i_4_address0       | out |    3|  ap_memory |     imag_i_4     |     array    |
|imag_i_4_ce0            | out |    1|  ap_memory |     imag_i_4     |     array    |
|imag_i_4_q0             |  in |   32|  ap_memory |     imag_i_4     |     array    |
|imag_i_5_address0       | out |    3|  ap_memory |     imag_i_5     |     array    |
|imag_i_5_ce0            | out |    1|  ap_memory |     imag_i_5     |     array    |
|imag_i_5_q0             |  in |   32|  ap_memory |     imag_i_5     |     array    |
|imag_i_6_address0       | out |    3|  ap_memory |     imag_i_6     |     array    |
|imag_i_6_ce0            | out |    1|  ap_memory |     imag_i_6     |     array    |
|imag_i_6_q0             |  in |   32|  ap_memory |     imag_i_6     |     array    |
|imag_i_7_address0       | out |    3|  ap_memory |     imag_i_7     |     array    |
|imag_i_7_ce0            | out |    1|  ap_memory |     imag_i_7     |     array    |
|imag_i_7_q0             |  in |   32|  ap_memory |     imag_i_7     |     array    |
|imag_i_8_address0       | out |    3|  ap_memory |     imag_i_8     |     array    |
|imag_i_8_ce0            | out |    1|  ap_memory |     imag_i_8     |     array    |
|imag_i_8_q0             |  in |   32|  ap_memory |     imag_i_8     |     array    |
|imag_i_9_address0       | out |    3|  ap_memory |     imag_i_9     |     array    |
|imag_i_9_ce0            | out |    1|  ap_memory |     imag_i_9     |     array    |
|imag_i_9_q0             |  in |   32|  ap_memory |     imag_i_9     |     array    |
|imag_i_10_address0      | out |    3|  ap_memory |     imag_i_10    |     array    |
|imag_i_10_ce0           | out |    1|  ap_memory |     imag_i_10    |     array    |
|imag_i_10_q0            |  in |   32|  ap_memory |     imag_i_10    |     array    |
|imag_i_11_address0      | out |    3|  ap_memory |     imag_i_11    |     array    |
|imag_i_11_ce0           | out |    1|  ap_memory |     imag_i_11    |     array    |
|imag_i_11_q0            |  in |   32|  ap_memory |     imag_i_11    |     array    |
|imag_i_12_address0      | out |    3|  ap_memory |     imag_i_12    |     array    |
|imag_i_12_ce0           | out |    1|  ap_memory |     imag_i_12    |     array    |
|imag_i_12_q0            |  in |   32|  ap_memory |     imag_i_12    |     array    |
|imag_i_13_address0      | out |    3|  ap_memory |     imag_i_13    |     array    |
|imag_i_13_ce0           | out |    1|  ap_memory |     imag_i_13    |     array    |
|imag_i_13_q0            |  in |   32|  ap_memory |     imag_i_13    |     array    |
|imag_i_14_address0      | out |    3|  ap_memory |     imag_i_14    |     array    |
|imag_i_14_ce0           | out |    1|  ap_memory |     imag_i_14    |     array    |
|imag_i_14_q0            |  in |   32|  ap_memory |     imag_i_14    |     array    |
|imag_i_15_address0      | out |    3|  ap_memory |     imag_i_15    |     array    |
|imag_i_15_ce0           | out |    1|  ap_memory |     imag_i_15    |     array    |
|imag_i_15_q0            |  in |   32|  ap_memory |     imag_i_15    |     array    |
|imag_i_16_address0      | out |    3|  ap_memory |     imag_i_16    |     array    |
|imag_i_16_ce0           | out |    1|  ap_memory |     imag_i_16    |     array    |
|imag_i_16_q0            |  in |   32|  ap_memory |     imag_i_16    |     array    |
|imag_i_17_address0      | out |    3|  ap_memory |     imag_i_17    |     array    |
|imag_i_17_ce0           | out |    1|  ap_memory |     imag_i_17    |     array    |
|imag_i_17_q0            |  in |   32|  ap_memory |     imag_i_17    |     array    |
|imag_i_18_address0      | out |    3|  ap_memory |     imag_i_18    |     array    |
|imag_i_18_ce0           | out |    1|  ap_memory |     imag_i_18    |     array    |
|imag_i_18_q0            |  in |   32|  ap_memory |     imag_i_18    |     array    |
|imag_i_19_address0      | out |    3|  ap_memory |     imag_i_19    |     array    |
|imag_i_19_ce0           | out |    1|  ap_memory |     imag_i_19    |     array    |
|imag_i_19_q0            |  in |   32|  ap_memory |     imag_i_19    |     array    |
|imag_i_20_address0      | out |    3|  ap_memory |     imag_i_20    |     array    |
|imag_i_20_ce0           | out |    1|  ap_memory |     imag_i_20    |     array    |
|imag_i_20_q0            |  in |   32|  ap_memory |     imag_i_20    |     array    |
|imag_i_21_address0      | out |    3|  ap_memory |     imag_i_21    |     array    |
|imag_i_21_ce0           | out |    1|  ap_memory |     imag_i_21    |     array    |
|imag_i_21_q0            |  in |   32|  ap_memory |     imag_i_21    |     array    |
|imag_i_22_address0      | out |    3|  ap_memory |     imag_i_22    |     array    |
|imag_i_22_ce0           | out |    1|  ap_memory |     imag_i_22    |     array    |
|imag_i_22_q0            |  in |   32|  ap_memory |     imag_i_22    |     array    |
|imag_i_23_address0      | out |    3|  ap_memory |     imag_i_23    |     array    |
|imag_i_23_ce0           | out |    1|  ap_memory |     imag_i_23    |     array    |
|imag_i_23_q0            |  in |   32|  ap_memory |     imag_i_23    |     array    |
|imag_i_24_address0      | out |    3|  ap_memory |     imag_i_24    |     array    |
|imag_i_24_ce0           | out |    1|  ap_memory |     imag_i_24    |     array    |
|imag_i_24_q0            |  in |   32|  ap_memory |     imag_i_24    |     array    |
|imag_i_25_address0      | out |    3|  ap_memory |     imag_i_25    |     array    |
|imag_i_25_ce0           | out |    1|  ap_memory |     imag_i_25    |     array    |
|imag_i_25_q0            |  in |   32|  ap_memory |     imag_i_25    |     array    |
|imag_i_26_address0      | out |    3|  ap_memory |     imag_i_26    |     array    |
|imag_i_26_ce0           | out |    1|  ap_memory |     imag_i_26    |     array    |
|imag_i_26_q0            |  in |   32|  ap_memory |     imag_i_26    |     array    |
|imag_i_27_address0      | out |    3|  ap_memory |     imag_i_27    |     array    |
|imag_i_27_ce0           | out |    1|  ap_memory |     imag_i_27    |     array    |
|imag_i_27_q0            |  in |   32|  ap_memory |     imag_i_27    |     array    |
|imag_i_28_address0      | out |    3|  ap_memory |     imag_i_28    |     array    |
|imag_i_28_ce0           | out |    1|  ap_memory |     imag_i_28    |     array    |
|imag_i_28_q0            |  in |   32|  ap_memory |     imag_i_28    |     array    |
|imag_i_29_address0      | out |    3|  ap_memory |     imag_i_29    |     array    |
|imag_i_29_ce0           | out |    1|  ap_memory |     imag_i_29    |     array    |
|imag_i_29_q0            |  in |   32|  ap_memory |     imag_i_29    |     array    |
|imag_i_30_address0      | out |    3|  ap_memory |     imag_i_30    |     array    |
|imag_i_30_ce0           | out |    1|  ap_memory |     imag_i_30    |     array    |
|imag_i_30_q0            |  in |   32|  ap_memory |     imag_i_30    |     array    |
|imag_i_31_address0      | out |    3|  ap_memory |     imag_i_31    |     array    |
|imag_i_31_ce0           | out |    1|  ap_memory |     imag_i_31    |     array    |
|imag_i_31_q0            |  in |   32|  ap_memory |     imag_i_31    |     array    |
|real_arr256_0_address0  | out |    6|  ap_memory |   real_arr256_0  |     array    |
|real_arr256_0_ce0       | out |    1|  ap_memory |   real_arr256_0  |     array    |
|real_arr256_0_we0       | out |    1|  ap_memory |   real_arr256_0  |     array    |
|real_arr256_0_d0        | out |   32|  ap_memory |   real_arr256_0  |     array    |
|real_arr256_0_address1  | out |    6|  ap_memory |   real_arr256_0  |     array    |
|real_arr256_0_ce1       | out |    1|  ap_memory |   real_arr256_0  |     array    |
|real_arr256_0_we1       | out |    1|  ap_memory |   real_arr256_0  |     array    |
|real_arr256_0_d1        | out |   32|  ap_memory |   real_arr256_0  |     array    |
|imag_arr256_0_address0  | out |    6|  ap_memory |   imag_arr256_0  |     array    |
|imag_arr256_0_ce0       | out |    1|  ap_memory |   imag_arr256_0  |     array    |
|imag_arr256_0_we0       | out |    1|  ap_memory |   imag_arr256_0  |     array    |
|imag_arr256_0_d0        | out |   32|  ap_memory |   imag_arr256_0  |     array    |
|imag_arr256_0_address1  | out |    6|  ap_memory |   imag_arr256_0  |     array    |
|imag_arr256_0_ce1       | out |    1|  ap_memory |   imag_arr256_0  |     array    |
|imag_arr256_0_we1       | out |    1|  ap_memory |   imag_arr256_0  |     array    |
|imag_arr256_0_d1        | out |   32|  ap_memory |   imag_arr256_0  |     array    |
|real_arr256_1_address0  | out |    6|  ap_memory |   real_arr256_1  |     array    |
|real_arr256_1_ce0       | out |    1|  ap_memory |   real_arr256_1  |     array    |
|real_arr256_1_we0       | out |    1|  ap_memory |   real_arr256_1  |     array    |
|real_arr256_1_d0        | out |   32|  ap_memory |   real_arr256_1  |     array    |
|real_arr256_1_address1  | out |    6|  ap_memory |   real_arr256_1  |     array    |
|real_arr256_1_ce1       | out |    1|  ap_memory |   real_arr256_1  |     array    |
|real_arr256_1_we1       | out |    1|  ap_memory |   real_arr256_1  |     array    |
|real_arr256_1_d1        | out |   32|  ap_memory |   real_arr256_1  |     array    |
|imag_arr256_1_address0  | out |    6|  ap_memory |   imag_arr256_1  |     array    |
|imag_arr256_1_ce0       | out |    1|  ap_memory |   imag_arr256_1  |     array    |
|imag_arr256_1_we0       | out |    1|  ap_memory |   imag_arr256_1  |     array    |
|imag_arr256_1_d0        | out |   32|  ap_memory |   imag_arr256_1  |     array    |
|imag_arr256_1_address1  | out |    6|  ap_memory |   imag_arr256_1  |     array    |
|imag_arr256_1_ce1       | out |    1|  ap_memory |   imag_arr256_1  |     array    |
|imag_arr256_1_we1       | out |    1|  ap_memory |   imag_arr256_1  |     array    |
|imag_arr256_1_d1        | out |   32|  ap_memory |   imag_arr256_1  |     array    |
|real_arr256_2_address0  | out |    6|  ap_memory |   real_arr256_2  |     array    |
|real_arr256_2_ce0       | out |    1|  ap_memory |   real_arr256_2  |     array    |
|real_arr256_2_we0       | out |    1|  ap_memory |   real_arr256_2  |     array    |
|real_arr256_2_d0        | out |   32|  ap_memory |   real_arr256_2  |     array    |
|real_arr256_2_address1  | out |    6|  ap_memory |   real_arr256_2  |     array    |
|real_arr256_2_ce1       | out |    1|  ap_memory |   real_arr256_2  |     array    |
|real_arr256_2_we1       | out |    1|  ap_memory |   real_arr256_2  |     array    |
|real_arr256_2_d1        | out |   32|  ap_memory |   real_arr256_2  |     array    |
|imag_arr256_2_address0  | out |    6|  ap_memory |   imag_arr256_2  |     array    |
|imag_arr256_2_ce0       | out |    1|  ap_memory |   imag_arr256_2  |     array    |
|imag_arr256_2_we0       | out |    1|  ap_memory |   imag_arr256_2  |     array    |
|imag_arr256_2_d0        | out |   32|  ap_memory |   imag_arr256_2  |     array    |
|imag_arr256_2_address1  | out |    6|  ap_memory |   imag_arr256_2  |     array    |
|imag_arr256_2_ce1       | out |    1|  ap_memory |   imag_arr256_2  |     array    |
|imag_arr256_2_we1       | out |    1|  ap_memory |   imag_arr256_2  |     array    |
|imag_arr256_2_d1        | out |   32|  ap_memory |   imag_arr256_2  |     array    |
|real_arr256_3_address0  | out |    6|  ap_memory |   real_arr256_3  |     array    |
|real_arr256_3_ce0       | out |    1|  ap_memory |   real_arr256_3  |     array    |
|real_arr256_3_we0       | out |    1|  ap_memory |   real_arr256_3  |     array    |
|real_arr256_3_d0        | out |   32|  ap_memory |   real_arr256_3  |     array    |
|real_arr256_3_address1  | out |    6|  ap_memory |   real_arr256_3  |     array    |
|real_arr256_3_ce1       | out |    1|  ap_memory |   real_arr256_3  |     array    |
|real_arr256_3_we1       | out |    1|  ap_memory |   real_arr256_3  |     array    |
|real_arr256_3_d1        | out |   32|  ap_memory |   real_arr256_3  |     array    |
|imag_arr256_3_address0  | out |    6|  ap_memory |   imag_arr256_3  |     array    |
|imag_arr256_3_ce0       | out |    1|  ap_memory |   imag_arr256_3  |     array    |
|imag_arr256_3_we0       | out |    1|  ap_memory |   imag_arr256_3  |     array    |
|imag_arr256_3_d0        | out |   32|  ap_memory |   imag_arr256_3  |     array    |
|imag_arr256_3_address1  | out |    6|  ap_memory |   imag_arr256_3  |     array    |
|imag_arr256_3_ce1       | out |    1|  ap_memory |   imag_arr256_3  |     array    |
|imag_arr256_3_we1       | out |    1|  ap_memory |   imag_arr256_3  |     array    |
|imag_arr256_3_d1        | out |   32|  ap_memory |   imag_arr256_3  |     array    |
+------------------------+-----+-----+------------+------------------+--------------+

