; ModuleID = 'D:/Projects/vivado/project_3/dft_256_precomputed/dft/dft_opt2/.autopilot/db/a.o.2.bc'
target datalayout = "e-p:64:64:64-i1:8:8-i8:8:8-i16:16:16-i32:32:32-i64:64:64-f32:32:32-f64:64:64-v64:64:64-v128:128:128-a0:0:64-s0:64:64-f80:128:128-n8:16:32:64-S128"
target triple = "x86_64-w64-mingw32"

@sct_V = internal unnamed_addr constant [256 x i20] [i20 0, i20 -6434, i20 -12863, i20 -19285, i20 -25695, i20 -32090, i20 -38465, i20 -44817, i20 -51142, i20 -57437, i20 -63696, i20 -69918, i20 -76097, i20 -82230, i20 -88314, i20 -94345, i20 -100319, i20 -106232, i20 -112081, i20 -117863, i20 -123574, i20 -129211, i20 -134770, i20 -140247, i20 -145640, i20 -150945, i20 -156159, i20 -161280, i20 -166303, i20 -171226, i20 -176046, i20 -180760, i20 -185364, i20 -189858, i20 -194236, i20 -198498, i20 -202640, i20 -206661, i20 -210557, i20 -214326, i20 -217965, i20 -221474, i20 -224849, i20 -228089, i20 -231191, i20 -234154, i20 -236976, i20 -239655, i20 -242190, i20 -244579, i20 -246821, i20 -248914, i20 -250857, i20 -252649, i20 -254288, i20 -255775, i20 -257107, i20 -258285, i20 -259307, i20 -260173, i20 -260882, i20 -261434, i20 -261829, i20 -262066, i20 -262144, i20 -262066, i20 -261829, i20 -261434, i20 -260882, i20 -260173, i20 -259307, i20 -258285, i20 -257107, i20 -255775, i20 -254288, i20 -252649, i20 -250857, i20 -248914, i20 -246821, i20 -244579, i20 -242190, i20 -239655, i20 -236976, i20 -234154, i20 -231191, i20 -228089, i20 -224849, i20 -221474, i20 -217965, i20 -214326, i20 -210557, i20 -206661, i20 -202640, i20 -198498, i20 -194236, i20 -189858, i20 -185364, i20 -180760, i20 -176046, i20 -171226, i20 -166303, i20 -161280, i20 -156159, i20 -150945, i20 -145640, i20 -140247, i20 -134770, i20 -129211, i20 -123574, i20 -117863, i20 -112081, i20 -106232, i20 -100319, i20 -94345, i20 -88314, i20 -82230, i20 -76097, i20 -69918, i20 -63696, i20 -57437, i20 -51142, i20 -44817, i20 -38465, i20 -32090, i20 -25695, i20 -19285, i20 -12863, i20 -6434, i20 0, i20 6433, i20 12862, i20 19284, i20 25694, i20 32089, i20 38464, i20 44816, i20 51141, i20 57436, i20 63695, i20 69917, i20 76096, i20 82229, i20 88313, i20 94344, i20 100318, i20 106231, i20 112080, i20 117862, i20 123573, i20 129210, i20 134769, i20 140246, i20 145639, i20 150944, i20 156158, i20 161279, i20 166302, i20 171225, i20 176045, i20 180759, i20 185363, i20 189857, i20 194235, i20 198497, i20 202639, i20 206660, i20 210556, i20 214325, i20 217964, i20 221473, i20 224848, i20 228088, i20 231190, i20 234153, i20 236975, i20 239654, i20 242189, i20 244578, i20 246820, i20 248913, i20 250856, i20 252648, i20 254287, i20 255774, i20 257106, i20 258284, i20 259306, i20 260172, i20 260881, i20 261433, i20 261828, i20 262065, i20 262144, i20 262065, i20 261828, i20 261433, i20 260881, i20 260172, i20 259306, i20 258284, i20 257106, i20 255774, i20 254287, i20 252648, i20 250856, i20 248913, i20 246820, i20 244578, i20 242189, i20 239654, i20 236975, i20 234153, i20 231190, i20 228088, i20 224848, i20 221473, i20 217964, i20 214325, i20 210556, i20 206660, i20 202639, i20 198497, i20 194235, i20 189857, i20 185363, i20 180759, i20 176045, i20 171225, i20 166302, i20 161279, i20 156158, i20 150944, i20 145639, i20 140246, i20 134769, i20 129210, i20 123573, i20 117862, i20 112080, i20 106231, i20 100318, i20 94344, i20 88313, i20 82229, i20 76096, i20 69917, i20 63695, i20 57436, i20 51141, i20 44816, i20 38464, i20 32089, i20 25694, i20 19284, i20 12862, i20 6433]
@llvm_global_ctors_1 = appending global [1 x void ()*] [void ()* @_GLOBAL__I_a]
@llvm_global_ctors_0 = appending global [1 x i32] [i32 65535]
@dft_str = internal unnamed_addr constant [4 x i8] c"dft\00"
@cct_V = internal unnamed_addr constant [256 x i20] [i20 262144, i20 262065, i20 261828, i20 261433, i20 260881, i20 260172, i20 259306, i20 258284, i20 257106, i20 255774, i20 254287, i20 252648, i20 250856, i20 248913, i20 246820, i20 244578, i20 242189, i20 239654, i20 236975, i20 234153, i20 231190, i20 228088, i20 224848, i20 221473, i20 217964, i20 214325, i20 210556, i20 206660, i20 202639, i20 198497, i20 194235, i20 189857, i20 185363, i20 180759, i20 176045, i20 171225, i20 166302, i20 161279, i20 156158, i20 150944, i20 145639, i20 140246, i20 134769, i20 129210, i20 123573, i20 117862, i20 112080, i20 106231, i20 100318, i20 94344, i20 88313, i20 82229, i20 76096, i20 69917, i20 63695, i20 57436, i20 51141, i20 44816, i20 38464, i20 32089, i20 25694, i20 19284, i20 12862, i20 6433, i20 0, i20 -6434, i20 -12863, i20 -19285, i20 -25695, i20 -32090, i20 -38465, i20 -44817, i20 -51142, i20 -57437, i20 -63696, i20 -69918, i20 -76097, i20 -82230, i20 -88314, i20 -94345, i20 -100319, i20 -106232, i20 -112081, i20 -117863, i20 -123574, i20 -129211, i20 -134770, i20 -140247, i20 -145640, i20 -150945, i20 -156159, i20 -161280, i20 -166303, i20 -171226, i20 -176046, i20 -180760, i20 -185364, i20 -189858, i20 -194236, i20 -198498, i20 -202640, i20 -206661, i20 -210557, i20 -214326, i20 -217965, i20 -221474, i20 -224849, i20 -228089, i20 -231191, i20 -234154, i20 -236976, i20 -239655, i20 -242190, i20 -244579, i20 -246821, i20 -248914, i20 -250857, i20 -252649, i20 -254288, i20 -255775, i20 -257107, i20 -258285, i20 -259307, i20 -260173, i20 -260882, i20 -261434, i20 -261829, i20 -262066, i20 -262144, i20 -262066, i20 -261829, i20 -261434, i20 -260882, i20 -260173, i20 -259307, i20 -258285, i20 -257107, i20 -255775, i20 -254288, i20 -252649, i20 -250857, i20 -248914, i20 -246821, i20 -244579, i20 -242190, i20 -239655, i20 -236976, i20 -234154, i20 -231191, i20 -228089, i20 -224849, i20 -221474, i20 -217965, i20 -214326, i20 -210557, i20 -206661, i20 -202640, i20 -198498, i20 -194236, i20 -189858, i20 -185364, i20 -180760, i20 -176046, i20 -171226, i20 -166303, i20 -161280, i20 -156159, i20 -150945, i20 -145640, i20 -140247, i20 -134770, i20 -129211, i20 -123574, i20 -117863, i20 -112081, i20 -106232, i20 -100319, i20 -94345, i20 -88314, i20 -82230, i20 -76097, i20 -69918, i20 -63696, i20 -57437, i20 -51142, i20 -44817, i20 -38465, i20 -32090, i20 -25695, i20 -19285, i20 -12863, i20 -6434, i20 0, i20 6433, i20 12862, i20 19284, i20 25694, i20 32089, i20 38464, i20 44816, i20 51141, i20 57436, i20 63695, i20 69917, i20 76096, i20 82229, i20 88313, i20 94344, i20 100318, i20 106231, i20 112080, i20 117862, i20 123573, i20 129210, i20 134769, i20 140246, i20 145639, i20 150944, i20 156158, i20 161279, i20 166302, i20 171225, i20 176045, i20 180759, i20 185363, i20 189857, i20 194235, i20 198497, i20 202639, i20 206660, i20 210556, i20 214325, i20 217964, i20 221473, i20 224848, i20 228088, i20 231190, i20 234153, i20 236975, i20 239654, i20 242189, i20 244578, i20 246820, i20 248913, i20 250856, i20 252648, i20 254287, i20 255774, i20 257106, i20 258284, i20 259306, i20 260172, i20 260881, i20 261433, i20 261828, i20 262065]

declare i32 @llvm.part.set.i32.i8(i32, i8, i32, i32) nounwind readnone

declare i32 @llvm.part.select.i32(i32, i32, i32) nounwind readnone

declare void @llvm.dbg.value(metadata, i64, metadata) nounwind readnone

declare void @llvm.dbg.declare(metadata, metadata) nounwind readnone

define void @dft([256 x float]* %real_i, [256 x float]* %imag_i) nounwind uwtable {
  call void (...)* @_ssdm_op_SpecBitsMap([256 x float]* %real_i) nounwind, !map !7
  call void (...)* @_ssdm_op_SpecBitsMap([256 x float]* %imag_i) nounwind, !map !13
  call void (...)* @_ssdm_op_SpecTopModule([4 x i8]* @dft_str) nounwind
  %tmp_real = alloca [256 x float], align 16
  %tmp_imag = alloca [256 x float], align 16
  br label %.loopexit

.loopexit:                                        ; preds = %2, %0
  %i = phi i9 [ 0, %0 ], [ %i_2, %2 ]
  %tmp_1 = trunc i9 %i to i8
  %exitcond5 = icmp eq i9 %i, -256
  %empty = call i32 (...)* @_ssdm_op_SpecLoopTripCount(i64 256, i64 256, i64 256) nounwind
  %i_2 = add i9 1, %i
  br i1 %exitcond5, label %.preheader, label %1

; <label>:1                                       ; preds = %.loopexit
  %tmp = zext i9 %i to i64
  %tmp_real_addr = getelementptr inbounds [256 x float]* %tmp_real, i64 0, i64 %tmp
  store float 0.000000e+00, float* %tmp_real_addr, align 4
  %tmp_imag_addr = getelementptr inbounds [256 x float]* %tmp_imag, i64 0, i64 %tmp
  br label %2

; <label>:2                                       ; preds = %_ifconv, %1
  %storemerge = phi float [ 0.000000e+00, %1 ], [ %tmp_12, %_ifconv ]
  %tmp_2 = phi float [ 0.000000e+00, %1 ], [ %tmp_9, %_ifconv ]
  %j = phi i9 [ 0, %1 ], [ %j_1, %_ifconv ]
  store float %storemerge, float* %tmp_imag_addr, align 4
  %tmp_13 = trunc i9 %j to i8
  %exitcond4 = icmp eq i9 %j, -256
  %empty_8 = call i32 (...)* @_ssdm_op_SpecLoopTripCount(i64 256, i64 256, i64 256) nounwind
  %j_1 = add i9 1, %j
  br i1 %exitcond4, label %.loopexit, label %_ifconv

_ifconv:                                          ; preds = %2
  %index = mul i8 %tmp_1, %tmp_13
  %tmp_7 = zext i9 %j to i64
  %real_i_addr_1 = getelementptr [256 x float]* %real_i, i64 0, i64 %tmp_7
  %real_i_load = load float* %real_i_addr_1, align 4
  %tmp_8 = zext i8 %index to i64
  %cct_V_addr = getelementptr [256 x i20]* @cct_V, i64 0, i64 %tmp_8
  %cct_V_load = load i20* %cct_V_addr, align 4
  %dp_s = sext i20 %cct_V_load to i32
  %dp_1 = sitofp i32 %dp_s to float
  %res_V_6 = bitcast float %dp_1 to i32
  %exp_V = call i8 @_ssdm_op_PartSelect.i8.i32.i32.i32(i32 %res_V_6, i32 23, i32 30)
  %exp_V_6 = add i8 %exp_V, -18
  %p_Result_s = call i32 @llvm.part.set.i32.i8(i32 %res_V_6, i8 %exp_V_6, i32 23, i32 30) nounwind
  %dp = bitcast i32 %p_Result_s to float
  %sel_tmp = icmp eq i8 %index, -64
  %sel_tmp1 = icmp eq i8 %index, 64
  %sel_tmp2 = or i1 %sel_tmp, %sel_tmp1
  %p_0_i1 = select i1 %sel_tmp2, float 0.000000e+00, float %dp
  %tmp_s = fmul float %real_i_load, %p_0_i1
  %imag_i_addr_1 = getelementptr [256 x float]* %imag_i, i64 0, i64 %tmp_7
  %imag_i_load = load float* %imag_i_addr_1, align 4
  %sct_V_addr = getelementptr [256 x i20]* @sct_V, i64 0, i64 %tmp_8
  %sct_V_load = load i20* %sct_V_addr, align 4
  %dp_4 = sext i20 %sct_V_load to i32
  %dp_3 = sitofp i32 %dp_4 to float
  %res_V_7 = bitcast float %dp_3 to i32
  %exp_V_2 = call i8 @_ssdm_op_PartSelect.i8.i32.i32.i32(i32 %res_V_7, i32 23, i32 30)
  %exp_V_7 = add i8 %exp_V_2, -18
  %p_Result_1 = call i32 @llvm.part.set.i32.i8(i32 %res_V_7, i8 %exp_V_7, i32 23, i32 30) nounwind
  %dp_2 = bitcast i32 %p_Result_1 to float
  %sel_tmp8 = icmp eq i8 %index, -128
  %sel_tmp9 = icmp eq i8 %index, 0
  %sel_tmp3 = or i1 %sel_tmp8, %sel_tmp9
  %p_0_i2 = select i1 %sel_tmp3, float 0.000000e+00, float %dp_2
  %tmp_4 = fmul float %imag_i_load, %p_0_i2
  %tmp_5 = fsub float %tmp_s, %tmp_4
  %tmp_9 = fadd float %tmp_2, %tmp_5
  store float %tmp_9, float* %tmp_real_addr, align 4
  %tmp_6 = fmul float %real_i_load, %p_0_i2
  %tmp_10 = fmul float %imag_i_load, %p_0_i1
  %tmp_11 = fadd float %tmp_6, %tmp_10
  %tmp_12 = fadd float %storemerge, %tmp_11
  br label %2

.preheader:                                       ; preds = %.loopexit, %3
  %i1 = phi i9 [ %i_1, %3 ], [ 0, %.loopexit ]
  %exitcond = icmp eq i9 %i1, -256
  %empty_9 = call i32 (...)* @_ssdm_op_SpecLoopTripCount(i64 256, i64 256, i64 256) nounwind
  %i_1 = add i9 %i1, 1
  br i1 %exitcond, label %4, label %3

; <label>:3                                       ; preds = %.preheader
  %tmp_3 = zext i9 %i1 to i64
  %tmp_real_addr_1 = getelementptr inbounds [256 x float]* %tmp_real, i64 0, i64 %tmp_3
  %tmp_real_load = load float* %tmp_real_addr_1, align 4
  %real_i_addr = getelementptr [256 x float]* %real_i, i64 0, i64 %tmp_3
  store float %tmp_real_load, float* %real_i_addr, align 4
  %tmp_imag_addr_1 = getelementptr inbounds [256 x float]* %tmp_imag, i64 0, i64 %tmp_3
  %tmp_imag_load = load float* %tmp_imag_addr_1, align 4
  %imag_i_addr = getelementptr [256 x float]* %imag_i, i64 0, i64 %tmp_3
  store float %tmp_imag_load, float* %imag_i_addr, align 4
  br label %.preheader

; <label>:4                                       ; preds = %.preheader
  ret void
}

define weak void @_ssdm_op_SpecTopModule(...) {
entry:
  ret void
}

define weak i32 @_ssdm_op_SpecLoopTripCount(...) {
entry:
  ret i32 0
}

define weak void @_ssdm_op_SpecBitsMap(...) {
entry:
  ret void
}

declare i8 @_ssdm_op_PartSelect.i8.i9.i32.i32(i9, i32, i32) nounwind readnone

define weak i8 @_ssdm_op_PartSelect.i8.i32.i32.i32(i32, i32, i32) nounwind readnone {
entry:
  %empty = call i32 @llvm.part.select.i32(i32 %0, i32 %1, i32 %2)
  %empty_10 = trunc i32 %empty to i8
  ret i8 %empty_10
}

declare i16 @_ssdm_op_HSub(...)

declare i16 @_ssdm_op_HMul(...)

declare i16 @_ssdm_op_HDiv(...)

declare i16 @_ssdm_op_HAdd(...)

declare void @_GLOBAL__I_a() nounwind

!hls.encrypted.func = !{}
!llvm.map.gv = !{!0}

!0 = metadata !{metadata !1, [1 x i32]* @llvm_global_ctors_0}
!1 = metadata !{metadata !2}
!2 = metadata !{i32 0, i32 31, metadata !3}
!3 = metadata !{metadata !4}
!4 = metadata !{metadata !"llvm.global_ctors.0", metadata !5, metadata !"", i32 0, i32 31}
!5 = metadata !{metadata !6}
!6 = metadata !{i32 0, i32 0, i32 1}
!7 = metadata !{metadata !8}
!8 = metadata !{i32 0, i32 31, metadata !9}
!9 = metadata !{metadata !10}
!10 = metadata !{metadata !"real_i", metadata !11, metadata !"float", i32 0, i32 31}
!11 = metadata !{metadata !12}
!12 = metadata !{i32 0, i32 255, i32 1}
!13 = metadata !{metadata !14}
!14 = metadata !{i32 0, i32 31, metadata !15}
!15 = metadata !{metadata !16}
!16 = metadata !{metadata !"imag_i", metadata !11, metadata !"float", i32 0, i32 31}
