

================================================================
== Vivado HLS Report for 'dft_loop_flow8'
================================================================
* Date:           Tue Nov 01 18:57:20 2016

* Version:        2015.4 (Build 1412921 on Wed Nov 18 09:58:55 AM 2015)
* Project:        dft
* Solution:       dft_best
* Product family: zynq
* Target device:  xc7z020clg484-1


================================================================
== Performance Estimates
================================================================
+ Timing (ns): 
    * Summary: 
    +--------+-------+----------+------------+
    |  Clock | Target| Estimated| Uncertainty|
    +--------+-------+----------+------------+
    |ap_clk  |  10.00|      7.26|        1.25|
    +--------+-------+----------+------------+

+ Latency (clock cycles): 
    * Summary: 
    +-----+-----+-----+-----+---------+
    |  Latency  |  Interval | Pipeline|
    | min | max | min | max |   Type  |
    +-----+-----+-----+-----+---------+
    |   21|   21|   21|   21|   none  |
    +-----+-----+-----+-----+---------+

    + Detail: 
        * Instance: 
        N/A

        * Loop: 
        +----------+-----+-----+----------+-----------+-----------+------+----------+
        |          |  Latency  | Iteration|  Initiation Interval  | Trip |          |
        | Loop Name| min | max |  Latency |  achieved |   target  | Count| Pipelined|
        +----------+-----+-----+----------+-----------+-----------+------+----------+
        |- Loop 1  |   19|   19|        11|          4|          1|     3|    yes   |
        +----------+-----+-----+----------+-----------+-----------+------+----------+

============================================================
+ Verbose Summary: Synthesis Manager
============================================================
InlineROM: 1
ExposeGlobal: 0
============================================================
+ Verbose Summary: CDFG Model
============================================================
IsTopModel: 0
ResetActiveHigh: 1
IsCombinational: 0
IsDatapathOnly: 0
HasWiredReturn: 1
HasMFsm: 0
HasVarLatency: 1
IsPipeline: 0
IsRtlPipelined: 0
IsInstanceOverlapped: 0
IsDontTouch: 0
HasImplIP: 0
IsGatedGlobalClock: 0

+ Individual pipeline summary: 
  * Pipeline-0: initiation interval (II) = 4, depth = 11


============================================================
+ Verbose Summary: Schedule
============================================================
* Number of FSM states: 13
* Pipeline: 1
  Pipeline-0: II = 4, D = 11, States = { 2 3 4 5 6 7 8 9 10 11 12 }
* Dataflow Pipeline: 0

* FSM state transitions: 
1 --> 
	2  / true
2 --> 
	3  / true
3 --> 
	4  / true
4 --> 
	5  / true
5 --> 
	6  / true
6 --> 
	7  / true
7 --> 
	8  / true
8 --> 
	9  / true
9 --> 
	13  / (exitcond) | (!exitcond & exitcond_1)
	10  / (!exitcond & !exitcond_1)
10 --> 
	11  / true
11 --> 
	12  / true
12 --> 
	2  / true
13 --> 
* FSM state operations: 

 <State 1>: 1.57ns
ST_1: stg_14 [1/1] 1.57ns
:0  br label %1


 <State 2>: 2.39ns
ST_2: p_s [1/1] 0.00ns
:0  %p_s = phi i9 [ 0, %0 ], [ %j_V_3, %11 ]

ST_2: p_1 [1/1] 0.00ns
:1  %p_1 = phi i9 [ 0, %0 ], [ %i_V_3, %11 ]

ST_2: exitcond [1/1] 2.03ns
:2  %exitcond = icmp eq i9 %p_1, 9

ST_2: stg_18 [1/1] 0.00ns
:3  br i1 %exitcond, label %12, label %2

ST_2: tmp [1/1] 0.00ns
:1  %tmp = call i32 (...)* @_ssdm_op_SpecRegionBegin([12 x i8]* @p_str6) nounwind

ST_2: newIndex [1/1] 0.00ns
:3  %newIndex = call i7 @_ssdm_op_PartSelect.i7.i9.i32.i32(i9 %p_s, i32 2, i32 8)

ST_2: newIndex1 [1/1] 0.00ns
:4  %newIndex1 = zext i7 %newIndex to i64

ST_2: real_arr16_0_addr [1/1] 0.00ns
:5  %real_arr16_0_addr = getelementptr [4 x float]* @real_arr16_0, i64 0, i64 %newIndex1

ST_2: real_arr16_0_load [2/2] 2.39ns
:6  %real_arr16_0_load = load float* %real_arr16_0_addr, align 4

ST_2: real_arr16_1_addr [1/1] 0.00ns
:7  %real_arr16_1_addr = getelementptr [4 x float]* @real_arr16_1, i64 0, i64 %newIndex1

ST_2: real_arr16_1_load [2/2] 2.39ns
:8  %real_arr16_1_load = load float* %real_arr16_1_addr, align 4

ST_2: tmp_1 [1/1] 0.00ns
:10  %tmp_1 = trunc i9 %p_1 to i3

ST_2: stg_27 [1/1] 1.62ns
:11  switch i3 %tmp_1, label %branch63 [
    i3 0, label %branch56
    i3 -4, label %branch60
  ]

ST_2: imag_arr16_0_addr [1/1] 0.00ns
:0  %imag_arr16_0_addr = getelementptr [4 x float]* @imag_arr16_0, i64 0, i64 %newIndex1

ST_2: imag_arr16_0_load [2/2] 2.39ns
:1  %imag_arr16_0_load = load float* %imag_arr16_0_addr, align 4

ST_2: imag_arr16_1_addr [1/1] 0.00ns
:2  %imag_arr16_1_addr = getelementptr [4 x float]* @imag_arr16_1, i64 0, i64 %newIndex1

ST_2: imag_arr16_1_load [2/2] 2.39ns
:3  %imag_arr16_1_load = load float* %imag_arr16_1_addr, align 4

ST_2: stg_32 [1/1] 1.62ns
:5  switch i3 %tmp_1, label %branch31 [
    i3 0, label %branch24
    i3 -4, label %branch28
  ]

ST_2: empty_6 [1/1] 0.00ns
:0  %empty_6 = call i32 (...)* @_ssdm_op_SpecRegionEnd([12 x i8]* @p_str6, i32 %tmp) nounwind

ST_2: i_V_s [1/1] 0.00ns
:1  %i_V_s = or i9 %p_1, 1

ST_2: exitcond_1 [1/1] 2.03ns
:2  %exitcond_1 = icmp eq i9 %i_V_s, 9

ST_2: stg_36 [1/1] 0.00ns
:3  br i1 %exitcond_1, label %12, label %5

ST_2: tmp_2 [1/1] 0.00ns
:5  %tmp_2 = trunc i9 %i_V_s to i3

ST_2: stg_38 [1/1] 1.62ns
:6  switch i3 %tmp_2, label %branch55 [
    i3 -3, label %branch53
    i3 1, label %branch49
  ]

ST_2: stg_39 [1/1] 1.62ns
:5  switch i3 %tmp_2, label %branch23 [
    i3 -3, label %branch21
    i3 1, label %branch17
  ]

ST_2: i_V_18_t [1/1] 0.00ns
:7  %i_V_18_t = or i3 %tmp_1, 2

ST_2: stg_41 [1/1] 1.62ns
:8  switch i3 %i_V_18_t, label %branch47 [
    i3 -2, label %branch46
    i3 2, label %branch42
  ]

ST_2: stg_42 [1/1] 1.62ns
:5  switch i3 %i_V_18_t, label %branch15 [
    i3 -2, label %branch14
    i3 2, label %branch10
  ]

ST_2: i_V_210_t [1/1] 0.00ns
:5  %i_V_210_t = or i3 %tmp_1, 3

ST_2: cond [1/1] 1.62ns
:6  %cond = icmp eq i3 %i_V_210_t, 3

ST_2: stg_45 [1/1] 0.00ns
:7  br i1 %cond, label %branch35, label %branch39

ST_2: stg_46 [1/1] 0.00ns
:5  br i1 %cond, label %branch3, label %branch7

ST_2: i_V_3 [1/1] 1.84ns
:0  %i_V_3 = add i9 %p_1, 4

ST_2: j_V_3 [1/1] 1.84ns
:1  %j_V_3 = add i9 %p_s, 8

ST_2: stg_49 [1/1] 0.00ns
:2  br label %1


 <State 3>: 2.39ns
ST_3: real_arr16_0_load [1/2] 2.39ns
:6  %real_arr16_0_load = load float* %real_arr16_0_addr, align 4

ST_3: real_arr16_1_load [1/2] 2.39ns
:8  %real_arr16_1_load = load float* %real_arr16_1_addr, align 4

ST_3: imag_arr16_0_load [1/2] 2.39ns
:1  %imag_arr16_0_load = load float* %imag_arr16_0_addr, align 4

ST_3: imag_arr16_1_load [1/2] 2.39ns
:3  %imag_arr16_1_load = load float* %imag_arr16_1_addr, align 4

ST_3: real_arr16_2_addr [1/1] 0.00ns
:0  %real_arr16_2_addr = getelementptr [4 x float]* @real_arr16_2, i64 0, i64 %newIndex1

ST_3: real_arr16_2_load [2/2] 2.39ns
:1  %real_arr16_2_load = load float* %real_arr16_2_addr, align 4

ST_3: real_arr16_3_addr [1/1] 0.00ns
:2  %real_arr16_3_addr = getelementptr [4 x float]* @real_arr16_3, i64 0, i64 %newIndex1

ST_3: real_arr16_3_load [2/2] 2.39ns
:3  %real_arr16_3_load = load float* %real_arr16_3_addr, align 4

ST_3: imag_arr16_2_addr [1/1] 0.00ns
:0  %imag_arr16_2_addr = getelementptr [4 x float]* @imag_arr16_2, i64 0, i64 %newIndex1

ST_3: imag_arr16_2_load [2/2] 2.39ns
:1  %imag_arr16_2_load = load float* %imag_arr16_2_addr, align 4

ST_3: imag_arr16_3_addr [1/1] 0.00ns
:2  %imag_arr16_3_addr = getelementptr [4 x float]* @imag_arr16_3, i64 0, i64 %newIndex1

ST_3: imag_arr16_3_load [2/2] 2.39ns
:3  %imag_arr16_3_load = load float* %imag_arr16_3_addr, align 4


 <State 4>: 7.26ns
ST_4: tmp_4 [5/5] 7.26ns
:9  %tmp_4 = fadd float %real_arr16_0_load, %real_arr16_1_load

ST_4: tmp_6 [5/5] 7.26ns
:4  %tmp_6 = fadd float %imag_arr16_0_load, %imag_arr16_1_load

ST_4: real_arr16_2_load [1/2] 2.39ns
:1  %real_arr16_2_load = load float* %real_arr16_2_addr, align 4

ST_4: real_arr16_3_load [1/2] 2.39ns
:3  %real_arr16_3_load = load float* %real_arr16_3_addr, align 4

ST_4: imag_arr16_2_load [1/2] 2.39ns
:1  %imag_arr16_2_load = load float* %imag_arr16_2_addr, align 4

ST_4: imag_arr16_3_load [1/2] 2.39ns
:3  %imag_arr16_3_load = load float* %imag_arr16_3_addr, align 4

ST_4: newIndex6 [1/1] 0.00ns
:0  %newIndex6 = or i7 %newIndex, 1

ST_4: newIndex7 [1/1] 0.00ns
:1  %newIndex7 = zext i7 %newIndex6 to i64

ST_4: real_arr16_0_addr_1 [1/1] 0.00ns
:2  %real_arr16_0_addr_1 = getelementptr [4 x float]* @real_arr16_0, i64 0, i64 %newIndex7

ST_4: real_arr16_0_load_1 [2/2] 2.39ns
:3  %real_arr16_0_load_1 = load float* %real_arr16_0_addr_1, align 4

ST_4: real_arr16_1_addr_1 [1/1] 0.00ns
:4  %real_arr16_1_addr_1 = getelementptr [4 x float]* @real_arr16_1, i64 0, i64 %newIndex7

ST_4: real_arr16_1_load_1 [2/2] 2.39ns
:5  %real_arr16_1_load_1 = load float* %real_arr16_1_addr_1, align 4

ST_4: imag_arr16_0_addr_1 [1/1] 0.00ns
:0  %imag_arr16_0_addr_1 = getelementptr [4 x float]* @imag_arr16_0, i64 0, i64 %newIndex7

ST_4: imag_arr16_0_load_1 [2/2] 2.39ns
:1  %imag_arr16_0_load_1 = load float* %imag_arr16_0_addr_1, align 4

ST_4: imag_arr16_1_addr_1 [1/1] 0.00ns
:2  %imag_arr16_1_addr_1 = getelementptr [4 x float]* @imag_arr16_1, i64 0, i64 %newIndex7

ST_4: imag_arr16_1_load_1 [2/2] 2.39ns
:3  %imag_arr16_1_load_1 = load float* %imag_arr16_1_addr_1, align 4


 <State 5>: 7.26ns
ST_5: tmp_4 [4/5] 7.26ns
:9  %tmp_4 = fadd float %real_arr16_0_load, %real_arr16_1_load

ST_5: tmp_6 [4/5] 7.26ns
:4  %tmp_6 = fadd float %imag_arr16_0_load, %imag_arr16_1_load

ST_5: tmp_4_1 [5/5] 7.26ns
:4  %tmp_4_1 = fadd float %real_arr16_2_load, %real_arr16_3_load

ST_5: tmp_6_1 [5/5] 7.26ns
:4  %tmp_6_1 = fadd float %imag_arr16_2_load, %imag_arr16_3_load

ST_5: real_arr16_0_load_1 [1/2] 2.39ns
:3  %real_arr16_0_load_1 = load float* %real_arr16_0_addr_1, align 4

ST_5: real_arr16_1_load_1 [1/2] 2.39ns
:5  %real_arr16_1_load_1 = load float* %real_arr16_1_addr_1, align 4

ST_5: imag_arr16_0_load_1 [1/2] 2.39ns
:1  %imag_arr16_0_load_1 = load float* %imag_arr16_0_addr_1, align 4

ST_5: imag_arr16_1_load_1 [1/2] 2.39ns
:3  %imag_arr16_1_load_1 = load float* %imag_arr16_1_addr_1, align 4

ST_5: real_arr16_2_addr_1 [1/1] 0.00ns
:0  %real_arr16_2_addr_1 = getelementptr [4 x float]* @real_arr16_2, i64 0, i64 %newIndex7

ST_5: real_arr16_2_load_1 [2/2] 2.39ns
:1  %real_arr16_2_load_1 = load float* %real_arr16_2_addr_1, align 4

ST_5: real_arr16_3_addr_1 [1/1] 0.00ns
:2  %real_arr16_3_addr_1 = getelementptr [4 x float]* @real_arr16_3, i64 0, i64 %newIndex7

ST_5: real_arr16_3_load_1 [2/2] 2.39ns
:3  %real_arr16_3_load_1 = load float* %real_arr16_3_addr_1, align 4

ST_5: imag_arr16_2_addr_1 [1/1] 0.00ns
:0  %imag_arr16_2_addr_1 = getelementptr [4 x float]* @imag_arr16_2, i64 0, i64 %newIndex7

ST_5: imag_arr16_2_load_1 [2/2] 2.39ns
:1  %imag_arr16_2_load_1 = load float* %imag_arr16_2_addr_1, align 4

ST_5: imag_arr16_3_addr_1 [1/1] 0.00ns
:2  %imag_arr16_3_addr_1 = getelementptr [4 x float]* @imag_arr16_3, i64 0, i64 %newIndex7

ST_5: imag_arr16_3_load_1 [2/2] 2.39ns
:3  %imag_arr16_3_load_1 = load float* %imag_arr16_3_addr_1, align 4


 <State 6>: 7.26ns
ST_6: tmp_4 [3/5] 7.26ns
:9  %tmp_4 = fadd float %real_arr16_0_load, %real_arr16_1_load

ST_6: tmp_6 [3/5] 7.26ns
:4  %tmp_6 = fadd float %imag_arr16_0_load, %imag_arr16_1_load

ST_6: tmp_4_1 [4/5] 7.26ns
:4  %tmp_4_1 = fadd float %real_arr16_2_load, %real_arr16_3_load

ST_6: tmp_6_1 [4/5] 7.26ns
:4  %tmp_6_1 = fadd float %imag_arr16_2_load, %imag_arr16_3_load

ST_6: tmp_4_2 [5/5] 7.26ns
:6  %tmp_4_2 = fadd float %real_arr16_0_load_1, %real_arr16_1_load_1

ST_6: tmp_6_2 [5/5] 7.26ns
:4  %tmp_6_2 = fadd float %imag_arr16_0_load_1, %imag_arr16_1_load_1

ST_6: real_arr16_2_load_1 [1/2] 2.39ns
:1  %real_arr16_2_load_1 = load float* %real_arr16_2_addr_1, align 4

ST_6: real_arr16_3_load_1 [1/2] 2.39ns
:3  %real_arr16_3_load_1 = load float* %real_arr16_3_addr_1, align 4

ST_6: imag_arr16_2_load_1 [1/2] 2.39ns
:1  %imag_arr16_2_load_1 = load float* %imag_arr16_2_addr_1, align 4

ST_6: imag_arr16_3_load_1 [1/2] 2.39ns
:3  %imag_arr16_3_load_1 = load float* %imag_arr16_3_addr_1, align 4


 <State 7>: 7.26ns
ST_7: tmp_4 [2/5] 7.26ns
:9  %tmp_4 = fadd float %real_arr16_0_load, %real_arr16_1_load

ST_7: tmp_6 [2/5] 7.26ns
:4  %tmp_6 = fadd float %imag_arr16_0_load, %imag_arr16_1_load

ST_7: tmp_4_1 [3/5] 7.26ns
:4  %tmp_4_1 = fadd float %real_arr16_2_load, %real_arr16_3_load

ST_7: tmp_6_1 [3/5] 7.26ns
:4  %tmp_6_1 = fadd float %imag_arr16_2_load, %imag_arr16_3_load

ST_7: tmp_4_2 [4/5] 7.26ns
:6  %tmp_4_2 = fadd float %real_arr16_0_load_1, %real_arr16_1_load_1

ST_7: tmp_6_2 [4/5] 7.26ns
:4  %tmp_6_2 = fadd float %imag_arr16_0_load_1, %imag_arr16_1_load_1

ST_7: tmp_4_3 [5/5] 7.26ns
:4  %tmp_4_3 = fadd float %real_arr16_2_load_1, %real_arr16_3_load_1

ST_7: tmp_6_3 [5/5] 7.26ns
:4  %tmp_6_3 = fadd float %imag_arr16_2_load_1, %imag_arr16_3_load_1


 <State 8>: 7.26ns
ST_8: empty [1/1] 0.00ns
:0  %empty = call i32 (...)* @_ssdm_op_SpecLoopTripCount(i64 3, i64 3, i64 3) nounwind

ST_8: stg_113 [1/1] 0.00ns
:2  call void (...)* @_ssdm_op_SpecPipeline(i32 1, i32 1, i32 1, i32 0, [1 x i8]* @p_str1) nounwind

ST_8: tmp_4 [1/5] 7.26ns
:9  %tmp_4 = fadd float %real_arr16_0_load, %real_arr16_1_load

ST_8: stg_115 [1/1] 0.00ns
branch60:0  store float %tmp_4, float* @real_arr8_4, align 16

ST_8: stg_116 [1/1] 0.00ns
branch60:1  br label %3

ST_8: stg_117 [1/1] 0.00ns
branch56:0  store float %tmp_4, float* @real_arr8_0, align 16

ST_8: stg_118 [1/1] 0.00ns
branch56:1  br label %3

ST_8: tmp_6 [1/5] 7.26ns
:4  %tmp_6 = fadd float %imag_arr16_0_load, %imag_arr16_1_load

ST_8: stg_120 [1/1] 0.00ns
branch28:0  store float %tmp_6, float* @imag_arr8_4, align 16

ST_8: stg_121 [1/1] 0.00ns
branch28:1  br label %4

ST_8: stg_122 [1/1] 0.00ns
branch24:0  store float %tmp_6, float* @imag_arr8_0, align 16

ST_8: stg_123 [1/1] 0.00ns
branch24:1  br label %4

ST_8: tmp_4_1 [2/5] 7.26ns
:4  %tmp_4_1 = fadd float %real_arr16_2_load, %real_arr16_3_load

ST_8: tmp_6_1 [2/5] 7.26ns
:4  %tmp_6_1 = fadd float %imag_arr16_2_load, %imag_arr16_3_load

ST_8: tmp_4_2 [3/5] 7.26ns
:6  %tmp_4_2 = fadd float %real_arr16_0_load_1, %real_arr16_1_load_1

ST_8: tmp_6_2 [3/5] 7.26ns
:4  %tmp_6_2 = fadd float %imag_arr16_0_load_1, %imag_arr16_1_load_1

ST_8: tmp_4_3 [4/5] 7.26ns
:4  %tmp_4_3 = fadd float %real_arr16_2_load_1, %real_arr16_3_load_1

ST_8: tmp_6_3 [4/5] 7.26ns
:4  %tmp_6_3 = fadd float %imag_arr16_2_load_1, %imag_arr16_3_load_1


 <State 9>: 7.26ns
ST_9: stg_130 [1/1] 1.57ns
branch63:0  store float %tmp_4, float* @real_arr8_7, align 16

ST_9: stg_131 [1/1] 0.00ns
branch63:1  br label %3

ST_9: stg_132 [1/1] 1.57ns
branch31:0  store float %tmp_6, float* @imag_arr8_7, align 16

ST_9: stg_133 [1/1] 0.00ns
branch31:1  br label %4

ST_9: tmp_4_1 [1/5] 7.26ns
:4  %tmp_4_1 = fadd float %real_arr16_2_load, %real_arr16_3_load

ST_9: stg_135 [1/1] 0.00ns
branch49:0  store float %tmp_4_1, float* @real_arr8_1, align 4

ST_9: stg_136 [1/1] 0.00ns
branch49:1  br label %6

ST_9: stg_137 [1/1] 0.00ns
branch53:0  store float %tmp_4_1, float* @real_arr8_5, align 4

ST_9: stg_138 [1/1] 0.00ns
branch53:1  br label %6

ST_9: tmp_6_1 [1/5] 7.26ns
:4  %tmp_6_1 = fadd float %imag_arr16_2_load, %imag_arr16_3_load

ST_9: stg_140 [1/1] 0.00ns
branch17:0  store float %tmp_6_1, float* @imag_arr8_1, align 4

ST_9: stg_141 [1/1] 0.00ns
branch17:1  br label %7

ST_9: stg_142 [1/1] 0.00ns
branch21:0  store float %tmp_6_1, float* @imag_arr8_5, align 4

ST_9: stg_143 [1/1] 0.00ns
branch21:1  br label %7

ST_9: tmp_4_2 [2/5] 7.26ns
:6  %tmp_4_2 = fadd float %real_arr16_0_load_1, %real_arr16_1_load_1

ST_9: tmp_6_2 [2/5] 7.26ns
:4  %tmp_6_2 = fadd float %imag_arr16_0_load_1, %imag_arr16_1_load_1

ST_9: tmp_4_3 [3/5] 7.26ns
:4  %tmp_4_3 = fadd float %real_arr16_2_load_1, %real_arr16_3_load_1

ST_9: tmp_6_3 [3/5] 7.26ns
:4  %tmp_6_3 = fadd float %imag_arr16_2_load_1, %imag_arr16_3_load_1


 <State 10>: 7.26ns
ST_10: stg_148 [1/1] 1.57ns
branch55:0  store float %tmp_4_1, float* @real_arr8_7, align 4

ST_10: stg_149 [1/1] 0.00ns
branch55:1  br label %6

ST_10: stg_150 [1/1] 1.57ns
branch23:0  store float %tmp_6_1, float* @imag_arr8_7, align 4

ST_10: stg_151 [1/1] 0.00ns
branch23:1  br label %7

ST_10: tmp_4_2 [1/5] 7.26ns
:6  %tmp_4_2 = fadd float %real_arr16_0_load_1, %real_arr16_1_load_1

ST_10: stg_153 [1/1] 0.00ns
branch42:0  store float %tmp_4_2, float* @real_arr8_2, align 8

ST_10: stg_154 [1/1] 0.00ns
branch42:1  br label %8

ST_10: stg_155 [1/1] 0.00ns
branch46:0  store float %tmp_4_2, float* @real_arr8_6, align 8

ST_10: stg_156 [1/1] 0.00ns
branch46:1  br label %8

ST_10: tmp_6_2 [1/5] 7.26ns
:4  %tmp_6_2 = fadd float %imag_arr16_0_load_1, %imag_arr16_1_load_1

ST_10: stg_158 [1/1] 0.00ns
branch10:0  store float %tmp_6_2, float* @imag_arr8_2, align 8

ST_10: stg_159 [1/1] 0.00ns
branch10:1  br label %9

ST_10: stg_160 [1/1] 0.00ns
branch14:0  store float %tmp_6_2, float* @imag_arr8_6, align 8

ST_10: stg_161 [1/1] 0.00ns
branch14:1  br label %9

ST_10: tmp_4_3 [2/5] 7.26ns
:4  %tmp_4_3 = fadd float %real_arr16_2_load_1, %real_arr16_3_load_1

ST_10: tmp_6_3 [2/5] 7.26ns
:4  %tmp_6_3 = fadd float %imag_arr16_2_load_1, %imag_arr16_3_load_1


 <State 11>: 7.26ns
ST_11: stg_164 [1/1] 1.57ns
branch47:0  store float %tmp_4_2, float* @real_arr8_7, align 8

ST_11: stg_165 [1/1] 0.00ns
branch47:1  br label %8

ST_11: stg_166 [1/1] 1.57ns
branch15:0  store float %tmp_6_2, float* @imag_arr8_7, align 8

ST_11: stg_167 [1/1] 0.00ns
branch15:1  br label %9

ST_11: tmp_4_3 [1/5] 7.26ns
:4  %tmp_4_3 = fadd float %real_arr16_2_load_1, %real_arr16_3_load_1

ST_11: stg_169 [1/1] 0.00ns
branch35:0  store float %tmp_4_3, float* @real_arr8_3, align 4

ST_11: stg_170 [1/1] 0.00ns
branch35:1  br label %10

ST_11: tmp_6_3 [1/5] 7.26ns
:4  %tmp_6_3 = fadd float %imag_arr16_2_load_1, %imag_arr16_3_load_1

ST_11: stg_172 [1/1] 0.00ns
branch3:0  store float %tmp_6_3, float* @imag_arr8_3, align 4

ST_11: stg_173 [1/1] 0.00ns
branch3:1  br label %11


 <State 12>: 1.57ns
ST_12: stg_174 [1/1] 1.57ns
branch39:0  store float %tmp_4_3, float* @real_arr8_7, align 4

ST_12: stg_175 [1/1] 0.00ns
branch39:1  br label %10

ST_12: stg_176 [1/1] 1.57ns
branch7:0  store float %tmp_6_3, float* @imag_arr8_7, align 4

ST_12: stg_177 [1/1] 0.00ns
branch7:1  br label %11


 <State 13>: 0.00ns
ST_13: stg_178 [1/1] 0.00ns
:0  ret void



============================================================
+ Verbose Summary: Binding
============================================================
STG Binding: 
---------------- STG Properties BEGIN ----------------
- Is combinational: 0
- Is one-state seq: 0
- Is datapath-only: 0
- Is clock enabled: 0
- Is pipelined: 0
- Is top level: 0
Port [ Return ] is wired: 1; IO mode=ap_ctrl_hs:ce=0
Port [ real_arr16_0]:  wired=1; compound=1; hidden=0; nouse=0; global=1; static=0; extern=0; dir=0; type=1; mode=0x2000b20d4f0; pingpong=0; private_global=0; linkage=0; visibility=0; MemPort=[13]; IO mode=ap_memory:ce=0
Port [ real_arr16_1]:  wired=1; compound=1; hidden=0; nouse=0; global=1; static=0; extern=0; dir=0; type=1; mode=0x2000b20dbb0; pingpong=0; private_global=0; linkage=0; visibility=0; MemPort=[13]; IO mode=ap_memory:ce=0
Port [ imag_arr16_0]:  wired=1; compound=1; hidden=0; nouse=0; global=1; static=0; extern=0; dir=0; type=1; mode=0x2000b20e930; pingpong=0; private_global=0; linkage=0; visibility=0; MemPort=[13]; IO mode=ap_memory:ce=0
Port [ imag_arr16_1]:  wired=1; compound=1; hidden=0; nouse=0; global=1; static=0; extern=0; dir=0; type=1; mode=0x2000b20e0c0; pingpong=0; private_global=0; linkage=0; visibility=0; MemPort=[13]; IO mode=ap_memory:ce=0
Port [ real_arr16_2]:  wired=1; compound=1; hidden=0; nouse=0; global=1; static=0; extern=0; dir=0; type=1; mode=0x2000b20cec0; pingpong=0; private_global=0; linkage=0; visibility=0; MemPort=[13]; IO mode=ap_memory:ce=0
Port [ real_arr16_3]:  wired=1; compound=1; hidden=0; nouse=0; global=1; static=0; extern=0; dir=0; type=1; mode=0x2000b20eb70; pingpong=0; private_global=0; linkage=0; visibility=0; MemPort=[13]; IO mode=ap_memory:ce=0
Port [ imag_arr16_2]:  wired=1; compound=1; hidden=0; nouse=0; global=1; static=0; extern=0; dir=0; type=1; mode=0x2000b20e420; pingpong=0; private_global=0; linkage=0; visibility=0; MemPort=[13]; IO mode=ap_memory:ce=0
Port [ imag_arr16_3]:  wired=1; compound=1; hidden=0; nouse=0; global=1; static=0; extern=0; dir=0; type=1; mode=0x2000b20d730; pingpong=0; private_global=0; linkage=0; visibility=0; MemPort=[13]; IO mode=ap_memory:ce=0
Port [ imag_arr8_3]:  wired=1; compound=0; hidden=0; nouse=0; global=1; static=0; extern=0; dir=1; type=0; mode=0x2000b20d2b0; pingpong=0; private_global=0; linkage=0; visibility=0; IO mode=ap_vld:ce=0
Port [ imag_arr8_7]:  wired=1; compound=0; hidden=0; nouse=0; global=1; static=0; extern=0; dir=1; type=0; mode=0x2000b20d340; pingpong=0; private_global=0; linkage=0; visibility=0; IO mode=ap_vld:ce=0
Port [ imag_arr8_2]:  wired=1; compound=0; hidden=0; nouse=0; global=1; static=0; extern=0; dir=1; type=0; mode=0x2000b20d3d0; pingpong=0; private_global=0; linkage=0; visibility=0; IO mode=ap_vld:ce=0
Port [ imag_arr8_6]:  wired=1; compound=0; hidden=0; nouse=0; global=1; static=0; extern=0; dir=1; type=0; mode=0x2000b20dd60; pingpong=0; private_global=0; linkage=0; visibility=0; IO mode=ap_vld:ce=0
Port [ imag_arr8_1]:  wired=1; compound=0; hidden=0; nouse=0; global=1; static=0; extern=0; dir=1; type=0; mode=0x2000b20d460; pingpong=0; private_global=0; linkage=0; visibility=0; IO mode=ap_vld:ce=0
Port [ imag_arr8_5]:  wired=1; compound=0; hidden=0; nouse=0; global=1; static=0; extern=0; dir=1; type=0; mode=0x2000b20ddf0; pingpong=0; private_global=0; linkage=0; visibility=0; IO mode=ap_vld:ce=0
Port [ imag_arr8_0]:  wired=1; compound=0; hidden=0; nouse=0; global=1; static=0; extern=0; dir=1; type=0; mode=0x2000b20de80; pingpong=0; private_global=0; linkage=0; visibility=0; IO mode=ap_vld:ce=0
Port [ imag_arr8_4]:  wired=1; compound=0; hidden=0; nouse=0; global=1; static=0; extern=0; dir=1; type=0; mode=0x2000b20d610; pingpong=0; private_global=0; linkage=0; visibility=0; IO mode=ap_vld:ce=0
Port [ real_arr8_3]:  wired=1; compound=0; hidden=0; nouse=0; global=1; static=0; extern=0; dir=1; type=0; mode=0x2000b20e810; pingpong=0; private_global=0; linkage=0; visibility=0; IO mode=ap_vld:ce=0
Port [ real_arr8_7]:  wired=1; compound=0; hidden=0; nouse=0; global=1; static=0; extern=0; dir=1; type=0; mode=0x2000b20d6a0; pingpong=0; private_global=0; linkage=0; visibility=0; IO mode=ap_vld:ce=0
Port [ real_arr8_2]:  wired=1; compound=0; hidden=0; nouse=0; global=1; static=0; extern=0; dir=1; type=0; mode=0x2000b20df10; pingpong=0; private_global=0; linkage=0; visibility=0; IO mode=ap_vld:ce=0
Port [ real_arr8_6]:  wired=1; compound=0; hidden=0; nouse=0; global=1; static=0; extern=0; dir=1; type=0; mode=0x2000b20d850; pingpong=0; private_global=0; linkage=0; visibility=0; IO mode=ap_vld:ce=0
Port [ real_arr8_1]:  wired=1; compound=0; hidden=0; nouse=0; global=1; static=0; extern=0; dir=1; type=0; mode=0x2000b20e4b0; pingpong=0; private_global=0; linkage=0; visibility=0; IO mode=ap_vld:ce=0
Port [ real_arr8_5]:  wired=1; compound=0; hidden=0; nouse=0; global=1; static=0; extern=0; dir=1; type=0; mode=0x2000b20d8e0; pingpong=0; private_global=0; linkage=0; visibility=0; IO mode=ap_vld:ce=0
Port [ real_arr8_0]:  wired=1; compound=0; hidden=0; nouse=0; global=1; static=0; extern=0; dir=1; type=0; mode=0x2000b20dfa0; pingpong=0; private_global=0; linkage=0; visibility=0; IO mode=ap_vld:ce=0
Port [ real_arr8_4]:  wired=1; compound=0; hidden=0; nouse=0; global=1; static=0; extern=0; dir=1; type=0; mode=0x2000b20d970; pingpong=0; private_global=0; linkage=0; visibility=0; IO mode=ap_vld:ce=0
---------------- STG Properties END ------------------

---------------- Datapath Model BEGIN ----------------

<LifeTime>
<method=bitvector/>
stg_14              (br               ) [ 01111111111110]
p_s                 (phi              ) [ 00111111111110]
p_1                 (phi              ) [ 00111111111110]
exitcond            (icmp             ) [ 00111111111110]
stg_18              (br               ) [ 00000000000000]
tmp                 (specregionbegin  ) [ 00000000000000]
newIndex            (partselect       ) [ 00011000000000]
newIndex1           (zext             ) [ 00010000000000]
real_arr16_0_addr   (getelementptr    ) [ 00010000000000]
real_arr16_1_addr   (getelementptr    ) [ 00010000000000]
tmp_1               (trunc            ) [ 00111111110000]
stg_27              (switch           ) [ 00000000000000]
imag_arr16_0_addr   (getelementptr    ) [ 00010000000000]
imag_arr16_1_addr   (getelementptr    ) [ 00010000000000]
stg_32              (switch           ) [ 00000000000000]
empty_6             (specregionend    ) [ 00000000000000]
i_V_s               (or               ) [ 00000000000000]
exitcond_1          (icmp             ) [ 00111111111110]
stg_36              (br               ) [ 00000000000000]
tmp_2               (trunc            ) [ 00111111111000]
stg_38              (switch           ) [ 00000000000000]
stg_39              (switch           ) [ 00000000000000]
i_V_18_t            (or               ) [ 00111111111100]
stg_41              (switch           ) [ 00000000000000]
stg_42              (switch           ) [ 00000000000000]
i_V_210_t           (or               ) [ 00000000000000]
cond                (icmp             ) [ 00111111111110]
stg_45              (br               ) [ 00000000000000]
stg_46              (br               ) [ 00000000000000]
i_V_3               (add              ) [ 01111111111110]
j_V_3               (add              ) [ 01111111111110]
stg_49              (br               ) [ 01111111111110]
real_arr16_0_load   (load             ) [ 00111111100000]
real_arr16_1_load   (load             ) [ 00111111100000]
imag_arr16_0_load   (load             ) [ 00111111100000]
imag_arr16_1_load   (load             ) [ 00111111100000]
real_arr16_2_addr   (getelementptr    ) [ 00001000000000]
real_arr16_3_addr   (getelementptr    ) [ 00001000000000]
imag_arr16_2_addr   (getelementptr    ) [ 00001000000000]
imag_arr16_3_addr   (getelementptr    ) [ 00001000000000]
real_arr16_2_load   (load             ) [ 00111111110000]
real_arr16_3_load   (load             ) [ 00111111110000]
imag_arr16_2_load   (load             ) [ 00111111110000]
imag_arr16_3_load   (load             ) [ 00111111110000]
newIndex6           (or               ) [ 00000000000000]
newIndex7           (zext             ) [ 00000100000000]
real_arr16_0_addr_1 (getelementptr    ) [ 00000100000000]
real_arr16_1_addr_1 (getelementptr    ) [ 00000100000000]
imag_arr16_0_addr_1 (getelementptr    ) [ 00000100000000]
imag_arr16_1_addr_1 (getelementptr    ) [ 00000100000000]
real_arr16_0_load_1 (load             ) [ 00111111111000]
real_arr16_1_load_1 (load             ) [ 00111111111000]
imag_arr16_0_load_1 (load             ) [ 00111111111000]
imag_arr16_1_load_1 (load             ) [ 00111111111000]
real_arr16_2_addr_1 (getelementptr    ) [ 00100010000000]
real_arr16_3_addr_1 (getelementptr    ) [ 00100010000000]
imag_arr16_2_addr_1 (getelementptr    ) [ 00100010000000]
imag_arr16_3_addr_1 (getelementptr    ) [ 00100010000000]
real_arr16_2_load_1 (load             ) [ 00111101111100]
real_arr16_3_load_1 (load             ) [ 00111101111100]
imag_arr16_2_load_1 (load             ) [ 00111101111100]
imag_arr16_3_load_1 (load             ) [ 00111101111100]
empty               (speclooptripcount) [ 00000000000000]
stg_113             (specpipeline     ) [ 00000000000000]
tmp_4               (fadd             ) [ 00000100010000]
stg_115             (store            ) [ 00000000000000]
stg_116             (br               ) [ 00000000000000]
stg_117             (store            ) [ 00000000000000]
stg_118             (br               ) [ 00000000000000]
tmp_6               (fadd             ) [ 00000100010000]
stg_120             (store            ) [ 00000000000000]
stg_121             (br               ) [ 00000000000000]
stg_122             (store            ) [ 00000000000000]
stg_123             (br               ) [ 00000000000000]
stg_130             (store            ) [ 00000000000000]
stg_131             (br               ) [ 00000000000000]
stg_132             (store            ) [ 00000000000000]
stg_133             (br               ) [ 00000000000000]
tmp_4_1             (fadd             ) [ 00100000001000]
stg_135             (store            ) [ 00000000000000]
stg_136             (br               ) [ 00000000000000]
stg_137             (store            ) [ 00000000000000]
stg_138             (br               ) [ 00000000000000]
tmp_6_1             (fadd             ) [ 00100000001000]
stg_140             (store            ) [ 00000000000000]
stg_141             (br               ) [ 00000000000000]
stg_142             (store            ) [ 00000000000000]
stg_143             (br               ) [ 00000000000000]
stg_148             (store            ) [ 00000000000000]
stg_149             (br               ) [ 00000000000000]
stg_150             (store            ) [ 00000000000000]
stg_151             (br               ) [ 00000000000000]
tmp_4_2             (fadd             ) [ 00010000000100]
stg_153             (store            ) [ 00000000000000]
stg_154             (br               ) [ 00000000000000]
stg_155             (store            ) [ 00000000000000]
stg_156             (br               ) [ 00000000000000]
tmp_6_2             (fadd             ) [ 00010000000100]
stg_158             (store            ) [ 00000000000000]
stg_159             (br               ) [ 00000000000000]
stg_160             (store            ) [ 00000000000000]
stg_161             (br               ) [ 00000000000000]
stg_164             (store            ) [ 00000000000000]
stg_165             (br               ) [ 00000000000000]
stg_166             (store            ) [ 00000000000000]
stg_167             (br               ) [ 00000000000000]
tmp_4_3             (fadd             ) [ 00001000000010]
stg_169             (store            ) [ 00000000000000]
stg_170             (br               ) [ 00000000000000]
tmp_6_3             (fadd             ) [ 00001000000010]
stg_172             (store            ) [ 00000000000000]
stg_173             (br               ) [ 00000000000000]
stg_174             (store            ) [ 00000000000000]
stg_175             (br               ) [ 00000000000000]
stg_176             (store            ) [ 00000000000000]
stg_177             (br               ) [ 00000000000000]
stg_178             (ret              ) [ 00000000000000]
</LifeTime>

<model>

<comp_list>
<comp id="0" class="1000" name="real_arr16_0">
<pin_list>
<pin id="1" dir="1" index="0" bw="1" slack="0"/>
</pin_list>
<bind>
<StgValue><ssdm name="real_arr16_0"/><MemPortTyVec>1 3 </MemPortTyVec>
</StgValue>
</bind>
</comp>

<comp id="2" class="1000" name="real_arr16_1">
<pin_list>
<pin id="3" dir="1" index="0" bw="1" slack="0"/>
</pin_list>
<bind>
<StgValue><ssdm name="real_arr16_1"/><MemPortTyVec>1 3 </MemPortTyVec>
</StgValue>
</bind>
</comp>

<comp id="4" class="1000" name="imag_arr16_0">
<pin_list>
<pin id="5" dir="1" index="0" bw="1" slack="0"/>
</pin_list>
<bind>
<StgValue><ssdm name="imag_arr16_0"/><MemPortTyVec>1 3 </MemPortTyVec>
</StgValue>
</bind>
</comp>

<comp id="6" class="1000" name="imag_arr16_1">
<pin_list>
<pin id="7" dir="1" index="0" bw="1" slack="0"/>
</pin_list>
<bind>
<StgValue><ssdm name="imag_arr16_1"/><MemPortTyVec>1 3 </MemPortTyVec>
</StgValue>
</bind>
</comp>

<comp id="8" class="1000" name="real_arr16_2">
<pin_list>
<pin id="9" dir="1" index="0" bw="1" slack="0"/>
</pin_list>
<bind>
<StgValue><ssdm name="real_arr16_2"/><MemPortTyVec>1 3 </MemPortTyVec>
</StgValue>
</bind>
</comp>

<comp id="10" class="1000" name="real_arr16_3">
<pin_list>
<pin id="11" dir="1" index="0" bw="1" slack="0"/>
</pin_list>
<bind>
<StgValue><ssdm name="real_arr16_3"/><MemPortTyVec>1 3 </MemPortTyVec>
</StgValue>
</bind>
</comp>

<comp id="12" class="1000" name="imag_arr16_2">
<pin_list>
<pin id="13" dir="1" index="0" bw="1" slack="0"/>
</pin_list>
<bind>
<StgValue><ssdm name="imag_arr16_2"/><MemPortTyVec>1 3 </MemPortTyVec>
</StgValue>
</bind>
</comp>

<comp id="14" class="1000" name="imag_arr16_3">
<pin_list>
<pin id="15" dir="1" index="0" bw="1" slack="0"/>
</pin_list>
<bind>
<StgValue><ssdm name="imag_arr16_3"/><MemPortTyVec>1 3 </MemPortTyVec>
</StgValue>
</bind>
</comp>

<comp id="16" class="1000" name="imag_arr8_3">
<pin_list>
<pin id="17" dir="1" index="0" bw="1" slack="0"/>
</pin_list>
<bind>
<StgValue><ssdm name="imag_arr8_3"/></StgValue>
</bind>
</comp>

<comp id="18" class="1000" name="imag_arr8_7">
<pin_list>
<pin id="19" dir="1" index="0" bw="1" slack="0"/>
</pin_list>
<bind>
<StgValue><ssdm name="imag_arr8_7"/></StgValue>
</bind>
</comp>

<comp id="20" class="1000" name="imag_arr8_2">
<pin_list>
<pin id="21" dir="1" index="0" bw="1" slack="0"/>
</pin_list>
<bind>
<StgValue><ssdm name="imag_arr8_2"/></StgValue>
</bind>
</comp>

<comp id="22" class="1000" name="imag_arr8_6">
<pin_list>
<pin id="23" dir="1" index="0" bw="1" slack="0"/>
</pin_list>
<bind>
<StgValue><ssdm name="imag_arr8_6"/></StgValue>
</bind>
</comp>

<comp id="24" class="1000" name="imag_arr8_1">
<pin_list>
<pin id="25" dir="1" index="0" bw="1" slack="0"/>
</pin_list>
<bind>
<StgValue><ssdm name="imag_arr8_1"/></StgValue>
</bind>
</comp>

<comp id="26" class="1000" name="imag_arr8_5">
<pin_list>
<pin id="27" dir="1" index="0" bw="1" slack="0"/>
</pin_list>
<bind>
<StgValue><ssdm name="imag_arr8_5"/></StgValue>
</bind>
</comp>

<comp id="28" class="1000" name="imag_arr8_0">
<pin_list>
<pin id="29" dir="1" index="0" bw="1" slack="0"/>
</pin_list>
<bind>
<StgValue><ssdm name="imag_arr8_0"/></StgValue>
</bind>
</comp>

<comp id="30" class="1000" name="imag_arr8_4">
<pin_list>
<pin id="31" dir="1" index="0" bw="1" slack="0"/>
</pin_list>
<bind>
<StgValue><ssdm name="imag_arr8_4"/></StgValue>
</bind>
</comp>

<comp id="32" class="1000" name="real_arr8_3">
<pin_list>
<pin id="33" dir="1" index="0" bw="1" slack="0"/>
</pin_list>
<bind>
<StgValue><ssdm name="real_arr8_3"/></StgValue>
</bind>
</comp>

<comp id="34" class="1000" name="real_arr8_7">
<pin_list>
<pin id="35" dir="1" index="0" bw="1" slack="0"/>
</pin_list>
<bind>
<StgValue><ssdm name="real_arr8_7"/></StgValue>
</bind>
</comp>

<comp id="36" class="1000" name="real_arr8_2">
<pin_list>
<pin id="37" dir="1" index="0" bw="1" slack="0"/>
</pin_list>
<bind>
<StgValue><ssdm name="real_arr8_2"/></StgValue>
</bind>
</comp>

<comp id="38" class="1000" name="real_arr8_6">
<pin_list>
<pin id="39" dir="1" index="0" bw="1" slack="0"/>
</pin_list>
<bind>
<StgValue><ssdm name="real_arr8_6"/></StgValue>
</bind>
</comp>

<comp id="40" class="1000" name="real_arr8_1">
<pin_list>
<pin id="41" dir="1" index="0" bw="1" slack="0"/>
</pin_list>
<bind>
<StgValue><ssdm name="real_arr8_1"/></StgValue>
</bind>
</comp>

<comp id="42" class="1000" name="real_arr8_5">
<pin_list>
<pin id="43" dir="1" index="0" bw="1" slack="0"/>
</pin_list>
<bind>
<StgValue><ssdm name="real_arr8_5"/></StgValue>
</bind>
</comp>

<comp id="44" class="1000" name="real_arr8_0">
<pin_list>
<pin id="45" dir="1" index="0" bw="1" slack="0"/>
</pin_list>
<bind>
<StgValue><ssdm name="real_arr8_0"/></StgValue>
</bind>
</comp>

<comp id="46" class="1000" name="real_arr8_4">
<pin_list>
<pin id="47" dir="1" index="0" bw="1" slack="0"/>
</pin_list>
<bind>
<StgValue><ssdm name="real_arr8_4"/></StgValue>
</bind>
</comp>

<comp id="48" class="1001" name="const_48">
<pin_list>
<pin id="49" dir="1" index="0" bw="1" slack="1"/>
</pin_list>
<bind>
<StgValue><ssdm name=""/></StgValue>
</bind>
</comp>

<comp id="50" class="1001" name="const_50">
<pin_list>
<pin id="51" dir="1" index="0" bw="1" slack="0"/>
</pin_list>
<bind>
<StgValue><ssdm name=""/></StgValue>
</bind>
</comp>

<comp id="52" class="1001" name="const_52">
<pin_list>
<pin id="53" dir="1" index="0" bw="1" slack="2147483647"/>
</pin_list>
<bind>
<StgValue><ssdm name="_ssdm_op_SpecRegionBegin"/></StgValue>
</bind>
</comp>

<comp id="54" class="1001" name="const_54">
<pin_list>
<pin id="55" dir="1" index="0" bw="1" slack="2147483647"/>
</pin_list>
<bind>
<StgValue><ssdm name="p_str6"/></StgValue>
</bind>
</comp>

<comp id="56" class="1001" name="const_56">
<pin_list>
<pin id="57" dir="1" index="0" bw="1" slack="0"/>
</pin_list>
<bind>
<StgValue><ssdm name="_ssdm_op_PartSelect.i7.i9.i32.i32"/></StgValue>
</bind>
</comp>

<comp id="58" class="1001" name="const_58">
<pin_list>
<pin id="59" dir="1" index="0" bw="1" slack="0"/>
</pin_list>
<bind>
<StgValue><ssdm name=""/></StgValue>
</bind>
</comp>

<comp id="60" class="1001" name="const_60">
<pin_list>
<pin id="61" dir="1" index="0" bw="1" slack="0"/>
</pin_list>
<bind>
<StgValue><ssdm name=""/></StgValue>
</bind>
</comp>

<comp id="62" class="1001" name="const_62">
<pin_list>
<pin id="63" dir="1" index="0" bw="1" slack="0"/>
</pin_list>
<bind>
<StgValue><ssdm name=""/></StgValue>
</bind>
</comp>

<comp id="64" class="1001" name="const_64">
<pin_list>
<pin id="65" dir="1" index="0" bw="1" slack="2147483647"/>
</pin_list>
<bind>
<StgValue><ssdm name=""/></StgValue>
</bind>
</comp>

<comp id="66" class="1001" name="const_66">
<pin_list>
<pin id="67" dir="1" index="0" bw="1" slack="2147483647"/>
</pin_list>
<bind>
<StgValue><ssdm name=""/></StgValue>
</bind>
</comp>

<comp id="68" class="1001" name="const_68">
<pin_list>
<pin id="69" dir="1" index="0" bw="1" slack="2147483647"/>
</pin_list>
<bind>
<StgValue><ssdm name="_ssdm_op_SpecRegionEnd"/></StgValue>
</bind>
</comp>

<comp id="70" class="1001" name="const_70">
<pin_list>
<pin id="71" dir="1" index="0" bw="1" slack="0"/>
</pin_list>
<bind>
<StgValue><ssdm name=""/></StgValue>
</bind>
</comp>

<comp id="72" class="1001" name="const_72">
<pin_list>
<pin id="73" dir="1" index="0" bw="1" slack="2147483647"/>
</pin_list>
<bind>
<StgValue><ssdm name=""/></StgValue>
</bind>
</comp>

<comp id="74" class="1001" name="const_74">
<pin_list>
<pin id="75" dir="1" index="0" bw="1" slack="2147483647"/>
</pin_list>
<bind>
<StgValue><ssdm name=""/></StgValue>
</bind>
</comp>

<comp id="76" class="1001" name="const_76">
<pin_list>
<pin id="77" dir="1" index="0" bw="1" slack="0"/>
</pin_list>
<bind>
<StgValue><ssdm name=""/></StgValue>
</bind>
</comp>

<comp id="78" class="1001" name="const_78">
<pin_list>
<pin id="79" dir="1" index="0" bw="1" slack="2147483647"/>
</pin_list>
<bind>
<StgValue><ssdm name=""/></StgValue>
</bind>
</comp>

<comp id="80" class="1001" name="const_80">
<pin_list>
<pin id="81" dir="1" index="0" bw="1" slack="0"/>
</pin_list>
<bind>
<StgValue><ssdm name=""/></StgValue>
</bind>
</comp>

<comp id="82" class="1001" name="const_82">
<pin_list>
<pin id="83" dir="1" index="0" bw="1" slack="0"/>
</pin_list>
<bind>
<StgValue><ssdm name=""/></StgValue>
</bind>
</comp>

<comp id="84" class="1001" name="const_84">
<pin_list>
<pin id="85" dir="1" index="0" bw="1" slack="0"/>
</pin_list>
<bind>
<StgValue><ssdm name=""/></StgValue>
</bind>
</comp>

<comp id="86" class="1001" name="const_86">
<pin_list>
<pin id="87" dir="1" index="0" bw="1" slack="0"/>
</pin_list>
<bind>
<StgValue><ssdm name=""/></StgValue>
</bind>
</comp>

<comp id="88" class="1001" name="const_88">
<pin_list>
<pin id="89" dir="1" index="0" bw="1" slack="2147483647"/>
</pin_list>
<bind>
<StgValue><ssdm name="_ssdm_op_SpecLoopTripCount"/></StgValue>
</bind>
</comp>

<comp id="90" class="1001" name="const_90">
<pin_list>
<pin id="91" dir="1" index="0" bw="1" slack="2147483647"/>
</pin_list>
<bind>
<StgValue><ssdm name=""/></StgValue>
</bind>
</comp>

<comp id="92" class="1001" name="const_92">
<pin_list>
<pin id="93" dir="1" index="0" bw="1" slack="2147483647"/>
</pin_list>
<bind>
<StgValue><ssdm name="_ssdm_op_SpecPipeline"/></StgValue>
</bind>
</comp>

<comp id="94" class="1001" name="const_94">
<pin_list>
<pin id="95" dir="1" index="0" bw="1" slack="2147483647"/>
</pin_list>
<bind>
<StgValue><ssdm name=""/></StgValue>
</bind>
</comp>

<comp id="96" class="1001" name="const_96">
<pin_list>
<pin id="97" dir="1" index="0" bw="1" slack="2147483647"/>
</pin_list>
<bind>
<StgValue><ssdm name=""/></StgValue>
</bind>
</comp>

<comp id="98" class="1001" name="const_98">
<pin_list>
<pin id="99" dir="1" index="0" bw="1" slack="2147483647"/>
</pin_list>
<bind>
<StgValue><ssdm name="p_str1"/></StgValue>
</bind>
</comp>

<comp id="100" class="1004" name="real_arr16_0_addr_gep_fu_100">
<pin_list>
<pin id="101" dir="0" index="0" bw="32" slack="0"/>
<pin id="102" dir="0" index="1" bw="1" slack="0"/>
<pin id="103" dir="0" index="2" bw="7" slack="0"/>
<pin id="104" dir="1" index="3" bw="2" slack="0"/>
</pin_list>
<bind>
<opcode="getelementptr(29) " fcode="getelementptr"/>
<opset="real_arr16_0_addr/2 "/>
</bind>
</comp>

<comp id="107" class="1004" name="grp_access_fu_107">
<pin_list>
<pin id="108" dir="0" index="0" bw="2" slack="0"/>
<pin id="109" dir="0" index="1" bw="32" slack="2147483647"/>
<pin id="110" dir="1" index="2" bw="32" slack="1"/>
</pin_list>
<bind>
<opcode="load(27) " fcode="load"/>
<opset="real_arr16_0_load/2 real_arr16_0_load_1/4 "/>
</bind>
</comp>

<comp id="112" class="1004" name="real_arr16_1_addr_gep_fu_112">
<pin_list>
<pin id="113" dir="0" index="0" bw="32" slack="0"/>
<pin id="114" dir="0" index="1" bw="1" slack="0"/>
<pin id="115" dir="0" index="2" bw="7" slack="0"/>
<pin id="116" dir="1" index="3" bw="2" slack="0"/>
</pin_list>
<bind>
<opcode="getelementptr(29) " fcode="getelementptr"/>
<opset="real_arr16_1_addr/2 "/>
</bind>
</comp>

<comp id="119" class="1004" name="grp_access_fu_119">
<pin_list>
<pin id="120" dir="0" index="0" bw="2" slack="0"/>
<pin id="121" dir="0" index="1" bw="32" slack="2147483647"/>
<pin id="122" dir="1" index="2" bw="32" slack="1"/>
</pin_list>
<bind>
<opcode="load(27) " fcode="load"/>
<opset="real_arr16_1_load/2 real_arr16_1_load_1/4 "/>
</bind>
</comp>

<comp id="124" class="1004" name="imag_arr16_0_addr_gep_fu_124">
<pin_list>
<pin id="125" dir="0" index="0" bw="32" slack="0"/>
<pin id="126" dir="0" index="1" bw="1" slack="0"/>
<pin id="127" dir="0" index="2" bw="7" slack="0"/>
<pin id="128" dir="1" index="3" bw="2" slack="0"/>
</pin_list>
<bind>
<opcode="getelementptr(29) " fcode="getelementptr"/>
<opset="imag_arr16_0_addr/2 "/>
</bind>
</comp>

<comp id="131" class="1004" name="grp_access_fu_131">
<pin_list>
<pin id="132" dir="0" index="0" bw="2" slack="0"/>
<pin id="133" dir="0" index="1" bw="32" slack="2147483647"/>
<pin id="134" dir="1" index="2" bw="32" slack="1"/>
</pin_list>
<bind>
<opcode="load(27) " fcode="load"/>
<opset="imag_arr16_0_load/2 imag_arr16_0_load_1/4 "/>
</bind>
</comp>

<comp id="136" class="1004" name="imag_arr16_1_addr_gep_fu_136">
<pin_list>
<pin id="137" dir="0" index="0" bw="32" slack="0"/>
<pin id="138" dir="0" index="1" bw="1" slack="0"/>
<pin id="139" dir="0" index="2" bw="7" slack="0"/>
<pin id="140" dir="1" index="3" bw="2" slack="0"/>
</pin_list>
<bind>
<opcode="getelementptr(29) " fcode="getelementptr"/>
<opset="imag_arr16_1_addr/2 "/>
</bind>
</comp>

<comp id="143" class="1004" name="grp_access_fu_143">
<pin_list>
<pin id="144" dir="0" index="0" bw="2" slack="0"/>
<pin id="145" dir="0" index="1" bw="32" slack="2147483647"/>
<pin id="146" dir="1" index="2" bw="32" slack="1"/>
</pin_list>
<bind>
<opcode="load(27) " fcode="load"/>
<opset="imag_arr16_1_load/2 imag_arr16_1_load_1/4 "/>
</bind>
</comp>

<comp id="148" class="1004" name="real_arr16_2_addr_gep_fu_148">
<pin_list>
<pin id="149" dir="0" index="0" bw="32" slack="0"/>
<pin id="150" dir="0" index="1" bw="1" slack="0"/>
<pin id="151" dir="0" index="2" bw="7" slack="1"/>
<pin id="152" dir="1" index="3" bw="2" slack="0"/>
</pin_list>
<bind>
<opcode="getelementptr(29) " fcode="getelementptr"/>
<opset="real_arr16_2_addr/3 "/>
</bind>
</comp>

<comp id="155" class="1004" name="grp_access_fu_155">
<pin_list>
<pin id="156" dir="0" index="0" bw="2" slack="0"/>
<pin id="157" dir="0" index="1" bw="32" slack="2147483647"/>
<pin id="158" dir="1" index="2" bw="32" slack="1"/>
</pin_list>
<bind>
<opcode="load(27) " fcode="load"/>
<opset="real_arr16_2_load/3 real_arr16_2_load_1/5 "/>
</bind>
</comp>

<comp id="160" class="1004" name="real_arr16_3_addr_gep_fu_160">
<pin_list>
<pin id="161" dir="0" index="0" bw="32" slack="0"/>
<pin id="162" dir="0" index="1" bw="1" slack="0"/>
<pin id="163" dir="0" index="2" bw="7" slack="1"/>
<pin id="164" dir="1" index="3" bw="2" slack="0"/>
</pin_list>
<bind>
<opcode="getelementptr(29) " fcode="getelementptr"/>
<opset="real_arr16_3_addr/3 "/>
</bind>
</comp>

<comp id="167" class="1004" name="grp_access_fu_167">
<pin_list>
<pin id="168" dir="0" index="0" bw="2" slack="0"/>
<pin id="169" dir="0" index="1" bw="32" slack="2147483647"/>
<pin id="170" dir="1" index="2" bw="32" slack="1"/>
</pin_list>
<bind>
<opcode="load(27) " fcode="load"/>
<opset="real_arr16_3_load/3 real_arr16_3_load_1/5 "/>
</bind>
</comp>

<comp id="172" class="1004" name="imag_arr16_2_addr_gep_fu_172">
<pin_list>
<pin id="173" dir="0" index="0" bw="32" slack="0"/>
<pin id="174" dir="0" index="1" bw="1" slack="0"/>
<pin id="175" dir="0" index="2" bw="7" slack="1"/>
<pin id="176" dir="1" index="3" bw="2" slack="0"/>
</pin_list>
<bind>
<opcode="getelementptr(29) " fcode="getelementptr"/>
<opset="imag_arr16_2_addr/3 "/>
</bind>
</comp>

<comp id="179" class="1004" name="grp_access_fu_179">
<pin_list>
<pin id="180" dir="0" index="0" bw="2" slack="0"/>
<pin id="181" dir="0" index="1" bw="32" slack="2147483647"/>
<pin id="182" dir="1" index="2" bw="32" slack="1"/>
</pin_list>
<bind>
<opcode="load(27) " fcode="load"/>
<opset="imag_arr16_2_load/3 imag_arr16_2_load_1/5 "/>
</bind>
</comp>

<comp id="184" class="1004" name="imag_arr16_3_addr_gep_fu_184">
<pin_list>
<pin id="185" dir="0" index="0" bw="32" slack="0"/>
<pin id="186" dir="0" index="1" bw="1" slack="0"/>
<pin id="187" dir="0" index="2" bw="7" slack="1"/>
<pin id="188" dir="1" index="3" bw="2" slack="0"/>
</pin_list>
<bind>
<opcode="getelementptr(29) " fcode="getelementptr"/>
<opset="imag_arr16_3_addr/3 "/>
</bind>
</comp>

<comp id="191" class="1004" name="grp_access_fu_191">
<pin_list>
<pin id="192" dir="0" index="0" bw="2" slack="0"/>
<pin id="193" dir="0" index="1" bw="32" slack="2147483647"/>
<pin id="194" dir="1" index="2" bw="32" slack="1"/>
</pin_list>
<bind>
<opcode="load(27) " fcode="load"/>
<opset="imag_arr16_3_load/3 imag_arr16_3_load_1/5 "/>
</bind>
</comp>

<comp id="196" class="1004" name="real_arr16_0_addr_1_gep_fu_196">
<pin_list>
<pin id="197" dir="0" index="0" bw="32" slack="0"/>
<pin id="198" dir="0" index="1" bw="1" slack="0"/>
<pin id="199" dir="0" index="2" bw="7" slack="0"/>
<pin id="200" dir="1" index="3" bw="2" slack="0"/>
</pin_list>
<bind>
<opcode="getelementptr(29) " fcode="getelementptr"/>
<opset="real_arr16_0_addr_1/4 "/>
</bind>
</comp>

<comp id="204" class="1004" name="real_arr16_1_addr_1_gep_fu_204">
<pin_list>
<pin id="205" dir="0" index="0" bw="32" slack="0"/>
<pin id="206" dir="0" index="1" bw="1" slack="0"/>
<pin id="207" dir="0" index="2" bw="7" slack="0"/>
<pin id="208" dir="1" index="3" bw="2" slack="0"/>
</pin_list>
<bind>
<opcode="getelementptr(29) " fcode="getelementptr"/>
<opset="real_arr16_1_addr_1/4 "/>
</bind>
</comp>

<comp id="212" class="1004" name="imag_arr16_0_addr_1_gep_fu_212">
<pin_list>
<pin id="213" dir="0" index="0" bw="32" slack="0"/>
<pin id="214" dir="0" index="1" bw="1" slack="0"/>
<pin id="215" dir="0" index="2" bw="7" slack="0"/>
<pin id="216" dir="1" index="3" bw="2" slack="0"/>
</pin_list>
<bind>
<opcode="getelementptr(29) " fcode="getelementptr"/>
<opset="imag_arr16_0_addr_1/4 "/>
</bind>
</comp>

<comp id="220" class="1004" name="imag_arr16_1_addr_1_gep_fu_220">
<pin_list>
<pin id="221" dir="0" index="0" bw="32" slack="0"/>
<pin id="222" dir="0" index="1" bw="1" slack="0"/>
<pin id="223" dir="0" index="2" bw="7" slack="0"/>
<pin id="224" dir="1" index="3" bw="2" slack="0"/>
</pin_list>
<bind>
<opcode="getelementptr(29) " fcode="getelementptr"/>
<opset="imag_arr16_1_addr_1/4 "/>
</bind>
</comp>

<comp id="228" class="1004" name="real_arr16_2_addr_1_gep_fu_228">
<pin_list>
<pin id="229" dir="0" index="0" bw="32" slack="0"/>
<pin id="230" dir="0" index="1" bw="1" slack="0"/>
<pin id="231" dir="0" index="2" bw="7" slack="1"/>
<pin id="232" dir="1" index="3" bw="2" slack="0"/>
</pin_list>
<bind>
<opcode="getelementptr(29) " fcode="getelementptr"/>
<opset="real_arr16_2_addr_1/5 "/>
</bind>
</comp>

<comp id="236" class="1004" name="real_arr16_3_addr_1_gep_fu_236">
<pin_list>
<pin id="237" dir="0" index="0" bw="32" slack="0"/>
<pin id="238" dir="0" index="1" bw="1" slack="0"/>
<pin id="239" dir="0" index="2" bw="7" slack="1"/>
<pin id="240" dir="1" index="3" bw="2" slack="0"/>
</pin_list>
<bind>
<opcode="getelementptr(29) " fcode="getelementptr"/>
<opset="real_arr16_3_addr_1/5 "/>
</bind>
</comp>

<comp id="244" class="1004" name="imag_arr16_2_addr_1_gep_fu_244">
<pin_list>
<pin id="245" dir="0" index="0" bw="32" slack="0"/>
<pin id="246" dir="0" index="1" bw="1" slack="0"/>
<pin id="247" dir="0" index="2" bw="7" slack="1"/>
<pin id="248" dir="1" index="3" bw="2" slack="0"/>
</pin_list>
<bind>
<opcode="getelementptr(29) " fcode="getelementptr"/>
<opset="imag_arr16_2_addr_1/5 "/>
</bind>
</comp>

<comp id="252" class="1004" name="imag_arr16_3_addr_1_gep_fu_252">
<pin_list>
<pin id="253" dir="0" index="0" bw="32" slack="0"/>
<pin id="254" dir="0" index="1" bw="1" slack="0"/>
<pin id="255" dir="0" index="2" bw="7" slack="1"/>
<pin id="256" dir="1" index="3" bw="2" slack="0"/>
</pin_list>
<bind>
<opcode="getelementptr(29) " fcode="getelementptr"/>
<opset="imag_arr16_3_addr_1/5 "/>
</bind>
</comp>

<comp id="260" class="1005" name="p_s_reg_260">
<pin_list>
<pin id="261" dir="0" index="0" bw="9" slack="1"/>
<pin id="262" dir="1" index="1" bw="9" slack="1"/>
</pin_list>
<bind>
<opset="p_s (phireg) "/>
</bind>
</comp>

<comp id="264" class="1004" name="p_s_phi_fu_264">
<pin_list>
<pin id="265" dir="0" index="0" bw="1" slack="1"/>
<pin id="266" dir="0" index="1" bw="0" slack="2147483647"/>
<pin id="267" dir="0" index="2" bw="9" slack="0"/>
<pin id="268" dir="0" index="3" bw="0" slack="2147483647"/>
<pin id="269" dir="1" index="4" bw="9" slack="0"/>
</pin_list>
<bind>
<opcode="phi(47) " fcode="phi"/>
<opset="p_s/2 "/>
</bind>
</comp>

<comp id="271" class="1005" name="p_1_reg_271">
<pin_list>
<pin id="272" dir="0" index="0" bw="9" slack="1"/>
<pin id="273" dir="1" index="1" bw="9" slack="1"/>
</pin_list>
<bind>
<opset="p_1 (phireg) "/>
</bind>
</comp>

<comp id="275" class="1004" name="p_1_phi_fu_275">
<pin_list>
<pin id="276" dir="0" index="0" bw="1" slack="1"/>
<pin id="277" dir="0" index="1" bw="0" slack="2147483647"/>
<pin id="278" dir="0" index="2" bw="9" slack="0"/>
<pin id="279" dir="0" index="3" bw="0" slack="2147483647"/>
<pin id="280" dir="1" index="4" bw="9" slack="0"/>
</pin_list>
<bind>
<opcode="phi(47) " fcode="phi"/>
<opset="p_1/2 "/>
</bind>
</comp>

<comp id="282" class="1004" name="grp_fu_282">
<pin_list>
<pin id="283" dir="0" index="0" bw="32" slack="1"/>
<pin id="284" dir="0" index="1" bw="32" slack="1"/>
<pin id="285" dir="1" index="2" bw="32" slack="0"/>
</pin_list>
<bind>
<opcode="fadd(9) " fcode="fadd"/>
<opset="tmp_4/4 tmp_4_1/5 tmp_4_2/6 tmp_4_3/7 "/>
</bind>
</comp>

<comp id="286" class="1004" name="grp_fu_286">
<pin_list>
<pin id="287" dir="0" index="0" bw="32" slack="1"/>
<pin id="288" dir="0" index="1" bw="32" slack="1"/>
<pin id="289" dir="1" index="2" bw="32" slack="0"/>
</pin_list>
<bind>
<opcode="fadd(9) " fcode="fadd"/>
<opset="tmp_6/4 tmp_6_1/5 tmp_6_2/6 tmp_6_3/7 "/>
</bind>
</comp>

<comp id="290" class="1005" name="reg_290">
<pin_list>
<pin id="291" dir="0" index="0" bw="32" slack="1"/>
<pin id="292" dir="1" index="1" bw="32" slack="1"/>
</pin_list>
<bind>
<opset="tmp_4 tmp_4_1 tmp_4_2 tmp_4_3 "/>
</bind>
</comp>

<comp id="294" class="1005" name="reg_294">
<pin_list>
<pin id="295" dir="0" index="0" bw="32" slack="1"/>
<pin id="296" dir="1" index="1" bw="32" slack="1"/>
</pin_list>
<bind>
<opset="tmp_6 tmp_6_1 tmp_6_2 tmp_6_3 "/>
</bind>
</comp>

<comp id="298" class="1004" name="grp_store_fu_298">
<pin_list>
<pin id="299" dir="0" index="0" bw="32" slack="1"/>
<pin id="300" dir="0" index="1" bw="32" slack="0"/>
<pin id="301" dir="1" index="2" bw="0" slack="2147483647"/>
</pin_list>
<bind>
<opcode="store(28) " fcode="store"/>
<opset="stg_130/9 stg_148/10 stg_164/11 stg_174/12 "/>
</bind>
</comp>

<comp id="304" class="1004" name="grp_store_fu_304">
<pin_list>
<pin id="305" dir="0" index="0" bw="32" slack="1"/>
<pin id="306" dir="0" index="1" bw="32" slack="0"/>
<pin id="307" dir="1" index="2" bw="0" slack="2147483647"/>
</pin_list>
<bind>
<opcode="store(28) " fcode="store"/>
<opset="stg_132/9 stg_150/10 stg_166/11 stg_176/12 "/>
</bind>
</comp>

<comp id="310" class="1004" name="exitcond_fu_310">
<pin_list>
<pin id="311" dir="0" index="0" bw="9" slack="0"/>
<pin id="312" dir="0" index="1" bw="5" slack="0"/>
<pin id="313" dir="1" index="2" bw="1" slack="1"/>
</pin_list>
<bind>
<opcode="icmp(45) " fcode="icmp"/>
<opset="exitcond/2 "/>
</bind>
</comp>

<comp id="316" class="1004" name="newIndex_fu_316">
<pin_list>
<pin id="317" dir="0" index="0" bw="7" slack="0"/>
<pin id="318" dir="0" index="1" bw="9" slack="0"/>
<pin id="319" dir="0" index="2" bw="3" slack="0"/>
<pin id="320" dir="0" index="3" bw="5" slack="0"/>
<pin id="321" dir="1" index="4" bw="7" slack="0"/>
</pin_list>
<bind>
<opcode="partselect(1002) " fcode="partselect"/>
<opset="newIndex/2 "/>
</bind>
</comp>

<comp id="326" class="1004" name="newIndex1_fu_326">
<pin_list>
<pin id="327" dir="0" index="0" bw="7" slack="0"/>
<pin id="328" dir="1" index="1" bw="64" slack="0"/>
</pin_list>
<bind>
<opcode="zext(34) " fcode="zext"/>
<opset="newIndex1/2 "/>
</bind>
</comp>

<comp id="334" class="1004" name="tmp_1_fu_334">
<pin_list>
<pin id="335" dir="0" index="0" bw="9" slack="0"/>
<pin id="336" dir="1" index="1" bw="3" slack="0"/>
</pin_list>
<bind>
<opcode="trunc(33) " fcode="trunc"/>
<opset="tmp_1/2 "/>
</bind>
</comp>

<comp id="338" class="1004" name="i_V_s_fu_338">
<pin_list>
<pin id="339" dir="0" index="0" bw="9" slack="0"/>
<pin id="340" dir="0" index="1" bw="1" slack="0"/>
<pin id="341" dir="1" index="2" bw="9" slack="0"/>
</pin_list>
<bind>
<opcode="or(24) " fcode="or"/>
<opset="i_V_s/2 "/>
</bind>
</comp>

<comp id="344" class="1004" name="exitcond_1_fu_344">
<pin_list>
<pin id="345" dir="0" index="0" bw="9" slack="0"/>
<pin id="346" dir="0" index="1" bw="5" slack="0"/>
<pin id="347" dir="1" index="2" bw="1" slack="1"/>
</pin_list>
<bind>
<opcode="icmp(45) " fcode="icmp"/>
<opset="exitcond_1/2 "/>
</bind>
</comp>

<comp id="350" class="1004" name="tmp_2_fu_350">
<pin_list>
<pin id="351" dir="0" index="0" bw="9" slack="0"/>
<pin id="352" dir="1" index="1" bw="3" slack="7"/>
</pin_list>
<bind>
<opcode="trunc(33) " fcode="trunc"/>
<opset="tmp_2/2 "/>
</bind>
</comp>

<comp id="354" class="1004" name="i_V_18_t_fu_354">
<pin_list>
<pin id="355" dir="0" index="0" bw="3" slack="0"/>
<pin id="356" dir="0" index="1" bw="3" slack="0"/>
<pin id="357" dir="1" index="2" bw="3" slack="8"/>
</pin_list>
<bind>
<opcode="or(24) " fcode="or"/>
<opset="i_V_18_t/2 "/>
</bind>
</comp>

<comp id="360" class="1004" name="i_V_210_t_fu_360">
<pin_list>
<pin id="361" dir="0" index="0" bw="3" slack="0"/>
<pin id="362" dir="0" index="1" bw="3" slack="0"/>
<pin id="363" dir="1" index="2" bw="3" slack="0"/>
</pin_list>
<bind>
<opcode="or(24) " fcode="or"/>
<opset="i_V_210_t/2 "/>
</bind>
</comp>

<comp id="366" class="1004" name="cond_fu_366">
<pin_list>
<pin id="367" dir="0" index="0" bw="3" slack="0"/>
<pin id="368" dir="0" index="1" bw="3" slack="0"/>
<pin id="369" dir="1" index="2" bw="1" slack="9"/>
</pin_list>
<bind>
<opcode="icmp(45) " fcode="icmp"/>
<opset="cond/2 "/>
</bind>
</comp>

<comp id="372" class="1004" name="i_V_3_fu_372">
<pin_list>
<pin id="373" dir="0" index="0" bw="9" slack="0"/>
<pin id="374" dir="0" index="1" bw="4" slack="0"/>
<pin id="375" dir="1" index="2" bw="9" slack="0"/>
</pin_list>
<bind>
<opcode="add(8) " fcode="add"/>
<opset="i_V_3/2 "/>
</bind>
</comp>

<comp id="378" class="1004" name="j_V_3_fu_378">
<pin_list>
<pin id="379" dir="0" index="0" bw="9" slack="0"/>
<pin id="380" dir="0" index="1" bw="5" slack="0"/>
<pin id="381" dir="1" index="2" bw="9" slack="0"/>
</pin_list>
<bind>
<opcode="add(8) " fcode="add"/>
<opset="j_V_3/2 "/>
</bind>
</comp>

<comp id="384" class="1004" name="newIndex6_fu_384">
<pin_list>
<pin id="385" dir="0" index="0" bw="7" slack="2"/>
<pin id="386" dir="0" index="1" bw="1" slack="0"/>
<pin id="387" dir="1" index="2" bw="7" slack="0"/>
</pin_list>
<bind>
<opcode="or(24) " fcode="or"/>
<opset="newIndex6/4 "/>
</bind>
</comp>

<comp id="389" class="1004" name="newIndex7_fu_389">
<pin_list>
<pin id="390" dir="0" index="0" bw="7" slack="0"/>
<pin id="391" dir="1" index="1" bw="64" slack="0"/>
</pin_list>
<bind>
<opcode="zext(34) " fcode="zext"/>
<opset="newIndex7/4 "/>
</bind>
</comp>

<comp id="397" class="1004" name="stg_115_store_fu_397">
<pin_list>
<pin id="398" dir="0" index="0" bw="32" slack="0"/>
<pin id="399" dir="0" index="1" bw="32" slack="0"/>
<pin id="400" dir="1" index="2" bw="0" slack="2147483647"/>
</pin_list>
<bind>
<opcode="store(28) " fcode="store"/>
<opset="stg_115/8 "/>
</bind>
</comp>

<comp id="403" class="1004" name="stg_117_store_fu_403">
<pin_list>
<pin id="404" dir="0" index="0" bw="32" slack="0"/>
<pin id="405" dir="0" index="1" bw="32" slack="0"/>
<pin id="406" dir="1" index="2" bw="0" slack="2147483647"/>
</pin_list>
<bind>
<opcode="store(28) " fcode="store"/>
<opset="stg_117/8 "/>
</bind>
</comp>

<comp id="409" class="1004" name="stg_120_store_fu_409">
<pin_list>
<pin id="410" dir="0" index="0" bw="32" slack="0"/>
<pin id="411" dir="0" index="1" bw="32" slack="0"/>
<pin id="412" dir="1" index="2" bw="0" slack="2147483647"/>
</pin_list>
<bind>
<opcode="store(28) " fcode="store"/>
<opset="stg_120/8 "/>
</bind>
</comp>

<comp id="415" class="1004" name="stg_122_store_fu_415">
<pin_list>
<pin id="416" dir="0" index="0" bw="32" slack="0"/>
<pin id="417" dir="0" index="1" bw="32" slack="0"/>
<pin id="418" dir="1" index="2" bw="0" slack="2147483647"/>
</pin_list>
<bind>
<opcode="store(28) " fcode="store"/>
<opset="stg_122/8 "/>
</bind>
</comp>

<comp id="421" class="1004" name="stg_135_store_fu_421">
<pin_list>
<pin id="422" dir="0" index="0" bw="32" slack="0"/>
<pin id="423" dir="0" index="1" bw="32" slack="0"/>
<pin id="424" dir="1" index="2" bw="0" slack="2147483647"/>
</pin_list>
<bind>
<opcode="store(28) " fcode="store"/>
<opset="stg_135/9 "/>
</bind>
</comp>

<comp id="427" class="1004" name="stg_137_store_fu_427">
<pin_list>
<pin id="428" dir="0" index="0" bw="32" slack="0"/>
<pin id="429" dir="0" index="1" bw="32" slack="0"/>
<pin id="430" dir="1" index="2" bw="0" slack="2147483647"/>
</pin_list>
<bind>
<opcode="store(28) " fcode="store"/>
<opset="stg_137/9 "/>
</bind>
</comp>

<comp id="433" class="1004" name="stg_140_store_fu_433">
<pin_list>
<pin id="434" dir="0" index="0" bw="32" slack="0"/>
<pin id="435" dir="0" index="1" bw="32" slack="0"/>
<pin id="436" dir="1" index="2" bw="0" slack="2147483647"/>
</pin_list>
<bind>
<opcode="store(28) " fcode="store"/>
<opset="stg_140/9 "/>
</bind>
</comp>

<comp id="439" class="1004" name="stg_142_store_fu_439">
<pin_list>
<pin id="440" dir="0" index="0" bw="32" slack="0"/>
<pin id="441" dir="0" index="1" bw="32" slack="0"/>
<pin id="442" dir="1" index="2" bw="0" slack="2147483647"/>
</pin_list>
<bind>
<opcode="store(28) " fcode="store"/>
<opset="stg_142/9 "/>
</bind>
</comp>

<comp id="445" class="1004" name="stg_153_store_fu_445">
<pin_list>
<pin id="446" dir="0" index="0" bw="32" slack="0"/>
<pin id="447" dir="0" index="1" bw="32" slack="0"/>
<pin id="448" dir="1" index="2" bw="0" slack="2147483647"/>
</pin_list>
<bind>
<opcode="store(28) " fcode="store"/>
<opset="stg_153/10 "/>
</bind>
</comp>

<comp id="451" class="1004" name="stg_155_store_fu_451">
<pin_list>
<pin id="452" dir="0" index="0" bw="32" slack="0"/>
<pin id="453" dir="0" index="1" bw="32" slack="0"/>
<pin id="454" dir="1" index="2" bw="0" slack="2147483647"/>
</pin_list>
<bind>
<opcode="store(28) " fcode="store"/>
<opset="stg_155/10 "/>
</bind>
</comp>

<comp id="457" class="1004" name="stg_158_store_fu_457">
<pin_list>
<pin id="458" dir="0" index="0" bw="32" slack="0"/>
<pin id="459" dir="0" index="1" bw="32" slack="0"/>
<pin id="460" dir="1" index="2" bw="0" slack="2147483647"/>
</pin_list>
<bind>
<opcode="store(28) " fcode="store"/>
<opset="stg_158/10 "/>
</bind>
</comp>

<comp id="463" class="1004" name="stg_160_store_fu_463">
<pin_list>
<pin id="464" dir="0" index="0" bw="32" slack="0"/>
<pin id="465" dir="0" index="1" bw="32" slack="0"/>
<pin id="466" dir="1" index="2" bw="0" slack="2147483647"/>
</pin_list>
<bind>
<opcode="store(28) " fcode="store"/>
<opset="stg_160/10 "/>
</bind>
</comp>

<comp id="469" class="1004" name="stg_169_store_fu_469">
<pin_list>
<pin id="470" dir="0" index="0" bw="32" slack="0"/>
<pin id="471" dir="0" index="1" bw="32" slack="0"/>
<pin id="472" dir="1" index="2" bw="0" slack="2147483647"/>
</pin_list>
<bind>
<opcode="store(28) " fcode="store"/>
<opset="stg_169/11 "/>
</bind>
</comp>

<comp id="475" class="1004" name="stg_172_store_fu_475">
<pin_list>
<pin id="476" dir="0" index="0" bw="32" slack="0"/>
<pin id="477" dir="0" index="1" bw="32" slack="0"/>
<pin id="478" dir="1" index="2" bw="0" slack="2147483647"/>
</pin_list>
<bind>
<opcode="store(28) " fcode="store"/>
<opset="stg_172/11 "/>
</bind>
</comp>

<comp id="481" class="1005" name="exitcond_reg_481">
<pin_list>
<pin id="482" dir="0" index="0" bw="1" slack="1"/>
<pin id="483" dir="1" index="1" bw="1" slack="2147483647"/>
</pin_list>
<bind>
<opset="exitcond "/>
</bind>
</comp>

<comp id="485" class="1005" name="newIndex_reg_485">
<pin_list>
<pin id="486" dir="0" index="0" bw="7" slack="2"/>
<pin id="487" dir="1" index="1" bw="7" slack="2"/>
</pin_list>
<bind>
<opset="newIndex "/>
</bind>
</comp>

<comp id="490" class="1005" name="newIndex1_reg_490">
<pin_list>
<pin id="491" dir="0" index="0" bw="64" slack="1"/>
<pin id="492" dir="1" index="1" bw="64" slack="1"/>
</pin_list>
<bind>
<opset="newIndex1 "/>
</bind>
</comp>

<comp id="498" class="1005" name="real_arr16_0_addr_reg_498">
<pin_list>
<pin id="499" dir="0" index="0" bw="2" slack="1"/>
<pin id="500" dir="1" index="1" bw="2" slack="1"/>
</pin_list>
<bind>
<opset="real_arr16_0_addr "/>
</bind>
</comp>

<comp id="503" class="1005" name="real_arr16_1_addr_reg_503">
<pin_list>
<pin id="504" dir="0" index="0" bw="2" slack="1"/>
<pin id="505" dir="1" index="1" bw="2" slack="1"/>
</pin_list>
<bind>
<opset="real_arr16_1_addr "/>
</bind>
</comp>

<comp id="508" class="1005" name="tmp_1_reg_508">
<pin_list>
<pin id="509" dir="0" index="0" bw="3" slack="6"/>
<pin id="510" dir="1" index="1" bw="3" slack="2147483647"/>
</pin_list>
<bind>
<opset="tmp_1 "/>
</bind>
</comp>

<comp id="512" class="1005" name="imag_arr16_0_addr_reg_512">
<pin_list>
<pin id="513" dir="0" index="0" bw="2" slack="1"/>
<pin id="514" dir="1" index="1" bw="2" slack="1"/>
</pin_list>
<bind>
<opset="imag_arr16_0_addr "/>
</bind>
</comp>

<comp id="517" class="1005" name="imag_arr16_1_addr_reg_517">
<pin_list>
<pin id="518" dir="0" index="0" bw="2" slack="1"/>
<pin id="519" dir="1" index="1" bw="2" slack="1"/>
</pin_list>
<bind>
<opset="imag_arr16_1_addr "/>
</bind>
</comp>

<comp id="522" class="1005" name="exitcond_1_reg_522">
<pin_list>
<pin id="523" dir="0" index="0" bw="1" slack="1"/>
<pin id="524" dir="1" index="1" bw="1" slack="2147483647"/>
</pin_list>
<bind>
<opset="exitcond_1 "/>
</bind>
</comp>

<comp id="526" class="1005" name="tmp_2_reg_526">
<pin_list>
<pin id="527" dir="0" index="0" bw="3" slack="7"/>
<pin id="528" dir="1" index="1" bw="3" slack="2147483647"/>
</pin_list>
<bind>
<opset="tmp_2 "/>
</bind>
</comp>

<comp id="530" class="1005" name="i_V_18_t_reg_530">
<pin_list>
<pin id="531" dir="0" index="0" bw="3" slack="8"/>
<pin id="532" dir="1" index="1" bw="3" slack="2147483647"/>
</pin_list>
<bind>
<opset="i_V_18_t "/>
</bind>
</comp>

<comp id="534" class="1005" name="cond_reg_534">
<pin_list>
<pin id="535" dir="0" index="0" bw="1" slack="9"/>
<pin id="536" dir="1" index="1" bw="1" slack="2147483647"/>
</pin_list>
<bind>
<opset="cond "/>
</bind>
</comp>

<comp id="538" class="1005" name="i_V_3_reg_538">
<pin_list>
<pin id="539" dir="0" index="0" bw="9" slack="0"/>
<pin id="540" dir="1" index="1" bw="9" slack="0"/>
</pin_list>
<bind>
<opset="i_V_3 "/>
</bind>
</comp>

<comp id="543" class="1005" name="j_V_3_reg_543">
<pin_list>
<pin id="544" dir="0" index="0" bw="9" slack="0"/>
<pin id="545" dir="1" index="1" bw="9" slack="0"/>
</pin_list>
<bind>
<opset="j_V_3 "/>
</bind>
</comp>

<comp id="548" class="1005" name="real_arr16_0_load_reg_548">
<pin_list>
<pin id="549" dir="0" index="0" bw="32" slack="1"/>
<pin id="550" dir="1" index="1" bw="32" slack="1"/>
</pin_list>
<bind>
<opset="real_arr16_0_load "/>
</bind>
</comp>

<comp id="553" class="1005" name="real_arr16_1_load_reg_553">
<pin_list>
<pin id="554" dir="0" index="0" bw="32" slack="1"/>
<pin id="555" dir="1" index="1" bw="32" slack="1"/>
</pin_list>
<bind>
<opset="real_arr16_1_load "/>
</bind>
</comp>

<comp id="558" class="1005" name="imag_arr16_0_load_reg_558">
<pin_list>
<pin id="559" dir="0" index="0" bw="32" slack="1"/>
<pin id="560" dir="1" index="1" bw="32" slack="1"/>
</pin_list>
<bind>
<opset="imag_arr16_0_load "/>
</bind>
</comp>

<comp id="563" class="1005" name="imag_arr16_1_load_reg_563">
<pin_list>
<pin id="564" dir="0" index="0" bw="32" slack="1"/>
<pin id="565" dir="1" index="1" bw="32" slack="1"/>
</pin_list>
<bind>
<opset="imag_arr16_1_load "/>
</bind>
</comp>

<comp id="568" class="1005" name="real_arr16_2_addr_reg_568">
<pin_list>
<pin id="569" dir="0" index="0" bw="2" slack="1"/>
<pin id="570" dir="1" index="1" bw="2" slack="1"/>
</pin_list>
<bind>
<opset="real_arr16_2_addr "/>
</bind>
</comp>

<comp id="573" class="1005" name="real_arr16_3_addr_reg_573">
<pin_list>
<pin id="574" dir="0" index="0" bw="2" slack="1"/>
<pin id="575" dir="1" index="1" bw="2" slack="1"/>
</pin_list>
<bind>
<opset="real_arr16_3_addr "/>
</bind>
</comp>

<comp id="578" class="1005" name="imag_arr16_2_addr_reg_578">
<pin_list>
<pin id="579" dir="0" index="0" bw="2" slack="1"/>
<pin id="580" dir="1" index="1" bw="2" slack="1"/>
</pin_list>
<bind>
<opset="imag_arr16_2_addr "/>
</bind>
</comp>

<comp id="583" class="1005" name="imag_arr16_3_addr_reg_583">
<pin_list>
<pin id="584" dir="0" index="0" bw="2" slack="1"/>
<pin id="585" dir="1" index="1" bw="2" slack="1"/>
</pin_list>
<bind>
<opset="imag_arr16_3_addr "/>
</bind>
</comp>

<comp id="588" class="1005" name="real_arr16_2_load_reg_588">
<pin_list>
<pin id="589" dir="0" index="0" bw="32" slack="1"/>
<pin id="590" dir="1" index="1" bw="32" slack="1"/>
</pin_list>
<bind>
<opset="real_arr16_2_load "/>
</bind>
</comp>

<comp id="593" class="1005" name="real_arr16_3_load_reg_593">
<pin_list>
<pin id="594" dir="0" index="0" bw="32" slack="1"/>
<pin id="595" dir="1" index="1" bw="32" slack="1"/>
</pin_list>
<bind>
<opset="real_arr16_3_load "/>
</bind>
</comp>

<comp id="598" class="1005" name="imag_arr16_2_load_reg_598">
<pin_list>
<pin id="599" dir="0" index="0" bw="32" slack="1"/>
<pin id="600" dir="1" index="1" bw="32" slack="1"/>
</pin_list>
<bind>
<opset="imag_arr16_2_load "/>
</bind>
</comp>

<comp id="603" class="1005" name="imag_arr16_3_load_reg_603">
<pin_list>
<pin id="604" dir="0" index="0" bw="32" slack="1"/>
<pin id="605" dir="1" index="1" bw="32" slack="1"/>
</pin_list>
<bind>
<opset="imag_arr16_3_load "/>
</bind>
</comp>

<comp id="608" class="1005" name="newIndex7_reg_608">
<pin_list>
<pin id="609" dir="0" index="0" bw="64" slack="1"/>
<pin id="610" dir="1" index="1" bw="64" slack="1"/>
</pin_list>
<bind>
<opset="newIndex7 "/>
</bind>
</comp>

<comp id="616" class="1005" name="real_arr16_0_addr_1_reg_616">
<pin_list>
<pin id="617" dir="0" index="0" bw="2" slack="1"/>
<pin id="618" dir="1" index="1" bw="2" slack="1"/>
</pin_list>
<bind>
<opset="real_arr16_0_addr_1 "/>
</bind>
</comp>

<comp id="621" class="1005" name="real_arr16_1_addr_1_reg_621">
<pin_list>
<pin id="622" dir="0" index="0" bw="2" slack="1"/>
<pin id="623" dir="1" index="1" bw="2" slack="1"/>
</pin_list>
<bind>
<opset="real_arr16_1_addr_1 "/>
</bind>
</comp>

<comp id="626" class="1005" name="imag_arr16_0_addr_1_reg_626">
<pin_list>
<pin id="627" dir="0" index="0" bw="2" slack="1"/>
<pin id="628" dir="1" index="1" bw="2" slack="1"/>
</pin_list>
<bind>
<opset="imag_arr16_0_addr_1 "/>
</bind>
</comp>

<comp id="631" class="1005" name="imag_arr16_1_addr_1_reg_631">
<pin_list>
<pin id="632" dir="0" index="0" bw="2" slack="1"/>
<pin id="633" dir="1" index="1" bw="2" slack="1"/>
</pin_list>
<bind>
<opset="imag_arr16_1_addr_1 "/>
</bind>
</comp>

<comp id="636" class="1005" name="real_arr16_0_load_1_reg_636">
<pin_list>
<pin id="637" dir="0" index="0" bw="32" slack="1"/>
<pin id="638" dir="1" index="1" bw="32" slack="1"/>
</pin_list>
<bind>
<opset="real_arr16_0_load_1 "/>
</bind>
</comp>

<comp id="641" class="1005" name="real_arr16_1_load_1_reg_641">
<pin_list>
<pin id="642" dir="0" index="0" bw="32" slack="1"/>
<pin id="643" dir="1" index="1" bw="32" slack="1"/>
</pin_list>
<bind>
<opset="real_arr16_1_load_1 "/>
</bind>
</comp>

<comp id="646" class="1005" name="imag_arr16_0_load_1_reg_646">
<pin_list>
<pin id="647" dir="0" index="0" bw="32" slack="1"/>
<pin id="648" dir="1" index="1" bw="32" slack="1"/>
</pin_list>
<bind>
<opset="imag_arr16_0_load_1 "/>
</bind>
</comp>

<comp id="651" class="1005" name="imag_arr16_1_load_1_reg_651">
<pin_list>
<pin id="652" dir="0" index="0" bw="32" slack="1"/>
<pin id="653" dir="1" index="1" bw="32" slack="1"/>
</pin_list>
<bind>
<opset="imag_arr16_1_load_1 "/>
</bind>
</comp>

<comp id="656" class="1005" name="real_arr16_2_addr_1_reg_656">
<pin_list>
<pin id="657" dir="0" index="0" bw="2" slack="1"/>
<pin id="658" dir="1" index="1" bw="2" slack="1"/>
</pin_list>
<bind>
<opset="real_arr16_2_addr_1 "/>
</bind>
</comp>

<comp id="661" class="1005" name="real_arr16_3_addr_1_reg_661">
<pin_list>
<pin id="662" dir="0" index="0" bw="2" slack="1"/>
<pin id="663" dir="1" index="1" bw="2" slack="1"/>
</pin_list>
<bind>
<opset="real_arr16_3_addr_1 "/>
</bind>
</comp>

<comp id="666" class="1005" name="imag_arr16_2_addr_1_reg_666">
<pin_list>
<pin id="667" dir="0" index="0" bw="2" slack="1"/>
<pin id="668" dir="1" index="1" bw="2" slack="1"/>
</pin_list>
<bind>
<opset="imag_arr16_2_addr_1 "/>
</bind>
</comp>

<comp id="671" class="1005" name="imag_arr16_3_addr_1_reg_671">
<pin_list>
<pin id="672" dir="0" index="0" bw="2" slack="1"/>
<pin id="673" dir="1" index="1" bw="2" slack="1"/>
</pin_list>
<bind>
<opset="imag_arr16_3_addr_1 "/>
</bind>
</comp>

<comp id="676" class="1005" name="real_arr16_2_load_1_reg_676">
<pin_list>
<pin id="677" dir="0" index="0" bw="32" slack="1"/>
<pin id="678" dir="1" index="1" bw="32" slack="1"/>
</pin_list>
<bind>
<opset="real_arr16_2_load_1 "/>
</bind>
</comp>

<comp id="681" class="1005" name="real_arr16_3_load_1_reg_681">
<pin_list>
<pin id="682" dir="0" index="0" bw="32" slack="1"/>
<pin id="683" dir="1" index="1" bw="32" slack="1"/>
</pin_list>
<bind>
<opset="real_arr16_3_load_1 "/>
</bind>
</comp>

<comp id="686" class="1005" name="imag_arr16_2_load_1_reg_686">
<pin_list>
<pin id="687" dir="0" index="0" bw="32" slack="1"/>
<pin id="688" dir="1" index="1" bw="32" slack="1"/>
</pin_list>
<bind>
<opset="imag_arr16_2_load_1 "/>
</bind>
</comp>

<comp id="691" class="1005" name="imag_arr16_3_load_1_reg_691">
<pin_list>
<pin id="692" dir="0" index="0" bw="32" slack="1"/>
<pin id="693" dir="1" index="1" bw="32" slack="1"/>
</pin_list>
<bind>
<opset="imag_arr16_3_load_1 "/>
</bind>
</comp>

</comp_list>

<net_list>
<net id="105"><net_src comp="0" pin="0"/><net_sink comp="100" pin=0"/></net>

<net id="106"><net_src comp="62" pin="0"/><net_sink comp="100" pin=1"/></net>

<net id="111"><net_src comp="100" pin="3"/><net_sink comp="107" pin=0"/></net>

<net id="117"><net_src comp="2" pin="0"/><net_sink comp="112" pin=0"/></net>

<net id="118"><net_src comp="62" pin="0"/><net_sink comp="112" pin=1"/></net>

<net id="123"><net_src comp="112" pin="3"/><net_sink comp="119" pin=0"/></net>

<net id="129"><net_src comp="4" pin="0"/><net_sink comp="124" pin=0"/></net>

<net id="130"><net_src comp="62" pin="0"/><net_sink comp="124" pin=1"/></net>

<net id="135"><net_src comp="124" pin="3"/><net_sink comp="131" pin=0"/></net>

<net id="141"><net_src comp="6" pin="0"/><net_sink comp="136" pin=0"/></net>

<net id="142"><net_src comp="62" pin="0"/><net_sink comp="136" pin=1"/></net>

<net id="147"><net_src comp="136" pin="3"/><net_sink comp="143" pin=0"/></net>

<net id="153"><net_src comp="8" pin="0"/><net_sink comp="148" pin=0"/></net>

<net id="154"><net_src comp="62" pin="0"/><net_sink comp="148" pin=1"/></net>

<net id="159"><net_src comp="148" pin="3"/><net_sink comp="155" pin=0"/></net>

<net id="165"><net_src comp="10" pin="0"/><net_sink comp="160" pin=0"/></net>

<net id="166"><net_src comp="62" pin="0"/><net_sink comp="160" pin=1"/></net>

<net id="171"><net_src comp="160" pin="3"/><net_sink comp="167" pin=0"/></net>

<net id="177"><net_src comp="12" pin="0"/><net_sink comp="172" pin=0"/></net>

<net id="178"><net_src comp="62" pin="0"/><net_sink comp="172" pin=1"/></net>

<net id="183"><net_src comp="172" pin="3"/><net_sink comp="179" pin=0"/></net>

<net id="189"><net_src comp="14" pin="0"/><net_sink comp="184" pin=0"/></net>

<net id="190"><net_src comp="62" pin="0"/><net_sink comp="184" pin=1"/></net>

<net id="195"><net_src comp="184" pin="3"/><net_sink comp="191" pin=0"/></net>

<net id="201"><net_src comp="0" pin="0"/><net_sink comp="196" pin=0"/></net>

<net id="202"><net_src comp="62" pin="0"/><net_sink comp="196" pin=1"/></net>

<net id="203"><net_src comp="196" pin="3"/><net_sink comp="107" pin=0"/></net>

<net id="209"><net_src comp="2" pin="0"/><net_sink comp="204" pin=0"/></net>

<net id="210"><net_src comp="62" pin="0"/><net_sink comp="204" pin=1"/></net>

<net id="211"><net_src comp="204" pin="3"/><net_sink comp="119" pin=0"/></net>

<net id="217"><net_src comp="4" pin="0"/><net_sink comp="212" pin=0"/></net>

<net id="218"><net_src comp="62" pin="0"/><net_sink comp="212" pin=1"/></net>

<net id="219"><net_src comp="212" pin="3"/><net_sink comp="131" pin=0"/></net>

<net id="225"><net_src comp="6" pin="0"/><net_sink comp="220" pin=0"/></net>

<net id="226"><net_src comp="62" pin="0"/><net_sink comp="220" pin=1"/></net>

<net id="227"><net_src comp="220" pin="3"/><net_sink comp="143" pin=0"/></net>

<net id="233"><net_src comp="8" pin="0"/><net_sink comp="228" pin=0"/></net>

<net id="234"><net_src comp="62" pin="0"/><net_sink comp="228" pin=1"/></net>

<net id="235"><net_src comp="228" pin="3"/><net_sink comp="155" pin=0"/></net>

<net id="241"><net_src comp="10" pin="0"/><net_sink comp="236" pin=0"/></net>

<net id="242"><net_src comp="62" pin="0"/><net_sink comp="236" pin=1"/></net>

<net id="243"><net_src comp="236" pin="3"/><net_sink comp="167" pin=0"/></net>

<net id="249"><net_src comp="12" pin="0"/><net_sink comp="244" pin=0"/></net>

<net id="250"><net_src comp="62" pin="0"/><net_sink comp="244" pin=1"/></net>

<net id="251"><net_src comp="244" pin="3"/><net_sink comp="179" pin=0"/></net>

<net id="257"><net_src comp="14" pin="0"/><net_sink comp="252" pin=0"/></net>

<net id="258"><net_src comp="62" pin="0"/><net_sink comp="252" pin=1"/></net>

<net id="259"><net_src comp="252" pin="3"/><net_sink comp="191" pin=0"/></net>

<net id="263"><net_src comp="48" pin="0"/><net_sink comp="260" pin=0"/></net>

<net id="270"><net_src comp="260" pin="1"/><net_sink comp="264" pin=0"/></net>

<net id="274"><net_src comp="48" pin="0"/><net_sink comp="271" pin=0"/></net>

<net id="281"><net_src comp="271" pin="1"/><net_sink comp="275" pin=0"/></net>

<net id="293"><net_src comp="282" pin="2"/><net_sink comp="290" pin=0"/></net>

<net id="297"><net_src comp="286" pin="2"/><net_sink comp="294" pin=0"/></net>

<net id="302"><net_src comp="290" pin="1"/><net_sink comp="298" pin=0"/></net>

<net id="303"><net_src comp="34" pin="0"/><net_sink comp="298" pin=1"/></net>

<net id="308"><net_src comp="294" pin="1"/><net_sink comp="304" pin=0"/></net>

<net id="309"><net_src comp="18" pin="0"/><net_sink comp="304" pin=1"/></net>

<net id="314"><net_src comp="275" pin="4"/><net_sink comp="310" pin=0"/></net>

<net id="315"><net_src comp="50" pin="0"/><net_sink comp="310" pin=1"/></net>

<net id="322"><net_src comp="56" pin="0"/><net_sink comp="316" pin=0"/></net>

<net id="323"><net_src comp="264" pin="4"/><net_sink comp="316" pin=1"/></net>

<net id="324"><net_src comp="58" pin="0"/><net_sink comp="316" pin=2"/></net>

<net id="325"><net_src comp="60" pin="0"/><net_sink comp="316" pin=3"/></net>

<net id="329"><net_src comp="316" pin="4"/><net_sink comp="326" pin=0"/></net>

<net id="330"><net_src comp="326" pin="1"/><net_sink comp="100" pin=2"/></net>

<net id="331"><net_src comp="326" pin="1"/><net_sink comp="112" pin=2"/></net>

<net id="332"><net_src comp="326" pin="1"/><net_sink comp="124" pin=2"/></net>

<net id="333"><net_src comp="326" pin="1"/><net_sink comp="136" pin=2"/></net>

<net id="337"><net_src comp="275" pin="4"/><net_sink comp="334" pin=0"/></net>

<net id="342"><net_src comp="275" pin="4"/><net_sink comp="338" pin=0"/></net>

<net id="343"><net_src comp="70" pin="0"/><net_sink comp="338" pin=1"/></net>

<net id="348"><net_src comp="338" pin="2"/><net_sink comp="344" pin=0"/></net>

<net id="349"><net_src comp="50" pin="0"/><net_sink comp="344" pin=1"/></net>

<net id="353"><net_src comp="338" pin="2"/><net_sink comp="350" pin=0"/></net>

<net id="358"><net_src comp="334" pin="1"/><net_sink comp="354" pin=0"/></net>

<net id="359"><net_src comp="76" pin="0"/><net_sink comp="354" pin=1"/></net>

<net id="364"><net_src comp="334" pin="1"/><net_sink comp="360" pin=0"/></net>

<net id="365"><net_src comp="80" pin="0"/><net_sink comp="360" pin=1"/></net>

<net id="370"><net_src comp="360" pin="2"/><net_sink comp="366" pin=0"/></net>

<net id="371"><net_src comp="80" pin="0"/><net_sink comp="366" pin=1"/></net>

<net id="376"><net_src comp="275" pin="4"/><net_sink comp="372" pin=0"/></net>

<net id="377"><net_src comp="82" pin="0"/><net_sink comp="372" pin=1"/></net>

<net id="382"><net_src comp="264" pin="4"/><net_sink comp="378" pin=0"/></net>

<net id="383"><net_src comp="84" pin="0"/><net_sink comp="378" pin=1"/></net>

<net id="388"><net_src comp="86" pin="0"/><net_sink comp="384" pin=1"/></net>

<net id="392"><net_src comp="384" pin="2"/><net_sink comp="389" pin=0"/></net>

<net id="393"><net_src comp="389" pin="1"/><net_sink comp="196" pin=2"/></net>

<net id="394"><net_src comp="389" pin="1"/><net_sink comp="204" pin=2"/></net>

<net id="395"><net_src comp="389" pin="1"/><net_sink comp="212" pin=2"/></net>

<net id="396"><net_src comp="389" pin="1"/><net_sink comp="220" pin=2"/></net>

<net id="401"><net_src comp="282" pin="2"/><net_sink comp="397" pin=0"/></net>

<net id="402"><net_src comp="46" pin="0"/><net_sink comp="397" pin=1"/></net>

<net id="407"><net_src comp="282" pin="2"/><net_sink comp="403" pin=0"/></net>

<net id="408"><net_src comp="44" pin="0"/><net_sink comp="403" pin=1"/></net>

<net id="413"><net_src comp="286" pin="2"/><net_sink comp="409" pin=0"/></net>

<net id="414"><net_src comp="30" pin="0"/><net_sink comp="409" pin=1"/></net>

<net id="419"><net_src comp="286" pin="2"/><net_sink comp="415" pin=0"/></net>

<net id="420"><net_src comp="28" pin="0"/><net_sink comp="415" pin=1"/></net>

<net id="425"><net_src comp="282" pin="2"/><net_sink comp="421" pin=0"/></net>

<net id="426"><net_src comp="40" pin="0"/><net_sink comp="421" pin=1"/></net>

<net id="431"><net_src comp="282" pin="2"/><net_sink comp="427" pin=0"/></net>

<net id="432"><net_src comp="42" pin="0"/><net_sink comp="427" pin=1"/></net>

<net id="437"><net_src comp="286" pin="2"/><net_sink comp="433" pin=0"/></net>

<net id="438"><net_src comp="24" pin="0"/><net_sink comp="433" pin=1"/></net>

<net id="443"><net_src comp="286" pin="2"/><net_sink comp="439" pin=0"/></net>

<net id="444"><net_src comp="26" pin="0"/><net_sink comp="439" pin=1"/></net>

<net id="449"><net_src comp="282" pin="2"/><net_sink comp="445" pin=0"/></net>

<net id="450"><net_src comp="36" pin="0"/><net_sink comp="445" pin=1"/></net>

<net id="455"><net_src comp="282" pin="2"/><net_sink comp="451" pin=0"/></net>

<net id="456"><net_src comp="38" pin="0"/><net_sink comp="451" pin=1"/></net>

<net id="461"><net_src comp="286" pin="2"/><net_sink comp="457" pin=0"/></net>

<net id="462"><net_src comp="20" pin="0"/><net_sink comp="457" pin=1"/></net>

<net id="467"><net_src comp="286" pin="2"/><net_sink comp="463" pin=0"/></net>

<net id="468"><net_src comp="22" pin="0"/><net_sink comp="463" pin=1"/></net>

<net id="473"><net_src comp="282" pin="2"/><net_sink comp="469" pin=0"/></net>

<net id="474"><net_src comp="32" pin="0"/><net_sink comp="469" pin=1"/></net>

<net id="479"><net_src comp="286" pin="2"/><net_sink comp="475" pin=0"/></net>

<net id="480"><net_src comp="16" pin="0"/><net_sink comp="475" pin=1"/></net>

<net id="484"><net_src comp="310" pin="2"/><net_sink comp="481" pin=0"/></net>

<net id="488"><net_src comp="316" pin="4"/><net_sink comp="485" pin=0"/></net>

<net id="489"><net_src comp="485" pin="1"/><net_sink comp="384" pin=0"/></net>

<net id="493"><net_src comp="326" pin="1"/><net_sink comp="490" pin=0"/></net>

<net id="494"><net_src comp="490" pin="1"/><net_sink comp="148" pin=2"/></net>

<net id="495"><net_src comp="490" pin="1"/><net_sink comp="160" pin=2"/></net>

<net id="496"><net_src comp="490" pin="1"/><net_sink comp="172" pin=2"/></net>

<net id="497"><net_src comp="490" pin="1"/><net_sink comp="184" pin=2"/></net>

<net id="501"><net_src comp="100" pin="3"/><net_sink comp="498" pin=0"/></net>

<net id="502"><net_src comp="498" pin="1"/><net_sink comp="107" pin=0"/></net>

<net id="506"><net_src comp="112" pin="3"/><net_sink comp="503" pin=0"/></net>

<net id="507"><net_src comp="503" pin="1"/><net_sink comp="119" pin=0"/></net>

<net id="511"><net_src comp="334" pin="1"/><net_sink comp="508" pin=0"/></net>

<net id="515"><net_src comp="124" pin="3"/><net_sink comp="512" pin=0"/></net>

<net id="516"><net_src comp="512" pin="1"/><net_sink comp="131" pin=0"/></net>

<net id="520"><net_src comp="136" pin="3"/><net_sink comp="517" pin=0"/></net>

<net id="521"><net_src comp="517" pin="1"/><net_sink comp="143" pin=0"/></net>

<net id="525"><net_src comp="344" pin="2"/><net_sink comp="522" pin=0"/></net>

<net id="529"><net_src comp="350" pin="1"/><net_sink comp="526" pin=0"/></net>

<net id="533"><net_src comp="354" pin="2"/><net_sink comp="530" pin=0"/></net>

<net id="537"><net_src comp="366" pin="2"/><net_sink comp="534" pin=0"/></net>

<net id="541"><net_src comp="372" pin="2"/><net_sink comp="538" pin=0"/></net>

<net id="542"><net_src comp="538" pin="1"/><net_sink comp="275" pin=2"/></net>

<net id="546"><net_src comp="378" pin="2"/><net_sink comp="543" pin=0"/></net>

<net id="547"><net_src comp="543" pin="1"/><net_sink comp="264" pin=2"/></net>

<net id="551"><net_src comp="107" pin="2"/><net_sink comp="548" pin=0"/></net>

<net id="552"><net_src comp="548" pin="1"/><net_sink comp="282" pin=0"/></net>

<net id="556"><net_src comp="119" pin="2"/><net_sink comp="553" pin=0"/></net>

<net id="557"><net_src comp="553" pin="1"/><net_sink comp="282" pin=1"/></net>

<net id="561"><net_src comp="131" pin="2"/><net_sink comp="558" pin=0"/></net>

<net id="562"><net_src comp="558" pin="1"/><net_sink comp="286" pin=0"/></net>

<net id="566"><net_src comp="143" pin="2"/><net_sink comp="563" pin=0"/></net>

<net id="567"><net_src comp="563" pin="1"/><net_sink comp="286" pin=1"/></net>

<net id="571"><net_src comp="148" pin="3"/><net_sink comp="568" pin=0"/></net>

<net id="572"><net_src comp="568" pin="1"/><net_sink comp="155" pin=0"/></net>

<net id="576"><net_src comp="160" pin="3"/><net_sink comp="573" pin=0"/></net>

<net id="577"><net_src comp="573" pin="1"/><net_sink comp="167" pin=0"/></net>

<net id="581"><net_src comp="172" pin="3"/><net_sink comp="578" pin=0"/></net>

<net id="582"><net_src comp="578" pin="1"/><net_sink comp="179" pin=0"/></net>

<net id="586"><net_src comp="184" pin="3"/><net_sink comp="583" pin=0"/></net>

<net id="587"><net_src comp="583" pin="1"/><net_sink comp="191" pin=0"/></net>

<net id="591"><net_src comp="155" pin="2"/><net_sink comp="588" pin=0"/></net>

<net id="592"><net_src comp="588" pin="1"/><net_sink comp="282" pin=0"/></net>

<net id="596"><net_src comp="167" pin="2"/><net_sink comp="593" pin=0"/></net>

<net id="597"><net_src comp="593" pin="1"/><net_sink comp="282" pin=1"/></net>

<net id="601"><net_src comp="179" pin="2"/><net_sink comp="598" pin=0"/></net>

<net id="602"><net_src comp="598" pin="1"/><net_sink comp="286" pin=0"/></net>

<net id="606"><net_src comp="191" pin="2"/><net_sink comp="603" pin=0"/></net>

<net id="607"><net_src comp="603" pin="1"/><net_sink comp="286" pin=1"/></net>

<net id="611"><net_src comp="389" pin="1"/><net_sink comp="608" pin=0"/></net>

<net id="612"><net_src comp="608" pin="1"/><net_sink comp="228" pin=2"/></net>

<net id="613"><net_src comp="608" pin="1"/><net_sink comp="236" pin=2"/></net>

<net id="614"><net_src comp="608" pin="1"/><net_sink comp="244" pin=2"/></net>

<net id="615"><net_src comp="608" pin="1"/><net_sink comp="252" pin=2"/></net>

<net id="619"><net_src comp="196" pin="3"/><net_sink comp="616" pin=0"/></net>

<net id="620"><net_src comp="616" pin="1"/><net_sink comp="107" pin=0"/></net>

<net id="624"><net_src comp="204" pin="3"/><net_sink comp="621" pin=0"/></net>

<net id="625"><net_src comp="621" pin="1"/><net_sink comp="119" pin=0"/></net>

<net id="629"><net_src comp="212" pin="3"/><net_sink comp="626" pin=0"/></net>

<net id="630"><net_src comp="626" pin="1"/><net_sink comp="131" pin=0"/></net>

<net id="634"><net_src comp="220" pin="3"/><net_sink comp="631" pin=0"/></net>

<net id="635"><net_src comp="631" pin="1"/><net_sink comp="143" pin=0"/></net>

<net id="639"><net_src comp="107" pin="2"/><net_sink comp="636" pin=0"/></net>

<net id="640"><net_src comp="636" pin="1"/><net_sink comp="282" pin=0"/></net>

<net id="644"><net_src comp="119" pin="2"/><net_sink comp="641" pin=0"/></net>

<net id="645"><net_src comp="641" pin="1"/><net_sink comp="282" pin=1"/></net>

<net id="649"><net_src comp="131" pin="2"/><net_sink comp="646" pin=0"/></net>

<net id="650"><net_src comp="646" pin="1"/><net_sink comp="286" pin=0"/></net>

<net id="654"><net_src comp="143" pin="2"/><net_sink comp="651" pin=0"/></net>

<net id="655"><net_src comp="651" pin="1"/><net_sink comp="286" pin=1"/></net>

<net id="659"><net_src comp="228" pin="3"/><net_sink comp="656" pin=0"/></net>

<net id="660"><net_src comp="656" pin="1"/><net_sink comp="155" pin=0"/></net>

<net id="664"><net_src comp="236" pin="3"/><net_sink comp="661" pin=0"/></net>

<net id="665"><net_src comp="661" pin="1"/><net_sink comp="167" pin=0"/></net>

<net id="669"><net_src comp="244" pin="3"/><net_sink comp="666" pin=0"/></net>

<net id="670"><net_src comp="666" pin="1"/><net_sink comp="179" pin=0"/></net>

<net id="674"><net_src comp="252" pin="3"/><net_sink comp="671" pin=0"/></net>

<net id="675"><net_src comp="671" pin="1"/><net_sink comp="191" pin=0"/></net>

<net id="679"><net_src comp="155" pin="2"/><net_sink comp="676" pin=0"/></net>

<net id="680"><net_src comp="676" pin="1"/><net_sink comp="282" pin=0"/></net>

<net id="684"><net_src comp="167" pin="2"/><net_sink comp="681" pin=0"/></net>

<net id="685"><net_src comp="681" pin="1"/><net_sink comp="282" pin=1"/></net>

<net id="689"><net_src comp="179" pin="2"/><net_sink comp="686" pin=0"/></net>

<net id="690"><net_src comp="686" pin="1"/><net_sink comp="286" pin=0"/></net>

<net id="694"><net_src comp="191" pin="2"/><net_sink comp="691" pin=0"/></net>

<net id="695"><net_src comp="691" pin="1"/><net_sink comp="286" pin=1"/></net>

</net_list>

</model> 
---------------- Datapath Model END ------------------

* FSMD analyzer results:
  - Output states:
  - Chain level:
	State 1
	State 2
		exitcond : 1
		stg_18 : 2
		newIndex : 1
		newIndex1 : 2
		real_arr16_0_addr : 3
		real_arr16_0_load : 4
		real_arr16_1_addr : 3
		real_arr16_1_load : 4
		tmp_1 : 1
		stg_27 : 2
		imag_arr16_0_addr : 3
		imag_arr16_0_load : 4
		imag_arr16_1_addr : 3
		imag_arr16_1_load : 4
		stg_32 : 2
		empty_6 : 1
		i_V_s : 1
		exitcond_1 : 1
		stg_36 : 2
		tmp_2 : 1
		stg_38 : 2
		stg_39 : 2
		i_V_18_t : 2
		stg_41 : 2
		stg_42 : 2
		i_V_210_t : 2
		cond : 2
		stg_45 : 3
		stg_46 : 3
		i_V_3 : 1
		j_V_3 : 1
	State 3
		real_arr16_2_load : 1
		real_arr16_3_load : 1
		imag_arr16_2_load : 1
		imag_arr16_3_load : 1
	State 4
		real_arr16_0_addr_1 : 1
		real_arr16_0_load_1 : 2
		real_arr16_1_addr_1 : 1
		real_arr16_1_load_1 : 2
		imag_arr16_0_addr_1 : 1
		imag_arr16_0_load_1 : 2
		imag_arr16_1_addr_1 : 1
		imag_arr16_1_load_1 : 2
	State 5
		real_arr16_2_load_1 : 1
		real_arr16_3_load_1 : 1
		imag_arr16_2_load_1 : 1
		imag_arr16_3_load_1 : 1
	State 6
	State 7
	State 8
		stg_115 : 1
		stg_117 : 1
		stg_120 : 1
		stg_122 : 1
	State 9
		stg_135 : 1
		stg_137 : 1
		stg_140 : 1
		stg_142 : 1
	State 10
		stg_153 : 1
		stg_155 : 1
		stg_158 : 1
		stg_160 : 1
	State 11
		stg_169 : 1
		stg_172 : 1
	State 12
	State 13


============================================================
+ Verbose Summary: Datapath Resource usage 
============================================================

* Functional unit list:
|----------|-------------------|---------|---------|---------|
| Operation|  Functional Unit  |  DSP48E |    FF   |   LUT   |
|----------|-------------------|---------|---------|---------|
|   fadd   |     grp_fu_282    |    2    |   205   |   390   |
|          |     grp_fu_286    |    2    |   205   |   390   |
|----------|-------------------|---------|---------|---------|
|    add   |    i_V_3_fu_372   |    0    |    0    |    9    |
|          |    j_V_3_fu_378   |    0    |    0    |    9    |
|----------|-------------------|---------|---------|---------|
|          |  exitcond_fu_310  |    0    |    0    |    3    |
|   icmp   | exitcond_1_fu_344 |    0    |    0    |    3    |
|          |    cond_fu_366    |    0    |    0    |    2    |
|----------|-------------------|---------|---------|---------|
|partselect|  newIndex_fu_316  |    0    |    0    |    0    |
|----------|-------------------|---------|---------|---------|
|   zext   |  newIndex1_fu_326 |    0    |    0    |    0    |
|          |  newIndex7_fu_389 |    0    |    0    |    0    |
|----------|-------------------|---------|---------|---------|
|   trunc  |    tmp_1_fu_334   |    0    |    0    |    0    |
|          |    tmp_2_fu_350   |    0    |    0    |    0    |
|----------|-------------------|---------|---------|---------|
|          |    i_V_s_fu_338   |    0    |    0    |    0    |
|    or    |  i_V_18_t_fu_354  |    0    |    0    |    0    |
|          |  i_V_210_t_fu_360 |    0    |    0    |    0    |
|          |  newIndex6_fu_384 |    0    |    0    |    0    |
|----------|-------------------|---------|---------|---------|
|   Total  |                   |    4    |   410   |   806   |
|----------|-------------------|---------|---------|---------|

Memories:
N/A

* Register list:
+---------------------------+--------+
|                           |   FF   |
+---------------------------+--------+
|        cond_reg_534       |    1   |
|     exitcond_1_reg_522    |    1   |
|      exitcond_reg_481     |    1   |
|      i_V_18_t_reg_530     |    3   |
|       i_V_3_reg_538       |    9   |
|imag_arr16_0_addr_1_reg_626|    2   |
| imag_arr16_0_addr_reg_512 |    2   |
|imag_arr16_0_load_1_reg_646|   32   |
| imag_arr16_0_load_reg_558 |   32   |
|imag_arr16_1_addr_1_reg_631|    2   |
| imag_arr16_1_addr_reg_517 |    2   |
|imag_arr16_1_load_1_reg_651|   32   |
| imag_arr16_1_load_reg_563 |   32   |
|imag_arr16_2_addr_1_reg_666|    2   |
| imag_arr16_2_addr_reg_578 |    2   |
|imag_arr16_2_load_1_reg_686|   32   |
| imag_arr16_2_load_reg_598 |   32   |
|imag_arr16_3_addr_1_reg_671|    2   |
| imag_arr16_3_addr_reg_583 |    2   |
|imag_arr16_3_load_1_reg_691|   32   |
| imag_arr16_3_load_reg_603 |   32   |
|       j_V_3_reg_543       |    9   |
|     newIndex1_reg_490     |   64   |
|     newIndex7_reg_608     |   64   |
|      newIndex_reg_485     |    7   |
|        p_1_reg_271        |    9   |
|        p_s_reg_260        |    9   |
|real_arr16_0_addr_1_reg_616|    2   |
| real_arr16_0_addr_reg_498 |    2   |
|real_arr16_0_load_1_reg_636|   32   |
| real_arr16_0_load_reg_548 |   32   |
|real_arr16_1_addr_1_reg_621|    2   |
| real_arr16_1_addr_reg_503 |    2   |
|real_arr16_1_load_1_reg_641|   32   |
| real_arr16_1_load_reg_553 |   32   |
|real_arr16_2_addr_1_reg_656|    2   |
| real_arr16_2_addr_reg_568 |    2   |
|real_arr16_2_load_1_reg_676|   32   |
| real_arr16_2_load_reg_588 |   32   |
|real_arr16_3_addr_1_reg_661|    2   |
| real_arr16_3_addr_reg_573 |    2   |
|real_arr16_3_load_1_reg_681|   32   |
| real_arr16_3_load_reg_593 |   32   |
|          reg_290          |   32   |
|          reg_294          |   32   |
|       tmp_1_reg_508       |    3   |
|       tmp_2_reg_526       |    3   |
+---------------------------+--------+
|           Total           |   791  |
+---------------------------+--------+

* Multiplexer (MUX) list: 
|-------------------|------|------|------|--------||---------||---------|
|        Comp       |  Pin | Size |  BW  | S x BW ||  Delay  ||   LUT   |
|-------------------|------|------|------|--------||---------||---------|
| grp_access_fu_107 |  p0  |   4  |   2  |    8   ||    2    |
| grp_access_fu_119 |  p0  |   4  |   2  |    8   ||    2    |
| grp_access_fu_131 |  p0  |   4  |   2  |    8   ||    2    |
| grp_access_fu_143 |  p0  |   4  |   2  |    8   ||    2    |
| grp_access_fu_155 |  p0  |   4  |   2  |    8   ||    2    |
| grp_access_fu_167 |  p0  |   4  |   2  |    8   ||    2    |
| grp_access_fu_179 |  p0  |   4  |   2  |    8   ||    2    |
| grp_access_fu_191 |  p0  |   4  |   2  |    8   ||    2    |
|     grp_fu_282    |  p0  |   4  |  32  |   128  ||    32   |
|     grp_fu_282    |  p1  |   4  |  32  |   128  ||    32   |
|     grp_fu_286    |  p0  |   4  |  32  |   128  ||    32   |
|     grp_fu_286    |  p1  |   4  |  32  |   128  ||    32   |
|-------------------|------|------|------|--------||---------||---------|
|       Total       |      |      |      |   576  ||  18.852 ||   144   |
|-------------------|------|------|------|--------||---------||---------|



* Summary:
+-----------+--------+--------+--------+--------+
|           | DSP48E |  Delay |   FF   |   LUT  |
+-----------+--------+--------+--------+--------+
|  Function |    4   |    -   |   410  |   806  |
|   Memory  |    -   |    -   |    -   |    -   |
|Multiplexer|    -   |   18   |    -   |   144  |
|  Register |    -   |    -   |   791  |    -   |
+-----------+--------+--------+--------+--------+
|   Total   |    4   |   18   |  1201  |   950  |
+-----------+--------+--------+--------+--------+
