

================================================================
== Vivado HLS Report for 'dft_loop_flow2'
================================================================
* Date:           Tue Nov 01 18:57:22 2016

* Version:        2015.4 (Build 1412921 on Wed Nov 18 09:58:55 AM 2015)
* Project:        dft
* Solution:       dft_best
* Product family: zynq
* Target device:  xc7z020clg484-1


================================================================
== Performance Estimates
================================================================
+ Timing (ns): 
    * Summary: 
    +--------+-------+----------+------------+
    |  Clock | Target| Estimated| Uncertainty|
    +--------+-------+----------+------------+
    |ap_clk  |  10.00|      8.63|        1.25|
    +--------+-------+----------+------------+

+ Latency (clock cycles): 
    * Summary: 
    +-----+-----+-----+-----+---------+
    |  Latency  |  Interval | Pipeline|
    | min | max | min | max |   Type  |
    +-----+-----+-----+-----+---------+
    |    9|    9|    9|    9|   none  |
    +-----+-----+-----+-----+---------+

    + Detail: 
        * Instance: 
        N/A

        * Loop: 
        +----------+-----+-----+----------+-----------+-----------+------+----------+
        |          |  Latency  | Iteration|  Initiation Interval  | Trip |          |
        | Loop Name| min | max |  Latency |  achieved |   target  | Count| Pipelined|
        +----------+-----+-----+----------+-----------+-----------+------+----------+
        |- Loop 1  |    7|    7|         6|          1|          1|     3|    yes   |
        +----------+-----+-----+----------+-----------+-----------+------+----------+

============================================================
+ Verbose Summary: Synthesis Manager
============================================================
InlineROM: 1
ExposeGlobal: 0
============================================================
+ Verbose Summary: CDFG Model
============================================================
IsTopModel: 0
ResetActiveHigh: 1
IsCombinational: 0
IsDatapathOnly: 0
HasWiredReturn: 1
HasMFsm: 0
HasVarLatency: 1
IsPipeline: 0
IsRtlPipelined: 0
IsInstanceOverlapped: 0
IsDontTouch: 0
HasImplIP: 0
IsGatedGlobalClock: 0

+ Individual pipeline summary: 
  * Pipeline-0: initiation interval (II) = 1, depth = 6


============================================================
+ Verbose Summary: Schedule
============================================================
* Number of FSM states: 8
* Pipeline: 1
  Pipeline-0: II = 1, D = 6, States = { 2 3 4 5 6 7 }
* Dataflow Pipeline: 0

* FSM state transitions: 
1 --> 
	2  / true
2 --> 
	8  / (exitcond)
	3  / (!exitcond)
3 --> 
	4  / true
4 --> 
	5  / true
5 --> 
	6  / true
6 --> 
	7  / true
7 --> 
	2  / true
8 --> 
* FSM state operations: 

 <State 1>: 1.57ns
ST_1: real_arr4_0_load [1/1] 0.00ns
:0  %real_arr4_0_load = load float* @real_arr4_0, align 8

ST_1: real_arr4_2_load [1/1] 0.00ns
:1  %real_arr4_2_load = load float* @real_arr4_2, align 8

ST_1: real_arr4_1_load [1/1] 0.00ns
:2  %real_arr4_1_load = load float* @real_arr4_1, align 4

ST_1: real_arr4_3_load [1/1] 0.00ns
:3  %real_arr4_3_load = load float* @real_arr4_3, align 4

ST_1: imag_arr4_0_load [1/1] 0.00ns
:4  %imag_arr4_0_load = load float* @imag_arr4_0, align 8

ST_1: imag_arr4_2_load [1/1] 0.00ns
:5  %imag_arr4_2_load = load float* @imag_arr4_2, align 8

ST_1: imag_arr4_1_load [1/1] 0.00ns
:6  %imag_arr4_1_load = load float* @imag_arr4_1, align 4

ST_1: imag_arr4_3_load [1/1] 0.00ns
:7  %imag_arr4_3_load = load float* @imag_arr4_3, align 4

ST_1: stg_17 [1/1] 1.57ns
:8  br label %1


 <State 2>: 1.36ns
ST_2: p_s [1/1] 0.00ns
:0  %p_s = phi i3 [ 0, %0 ], [ %j_V, %4 ]

ST_2: p_1 [1/1] 0.00ns
:1  %p_1 = phi i2 [ 0, %0 ], [ %i_V, %4 ]

ST_2: exitcond [1/1] 1.36ns
:2  %exitcond = icmp eq i2 %p_1, -1

ST_2: i_V [1/1] 0.80ns
:3  %i_V = add i2 %p_1, 1

ST_2: stg_22 [1/1] 0.00ns
:4  br i1 %exitcond, label %5, label %2

ST_2: tmp_25 [1/1] 0.00ns
:3  %tmp_25 = trunc i3 %p_s to i2

ST_2: cond [1/1] 1.36ns
:4  %cond = icmp eq i2 %tmp_25, 0

ST_2: r_V [1/1] 0.00ns
:6  %r_V = or i2 %tmp_25, 1

ST_2: cond1 [1/1] 1.36ns
:7  %cond1 = icmp eq i2 %r_V, 1

ST_2: tmp_26 [1/1] 0.00ns
:10  %tmp_26 = trunc i2 %p_1 to i1

ST_2: stg_28 [1/1] 0.00ns
:11  br i1 %tmp_26, label %branch19, label %branch18

ST_2: stg_29 [1/1] 0.00ns
:3  br i1 %tmp_26, label %branch17, label %branch16

ST_2: j_V [1/1] 0.80ns
:1  %j_V = add i3 %p_s, 2


 <State 3>: 8.63ns
ST_3: real_arr4_load_phi [1/1] 1.37ns
:5  %real_arr4_load_phi = select i1 %cond, float %real_arr4_0_load, float %real_arr4_2_load

ST_3: real_arr4_load_1_phi [1/1] 1.37ns
:8  %real_arr4_load_1_phi = select i1 %cond1, float %real_arr4_1_load, float %real_arr4_3_load

ST_3: tmp_s [5/5] 7.26ns
:9  %tmp_s = fadd float %real_arr4_load_phi, %real_arr4_load_1_phi

ST_3: imag_arr4_load_phi [1/1] 1.37ns
:0  %imag_arr4_load_phi = select i1 %cond, float %imag_arr4_0_load, float %imag_arr4_2_load

ST_3: imag_arr4_load_1_phi [1/1] 1.37ns
:1  %imag_arr4_load_1_phi = select i1 %cond1, float %imag_arr4_1_load, float %imag_arr4_3_load

ST_3: tmp_1 [5/5] 7.26ns
:2  %tmp_1 = fadd float %imag_arr4_load_phi, %imag_arr4_load_1_phi


 <State 4>: 7.26ns
ST_4: tmp_s [4/5] 7.26ns
:9  %tmp_s = fadd float %real_arr4_load_phi, %real_arr4_load_1_phi

ST_4: tmp_1 [4/5] 7.26ns
:2  %tmp_1 = fadd float %imag_arr4_load_phi, %imag_arr4_load_1_phi


 <State 5>: 7.26ns
ST_5: tmp_s [3/5] 7.26ns
:9  %tmp_s = fadd float %real_arr4_load_phi, %real_arr4_load_1_phi

ST_5: tmp_1 [3/5] 7.26ns
:2  %tmp_1 = fadd float %imag_arr4_load_phi, %imag_arr4_load_1_phi


 <State 6>: 7.26ns
ST_6: tmp_s [2/5] 7.26ns
:9  %tmp_s = fadd float %real_arr4_load_phi, %real_arr4_load_1_phi

ST_6: tmp_1 [2/5] 7.26ns
:2  %tmp_1 = fadd float %imag_arr4_load_phi, %imag_arr4_load_1_phi


 <State 7>: 7.26ns
ST_7: empty [1/1] 0.00ns
:0  %empty = call i32 (...)* @_ssdm_op_SpecLoopTripCount(i64 3, i64 3, i64 3) nounwind

ST_7: tmp [1/1] 0.00ns
:1  %tmp = call i32 (...)* @_ssdm_op_SpecRegionBegin([12 x i8]* @p_str8) nounwind

ST_7: stg_45 [1/1] 0.00ns
:2  call void (...)* @_ssdm_op_SpecPipeline(i32 1, i32 1, i32 1, i32 0, [1 x i8]* @p_str1) nounwind

ST_7: tmp_s [1/5] 7.26ns
:9  %tmp_s = fadd float %real_arr4_load_phi, %real_arr4_load_1_phi

ST_7: stg_47 [1/1] 0.00ns
branch18:0  store float %tmp_s, float* @real_arr2_0, align 4

ST_7: stg_48 [1/1] 0.00ns
branch18:1  br label %3

ST_7: stg_49 [1/1] 0.00ns
branch19:0  store float %tmp_s, float* @real_arr2_1, align 4

ST_7: stg_50 [1/1] 0.00ns
branch19:1  br label %3

ST_7: tmp_1 [1/5] 7.26ns
:2  %tmp_1 = fadd float %imag_arr4_load_phi, %imag_arr4_load_1_phi

ST_7: stg_52 [1/1] 0.00ns
branch16:0  store float %tmp_1, float* @imag_arr2_0, align 4

ST_7: stg_53 [1/1] 0.00ns
branch16:1  br label %4

ST_7: stg_54 [1/1] 0.00ns
branch17:0  store float %tmp_1, float* @imag_arr2_1, align 4

ST_7: stg_55 [1/1] 0.00ns
branch17:1  br label %4

ST_7: empty_11 [1/1] 0.00ns
:0  %empty_11 = call i32 (...)* @_ssdm_op_SpecRegionEnd([12 x i8]* @p_str8, i32 %tmp) nounwind

ST_7: stg_57 [1/1] 0.00ns
:2  br label %1


 <State 8>: 0.00ns
ST_8: stg_58 [1/1] 0.00ns
:0  ret void



============================================================
+ Verbose Summary: Binding
============================================================
STG Binding: 
---------------- STG Properties BEGIN ----------------
- Is combinational: 0
- Is one-state seq: 0
- Is datapath-only: 0
- Is clock enabled: 0
- Is pipelined: 0
- Is top level: 0
Port [ Return ] is wired: 1; IO mode=ap_ctrl_hs:ce=0
Port [ real_arr4_0]:  wired=1; compound=0; hidden=0; nouse=0; global=1; static=0; extern=0; dir=0; type=0; mode=0x2000b20d580; pingpong=0; private_global=0; linkage=0; visibility=0; IO mode=ap_none:ce=0
Port [ real_arr4_2]:  wired=1; compound=0; hidden=0; nouse=0; global=1; static=0; extern=0; dir=0; type=0; mode=0x2000b20e270; pingpong=0; private_global=0; linkage=0; visibility=0; IO mode=ap_none:ce=0
Port [ real_arr4_1]:  wired=1; compound=0; hidden=0; nouse=0; global=1; static=0; extern=0; dir=0; type=0; mode=0x2000b20d7c0; pingpong=0; private_global=0; linkage=0; visibility=0; IO mode=ap_none:ce=0
Port [ real_arr4_3]:  wired=1; compound=0; hidden=0; nouse=0; global=1; static=0; extern=0; dir=0; type=0; mode=0x2000b20dc40; pingpong=0; private_global=0; linkage=0; visibility=0; IO mode=ap_none:ce=0
Port [ imag_arr4_0]:  wired=1; compound=0; hidden=0; nouse=0; global=1; static=0; extern=0; dir=0; type=0; mode=0x2000b20e300; pingpong=0; private_global=0; linkage=0; visibility=0; IO mode=ap_none:ce=0
Port [ imag_arr4_2]:  wired=1; compound=0; hidden=0; nouse=0; global=1; static=0; extern=0; dir=0; type=0; mode=0x2000b20cbf0; pingpong=0; private_global=0; linkage=0; visibility=0; IO mode=ap_none:ce=0
Port [ imag_arr4_1]:  wired=1; compound=0; hidden=0; nouse=0; global=1; static=0; extern=0; dir=0; type=0; mode=0x2000b20e660; pingpong=0; private_global=0; linkage=0; visibility=0; IO mode=ap_none:ce=0
Port [ imag_arr4_3]:  wired=1; compound=0; hidden=0; nouse=0; global=1; static=0; extern=0; dir=0; type=0; mode=0x2000b20e6f0; pingpong=0; private_global=0; linkage=0; visibility=0; IO mode=ap_none:ce=0
Port [ imag_arr2_0]:  wired=1; compound=0; hidden=0; nouse=0; global=1; static=0; extern=0; dir=1; type=0; mode=0x2000b20cb60; pingpong=0; private_global=0; linkage=0; visibility=0; IO mode=ap_vld:ce=0
Port [ imag_arr2_1]:  wired=1; compound=0; hidden=0; nouse=0; global=1; static=0; extern=0; dir=1; type=0; mode=0x2000b20da90; pingpong=0; private_global=0; linkage=0; visibility=0; IO mode=ap_vld:ce=0
Port [ real_arr2_0]:  wired=1; compound=0; hidden=0; nouse=0; global=1; static=0; extern=0; dir=1; type=0; mode=0x2000b20db20; pingpong=0; private_global=0; linkage=0; visibility=0; IO mode=ap_vld:ce=0
Port [ real_arr2_1]:  wired=1; compound=0; hidden=0; nouse=0; global=1; static=0; extern=0; dir=1; type=0; mode=0x2000b20e8a0; pingpong=0; private_global=0; linkage=0; visibility=0; IO mode=ap_vld:ce=0
---------------- STG Properties END ------------------

---------------- Datapath Model BEGIN ----------------

<LifeTime>
<method=bitvector/>
real_arr4_0_load     (load             ) [ 001111110]
real_arr4_2_load     (load             ) [ 001111110]
real_arr4_1_load     (load             ) [ 001111110]
real_arr4_3_load     (load             ) [ 001111110]
imag_arr4_0_load     (load             ) [ 001111110]
imag_arr4_2_load     (load             ) [ 001111110]
imag_arr4_1_load     (load             ) [ 001111110]
imag_arr4_3_load     (load             ) [ 001111110]
stg_17               (br               ) [ 011111110]
p_s                  (phi              ) [ 001000000]
p_1                  (phi              ) [ 001000000]
exitcond             (icmp             ) [ 001111110]
i_V                  (add              ) [ 011111110]
stg_22               (br               ) [ 000000000]
tmp_25               (trunc            ) [ 000000000]
cond                 (icmp             ) [ 001100000]
r_V                  (or               ) [ 000000000]
cond1                (icmp             ) [ 001100000]
tmp_26               (trunc            ) [ 001111110]
stg_28               (br               ) [ 000000000]
stg_29               (br               ) [ 000000000]
j_V                  (add              ) [ 011111110]
real_arr4_load_phi   (select           ) [ 001011110]
real_arr4_load_1_phi (select           ) [ 001011110]
imag_arr4_load_phi   (select           ) [ 001011110]
imag_arr4_load_1_phi (select           ) [ 001011110]
empty                (speclooptripcount) [ 000000000]
tmp                  (specregionbegin  ) [ 000000000]
stg_45               (specpipeline     ) [ 000000000]
tmp_s                (fadd             ) [ 000000000]
stg_47               (store            ) [ 000000000]
stg_48               (br               ) [ 000000000]
stg_49               (store            ) [ 000000000]
stg_50               (br               ) [ 000000000]
tmp_1                (fadd             ) [ 000000000]
stg_52               (store            ) [ 000000000]
stg_53               (br               ) [ 000000000]
stg_54               (store            ) [ 000000000]
stg_55               (br               ) [ 000000000]
empty_11             (specregionend    ) [ 000000000]
stg_57               (br               ) [ 011111110]
stg_58               (ret              ) [ 000000000]
</LifeTime>

<model>

<comp_list>
<comp id="0" class="1000" name="real_arr4_0">
<pin_list>
<pin id="1" dir="1" index="0" bw="1" slack="0"/>
</pin_list>
<bind>
<StgValue><ssdm name="real_arr4_0"/></StgValue>
</bind>
</comp>

<comp id="2" class="1000" name="real_arr4_2">
<pin_list>
<pin id="3" dir="1" index="0" bw="1" slack="0"/>
</pin_list>
<bind>
<StgValue><ssdm name="real_arr4_2"/></StgValue>
</bind>
</comp>

<comp id="4" class="1000" name="real_arr4_1">
<pin_list>
<pin id="5" dir="1" index="0" bw="1" slack="0"/>
</pin_list>
<bind>
<StgValue><ssdm name="real_arr4_1"/></StgValue>
</bind>
</comp>

<comp id="6" class="1000" name="real_arr4_3">
<pin_list>
<pin id="7" dir="1" index="0" bw="1" slack="0"/>
</pin_list>
<bind>
<StgValue><ssdm name="real_arr4_3"/></StgValue>
</bind>
</comp>

<comp id="8" class="1000" name="imag_arr4_0">
<pin_list>
<pin id="9" dir="1" index="0" bw="1" slack="0"/>
</pin_list>
<bind>
<StgValue><ssdm name="imag_arr4_0"/></StgValue>
</bind>
</comp>

<comp id="10" class="1000" name="imag_arr4_2">
<pin_list>
<pin id="11" dir="1" index="0" bw="1" slack="0"/>
</pin_list>
<bind>
<StgValue><ssdm name="imag_arr4_2"/></StgValue>
</bind>
</comp>

<comp id="12" class="1000" name="imag_arr4_1">
<pin_list>
<pin id="13" dir="1" index="0" bw="1" slack="0"/>
</pin_list>
<bind>
<StgValue><ssdm name="imag_arr4_1"/></StgValue>
</bind>
</comp>

<comp id="14" class="1000" name="imag_arr4_3">
<pin_list>
<pin id="15" dir="1" index="0" bw="1" slack="0"/>
</pin_list>
<bind>
<StgValue><ssdm name="imag_arr4_3"/></StgValue>
</bind>
</comp>

<comp id="16" class="1000" name="imag_arr2_0">
<pin_list>
<pin id="17" dir="1" index="0" bw="1" slack="0"/>
</pin_list>
<bind>
<StgValue><ssdm name="imag_arr2_0"/></StgValue>
</bind>
</comp>

<comp id="18" class="1000" name="imag_arr2_1">
<pin_list>
<pin id="19" dir="1" index="0" bw="1" slack="0"/>
</pin_list>
<bind>
<StgValue><ssdm name="imag_arr2_1"/></StgValue>
</bind>
</comp>

<comp id="20" class="1000" name="real_arr2_0">
<pin_list>
<pin id="21" dir="1" index="0" bw="1" slack="0"/>
</pin_list>
<bind>
<StgValue><ssdm name="real_arr2_0"/></StgValue>
</bind>
</comp>

<comp id="22" class="1000" name="real_arr2_1">
<pin_list>
<pin id="23" dir="1" index="0" bw="1" slack="0"/>
</pin_list>
<bind>
<StgValue><ssdm name="real_arr2_1"/></StgValue>
</bind>
</comp>

<comp id="24" class="1001" name="const_24">
<pin_list>
<pin id="25" dir="1" index="0" bw="1" slack="1"/>
</pin_list>
<bind>
<StgValue><ssdm name=""/></StgValue>
</bind>
</comp>

<comp id="26" class="1001" name="const_26">
<pin_list>
<pin id="27" dir="1" index="0" bw="1" slack="0"/>
</pin_list>
<bind>
<StgValue><ssdm name=""/></StgValue>
</bind>
</comp>

<comp id="28" class="1001" name="const_28">
<pin_list>
<pin id="29" dir="1" index="0" bw="1" slack="0"/>
</pin_list>
<bind>
<StgValue><ssdm name=""/></StgValue>
</bind>
</comp>

<comp id="30" class="1001" name="const_30">
<pin_list>
<pin id="31" dir="1" index="0" bw="1" slack="0"/>
</pin_list>
<bind>
<StgValue><ssdm name=""/></StgValue>
</bind>
</comp>

<comp id="32" class="1001" name="const_32">
<pin_list>
<pin id="33" dir="1" index="0" bw="1" slack="0"/>
</pin_list>
<bind>
<StgValue><ssdm name=""/></StgValue>
</bind>
</comp>

<comp id="34" class="1001" name="const_34">
<pin_list>
<pin id="35" dir="1" index="0" bw="1" slack="2147483647"/>
</pin_list>
<bind>
<StgValue><ssdm name="_ssdm_op_SpecLoopTripCount"/></StgValue>
</bind>
</comp>

<comp id="36" class="1001" name="const_36">
<pin_list>
<pin id="37" dir="1" index="0" bw="1" slack="2147483647"/>
</pin_list>
<bind>
<StgValue><ssdm name=""/></StgValue>
</bind>
</comp>

<comp id="38" class="1001" name="const_38">
<pin_list>
<pin id="39" dir="1" index="0" bw="1" slack="2147483647"/>
</pin_list>
<bind>
<StgValue><ssdm name="_ssdm_op_SpecRegionBegin"/></StgValue>
</bind>
</comp>

<comp id="40" class="1001" name="const_40">
<pin_list>
<pin id="41" dir="1" index="0" bw="1" slack="2147483647"/>
</pin_list>
<bind>
<StgValue><ssdm name="p_str8"/></StgValue>
</bind>
</comp>

<comp id="42" class="1001" name="const_42">
<pin_list>
<pin id="43" dir="1" index="0" bw="1" slack="2147483647"/>
</pin_list>
<bind>
<StgValue><ssdm name="_ssdm_op_SpecPipeline"/></StgValue>
</bind>
</comp>

<comp id="44" class="1001" name="const_44">
<pin_list>
<pin id="45" dir="1" index="0" bw="1" slack="2147483647"/>
</pin_list>
<bind>
<StgValue><ssdm name=""/></StgValue>
</bind>
</comp>

<comp id="46" class="1001" name="const_46">
<pin_list>
<pin id="47" dir="1" index="0" bw="1" slack="2147483647"/>
</pin_list>
<bind>
<StgValue><ssdm name=""/></StgValue>
</bind>
</comp>

<comp id="48" class="1001" name="const_48">
<pin_list>
<pin id="49" dir="1" index="0" bw="1" slack="2147483647"/>
</pin_list>
<bind>
<StgValue><ssdm name="p_str1"/></StgValue>
</bind>
</comp>

<comp id="50" class="1001" name="const_50">
<pin_list>
<pin id="51" dir="1" index="0" bw="1" slack="2147483647"/>
</pin_list>
<bind>
<StgValue><ssdm name="_ssdm_op_SpecRegionEnd"/></StgValue>
</bind>
</comp>

<comp id="52" class="1005" name="p_s_reg_52">
<pin_list>
<pin id="53" dir="0" index="0" bw="3" slack="1"/>
<pin id="54" dir="1" index="1" bw="3" slack="1"/>
</pin_list>
<bind>
<opset="p_s (phireg) "/>
</bind>
</comp>

<comp id="56" class="1004" name="p_s_phi_fu_56">
<pin_list>
<pin id="57" dir="0" index="0" bw="1" slack="1"/>
<pin id="58" dir="0" index="1" bw="0" slack="2147483647"/>
<pin id="59" dir="0" index="2" bw="3" slack="0"/>
<pin id="60" dir="0" index="3" bw="0" slack="2147483647"/>
<pin id="61" dir="1" index="4" bw="3" slack="0"/>
</pin_list>
<bind>
<opcode="phi(47) " fcode="phi"/>
<opset="p_s/2 "/>
</bind>
</comp>

<comp id="63" class="1005" name="p_1_reg_63">
<pin_list>
<pin id="64" dir="0" index="0" bw="2" slack="1"/>
<pin id="65" dir="1" index="1" bw="2" slack="1"/>
</pin_list>
<bind>
<opset="p_1 (phireg) "/>
</bind>
</comp>

<comp id="67" class="1004" name="p_1_phi_fu_67">
<pin_list>
<pin id="68" dir="0" index="0" bw="1" slack="1"/>
<pin id="69" dir="0" index="1" bw="0" slack="2147483647"/>
<pin id="70" dir="0" index="2" bw="2" slack="0"/>
<pin id="71" dir="0" index="3" bw="0" slack="2147483647"/>
<pin id="72" dir="1" index="4" bw="2" slack="0"/>
</pin_list>
<bind>
<opcode="phi(47) " fcode="phi"/>
<opset="p_1/2 "/>
</bind>
</comp>

<comp id="74" class="1004" name="grp_fu_74">
<pin_list>
<pin id="75" dir="0" index="0" bw="32" slack="0"/>
<pin id="76" dir="0" index="1" bw="32" slack="0"/>
<pin id="77" dir="1" index="2" bw="32" slack="0"/>
</pin_list>
<bind>
<opcode="fadd(9) " fcode="fadd"/>
<opset="tmp_s/3 "/>
</bind>
</comp>

<comp id="78" class="1004" name="grp_fu_78">
<pin_list>
<pin id="79" dir="0" index="0" bw="32" slack="0"/>
<pin id="80" dir="0" index="1" bw="32" slack="0"/>
<pin id="81" dir="1" index="2" bw="32" slack="0"/>
</pin_list>
<bind>
<opcode="fadd(9) " fcode="fadd"/>
<opset="tmp_1/3 "/>
</bind>
</comp>

<comp id="82" class="1004" name="real_arr4_0_load_load_fu_82">
<pin_list>
<pin id="83" dir="0" index="0" bw="32" slack="0"/>
<pin id="84" dir="1" index="1" bw="32" slack="2"/>
</pin_list>
<bind>
<opcode="load(27) " fcode="load"/>
<opset="real_arr4_0_load/1 "/>
</bind>
</comp>

<comp id="86" class="1004" name="real_arr4_2_load_load_fu_86">
<pin_list>
<pin id="87" dir="0" index="0" bw="32" slack="0"/>
<pin id="88" dir="1" index="1" bw="32" slack="2"/>
</pin_list>
<bind>
<opcode="load(27) " fcode="load"/>
<opset="real_arr4_2_load/1 "/>
</bind>
</comp>

<comp id="90" class="1004" name="real_arr4_1_load_load_fu_90">
<pin_list>
<pin id="91" dir="0" index="0" bw="32" slack="0"/>
<pin id="92" dir="1" index="1" bw="32" slack="2"/>
</pin_list>
<bind>
<opcode="load(27) " fcode="load"/>
<opset="real_arr4_1_load/1 "/>
</bind>
</comp>

<comp id="94" class="1004" name="real_arr4_3_load_load_fu_94">
<pin_list>
<pin id="95" dir="0" index="0" bw="32" slack="0"/>
<pin id="96" dir="1" index="1" bw="32" slack="2"/>
</pin_list>
<bind>
<opcode="load(27) " fcode="load"/>
<opset="real_arr4_3_load/1 "/>
</bind>
</comp>

<comp id="98" class="1004" name="imag_arr4_0_load_load_fu_98">
<pin_list>
<pin id="99" dir="0" index="0" bw="32" slack="0"/>
<pin id="100" dir="1" index="1" bw="32" slack="2"/>
</pin_list>
<bind>
<opcode="load(27) " fcode="load"/>
<opset="imag_arr4_0_load/1 "/>
</bind>
</comp>

<comp id="102" class="1004" name="imag_arr4_2_load_load_fu_102">
<pin_list>
<pin id="103" dir="0" index="0" bw="32" slack="0"/>
<pin id="104" dir="1" index="1" bw="32" slack="2"/>
</pin_list>
<bind>
<opcode="load(27) " fcode="load"/>
<opset="imag_arr4_2_load/1 "/>
</bind>
</comp>

<comp id="106" class="1004" name="imag_arr4_1_load_load_fu_106">
<pin_list>
<pin id="107" dir="0" index="0" bw="32" slack="0"/>
<pin id="108" dir="1" index="1" bw="32" slack="2"/>
</pin_list>
<bind>
<opcode="load(27) " fcode="load"/>
<opset="imag_arr4_1_load/1 "/>
</bind>
</comp>

<comp id="110" class="1004" name="imag_arr4_3_load_load_fu_110">
<pin_list>
<pin id="111" dir="0" index="0" bw="32" slack="0"/>
<pin id="112" dir="1" index="1" bw="32" slack="2"/>
</pin_list>
<bind>
<opcode="load(27) " fcode="load"/>
<opset="imag_arr4_3_load/1 "/>
</bind>
</comp>

<comp id="114" class="1004" name="exitcond_fu_114">
<pin_list>
<pin id="115" dir="0" index="0" bw="2" slack="0"/>
<pin id="116" dir="0" index="1" bw="1" slack="0"/>
<pin id="117" dir="1" index="2" bw="1" slack="5"/>
</pin_list>
<bind>
<opcode="icmp(45) " fcode="icmp"/>
<opset="exitcond/2 "/>
</bind>
</comp>

<comp id="120" class="1004" name="i_V_fu_120">
<pin_list>
<pin id="121" dir="0" index="0" bw="2" slack="0"/>
<pin id="122" dir="0" index="1" bw="1" slack="0"/>
<pin id="123" dir="1" index="2" bw="2" slack="0"/>
</pin_list>
<bind>
<opcode="add(8) " fcode="add"/>
<opset="i_V/2 "/>
</bind>
</comp>

<comp id="126" class="1004" name="tmp_25_fu_126">
<pin_list>
<pin id="127" dir="0" index="0" bw="3" slack="0"/>
<pin id="128" dir="1" index="1" bw="2" slack="0"/>
</pin_list>
<bind>
<opcode="trunc(33) " fcode="trunc"/>
<opset="tmp_25/2 "/>
</bind>
</comp>

<comp id="130" class="1004" name="cond_fu_130">
<pin_list>
<pin id="131" dir="0" index="0" bw="2" slack="0"/>
<pin id="132" dir="0" index="1" bw="1" slack="0"/>
<pin id="133" dir="1" index="2" bw="1" slack="1"/>
</pin_list>
<bind>
<opcode="icmp(45) " fcode="icmp"/>
<opset="cond/2 "/>
</bind>
</comp>

<comp id="136" class="1004" name="r_V_fu_136">
<pin_list>
<pin id="137" dir="0" index="0" bw="2" slack="0"/>
<pin id="138" dir="0" index="1" bw="1" slack="0"/>
<pin id="139" dir="1" index="2" bw="2" slack="0"/>
</pin_list>
<bind>
<opcode="or(24) " fcode="or"/>
<opset="r_V/2 "/>
</bind>
</comp>

<comp id="142" class="1004" name="cond1_fu_142">
<pin_list>
<pin id="143" dir="0" index="0" bw="2" slack="0"/>
<pin id="144" dir="0" index="1" bw="1" slack="0"/>
<pin id="145" dir="1" index="2" bw="1" slack="1"/>
</pin_list>
<bind>
<opcode="icmp(45) " fcode="icmp"/>
<opset="cond1/2 "/>
</bind>
</comp>

<comp id="148" class="1004" name="tmp_26_fu_148">
<pin_list>
<pin id="149" dir="0" index="0" bw="2" slack="0"/>
<pin id="150" dir="1" index="1" bw="1" slack="5"/>
</pin_list>
<bind>
<opcode="trunc(33) " fcode="trunc"/>
<opset="tmp_26/2 "/>
</bind>
</comp>

<comp id="152" class="1004" name="j_V_fu_152">
<pin_list>
<pin id="153" dir="0" index="0" bw="3" slack="0"/>
<pin id="154" dir="0" index="1" bw="3" slack="0"/>
<pin id="155" dir="1" index="2" bw="3" slack="0"/>
</pin_list>
<bind>
<opcode="add(8) " fcode="add"/>
<opset="j_V/2 "/>
</bind>
</comp>

<comp id="158" class="1004" name="real_arr4_load_phi_fu_158">
<pin_list>
<pin id="159" dir="0" index="0" bw="1" slack="1"/>
<pin id="160" dir="0" index="1" bw="32" slack="2"/>
<pin id="161" dir="0" index="2" bw="32" slack="2"/>
<pin id="162" dir="1" index="3" bw="32" slack="0"/>
</pin_list>
<bind>
<opcode="select(49) " fcode="select"/>
<opset="real_arr4_load_phi/3 "/>
</bind>
</comp>

<comp id="164" class="1004" name="real_arr4_load_1_phi_fu_164">
<pin_list>
<pin id="165" dir="0" index="0" bw="1" slack="1"/>
<pin id="166" dir="0" index="1" bw="32" slack="2"/>
<pin id="167" dir="0" index="2" bw="32" slack="2"/>
<pin id="168" dir="1" index="3" bw="32" slack="0"/>
</pin_list>
<bind>
<opcode="select(49) " fcode="select"/>
<opset="real_arr4_load_1_phi/3 "/>
</bind>
</comp>

<comp id="170" class="1004" name="imag_arr4_load_phi_fu_170">
<pin_list>
<pin id="171" dir="0" index="0" bw="1" slack="1"/>
<pin id="172" dir="0" index="1" bw="32" slack="2"/>
<pin id="173" dir="0" index="2" bw="32" slack="2"/>
<pin id="174" dir="1" index="3" bw="32" slack="0"/>
</pin_list>
<bind>
<opcode="select(49) " fcode="select"/>
<opset="imag_arr4_load_phi/3 "/>
</bind>
</comp>

<comp id="176" class="1004" name="imag_arr4_load_1_phi_fu_176">
<pin_list>
<pin id="177" dir="0" index="0" bw="1" slack="1"/>
<pin id="178" dir="0" index="1" bw="32" slack="2"/>
<pin id="179" dir="0" index="2" bw="32" slack="2"/>
<pin id="180" dir="1" index="3" bw="32" slack="0"/>
</pin_list>
<bind>
<opcode="select(49) " fcode="select"/>
<opset="imag_arr4_load_1_phi/3 "/>
</bind>
</comp>

<comp id="182" class="1004" name="stg_47_store_fu_182">
<pin_list>
<pin id="183" dir="0" index="0" bw="32" slack="0"/>
<pin id="184" dir="0" index="1" bw="32" slack="0"/>
<pin id="185" dir="1" index="2" bw="0" slack="2147483647"/>
</pin_list>
<bind>
<opcode="store(28) " fcode="store"/>
<opset="stg_47/7 "/>
</bind>
</comp>

<comp id="188" class="1004" name="stg_49_store_fu_188">
<pin_list>
<pin id="189" dir="0" index="0" bw="32" slack="0"/>
<pin id="190" dir="0" index="1" bw="32" slack="0"/>
<pin id="191" dir="1" index="2" bw="0" slack="2147483647"/>
</pin_list>
<bind>
<opcode="store(28) " fcode="store"/>
<opset="stg_49/7 "/>
</bind>
</comp>

<comp id="194" class="1004" name="stg_52_store_fu_194">
<pin_list>
<pin id="195" dir="0" index="0" bw="32" slack="0"/>
<pin id="196" dir="0" index="1" bw="32" slack="0"/>
<pin id="197" dir="1" index="2" bw="0" slack="2147483647"/>
</pin_list>
<bind>
<opcode="store(28) " fcode="store"/>
<opset="stg_52/7 "/>
</bind>
</comp>

<comp id="200" class="1004" name="stg_54_store_fu_200">
<pin_list>
<pin id="201" dir="0" index="0" bw="32" slack="0"/>
<pin id="202" dir="0" index="1" bw="32" slack="0"/>
<pin id="203" dir="1" index="2" bw="0" slack="2147483647"/>
</pin_list>
<bind>
<opcode="store(28) " fcode="store"/>
<opset="stg_54/7 "/>
</bind>
</comp>

<comp id="206" class="1005" name="real_arr4_0_load_reg_206">
<pin_list>
<pin id="207" dir="0" index="0" bw="32" slack="2"/>
<pin id="208" dir="1" index="1" bw="32" slack="2"/>
</pin_list>
<bind>
<opset="real_arr4_0_load "/>
</bind>
</comp>

<comp id="211" class="1005" name="real_arr4_2_load_reg_211">
<pin_list>
<pin id="212" dir="0" index="0" bw="32" slack="2"/>
<pin id="213" dir="1" index="1" bw="32" slack="2"/>
</pin_list>
<bind>
<opset="real_arr4_2_load "/>
</bind>
</comp>

<comp id="216" class="1005" name="real_arr4_1_load_reg_216">
<pin_list>
<pin id="217" dir="0" index="0" bw="32" slack="2"/>
<pin id="218" dir="1" index="1" bw="32" slack="2"/>
</pin_list>
<bind>
<opset="real_arr4_1_load "/>
</bind>
</comp>

<comp id="221" class="1005" name="real_arr4_3_load_reg_221">
<pin_list>
<pin id="222" dir="0" index="0" bw="32" slack="2"/>
<pin id="223" dir="1" index="1" bw="32" slack="2"/>
</pin_list>
<bind>
<opset="real_arr4_3_load "/>
</bind>
</comp>

<comp id="226" class="1005" name="imag_arr4_0_load_reg_226">
<pin_list>
<pin id="227" dir="0" index="0" bw="32" slack="2"/>
<pin id="228" dir="1" index="1" bw="32" slack="2"/>
</pin_list>
<bind>
<opset="imag_arr4_0_load "/>
</bind>
</comp>

<comp id="231" class="1005" name="imag_arr4_2_load_reg_231">
<pin_list>
<pin id="232" dir="0" index="0" bw="32" slack="2"/>
<pin id="233" dir="1" index="1" bw="32" slack="2"/>
</pin_list>
<bind>
<opset="imag_arr4_2_load "/>
</bind>
</comp>

<comp id="236" class="1005" name="imag_arr4_1_load_reg_236">
<pin_list>
<pin id="237" dir="0" index="0" bw="32" slack="2"/>
<pin id="238" dir="1" index="1" bw="32" slack="2"/>
</pin_list>
<bind>
<opset="imag_arr4_1_load "/>
</bind>
</comp>

<comp id="241" class="1005" name="imag_arr4_3_load_reg_241">
<pin_list>
<pin id="242" dir="0" index="0" bw="32" slack="2"/>
<pin id="243" dir="1" index="1" bw="32" slack="2"/>
</pin_list>
<bind>
<opset="imag_arr4_3_load "/>
</bind>
</comp>

<comp id="246" class="1005" name="exitcond_reg_246">
<pin_list>
<pin id="247" dir="0" index="0" bw="1" slack="5"/>
<pin id="248" dir="1" index="1" bw="1" slack="2147483647"/>
</pin_list>
<bind>
<opset="exitcond "/>
</bind>
</comp>

<comp id="250" class="1005" name="i_V_reg_250">
<pin_list>
<pin id="251" dir="0" index="0" bw="2" slack="0"/>
<pin id="252" dir="1" index="1" bw="2" slack="0"/>
</pin_list>
<bind>
<opset="i_V "/>
</bind>
</comp>

<comp id="255" class="1005" name="cond_reg_255">
<pin_list>
<pin id="256" dir="0" index="0" bw="1" slack="1"/>
<pin id="257" dir="1" index="1" bw="1" slack="1"/>
</pin_list>
<bind>
<opset="cond "/>
</bind>
</comp>

<comp id="261" class="1005" name="cond1_reg_261">
<pin_list>
<pin id="262" dir="0" index="0" bw="1" slack="1"/>
<pin id="263" dir="1" index="1" bw="1" slack="1"/>
</pin_list>
<bind>
<opset="cond1 "/>
</bind>
</comp>

<comp id="267" class="1005" name="tmp_26_reg_267">
<pin_list>
<pin id="268" dir="0" index="0" bw="1" slack="5"/>
<pin id="269" dir="1" index="1" bw="1" slack="2147483647"/>
</pin_list>
<bind>
<opset="tmp_26 "/>
</bind>
</comp>

<comp id="271" class="1005" name="j_V_reg_271">
<pin_list>
<pin id="272" dir="0" index="0" bw="3" slack="0"/>
<pin id="273" dir="1" index="1" bw="3" slack="0"/>
</pin_list>
<bind>
<opset="j_V "/>
</bind>
</comp>

<comp id="276" class="1005" name="real_arr4_load_phi_reg_276">
<pin_list>
<pin id="277" dir="0" index="0" bw="32" slack="1"/>
<pin id="278" dir="1" index="1" bw="32" slack="1"/>
</pin_list>
<bind>
<opset="real_arr4_load_phi "/>
</bind>
</comp>

<comp id="281" class="1005" name="real_arr4_load_1_phi_reg_281">
<pin_list>
<pin id="282" dir="0" index="0" bw="32" slack="1"/>
<pin id="283" dir="1" index="1" bw="32" slack="1"/>
</pin_list>
<bind>
<opset="real_arr4_load_1_phi "/>
</bind>
</comp>

<comp id="286" class="1005" name="imag_arr4_load_phi_reg_286">
<pin_list>
<pin id="287" dir="0" index="0" bw="32" slack="1"/>
<pin id="288" dir="1" index="1" bw="32" slack="1"/>
</pin_list>
<bind>
<opset="imag_arr4_load_phi "/>
</bind>
</comp>

<comp id="291" class="1005" name="imag_arr4_load_1_phi_reg_291">
<pin_list>
<pin id="292" dir="0" index="0" bw="32" slack="1"/>
<pin id="293" dir="1" index="1" bw="32" slack="1"/>
</pin_list>
<bind>
<opset="imag_arr4_load_1_phi "/>
</bind>
</comp>

</comp_list>

<net_list>
<net id="55"><net_src comp="24" pin="0"/><net_sink comp="52" pin=0"/></net>

<net id="62"><net_src comp="52" pin="1"/><net_sink comp="56" pin=0"/></net>

<net id="66"><net_src comp="26" pin="0"/><net_sink comp="63" pin=0"/></net>

<net id="73"><net_src comp="63" pin="1"/><net_sink comp="67" pin=0"/></net>

<net id="85"><net_src comp="0" pin="0"/><net_sink comp="82" pin=0"/></net>

<net id="89"><net_src comp="2" pin="0"/><net_sink comp="86" pin=0"/></net>

<net id="93"><net_src comp="4" pin="0"/><net_sink comp="90" pin=0"/></net>

<net id="97"><net_src comp="6" pin="0"/><net_sink comp="94" pin=0"/></net>

<net id="101"><net_src comp="8" pin="0"/><net_sink comp="98" pin=0"/></net>

<net id="105"><net_src comp="10" pin="0"/><net_sink comp="102" pin=0"/></net>

<net id="109"><net_src comp="12" pin="0"/><net_sink comp="106" pin=0"/></net>

<net id="113"><net_src comp="14" pin="0"/><net_sink comp="110" pin=0"/></net>

<net id="118"><net_src comp="67" pin="4"/><net_sink comp="114" pin=0"/></net>

<net id="119"><net_src comp="28" pin="0"/><net_sink comp="114" pin=1"/></net>

<net id="124"><net_src comp="67" pin="4"/><net_sink comp="120" pin=0"/></net>

<net id="125"><net_src comp="30" pin="0"/><net_sink comp="120" pin=1"/></net>

<net id="129"><net_src comp="56" pin="4"/><net_sink comp="126" pin=0"/></net>

<net id="134"><net_src comp="126" pin="1"/><net_sink comp="130" pin=0"/></net>

<net id="135"><net_src comp="26" pin="0"/><net_sink comp="130" pin=1"/></net>

<net id="140"><net_src comp="126" pin="1"/><net_sink comp="136" pin=0"/></net>

<net id="141"><net_src comp="30" pin="0"/><net_sink comp="136" pin=1"/></net>

<net id="146"><net_src comp="136" pin="2"/><net_sink comp="142" pin=0"/></net>

<net id="147"><net_src comp="30" pin="0"/><net_sink comp="142" pin=1"/></net>

<net id="151"><net_src comp="67" pin="4"/><net_sink comp="148" pin=0"/></net>

<net id="156"><net_src comp="56" pin="4"/><net_sink comp="152" pin=0"/></net>

<net id="157"><net_src comp="32" pin="0"/><net_sink comp="152" pin=1"/></net>

<net id="163"><net_src comp="158" pin="3"/><net_sink comp="74" pin=0"/></net>

<net id="169"><net_src comp="164" pin="3"/><net_sink comp="74" pin=1"/></net>

<net id="175"><net_src comp="170" pin="3"/><net_sink comp="78" pin=0"/></net>

<net id="181"><net_src comp="176" pin="3"/><net_sink comp="78" pin=1"/></net>

<net id="186"><net_src comp="74" pin="2"/><net_sink comp="182" pin=0"/></net>

<net id="187"><net_src comp="20" pin="0"/><net_sink comp="182" pin=1"/></net>

<net id="192"><net_src comp="74" pin="2"/><net_sink comp="188" pin=0"/></net>

<net id="193"><net_src comp="22" pin="0"/><net_sink comp="188" pin=1"/></net>

<net id="198"><net_src comp="78" pin="2"/><net_sink comp="194" pin=0"/></net>

<net id="199"><net_src comp="16" pin="0"/><net_sink comp="194" pin=1"/></net>

<net id="204"><net_src comp="78" pin="2"/><net_sink comp="200" pin=0"/></net>

<net id="205"><net_src comp="18" pin="0"/><net_sink comp="200" pin=1"/></net>

<net id="209"><net_src comp="82" pin="1"/><net_sink comp="206" pin=0"/></net>

<net id="210"><net_src comp="206" pin="1"/><net_sink comp="158" pin=1"/></net>

<net id="214"><net_src comp="86" pin="1"/><net_sink comp="211" pin=0"/></net>

<net id="215"><net_src comp="211" pin="1"/><net_sink comp="158" pin=2"/></net>

<net id="219"><net_src comp="90" pin="1"/><net_sink comp="216" pin=0"/></net>

<net id="220"><net_src comp="216" pin="1"/><net_sink comp="164" pin=1"/></net>

<net id="224"><net_src comp="94" pin="1"/><net_sink comp="221" pin=0"/></net>

<net id="225"><net_src comp="221" pin="1"/><net_sink comp="164" pin=2"/></net>

<net id="229"><net_src comp="98" pin="1"/><net_sink comp="226" pin=0"/></net>

<net id="230"><net_src comp="226" pin="1"/><net_sink comp="170" pin=1"/></net>

<net id="234"><net_src comp="102" pin="1"/><net_sink comp="231" pin=0"/></net>

<net id="235"><net_src comp="231" pin="1"/><net_sink comp="170" pin=2"/></net>

<net id="239"><net_src comp="106" pin="1"/><net_sink comp="236" pin=0"/></net>

<net id="240"><net_src comp="236" pin="1"/><net_sink comp="176" pin=1"/></net>

<net id="244"><net_src comp="110" pin="1"/><net_sink comp="241" pin=0"/></net>

<net id="245"><net_src comp="241" pin="1"/><net_sink comp="176" pin=2"/></net>

<net id="249"><net_src comp="114" pin="2"/><net_sink comp="246" pin=0"/></net>

<net id="253"><net_src comp="120" pin="2"/><net_sink comp="250" pin=0"/></net>

<net id="254"><net_src comp="250" pin="1"/><net_sink comp="67" pin=2"/></net>

<net id="258"><net_src comp="130" pin="2"/><net_sink comp="255" pin=0"/></net>

<net id="259"><net_src comp="255" pin="1"/><net_sink comp="158" pin=0"/></net>

<net id="260"><net_src comp="255" pin="1"/><net_sink comp="170" pin=0"/></net>

<net id="264"><net_src comp="142" pin="2"/><net_sink comp="261" pin=0"/></net>

<net id="265"><net_src comp="261" pin="1"/><net_sink comp="164" pin=0"/></net>

<net id="266"><net_src comp="261" pin="1"/><net_sink comp="176" pin=0"/></net>

<net id="270"><net_src comp="148" pin="1"/><net_sink comp="267" pin=0"/></net>

<net id="274"><net_src comp="152" pin="2"/><net_sink comp="271" pin=0"/></net>

<net id="275"><net_src comp="271" pin="1"/><net_sink comp="56" pin=2"/></net>

<net id="279"><net_src comp="158" pin="3"/><net_sink comp="276" pin=0"/></net>

<net id="280"><net_src comp="276" pin="1"/><net_sink comp="74" pin=0"/></net>

<net id="284"><net_src comp="164" pin="3"/><net_sink comp="281" pin=0"/></net>

<net id="285"><net_src comp="281" pin="1"/><net_sink comp="74" pin=1"/></net>

<net id="289"><net_src comp="170" pin="3"/><net_sink comp="286" pin=0"/></net>

<net id="290"><net_src comp="286" pin="1"/><net_sink comp="78" pin=0"/></net>

<net id="294"><net_src comp="176" pin="3"/><net_sink comp="291" pin=0"/></net>

<net id="295"><net_src comp="291" pin="1"/><net_sink comp="78" pin=1"/></net>

</net_list>

</model> 
---------------- Datapath Model END ------------------

* FSMD analyzer results:
  - Output states:
  - Chain level:
	State 1
	State 2
		exitcond : 1
		i_V : 1
		stg_22 : 2
		tmp_25 : 1
		cond : 2
		r_V : 2
		cond1 : 2
		tmp_26 : 1
		stg_28 : 2
		stg_29 : 2
		j_V : 1
	State 3
		tmp_s : 1
		tmp_1 : 1
	State 4
	State 5
	State 6
	State 7
		stg_47 : 1
		stg_49 : 1
		stg_52 : 1
		stg_54 : 1
		empty_11 : 1
	State 8


============================================================
+ Verbose Summary: Datapath Resource usage 
============================================================

* Functional unit list:
|----------|-----------------------------|---------|---------|---------|
| Operation|       Functional Unit       |  DSP48E |    FF   |   LUT   |
|----------|-----------------------------|---------|---------|---------|
|   fadd   |          grp_fu_74          |    2    |   205   |   390   |
|          |          grp_fu_78          |    2    |   205   |   390   |
|----------|-----------------------------|---------|---------|---------|
|          |  real_arr4_load_phi_fu_158  |    0    |    0    |    32   |
|  select  | real_arr4_load_1_phi_fu_164 |    0    |    0    |    32   |
|          |  imag_arr4_load_phi_fu_170  |    0    |    0    |    32   |
|          | imag_arr4_load_1_phi_fu_176 |    0    |    0    |    32   |
|----------|-----------------------------|---------|---------|---------|
|    add   |          i_V_fu_120         |    0    |    0    |    2    |
|          |          j_V_fu_152         |    0    |    0    |    3    |
|----------|-----------------------------|---------|---------|---------|
|          |       exitcond_fu_114       |    0    |    0    |    1    |
|   icmp   |         cond_fu_130         |    0    |    0    |    1    |
|          |         cond1_fu_142        |    0    |    0    |    1    |
|----------|-----------------------------|---------|---------|---------|
|   trunc  |        tmp_25_fu_126        |    0    |    0    |    0    |
|          |        tmp_26_fu_148        |    0    |    0    |    0    |
|----------|-----------------------------|---------|---------|---------|
|    or    |          r_V_fu_136         |    0    |    0    |    0    |
|----------|-----------------------------|---------|---------|---------|
|   Total  |                             |    4    |   410   |   916   |
|----------|-----------------------------|---------|---------|---------|

Memories:
N/A

* Register list:
+----------------------------+--------+
|                            |   FF   |
+----------------------------+--------+
|        cond1_reg_261       |    1   |
|        cond_reg_255        |    1   |
|      exitcond_reg_246      |    1   |
|         i_V_reg_250        |    2   |
|  imag_arr4_0_load_reg_226  |   32   |
|  imag_arr4_1_load_reg_236  |   32   |
|  imag_arr4_2_load_reg_231  |   32   |
|  imag_arr4_3_load_reg_241  |   32   |
|imag_arr4_load_1_phi_reg_291|   32   |
| imag_arr4_load_phi_reg_286 |   32   |
|         j_V_reg_271        |    3   |
|         p_1_reg_63         |    2   |
|         p_s_reg_52         |    3   |
|  real_arr4_0_load_reg_206  |   32   |
|  real_arr4_1_load_reg_216  |   32   |
|  real_arr4_2_load_reg_211  |   32   |
|  real_arr4_3_load_reg_221  |   32   |
|real_arr4_load_1_phi_reg_281|   32   |
| real_arr4_load_phi_reg_276 |   32   |
|       tmp_26_reg_267       |    1   |
+----------------------------+--------+
|            Total           |   398  |
+----------------------------+--------+

* Multiplexer (MUX) list: 
|-----------|------|------|------|--------||---------||---------|
|    Comp   |  Pin | Size |  BW  | S x BW ||  Delay  ||   LUT   |
|-----------|------|------|------|--------||---------||---------|
| grp_fu_74 |  p0  |   2  |  32  |   64   ||    32   |
| grp_fu_74 |  p1  |   2  |  32  |   64   ||    32   |
| grp_fu_78 |  p0  |   2  |  32  |   64   ||    32   |
| grp_fu_78 |  p1  |   2  |  32  |   64   ||    32   |
|-----------|------|------|------|--------||---------||---------|
|   Total   |      |      |      |   256  ||  6.284  ||   128   |
|-----------|------|------|------|--------||---------||---------|



* Summary:
+-----------+--------+--------+--------+--------+
|           | DSP48E |  Delay |   FF   |   LUT  |
+-----------+--------+--------+--------+--------+
|  Function |    4   |    -   |   410  |   916  |
|   Memory  |    -   |    -   |    -   |    -   |
|Multiplexer|    -   |    6   |    -   |   128  |
|  Register |    -   |    -   |   398  |    -   |
+-----------+--------+--------+--------+--------+
|   Total   |    4   |    6   |   808  |  1044  |
+-----------+--------+--------+--------+--------+
