; ModuleID = 'D:/Projects/vivado/Project_2/HLS/phasedetector/phasedetector/phasedectector_optimized1/.autopilot/db/a.o.2.bc'
target datalayout = "e-p:64:64:64-i1:8:8-i8:8:8-i16:16:16-i32:32:32-i64:64:64-f32:32:32-f64:64:64-v64:64:64-v128:128:128-a0:0:64-s0:64:64-f80:128:128-n8:16:32:64-S128"
target triple = "x86_64-w64-mingw32"

@shift_reg_V_7_2 = internal unnamed_addr global i19 0
@shift_reg_V_7_1 = internal unnamed_addr global i19 0
@shift_reg_V_7_0 = internal unnamed_addr global i19 0
@shift_reg_V_6_3 = internal unnamed_addr global i19 0
@shift_reg_V_6_2 = internal unnamed_addr global i19 0
@shift_reg_V_6_1 = internal unnamed_addr global i19 0
@shift_reg_V_6_0 = internal unnamed_addr global i19 0
@shift_reg_V_5_3 = internal unnamed_addr global i19 0
@shift_reg_V_5_2 = internal unnamed_addr global i19 0
@shift_reg_V_5_1 = internal unnamed_addr global i19 0
@shift_reg_V_5_0 = internal unnamed_addr global i19 0
@shift_reg_V_4_3 = internal unnamed_addr global i19 0
@shift_reg_V_4_2 = internal unnamed_addr global i19 0
@shift_reg_V_4_1 = internal unnamed_addr global i19 0
@shift_reg_V_4_0 = internal unnamed_addr global i19 0
@shift_reg_V_376_3 = internal unnamed_addr global i19 0
@shift_reg_V_376_2 = internal unnamed_addr global i19 0
@shift_reg_V_376_1 = internal unnamed_addr global i19 0
@shift_reg_V_376_0 = internal unnamed_addr global i19 0
@shift_reg_V_3_7_2 = internal unnamed_addr global i19 0
@shift_reg_V_3_7_1 = internal unnamed_addr global i19 0
@shift_reg_V_3_7_0 = internal unnamed_addr global i19 0
@shift_reg_V_3_6_3 = internal unnamed_addr global i19 0
@shift_reg_V_3_6_2 = internal unnamed_addr global i19 0
@shift_reg_V_3_6_1 = internal unnamed_addr global i19 0
@shift_reg_V_3_6_0 = internal unnamed_addr global i19 0
@shift_reg_V_3_5_3 = internal unnamed_addr global i19 0
@shift_reg_V_3_5_2 = internal unnamed_addr global i19 0
@shift_reg_V_3_5_1 = internal unnamed_addr global i19 0
@shift_reg_V_3_5_0 = internal unnamed_addr global i19 0
@shift_reg_V_3_4_3 = internal unnamed_addr global i19 0
@shift_reg_V_3_4_2 = internal unnamed_addr global i19 0
@shift_reg_V_3_4_1 = internal unnamed_addr global i19 0
@shift_reg_V_3_4_0 = internal unnamed_addr global i19 0
@shift_reg_V_3_3_3 = internal unnamed_addr global i19 0
@shift_reg_V_3_3_2 = internal unnamed_addr global i19 0
@shift_reg_V_3_3_1 = internal unnamed_addr global i19 0
@shift_reg_V_3_3_0 = internal unnamed_addr global i19 0
@shift_reg_V_3_2_3 = internal unnamed_addr global i19 0
@shift_reg_V_3_2_2 = internal unnamed_addr global i19 0
@shift_reg_V_3_2_1 = internal unnamed_addr global i19 0
@shift_reg_V_3_2_0 = internal unnamed_addr global i19 0
@shift_reg_V_3_1_3 = internal unnamed_addr global i19 0
@shift_reg_V_3_1_2 = internal unnamed_addr global i19 0
@shift_reg_V_3_1_1 = internal unnamed_addr global i19 0
@shift_reg_V_3_1_0 = internal unnamed_addr global i19 0
@shift_reg_V_3_0_3 = internal unnamed_addr global i19 0
@shift_reg_V_3_0_2 = internal unnamed_addr global i19 0
@shift_reg_V_3_0_1 = internal unnamed_addr global i19 0
@shift_reg_V_3_0_0 = internal unnamed_addr global i19 0
@shift_reg_V_275_3 = internal unnamed_addr global i19 0
@shift_reg_V_275_2 = internal unnamed_addr global i19 0
@shift_reg_V_275_1 = internal unnamed_addr global i19 0
@shift_reg_V_275_0 = internal unnamed_addr global i19 0
@shift_reg_V_2_7_2 = internal unnamed_addr global i19 0
@shift_reg_V_2_7_1 = internal unnamed_addr global i19 0
@shift_reg_V_2_7_0 = internal unnamed_addr global i19 0
@shift_reg_V_2_6_3 = internal unnamed_addr global i19 0
@shift_reg_V_2_6_2 = internal unnamed_addr global i19 0
@shift_reg_V_2_6_1 = internal unnamed_addr global i19 0
@shift_reg_V_2_6_0 = internal unnamed_addr global i19 0
@shift_reg_V_2_5_3 = internal unnamed_addr global i19 0
@shift_reg_V_2_5_2 = internal unnamed_addr global i19 0
@shift_reg_V_2_5_1 = internal unnamed_addr global i19 0
@shift_reg_V_2_5_0 = internal unnamed_addr global i19 0
@shift_reg_V_2_4_3 = internal unnamed_addr global i19 0
@shift_reg_V_2_4_2 = internal unnamed_addr global i19 0
@shift_reg_V_2_4_1 = internal unnamed_addr global i19 0
@shift_reg_V_2_4_0 = internal unnamed_addr global i19 0
@shift_reg_V_2_3_3 = internal unnamed_addr global i19 0
@shift_reg_V_2_3_2 = internal unnamed_addr global i19 0
@shift_reg_V_2_3_1 = internal unnamed_addr global i19 0
@shift_reg_V_2_3_0 = internal unnamed_addr global i19 0
@shift_reg_V_2_2_3 = internal unnamed_addr global i19 0
@shift_reg_V_2_2_2 = internal unnamed_addr global i19 0
@shift_reg_V_2_2_1 = internal unnamed_addr global i19 0
@shift_reg_V_2_2_0 = internal unnamed_addr global i19 0
@shift_reg_V_2_1_3 = internal unnamed_addr global i19 0
@shift_reg_V_2_1_2 = internal unnamed_addr global i19 0
@shift_reg_V_2_1_1 = internal unnamed_addr global i19 0
@shift_reg_V_2_1_0 = internal unnamed_addr global i19 0
@shift_reg_V_2_0_3 = internal unnamed_addr global i19 0
@shift_reg_V_2_0_2 = internal unnamed_addr global i19 0
@shift_reg_V_2_0_1 = internal unnamed_addr global i19 0
@shift_reg_V_2_0_0 = internal unnamed_addr global i19 0
@shift_reg_V_174_3 = internal unnamed_addr global i19 0
@shift_reg_V_174_2 = internal unnamed_addr global i19 0
@shift_reg_V_174_1 = internal unnamed_addr global i19 0
@shift_reg_V_174_0 = internal unnamed_addr global i19 0
@shift_reg_V_1_7_2 = internal unnamed_addr global i19 0
@shift_reg_V_1_7_1 = internal unnamed_addr global i19 0
@shift_reg_V_1_7_0 = internal unnamed_addr global i19 0
@shift_reg_V_1_6_3 = internal unnamed_addr global i19 0
@shift_reg_V_1_6_2 = internal unnamed_addr global i19 0
@shift_reg_V_1_6_1 = internal unnamed_addr global i19 0
@shift_reg_V_1_6_0 = internal unnamed_addr global i19 0
@shift_reg_V_1_5_3 = internal unnamed_addr global i19 0
@shift_reg_V_1_5_2 = internal unnamed_addr global i19 0
@shift_reg_V_1_5_1 = internal unnamed_addr global i19 0
@shift_reg_V_1_5_0 = internal unnamed_addr global i19 0
@shift_reg_V_1_4_3 = internal unnamed_addr global i19 0
@shift_reg_V_1_4_2 = internal unnamed_addr global i19 0
@shift_reg_V_1_4_1 = internal unnamed_addr global i19 0
@shift_reg_V_1_4_0 = internal unnamed_addr global i19 0
@shift_reg_V_1_3_3 = internal unnamed_addr global i19 0
@shift_reg_V_1_3_2 = internal unnamed_addr global i19 0
@shift_reg_V_1_3_1 = internal unnamed_addr global i19 0
@shift_reg_V_1_3_0 = internal unnamed_addr global i19 0
@shift_reg_V_1_2_3 = internal unnamed_addr global i19 0
@shift_reg_V_1_2_2 = internal unnamed_addr global i19 0
@shift_reg_V_1_2_1 = internal unnamed_addr global i19 0
@shift_reg_V_1_2_0 = internal unnamed_addr global i19 0
@shift_reg_V_1_1_3 = internal unnamed_addr global i19 0
@shift_reg_V_1_1_2 = internal unnamed_addr global i19 0
@shift_reg_V_1_1_1 = internal unnamed_addr global i19 0
@shift_reg_V_1_1_0 = internal unnamed_addr global i19 0
@shift_reg_V_1_0_3 = internal unnamed_addr global i19 0
@shift_reg_V_1_0_2 = internal unnamed_addr global i19 0
@shift_reg_V_1_0_1 = internal unnamed_addr global i19 0
@shift_reg_V_1_0_0 = internal unnamed_addr global i19 0
@shift_reg_V_0_3 = internal unnamed_addr global i19 0
@shift_reg_V_0_2 = internal unnamed_addr global i19 0
@shift_reg_V_0_1 = internal unnamed_addr global i19 0
@shift_reg_V_0_0 = internal unnamed_addr global i19 0
@phasedetector_str = internal unnamed_addr constant [14 x i8] c"phasedetector\00"
@llvm_global_ctors_1 = appending global [3 x void ()*] [void ()* @_GLOBAL__I_a, void ()* @_GLOBAL__I_a9, void ()* @_GLOBAL__I_a18]
@llvm_global_ctors_0 = appending global [3 x i32] [i32 65535, i32 65535, i32 65535]
@angles_V = constant [16 x i25] [i25 102943, i25 60771, i25 32109, i25 16299, i25 8181, i25 4094, i25 2047, i25 1023, i25 511, i25 255, i25 127, i25 63, i25 31, i25 15, i25 7, i25 3]
@p_str11 = private unnamed_addr constant [1 x i8] zeroinitializer, align 1

define void @phasedetector(float %I, float %Q, float* %R, float* %theta) nounwind uwtable {
_ifconv:
  call void (...)* @_ssdm_op_SpecBitsMap(float %I) nounwind, !map !7
  call void (...)* @_ssdm_op_SpecBitsMap(float %Q) nounwind, !map !13
  call void (...)* @_ssdm_op_SpecBitsMap(float* %R) nounwind, !map !17
  call void (...)* @_ssdm_op_SpecBitsMap(float* %theta) nounwind, !map !23
  call void (...)* @_ssdm_op_SpecTopModule([14 x i8]* @phasedetector_str) nounwind
  %Q_read = call float @_ssdm_op_Read.ap_auto.float(float %Q) nounwind
  %I_read = call float @_ssdm_op_Read.ap_auto.float(float %I) nounwind
  call void (...)* @_ssdm_op_SpecPipeline(i32 1, i32 1, i32 1, i32 0, [1 x i8]* @p_str11) nounwind
  %d_assign = fpext float %I_read to double
  %ireg_V = bitcast double %d_assign to i64
  %tmp_4 = trunc i64 %ireg_V to i63
  %isneg = call i1 @_ssdm_op_BitSelect.i1.i64.i32(i64 %ireg_V, i32 63)
  %exp_tmp_V = call i11 @_ssdm_op_PartSelect.i11.i64.i32.i32(i64 %ireg_V, i32 52, i32 62)
  %tmp_2 = zext i11 %exp_tmp_V to i12
  %tmp_14 = trunc i64 %ireg_V to i52
  %tmp = call i53 @_ssdm_op_BitConcatenate.i53.i1.i52(i1 true, i52 %tmp_14)
  %p_Result_s = zext i53 %tmp to i54
  %man_V_1 = sub i54 0, %p_Result_s
  %man_V_2 = select i1 %isneg, i54 %man_V_1, i54 %p_Result_s
  %tmp_7 = icmp eq i63 %tmp_4, 0
  %F2 = sub i12 1075, %tmp_2
  %tmp_9 = icmp sgt i12 %F2, 12
  %tmp_s = add i12 -12, %F2
  %tmp_1 = sub i12 12, %F2
  %sh_amt = select i1 %tmp_9, i12 %tmp_s, i12 %tmp_1
  %sh_amt_cast = sext i12 %sh_amt to i32
  %tmp_3 = icmp eq i12 %F2, 12
  %tmp_22 = trunc i54 %man_V_2 to i19
  %tmp_5 = icmp ult i12 %sh_amt, 54
  %tmp_6 = icmp ult i12 %sh_amt, 19
  %tmp_8 = zext i32 %sh_amt_cast to i54
  %tmp_10 = ashr i54 %man_V_2, %tmp_8
  %tmp_27 = trunc i54 %tmp_10 to i19
  %storemerge1 = select i1 %isneg, i19 -1, i19 0
  %tmp_11 = sext i19 %tmp_22 to i32
  %tmp_12 = shl i32 %tmp_11, %sh_amt_cast
  %tmp_30 = trunc i32 %tmp_12 to i19
  %sel_tmp1 = xor i1 %tmp_7, true
  %sel_tmp2 = and i1 %tmp_3, %sel_tmp1
  %sel_tmp6_demorgan = or i1 %tmp_7, %tmp_3
  %sel_tmp6 = xor i1 %sel_tmp6_demorgan, true
  %sel_tmp7 = and i1 %tmp_9, %sel_tmp6
  %sel_tmp8 = xor i1 %tmp_5, true
  %sel_tmp9 = and i1 %sel_tmp7, %sel_tmp8
  %sel_tmp = and i1 %sel_tmp7, %tmp_5
  %sel_tmp21_demorgan = or i1 %sel_tmp6_demorgan, %tmp_9
  %sel_tmp3 = xor i1 %sel_tmp21_demorgan, true
  %sel_tmp4 = and i1 %tmp_6, %sel_tmp3
  %newSel = select i1 %sel_tmp4, i19 %tmp_30, i19 %tmp_27
  %or_cond = or i1 %sel_tmp4, %sel_tmp
  %newSel1 = select i1 %sel_tmp9, i19 %storemerge1, i19 %tmp_22
  %or_cond1 = or i1 %sel_tmp9, %sel_tmp2
  %newSel2 = select i1 %or_cond, i19 %newSel, i19 %newSel1
  %or_cond2 = or i1 %or_cond, %or_cond1
  %newSel3 = select i1 %or_cond2, i19 %newSel2, i19 0
  %d_assign_1 = fpext float %Q_read to double
  %ireg_V_1 = bitcast double %d_assign_1 to i64
  %tmp_33 = trunc i64 %ireg_V_1 to i63
  %isneg_1 = call i1 @_ssdm_op_BitSelect.i1.i64.i32(i64 %ireg_V_1, i32 63)
  %exp_tmp_V_1 = call i11 @_ssdm_op_PartSelect.i11.i64.i32.i32(i64 %ireg_V_1, i32 52, i32 62)
  %tmp_13 = zext i11 %exp_tmp_V_1 to i12
  %tmp_35 = trunc i64 %ireg_V_1 to i52
  %tmp_15 = call i53 @_ssdm_op_BitConcatenate.i53.i1.i52(i1 true, i52 %tmp_35)
  %p_Result_1 = zext i53 %tmp_15 to i54
  %man_V_4 = sub i54 0, %p_Result_1
  %man_V_5 = select i1 %isneg_1, i54 %man_V_4, i54 %p_Result_1
  %tmp_16 = icmp eq i63 %tmp_33, 0
  %F2_1 = sub i12 1075, %tmp_13
  %tmp_17 = icmp sgt i12 %F2_1, 12
  %tmp_18 = add i12 -12, %F2_1
  %tmp_19 = sub i12 12, %F2_1
  %sh_amt_1 = select i1 %tmp_17, i12 %tmp_18, i12 %tmp_19
  %sh_amt_1_cast = sext i12 %sh_amt_1 to i32
  %tmp_20 = icmp eq i12 %F2_1, 12
  %tmp_36 = trunc i54 %man_V_5 to i19
  %tmp_21 = icmp ult i12 %sh_amt_1, 54
  %tmp_23 = icmp ult i12 %sh_amt_1, 19
  %tmp_24 = zext i32 %sh_amt_1_cast to i54
  %tmp_25 = ashr i54 %man_V_5, %tmp_24
  %tmp_37 = trunc i54 %tmp_25 to i19
  %storemerge = select i1 %isneg_1, i19 -1, i19 0
  %tmp_26 = sext i19 %tmp_36 to i32
  %tmp_28 = shl i32 %tmp_26, %sh_amt_1_cast
  %tmp_38 = trunc i32 %tmp_28 to i19
  %sel_tmp5 = xor i1 %tmp_16, true
  %sel_tmp10 = and i1 %tmp_20, %sel_tmp5
  %sel_tmp30_demorgan = or i1 %tmp_16, %tmp_20
  %sel_tmp11 = xor i1 %sel_tmp30_demorgan, true
  %sel_tmp12 = and i1 %tmp_17, %sel_tmp11
  %sel_tmp13 = xor i1 %tmp_21, true
  %sel_tmp14 = and i1 %sel_tmp12, %sel_tmp13
  %sel_tmp15 = and i1 %sel_tmp12, %tmp_21
  %sel_tmp45_demorgan = or i1 %sel_tmp30_demorgan, %tmp_17
  %sel_tmp16 = xor i1 %sel_tmp45_demorgan, true
  %sel_tmp17 = and i1 %tmp_23, %sel_tmp16
  %newSel4 = select i1 %sel_tmp17, i19 %tmp_38, i19 %tmp_37
  %or_cond3 = or i1 %sel_tmp17, %sel_tmp15
  %newSel5 = select i1 %sel_tmp14, i19 %storemerge, i19 %tmp_36
  %or_cond4 = or i1 %sel_tmp14, %sel_tmp10
  %newSel6 = select i1 %or_cond3, i19 %newSel4, i19 %newSel5
  %or_cond5 = or i1 %or_cond3, %or_cond4
  %newSel7 = select i1 %or_cond5, i19 %newSel6, i19 0
  %fir_ret = call fastcc { i19, i19 } @phasedetector_fir(i19 %newSel3, i19 %newSel7) nounwind
  %x_V = extractvalue { i19, i19 } %fir_ret, 0
  %y_V = extractvalue { i19, i19 } %fir_ret, 1
  %this_assign_6 = call i24 @_ssdm_op_BitConcatenate.i24.i19.i5(i19 %x_V, i5 0)
  %this_assign = call i24 @_ssdm_op_BitConcatenate.i24.i19.i5(i19 %y_V, i5 0)
  %call_ret = call fastcc { i25, i25 } @phasedetector_cordiccart2pol(i24 %this_assign_6, i24 %this_assign) nounwind
  %r_V = extractvalue { i25, i25 } %call_ret, 0
  %t_V = extractvalue { i25, i25 } %call_ret, 1
  %tmp_29 = icmp eq i25 %r_V, 0
  %dp_s = sext i25 %r_V to i32
  %dp_1 = sitofp i32 %dp_s to float
  %res_V_3 = bitcast float %dp_1 to i32
  %exp_V = call i8 @_ssdm_op_PartSelect.i8.i32.i32.i32(i32 %res_V_3, i32 23, i32 30)
  %exp_V_4 = add i8 -17, %exp_V
  %p_Result_2 = call i32 @llvm.part.set.i32.i8(i32 %res_V_3, i8 %exp_V_4, i32 23, i32 30) nounwind
  %dp = bitcast i32 %p_Result_2 to float
  %p_0_i = select i1 %tmp_29, float 0.000000e+00, float %dp
  call void @_ssdm_op_Write.ap_auto.floatP(float* %R, float %p_0_i) nounwind
  %tmp_31 = icmp eq i25 %t_V, 0
  %dp_4 = sext i25 %t_V to i32
  %dp_3 = sitofp i32 %dp_4 to float
  %res_V_4 = bitcast float %dp_3 to i32
  %exp_V_2 = call i8 @_ssdm_op_PartSelect.i8.i32.i32.i32(i32 %res_V_4, i32 23, i32 30)
  %exp_V_5 = add i8 -17, %exp_V_2
  %p_Result_3 = call i32 @llvm.part.set.i32.i8(i32 %res_V_4, i8 %exp_V_5, i32 23, i32 30) nounwind
  %dp_2 = bitcast i32 %p_Result_3 to float
  %p_0_i1 = select i1 %tmp_31, float 0.000000e+00, float %dp_2
  call void @_ssdm_op_Write.ap_auto.floatP(float* %theta, float %p_0_i1) nounwind
  ret void
}

declare i32 @llvm.part.set.i32.i8(i32, i8, i32, i32) nounwind readnone

declare i64 @llvm.part.select.i64(i64, i32, i32) nounwind readnone

declare i42 @llvm.part.select.i42(i42, i32, i32) nounwind readnone

declare i32 @llvm.part.select.i32(i32, i32, i32) nounwind readnone

declare i25 @llvm.part.select.i25(i25, i32, i32) nounwind readnone

declare void @llvm.dbg.value(metadata, i64, metadata) nounwind readnone

define internal fastcc { i19, i19 } @phasedetector_fir(i19 %I_V, i19 %Q_V) {
  %Q_V_read = call i19 @_ssdm_op_Read.ap_auto.i19(i19 %Q_V)
  %I_V_read = call i19 @_ssdm_op_Read.ap_auto.i19(i19 %I_V)
  %shift_reg_V_3_6_3_load = load i19* @shift_reg_V_3_6_3, align 8
  %shift_reg_V_3_5_3_load = load i19* @shift_reg_V_3_5_3, align 4
  store i19 %shift_reg_V_3_5_3_load, i19* @shift_reg_V_3_6_3, align 8
  %shift_reg_V_3_4_3_load = load i19* @shift_reg_V_3_4_3, align 16
  store i19 %shift_reg_V_3_4_3_load, i19* @shift_reg_V_3_5_3, align 4
  %tmp = add i19 %shift_reg_V_3_5_3_load, %shift_reg_V_3_4_3_load
  %sum7_i = add i19 %tmp, %shift_reg_V_3_6_3_load
  %shift_reg_V_3_3_3_load = load i19* @shift_reg_V_3_3_3, align 4
  store i19 %shift_reg_V_3_3_3_load, i19* @shift_reg_V_3_4_3, align 16
  %p_Val2_27_3_i = sub i19 %shift_reg_V_3_3_3_load, %sum7_i
  %shift_reg_V_3_2_3_load = load i19* @shift_reg_V_3_2_3, align 8
  store i19 %shift_reg_V_3_2_3_load, i19* @shift_reg_V_3_3_3, align 4
  %shift_reg_V_3_1_3_load = load i19* @shift_reg_V_3_1_3, align 4
  store i19 %shift_reg_V_3_1_3_load, i19* @shift_reg_V_3_2_3, align 8
  %tmp1 = add i19 %shift_reg_V_3_1_3_load, %p_Val2_27_3_i
  %p_Val2_27_5_i = add i19 %tmp1, %shift_reg_V_3_2_3_load
  %shift_reg_V_3_0_3_load = load i19* @shift_reg_V_3_0_3, align 16
  store i19 %shift_reg_V_3_0_3_load, i19* @shift_reg_V_3_1_3, align 4
  %p_Val2_27_6_i = sub i19 %p_Val2_27_5_i, %shift_reg_V_3_0_3_load
  %shift_reg_V_3_7_2_load = load i19* @shift_reg_V_3_7_2, align 4
  store i19 %shift_reg_V_3_7_2_load, i19* @shift_reg_V_3_0_3, align 16
  %p_Val2_27_7_i = sub i19 %p_Val2_27_6_i, %shift_reg_V_3_7_2_load
  %shift_reg_V_3_6_2_load = load i19* @shift_reg_V_3_6_2, align 8
  store i19 %shift_reg_V_3_6_2_load, i19* @shift_reg_V_3_7_2, align 4
  %shift_reg_V_3_5_2_load = load i19* @shift_reg_V_3_5_2, align 4
  store i19 %shift_reg_V_3_5_2_load, i19* @shift_reg_V_3_6_2, align 8
  %shift_reg_V_3_4_2_load = load i19* @shift_reg_V_3_4_2, align 16
  store i19 %shift_reg_V_3_4_2_load, i19* @shift_reg_V_3_5_2, align 4
  %shift_reg_V_3_3_2_load = load i19* @shift_reg_V_3_3_2, align 4
  store i19 %shift_reg_V_3_3_2_load, i19* @shift_reg_V_3_4_2, align 16
  %shift_reg_V_3_2_2_load = load i19* @shift_reg_V_3_2_2, align 8
  store i19 %shift_reg_V_3_2_2_load, i19* @shift_reg_V_3_3_2, align 4
  %tmp3 = add i19 %shift_reg_V_3_5_2_load, %shift_reg_V_3_4_2_load
  %tmp2 = add i19 %tmp3, %shift_reg_V_3_6_2_load
  %tmp5 = add i19 %shift_reg_V_3_2_2_load, %p_Val2_27_7_i
  %tmp4 = add i19 %tmp5, %shift_reg_V_3_3_2_load
  %p_Val2_27_2_i = add i19 %tmp4, %tmp2
  %shift_reg_V_3_1_2_load = load i19* @shift_reg_V_3_1_2, align 4
  store i19 %shift_reg_V_3_1_2_load, i19* @shift_reg_V_3_2_2, align 8
  %p_Val2_27_10_i = sub i19 %p_Val2_27_2_i, %shift_reg_V_3_1_2_load
  %shift_reg_V_3_0_2_load = load i19* @shift_reg_V_3_0_2, align 16
  store i19 %shift_reg_V_3_0_2_load, i19* @shift_reg_V_3_1_2, align 4
  %p_Val2_27_11_i = sub i19 %p_Val2_27_10_i, %shift_reg_V_3_0_2_load
  %shift_reg_V_3_7_1_load = load i19* @shift_reg_V_3_7_1, align 4
  store i19 %shift_reg_V_3_7_1_load, i19* @shift_reg_V_3_0_2, align 16
  %p_Val2_27_12_i = sub i19 %p_Val2_27_11_i, %shift_reg_V_3_7_1_load
  %shift_reg_V_3_6_1_load = load i19* @shift_reg_V_3_6_1, align 8
  store i19 %shift_reg_V_3_6_1_load, i19* @shift_reg_V_3_7_1, align 4
  %p_Val2_27_13_i = sub i19 %p_Val2_27_12_i, %shift_reg_V_3_6_1_load
  %shift_reg_V_3_5_1_load = load i19* @shift_reg_V_3_5_1, align 4
  store i19 %shift_reg_V_3_5_1_load, i19* @shift_reg_V_3_6_1, align 8
  %p_Val2_27_14_i = add i19 %shift_reg_V_3_5_1_load, %p_Val2_27_13_i
  %shift_reg_V_3_4_1_load = load i19* @shift_reg_V_3_4_1, align 16
  store i19 %shift_reg_V_3_4_1_load, i19* @shift_reg_V_3_5_1, align 4
  %p_Val2_27_15_i = sub i19 %p_Val2_27_14_i, %shift_reg_V_3_4_1_load
  %shift_reg_V_3_3_1_load = load i19* @shift_reg_V_3_3_1, align 4
  store i19 %shift_reg_V_3_3_1_load, i19* @shift_reg_V_3_4_1, align 16
  %shift_reg_V_3_2_1_load = load i19* @shift_reg_V_3_2_1, align 8
  store i19 %shift_reg_V_3_2_1_load, i19* @shift_reg_V_3_3_1, align 4
  %tmp6 = add i19 %shift_reg_V_3_2_1_load, %p_Val2_27_15_i
  %p_Val2_27_17_i = add i19 %tmp6, %shift_reg_V_3_3_1_load
  %shift_reg_V_3_1_1_load = load i19* @shift_reg_V_3_1_1, align 4
  store i19 %shift_reg_V_3_1_1_load, i19* @shift_reg_V_3_2_1, align 8
  %p_Val2_27_18_i = sub i19 %p_Val2_27_17_i, %shift_reg_V_3_1_1_load
  %shift_reg_V_3_0_1_load = load i19* @shift_reg_V_3_0_1, align 16
  store i19 %shift_reg_V_3_0_1_load, i19* @shift_reg_V_3_1_1, align 4
  %p_Val2_27_19_i = sub i19 %p_Val2_27_18_i, %shift_reg_V_3_0_1_load
  %shift_reg_V_3_7_0_load = load i19* @shift_reg_V_3_7_0, align 4
  store i19 %shift_reg_V_3_7_0_load, i19* @shift_reg_V_3_0_1, align 16
  %p_Val2_27_20_i = sub i19 %p_Val2_27_19_i, %shift_reg_V_3_7_0_load
  %shift_reg_V_3_6_0_load = load i19* @shift_reg_V_3_6_0, align 8
  store i19 %shift_reg_V_3_6_0_load, i19* @shift_reg_V_3_7_0, align 4
  %shift_reg_V_3_5_0_load = load i19* @shift_reg_V_3_5_0, align 4
  store i19 %shift_reg_V_3_5_0_load, i19* @shift_reg_V_3_6_0, align 8
  %tmp7 = add i19 %shift_reg_V_3_5_0_load, %p_Val2_27_20_i
  %p_Val2_27_22_i = add i19 %tmp7, %shift_reg_V_3_6_0_load
  %shift_reg_V_3_4_0_load = load i19* @shift_reg_V_3_4_0, align 16
  store i19 %shift_reg_V_3_4_0_load, i19* @shift_reg_V_3_5_0, align 4
  %p_Val2_27_23_i = sub i19 %p_Val2_27_22_i, %shift_reg_V_3_4_0_load
  %shift_reg_V_3_3_0_load = load i19* @shift_reg_V_3_3_0, align 4
  store i19 %shift_reg_V_3_3_0_load, i19* @shift_reg_V_3_4_0, align 16
  %p_Val2_27_24_i = sub i19 %p_Val2_27_23_i, %shift_reg_V_3_3_0_load
  %shift_reg_V_3_2_0_load = load i19* @shift_reg_V_3_2_0, align 8
  store i19 %shift_reg_V_3_2_0_load, i19* @shift_reg_V_3_3_0, align 4
  %p_Val2_27_25_i = sub i19 %p_Val2_27_24_i, %shift_reg_V_3_2_0_load
  %shift_reg_V_3_1_0_load = load i19* @shift_reg_V_3_1_0, align 4
  store i19 %shift_reg_V_3_1_0_load, i19* @shift_reg_V_3_2_0, align 8
  %p_Val2_27_26_i = add i19 %shift_reg_V_3_1_0_load, %p_Val2_27_25_i
  %shift_reg_V_3_0_0_load = load i19* @shift_reg_V_3_0_0, align 16
  store i19 %shift_reg_V_3_0_0_load, i19* @shift_reg_V_3_1_0, align 4
  %p_Val2_27_27_i = sub i19 %p_Val2_27_26_i, %shift_reg_V_3_0_0_load
  store i19 %I_V_read, i19* @shift_reg_V_3_0_0, align 16
  %shift_reg_V_1_6_3_load = load i19* @shift_reg_V_1_6_3, align 8
  %shift_reg_V_1_5_3_load = load i19* @shift_reg_V_1_5_3, align 4
  store i19 %shift_reg_V_1_5_3_load, i19* @shift_reg_V_1_6_3, align 8
  %p_Val2_17_1_i = add i19 %shift_reg_V_1_6_3_load, %shift_reg_V_1_5_3_load
  %shift_reg_V_1_4_3_load = load i19* @shift_reg_V_1_4_3, align 16
  store i19 %shift_reg_V_1_4_3_load, i19* @shift_reg_V_1_5_3, align 4
  %p_Val2_17_2_i = sub i19 %p_Val2_17_1_i, %shift_reg_V_1_4_3_load
  %shift_reg_V_1_3_3_load = load i19* @shift_reg_V_1_3_3, align 4
  store i19 %shift_reg_V_1_3_3_load, i19* @shift_reg_V_1_4_3, align 16
  %p_Val2_17_3_i = add i19 %shift_reg_V_1_3_3_load, %p_Val2_17_2_i
  %shift_reg_V_1_2_3_load = load i19* @shift_reg_V_1_2_3, align 8
  store i19 %shift_reg_V_1_2_3_load, i19* @shift_reg_V_1_3_3, align 4
  %p_Val2_17_4_i = sub i19 %p_Val2_17_3_i, %shift_reg_V_1_2_3_load
  %shift_reg_V_1_1_3_load = load i19* @shift_reg_V_1_1_3, align 4
  store i19 %shift_reg_V_1_1_3_load, i19* @shift_reg_V_1_2_3, align 8
  %shift_reg_V_1_0_3_load = load i19* @shift_reg_V_1_0_3, align 16
  store i19 %shift_reg_V_1_0_3_load, i19* @shift_reg_V_1_1_3, align 4
  %shift_reg_V_1_7_2_load = load i19* @shift_reg_V_1_7_2, align 4
  store i19 %shift_reg_V_1_7_2_load, i19* @shift_reg_V_1_0_3, align 16
  %shift_reg_V_1_6_2_load = load i19* @shift_reg_V_1_6_2, align 8
  store i19 %shift_reg_V_1_6_2_load, i19* @shift_reg_V_1_7_2, align 4
  %tmp8 = add i19 %shift_reg_V_1_1_3_load, %shift_reg_V_1_0_3_load
  %tmp10 = add i19 %shift_reg_V_1_6_2_load, %p_Val2_17_4_i
  %tmp9 = add i19 %tmp10, %shift_reg_V_1_7_2_load
  %p_Val2_17_8_i = add i19 %tmp9, %tmp8
  %shift_reg_V_1_5_2_load = load i19* @shift_reg_V_1_5_2, align 4
  store i19 %shift_reg_V_1_5_2_load, i19* @shift_reg_V_1_6_2, align 8
  %p_Val2_17_9_i = sub i19 %p_Val2_17_8_i, %shift_reg_V_1_5_2_load
  %shift_reg_V_1_4_2_load = load i19* @shift_reg_V_1_4_2, align 16
  store i19 %shift_reg_V_1_4_2_load, i19* @shift_reg_V_1_5_2, align 4
  %p_Val2_17_i = add i19 %shift_reg_V_1_4_2_load, %p_Val2_17_9_i
  %shift_reg_V_1_3_2_load = load i19* @shift_reg_V_1_3_2, align 4
  store i19 %shift_reg_V_1_3_2_load, i19* @shift_reg_V_1_4_2, align 16
  %p_Val2_17_10_i = sub i19 %p_Val2_17_i, %shift_reg_V_1_3_2_load
  %shift_reg_V_1_2_2_load = load i19* @shift_reg_V_1_2_2, align 8
  store i19 %shift_reg_V_1_2_2_load, i19* @shift_reg_V_1_3_2, align 4
  %p_Val2_17_11_i = sub i19 %p_Val2_17_10_i, %shift_reg_V_1_2_2_load
  %shift_reg_V_1_1_2_load = load i19* @shift_reg_V_1_1_2, align 4
  store i19 %shift_reg_V_1_1_2_load, i19* @shift_reg_V_1_2_2, align 8
  %p_Val2_17_12_i = add i19 %shift_reg_V_1_1_2_load, %p_Val2_17_11_i
  %shift_reg_V_1_0_2_load = load i19* @shift_reg_V_1_0_2, align 16
  store i19 %shift_reg_V_1_0_2_load, i19* @shift_reg_V_1_1_2, align 4
  %p_Val2_17_13_i = sub i19 %p_Val2_17_12_i, %shift_reg_V_1_0_2_load
  %shift_reg_V_1_7_1_load = load i19* @shift_reg_V_1_7_1, align 4
  store i19 %shift_reg_V_1_7_1_load, i19* @shift_reg_V_1_0_2, align 16
  %shift_reg_V_1_6_1_load = load i19* @shift_reg_V_1_6_1, align 8
  store i19 %shift_reg_V_1_6_1_load, i19* @shift_reg_V_1_7_1, align 4
  %tmp11 = add i19 %shift_reg_V_1_6_1_load, %p_Val2_17_13_i
  %p_Val2_17_15_i = add i19 %tmp11, %shift_reg_V_1_7_1_load
  %shift_reg_V_1_5_1_load = load i19* @shift_reg_V_1_5_1, align 4
  store i19 %shift_reg_V_1_5_1_load, i19* @shift_reg_V_1_6_1, align 8
  %p_Val2_17_16_i = sub i19 %p_Val2_17_15_i, %shift_reg_V_1_5_1_load
  %shift_reg_V_1_4_1_load = load i19* @shift_reg_V_1_4_1, align 16
  store i19 %shift_reg_V_1_4_1_load, i19* @shift_reg_V_1_5_1, align 4
  %p_Val2_17_17_i = add i19 %shift_reg_V_1_4_1_load, %p_Val2_17_16_i
  %shift_reg_V_1_3_1_load = load i19* @shift_reg_V_1_3_1, align 4
  store i19 %shift_reg_V_1_3_1_load, i19* @shift_reg_V_1_4_1, align 16
  %p_Val2_17_18_i = sub i19 %p_Val2_17_17_i, %shift_reg_V_1_3_1_load
  %shift_reg_V_1_2_1_load = load i19* @shift_reg_V_1_2_1, align 8
  store i19 %shift_reg_V_1_2_1_load, i19* @shift_reg_V_1_3_1, align 4
  %p_Val2_17_19_i = add i19 %shift_reg_V_1_2_1_load, %p_Val2_17_18_i
  %shift_reg_V_1_1_1_load = load i19* @shift_reg_V_1_1_1, align 4
  store i19 %shift_reg_V_1_1_1_load, i19* @shift_reg_V_1_2_1, align 8
  %p_Val2_17_20_i = sub i19 %p_Val2_17_19_i, %shift_reg_V_1_1_1_load
  %shift_reg_V_1_0_1_load = load i19* @shift_reg_V_1_0_1, align 16
  store i19 %shift_reg_V_1_0_1_load, i19* @shift_reg_V_1_1_1, align 4
  %p_Val2_17_21_i = sub i19 %p_Val2_17_20_i, %shift_reg_V_1_0_1_load
  %shift_reg_V_1_7_0_load = load i19* @shift_reg_V_1_7_0, align 4
  store i19 %shift_reg_V_1_7_0_load, i19* @shift_reg_V_1_0_1, align 16
  %p_Val2_17_22_i = sub i19 %p_Val2_17_21_i, %shift_reg_V_1_7_0_load
  %shift_reg_V_1_6_0_load = load i19* @shift_reg_V_1_6_0, align 8
  store i19 %shift_reg_V_1_6_0_load, i19* @shift_reg_V_1_7_0, align 4
  %p_Val2_17_23_i = sub i19 %p_Val2_17_22_i, %shift_reg_V_1_6_0_load
  %shift_reg_V_1_5_0_load = load i19* @shift_reg_V_1_5_0, align 4
  store i19 %shift_reg_V_1_5_0_load, i19* @shift_reg_V_1_6_0, align 8
  %p_Val2_17_24_i = add i19 %shift_reg_V_1_5_0_load, %p_Val2_17_23_i
  %shift_reg_V_1_4_0_load = load i19* @shift_reg_V_1_4_0, align 16
  store i19 %shift_reg_V_1_4_0_load, i19* @shift_reg_V_1_5_0, align 4
  %p_Val2_17_25_i = sub i19 %p_Val2_17_24_i, %shift_reg_V_1_4_0_load
  %shift_reg_V_1_3_0_load = load i19* @shift_reg_V_1_3_0, align 4
  store i19 %shift_reg_V_1_3_0_load, i19* @shift_reg_V_1_4_0, align 16
  %p_Val2_17_26_i = add i19 %shift_reg_V_1_3_0_load, %p_Val2_17_25_i
  %shift_reg_V_1_2_0_load = load i19* @shift_reg_V_1_2_0, align 8
  store i19 %shift_reg_V_1_2_0_load, i19* @shift_reg_V_1_3_0, align 4
  %p_Val2_17_27_i = sub i19 %p_Val2_17_26_i, %shift_reg_V_1_2_0_load
  %shift_reg_V_1_1_0_load = load i19* @shift_reg_V_1_1_0, align 4
  store i19 %shift_reg_V_1_1_0_load, i19* @shift_reg_V_1_2_0, align 8
  %p_Val2_17_28_i = add i19 %shift_reg_V_1_1_0_load, %p_Val2_17_27_i
  %shift_reg_V_1_0_0_load = load i19* @shift_reg_V_1_0_0, align 16
  store i19 %shift_reg_V_1_0_0_load, i19* @shift_reg_V_1_1_0, align 4
  %p_Val2_17_29_i = sub i19 %p_Val2_17_28_i, %shift_reg_V_1_0_0_load
  store i19 %Q_V_read, i19* @shift_reg_V_1_0_0, align 16
  %p_Val2_s = sub i19 %p_Val2_17_29_i, %Q_V_read
  %shift_reg_V_2_6_3_load = load i19* @shift_reg_V_2_6_3, align 8
  %shift_reg_V_2_5_3_load = load i19* @shift_reg_V_2_5_3, align 4
  store i19 %shift_reg_V_2_5_3_load, i19* @shift_reg_V_2_6_3, align 8
  %shift_reg_V_2_4_3_load = load i19* @shift_reg_V_2_4_3, align 16
  store i19 %shift_reg_V_2_4_3_load, i19* @shift_reg_V_2_5_3, align 4
  %tmp12 = add i19 %shift_reg_V_2_5_3_load, %shift_reg_V_2_4_3_load
  %sum7_i9 = add i19 %tmp12, %shift_reg_V_2_6_3_load
  %shift_reg_V_2_3_3_load = load i19* @shift_reg_V_2_3_3, align 4
  store i19 %shift_reg_V_2_3_3_load, i19* @shift_reg_V_2_4_3, align 16
  %p_Val2_22_3_i = sub i19 %shift_reg_V_2_3_3_load, %sum7_i9
  %shift_reg_V_2_2_3_load = load i19* @shift_reg_V_2_2_3, align 8
  store i19 %shift_reg_V_2_2_3_load, i19* @shift_reg_V_2_3_3, align 4
  %shift_reg_V_2_1_3_load = load i19* @shift_reg_V_2_1_3, align 4
  store i19 %shift_reg_V_2_1_3_load, i19* @shift_reg_V_2_2_3, align 8
  %tmp13 = add i19 %shift_reg_V_2_1_3_load, %p_Val2_22_3_i
  %p_Val2_22_5_i = add i19 %tmp13, %shift_reg_V_2_2_3_load
  %shift_reg_V_2_0_3_load = load i19* @shift_reg_V_2_0_3, align 16
  store i19 %shift_reg_V_2_0_3_load, i19* @shift_reg_V_2_1_3, align 4
  %p_Val2_22_6_i = sub i19 %p_Val2_22_5_i, %shift_reg_V_2_0_3_load
  %shift_reg_V_2_7_2_load = load i19* @shift_reg_V_2_7_2, align 4
  store i19 %shift_reg_V_2_7_2_load, i19* @shift_reg_V_2_0_3, align 16
  %p_Val2_22_7_i = sub i19 %p_Val2_22_6_i, %shift_reg_V_2_7_2_load
  %shift_reg_V_2_6_2_load = load i19* @shift_reg_V_2_6_2, align 8
  store i19 %shift_reg_V_2_6_2_load, i19* @shift_reg_V_2_7_2, align 4
  %shift_reg_V_2_5_2_load = load i19* @shift_reg_V_2_5_2, align 4
  store i19 %shift_reg_V_2_5_2_load, i19* @shift_reg_V_2_6_2, align 8
  %shift_reg_V_2_4_2_load = load i19* @shift_reg_V_2_4_2, align 16
  store i19 %shift_reg_V_2_4_2_load, i19* @shift_reg_V_2_5_2, align 4
  %shift_reg_V_2_3_2_load = load i19* @shift_reg_V_2_3_2, align 4
  store i19 %shift_reg_V_2_3_2_load, i19* @shift_reg_V_2_4_2, align 16
  %shift_reg_V_2_2_2_load = load i19* @shift_reg_V_2_2_2, align 8
  store i19 %shift_reg_V_2_2_2_load, i19* @shift_reg_V_2_3_2, align 4
  %tmp15 = add i19 %shift_reg_V_2_5_2_load, %shift_reg_V_2_4_2_load
  %tmp14 = add i19 %tmp15, %shift_reg_V_2_6_2_load
  %tmp17 = add i19 %shift_reg_V_2_2_2_load, %p_Val2_22_7_i
  %tmp16 = add i19 %tmp17, %shift_reg_V_2_3_2_load
  %p_Val2_22_2_i = add i19 %tmp16, %tmp14
  %shift_reg_V_2_1_2_load = load i19* @shift_reg_V_2_1_2, align 4
  store i19 %shift_reg_V_2_1_2_load, i19* @shift_reg_V_2_2_2, align 8
  %p_Val2_22_10_i = sub i19 %p_Val2_22_2_i, %shift_reg_V_2_1_2_load
  %shift_reg_V_2_0_2_load = load i19* @shift_reg_V_2_0_2, align 16
  store i19 %shift_reg_V_2_0_2_load, i19* @shift_reg_V_2_1_2, align 4
  %p_Val2_22_11_i = sub i19 %p_Val2_22_10_i, %shift_reg_V_2_0_2_load
  %shift_reg_V_2_7_1_load = load i19* @shift_reg_V_2_7_1, align 4
  store i19 %shift_reg_V_2_7_1_load, i19* @shift_reg_V_2_0_2, align 16
  %p_Val2_22_12_i = sub i19 %p_Val2_22_11_i, %shift_reg_V_2_7_1_load
  %shift_reg_V_2_6_1_load = load i19* @shift_reg_V_2_6_1, align 8
  store i19 %shift_reg_V_2_6_1_load, i19* @shift_reg_V_2_7_1, align 4
  %p_Val2_22_13_i = sub i19 %p_Val2_22_12_i, %shift_reg_V_2_6_1_load
  %shift_reg_V_2_5_1_load = load i19* @shift_reg_V_2_5_1, align 4
  store i19 %shift_reg_V_2_5_1_load, i19* @shift_reg_V_2_6_1, align 8
  %p_Val2_22_14_i = add i19 %shift_reg_V_2_5_1_load, %p_Val2_22_13_i
  %shift_reg_V_2_4_1_load = load i19* @shift_reg_V_2_4_1, align 16
  store i19 %shift_reg_V_2_4_1_load, i19* @shift_reg_V_2_5_1, align 4
  %p_Val2_22_15_i = sub i19 %p_Val2_22_14_i, %shift_reg_V_2_4_1_load
  %shift_reg_V_2_3_1_load = load i19* @shift_reg_V_2_3_1, align 4
  store i19 %shift_reg_V_2_3_1_load, i19* @shift_reg_V_2_4_1, align 16
  %shift_reg_V_2_2_1_load = load i19* @shift_reg_V_2_2_1, align 8
  store i19 %shift_reg_V_2_2_1_load, i19* @shift_reg_V_2_3_1, align 4
  %tmp18 = add i19 %shift_reg_V_2_2_1_load, %p_Val2_22_15_i
  %p_Val2_22_17_i = add i19 %tmp18, %shift_reg_V_2_3_1_load
  %shift_reg_V_2_1_1_load = load i19* @shift_reg_V_2_1_1, align 4
  store i19 %shift_reg_V_2_1_1_load, i19* @shift_reg_V_2_2_1, align 8
  %p_Val2_22_18_i = sub i19 %p_Val2_22_17_i, %shift_reg_V_2_1_1_load
  %shift_reg_V_2_0_1_load = load i19* @shift_reg_V_2_0_1, align 16
  store i19 %shift_reg_V_2_0_1_load, i19* @shift_reg_V_2_1_1, align 4
  %p_Val2_22_19_i = sub i19 %p_Val2_22_18_i, %shift_reg_V_2_0_1_load
  %shift_reg_V_2_7_0_load = load i19* @shift_reg_V_2_7_0, align 4
  store i19 %shift_reg_V_2_7_0_load, i19* @shift_reg_V_2_0_1, align 16
  %p_Val2_22_20_i = sub i19 %p_Val2_22_19_i, %shift_reg_V_2_7_0_load
  %shift_reg_V_2_6_0_load = load i19* @shift_reg_V_2_6_0, align 8
  store i19 %shift_reg_V_2_6_0_load, i19* @shift_reg_V_2_7_0, align 4
  %shift_reg_V_2_5_0_load = load i19* @shift_reg_V_2_5_0, align 4
  store i19 %shift_reg_V_2_5_0_load, i19* @shift_reg_V_2_6_0, align 8
  %tmp19 = add i19 %shift_reg_V_2_5_0_load, %p_Val2_22_20_i
  %p_Val2_22_22_i = add i19 %tmp19, %shift_reg_V_2_6_0_load
  %shift_reg_V_2_4_0_load = load i19* @shift_reg_V_2_4_0, align 16
  store i19 %shift_reg_V_2_4_0_load, i19* @shift_reg_V_2_5_0, align 4
  %p_Val2_22_23_i = sub i19 %p_Val2_22_22_i, %shift_reg_V_2_4_0_load
  %shift_reg_V_2_3_0_load = load i19* @shift_reg_V_2_3_0, align 4
  store i19 %shift_reg_V_2_3_0_load, i19* @shift_reg_V_2_4_0, align 16
  %p_Val2_22_24_i = sub i19 %p_Val2_22_23_i, %shift_reg_V_2_3_0_load
  %shift_reg_V_2_2_0_load = load i19* @shift_reg_V_2_2_0, align 8
  store i19 %shift_reg_V_2_2_0_load, i19* @shift_reg_V_2_3_0, align 4
  %p_Val2_22_25_i = sub i19 %p_Val2_22_24_i, %shift_reg_V_2_2_0_load
  %shift_reg_V_2_1_0_load = load i19* @shift_reg_V_2_1_0, align 4
  store i19 %shift_reg_V_2_1_0_load, i19* @shift_reg_V_2_2_0, align 8
  %p_Val2_22_26_i = add i19 %shift_reg_V_2_1_0_load, %p_Val2_22_25_i
  %shift_reg_V_2_0_0_load = load i19* @shift_reg_V_2_0_0, align 16
  store i19 %shift_reg_V_2_0_0_load, i19* @shift_reg_V_2_1_0, align 4
  %p_Val2_22_27_i = sub i19 %p_Val2_22_26_i, %shift_reg_V_2_0_0_load
  store i19 %Q_V_read, i19* @shift_reg_V_2_0_0, align 16
  %shift_reg_V_6_3_load = load i19* @shift_reg_V_6_3, align 8
  %shift_reg_V_5_3_load = load i19* @shift_reg_V_5_3, align 4
  store i19 %shift_reg_V_5_3_load, i19* @shift_reg_V_6_3, align 8
  %p_Val2_12_1_i = add i19 %shift_reg_V_6_3_load, %shift_reg_V_5_3_load
  %shift_reg_V_4_3_load = load i19* @shift_reg_V_4_3, align 16
  store i19 %shift_reg_V_4_3_load, i19* @shift_reg_V_5_3, align 4
  %p_Val2_12_2_i = sub i19 %p_Val2_12_1_i, %shift_reg_V_4_3_load
  %shift_reg_V_376_3_load = load i19* @shift_reg_V_376_3, align 4
  store i19 %shift_reg_V_376_3_load, i19* @shift_reg_V_4_3, align 16
  %p_Val2_12_3_i = add i19 %shift_reg_V_376_3_load, %p_Val2_12_2_i
  %shift_reg_V_275_3_load = load i19* @shift_reg_V_275_3, align 8
  store i19 %shift_reg_V_275_3_load, i19* @shift_reg_V_376_3, align 4
  %p_Val2_12_4_i = sub i19 %p_Val2_12_3_i, %shift_reg_V_275_3_load
  %shift_reg_V_174_3_load = load i19* @shift_reg_V_174_3, align 4
  store i19 %shift_reg_V_174_3_load, i19* @shift_reg_V_275_3, align 8
  %shift_reg_V_0_3_load = load i19* @shift_reg_V_0_3, align 16
  store i19 %shift_reg_V_0_3_load, i19* @shift_reg_V_174_3, align 4
  %shift_reg_V_7_2_load = load i19* @shift_reg_V_7_2, align 4
  store i19 %shift_reg_V_7_2_load, i19* @shift_reg_V_0_3, align 16
  %shift_reg_V_6_2_load = load i19* @shift_reg_V_6_2, align 8
  store i19 %shift_reg_V_6_2_load, i19* @shift_reg_V_7_2, align 4
  %tmp20 = add i19 %shift_reg_V_174_3_load, %shift_reg_V_0_3_load
  %tmp22 = add i19 %shift_reg_V_6_2_load, %p_Val2_12_4_i
  %tmp21 = add i19 %tmp22, %shift_reg_V_7_2_load
  %p_Val2_12_8_i = add i19 %tmp21, %tmp20
  %shift_reg_V_5_2_load = load i19* @shift_reg_V_5_2, align 4
  store i19 %shift_reg_V_5_2_load, i19* @shift_reg_V_6_2, align 8
  %p_Val2_12_9_i = sub i19 %p_Val2_12_8_i, %shift_reg_V_5_2_load
  %shift_reg_V_4_2_load = load i19* @shift_reg_V_4_2, align 16
  store i19 %shift_reg_V_4_2_load, i19* @shift_reg_V_5_2, align 4
  %p_Val2_12_i = add i19 %shift_reg_V_4_2_load, %p_Val2_12_9_i
  %shift_reg_V_376_2_load = load i19* @shift_reg_V_376_2, align 4
  store i19 %shift_reg_V_376_2_load, i19* @shift_reg_V_4_2, align 16
  %p_Val2_12_10_i = sub i19 %p_Val2_12_i, %shift_reg_V_376_2_load
  %shift_reg_V_275_2_load = load i19* @shift_reg_V_275_2, align 8
  store i19 %shift_reg_V_275_2_load, i19* @shift_reg_V_376_2, align 4
  %p_Val2_12_11_i = sub i19 %p_Val2_12_10_i, %shift_reg_V_275_2_load
  %shift_reg_V_174_2_load = load i19* @shift_reg_V_174_2, align 4
  store i19 %shift_reg_V_174_2_load, i19* @shift_reg_V_275_2, align 8
  %p_Val2_12_12_i = add i19 %shift_reg_V_174_2_load, %p_Val2_12_11_i
  %shift_reg_V_0_2_load = load i19* @shift_reg_V_0_2, align 16
  store i19 %shift_reg_V_0_2_load, i19* @shift_reg_V_174_2, align 4
  %p_Val2_12_13_i = sub i19 %p_Val2_12_12_i, %shift_reg_V_0_2_load
  %shift_reg_V_7_1_load = load i19* @shift_reg_V_7_1, align 4
  store i19 %shift_reg_V_7_1_load, i19* @shift_reg_V_0_2, align 16
  %shift_reg_V_6_1_load = load i19* @shift_reg_V_6_1, align 8
  store i19 %shift_reg_V_6_1_load, i19* @shift_reg_V_7_1, align 4
  %tmp23 = add i19 %shift_reg_V_6_1_load, %p_Val2_12_13_i
  %p_Val2_12_15_i = add i19 %tmp23, %shift_reg_V_7_1_load
  %shift_reg_V_5_1_load = load i19* @shift_reg_V_5_1, align 4
  store i19 %shift_reg_V_5_1_load, i19* @shift_reg_V_6_1, align 8
  %p_Val2_12_16_i = sub i19 %p_Val2_12_15_i, %shift_reg_V_5_1_load
  %shift_reg_V_4_1_load = load i19* @shift_reg_V_4_1, align 16
  store i19 %shift_reg_V_4_1_load, i19* @shift_reg_V_5_1, align 4
  %p_Val2_12_17_i = add i19 %shift_reg_V_4_1_load, %p_Val2_12_16_i
  %shift_reg_V_376_1_load = load i19* @shift_reg_V_376_1, align 4
  store i19 %shift_reg_V_376_1_load, i19* @shift_reg_V_4_1, align 16
  %p_Val2_12_18_i = sub i19 %p_Val2_12_17_i, %shift_reg_V_376_1_load
  %shift_reg_V_275_1_load = load i19* @shift_reg_V_275_1, align 8
  store i19 %shift_reg_V_275_1_load, i19* @shift_reg_V_376_1, align 4
  %p_Val2_12_19_i = add i19 %shift_reg_V_275_1_load, %p_Val2_12_18_i
  %shift_reg_V_174_1_load = load i19* @shift_reg_V_174_1, align 4
  store i19 %shift_reg_V_174_1_load, i19* @shift_reg_V_275_1, align 8
  %p_Val2_12_20_i = sub i19 %p_Val2_12_19_i, %shift_reg_V_174_1_load
  %shift_reg_V_0_1_load = load i19* @shift_reg_V_0_1, align 16
  store i19 %shift_reg_V_0_1_load, i19* @shift_reg_V_174_1, align 4
  %p_Val2_12_21_i = sub i19 %p_Val2_12_20_i, %shift_reg_V_0_1_load
  %shift_reg_V_7_0_load = load i19* @shift_reg_V_7_0, align 4
  store i19 %shift_reg_V_7_0_load, i19* @shift_reg_V_0_1, align 16
  %p_Val2_12_22_i = sub i19 %p_Val2_12_21_i, %shift_reg_V_7_0_load
  %shift_reg_V_6_0_load = load i19* @shift_reg_V_6_0, align 8
  store i19 %shift_reg_V_6_0_load, i19* @shift_reg_V_7_0, align 4
  %p_Val2_12_23_i = sub i19 %p_Val2_12_22_i, %shift_reg_V_6_0_load
  %shift_reg_V_5_0_load = load i19* @shift_reg_V_5_0, align 4
  store i19 %shift_reg_V_5_0_load, i19* @shift_reg_V_6_0, align 8
  %p_Val2_12_24_i = add i19 %shift_reg_V_5_0_load, %p_Val2_12_23_i
  %shift_reg_V_4_0_load = load i19* @shift_reg_V_4_0, align 16
  store i19 %shift_reg_V_4_0_load, i19* @shift_reg_V_5_0, align 4
  %p_Val2_12_25_i = sub i19 %p_Val2_12_24_i, %shift_reg_V_4_0_load
  %shift_reg_V_376_0_load = load i19* @shift_reg_V_376_0, align 4
  store i19 %shift_reg_V_376_0_load, i19* @shift_reg_V_4_0, align 16
  %p_Val2_12_26_i = add i19 %shift_reg_V_376_0_load, %p_Val2_12_25_i
  %shift_reg_V_275_0_load = load i19* @shift_reg_V_275_0, align 8
  store i19 %shift_reg_V_275_0_load, i19* @shift_reg_V_376_0, align 4
  %p_Val2_12_27_i = sub i19 %p_Val2_12_26_i, %shift_reg_V_275_0_load
  %shift_reg_V_174_0_load = load i19* @shift_reg_V_174_0, align 4
  store i19 %shift_reg_V_174_0_load, i19* @shift_reg_V_275_0, align 8
  %p_Val2_12_28_i = add i19 %shift_reg_V_174_0_load, %p_Val2_12_27_i
  %shift_reg_V_0_0_load = load i19* @shift_reg_V_0_0, align 16
  store i19 %shift_reg_V_0_0_load, i19* @shift_reg_V_174_0, align 4
  store i19 %I_V_read, i19* @shift_reg_V_0_0, align 16
  %tmp24 = add i19 %p_Val2_s, %I_V_read
  %ssdm_int_V_write_assign = add i19 %tmp24, %p_Val2_27_27_i
  %p_Val2_12_29_i = sub i19 %shift_reg_V_0_0_load, %p_Val2_12_28_i
  %tmp25 = add i19 %p_Val2_12_29_i, %I_V_read
  %tmp26 = add i19 %p_Val2_22_27_i, %Q_V_read
  %ssdm_int_V_write_assign_1 = add i19 %tmp26, %tmp25
  %mrv = insertvalue { i19, i19 } undef, i19 %ssdm_int_V_write_assign, 0
  %mrv_1 = insertvalue { i19, i19 } %mrv, i19 %ssdm_int_V_write_assign_1, 1
  ret { i19, i19 } %mrv_1
}

define internal fastcc { i25, i25 } @phasedetector_cordiccart2pol(i24 %x_V, i24 %y_V) readnone {
_ifconv:
  %y_V_read = call i24 @_ssdm_op_Read.ap_auto.i24(i24 %y_V)
  %x_V_read = call i24 @_ssdm_op_Read.ap_auto.i24(i24 %x_V)
  %y_V_cast2 = sext i24 %y_V_read to i25
  %x_V_cast1 = sext i24 %x_V_read to i25
  %tmp_39 = call i1 @_ssdm_op_BitSelect.i1.i24.i32(i24 %x_V_read, i32 23)
  %tmp_41 = call i1 @_ssdm_op_BitSelect.i1.i24.i32(i24 %y_V_read, i32 23)
  %p_Val2_i = sub i24 0, %y_V_read
  %ssdm_int_V_read_assign = select i1 %tmp_41, i24 %p_Val2_i, i24 %y_V_read
  %p_Val2_2_i = sub i25 0, %x_V_cast1
  %ssdm_int_V_read_assign_1 = select i1 %tmp_41, i25 %x_V_cast1, i25 %p_Val2_2_i
  %tmp_43 = call i1 @_ssdm_op_BitSelect.i1.i25.i32(i25 %ssdm_int_V_read_assign_1, i32 24)
  %theta_V_i = select i1 %tmp_43, i19 -205888, i19 205887
  %ssdm_int_V_write_assign = select i1 %tmp_39, i24 %ssdm_int_V_read_assign, i24 %x_V_read
  %ssdm_int_V_write_assign_2_cast = zext i24 %ssdm_int_V_write_assign to i25
  %ssdm_int_V_write_assign_2 = select i1 %tmp_39, i25 %ssdm_int_V_read_assign_1, i25 %y_V_cast2
  %ssdm_int_V_write_assign_3 = select i1 %tmp_39, i19 %theta_V_i, i19 0
  %ssdm_int_V_write_assign_1_cast = sext i19 %ssdm_int_V_write_assign_3 to i20
  %tmp_45 = call i1 @_ssdm_op_BitSelect.i1.i25.i32(i25 %ssdm_int_V_write_assign_2, i32 24)
  %tmp_47 = call i1 @_ssdm_op_BitSelect.i1.i25.i32(i25 %ssdm_int_V_write_assign_2, i32 24)
  %tmp_43_cast_cast = select i1 %tmp_47, i19 -102943, i19 102943
  %tmp_s = add i25 %ssdm_int_V_write_assign_2_cast, %ssdm_int_V_write_assign_2
  %tmp_33 = sub i25 %ssdm_int_V_write_assign_2_cast, %ssdm_int_V_write_assign_2
  %p_Val2_1 = select i1 %tmp_45, i25 %tmp_33, i25 %tmp_s
  %tmp_34 = sub i25 %ssdm_int_V_write_assign_2, %ssdm_int_V_write_assign_2_cast
  %p_Val2_2 = select i1 %tmp_45, i25 %tmp_s, i25 %tmp_34
  %tmp_49 = call i1 @_ssdm_op_BitSelect.i1.i25.i32(i25 %p_Val2_2, i32 24)
  %tmp_51 = call i1 @_ssdm_op_BitSelect.i1.i25.i32(i25 %p_Val2_2, i32 24)
  %tmp_49_cast_cast = select i1 %tmp_51, i19 -60771, i19 60771
  %tmp_35 = call i24 @_ssdm_op_PartSelect.i24.i25.i32.i32(i25 %p_Val2_2, i32 1, i32 24)
  %tmp = zext i24 %tmp_35 to i25
  %p_Val2_42_1 = sext i24 %tmp_35 to i25
  %tmp_99_1 = sub i25 %p_Val2_1, %p_Val2_42_1
  %tmp_104_1 = add i25 %p_Val2_1, %tmp
  %p_Val2_45_1 = select i1 %tmp_49, i25 %tmp_99_1, i25 %tmp_104_1
  %tmp_36 = call i24 @_ssdm_op_PartSelect.i24.i25.i32.i32(i25 %p_Val2_1, i32 1, i32 24)
  %p_Val2_47_1 = sext i24 %tmp_36 to i25
  %tmp_110_1 = add i25 %p_Val2_47_1, %p_Val2_2
  %tmp_115_1 = sub i25 %p_Val2_2, %p_Val2_47_1
  %p_Val2_49_1 = select i1 %tmp_49, i25 %tmp_110_1, i25 %tmp_115_1
  %tmp_53 = call i1 @_ssdm_op_BitSelect.i1.i25.i32(i25 %p_Val2_49_1, i32 24)
  %tmp_55 = call i1 @_ssdm_op_BitSelect.i1.i25.i32(i25 %p_Val2_49_1, i32 24)
  %tmp_58_cast_cast = select i1 %tmp_55, i17 -32109, i17 32109
  %tmp_37 = call i23 @_ssdm_op_PartSelect.i23.i25.i32.i32(i25 %p_Val2_49_1, i32 2, i32 24)
  %tmp_27 = zext i23 %tmp_37 to i25
  %p_Val2_42_2 = sext i23 %tmp_37 to i25
  %tmp_99_2 = sub i25 %p_Val2_45_1, %p_Val2_42_2
  %tmp_104_2 = add i25 %p_Val2_45_1, %tmp_27
  %p_Val2_45_2 = select i1 %tmp_53, i25 %tmp_99_2, i25 %tmp_104_2
  %tmp_38 = call i23 @_ssdm_op_PartSelect.i23.i25.i32.i32(i25 %p_Val2_45_1, i32 2, i32 24)
  %p_Val2_47_2 = sext i23 %tmp_38 to i25
  %tmp_110_2 = add i25 %p_Val2_47_2, %p_Val2_49_1
  %tmp_115_2 = sub i25 %p_Val2_49_1, %p_Val2_47_2
  %p_Val2_49_2 = select i1 %tmp_53, i25 %tmp_110_2, i25 %tmp_115_2
  %tmp_57 = call i1 @_ssdm_op_BitSelect.i1.i25.i32(i25 %p_Val2_49_2, i32 24)
  %tmp_59 = call i1 @_ssdm_op_BitSelect.i1.i25.i32(i25 %p_Val2_49_2, i32 24)
  %tmp_67_cast_cast = select i1 %tmp_59, i16 -16299, i16 16299
  %tmp_40 = call i22 @_ssdm_op_PartSelect.i22.i25.i32.i32(i25 %p_Val2_49_2, i32 3, i32 24)
  %tmp_28 = zext i22 %tmp_40 to i25
  %p_Val2_42_3 = sext i22 %tmp_40 to i25
  %tmp_99_3 = sub i25 %p_Val2_45_2, %p_Val2_42_3
  %tmp_104_3 = add i25 %p_Val2_45_2, %tmp_28
  %p_Val2_45_3 = select i1 %tmp_57, i25 %tmp_99_3, i25 %tmp_104_3
  %tmp_42 = call i22 @_ssdm_op_PartSelect.i22.i25.i32.i32(i25 %p_Val2_45_2, i32 3, i32 24)
  %p_Val2_47_3 = sext i22 %tmp_42 to i25
  %tmp_110_3 = add i25 %p_Val2_47_3, %p_Val2_49_2
  %tmp_115_3 = sub i25 %p_Val2_49_2, %p_Val2_47_3
  %p_Val2_49_3 = select i1 %tmp_57, i25 %tmp_110_3, i25 %tmp_115_3
  %tmp_61 = call i1 @_ssdm_op_BitSelect.i1.i25.i32(i25 %p_Val2_49_3, i32 24)
  %tmp_63 = call i1 @_ssdm_op_BitSelect.i1.i25.i32(i25 %p_Val2_49_3, i32 24)
  %tmp_76_cast_cast = select i1 %tmp_63, i16 -8181, i16 8181
  %tmp_44 = call i21 @_ssdm_op_PartSelect.i21.i25.i32.i32(i25 %p_Val2_49_3, i32 4, i32 24)
  %tmp_29 = zext i21 %tmp_44 to i25
  %p_Val2_42_4 = sext i21 %tmp_44 to i25
  %tmp_99_4 = sub i25 %p_Val2_45_3, %p_Val2_42_4
  %tmp_104_4 = add i25 %p_Val2_45_3, %tmp_29
  %p_Val2_45_4 = select i1 %tmp_61, i25 %tmp_99_4, i25 %tmp_104_4
  %tmp_46 = call i21 @_ssdm_op_PartSelect.i21.i25.i32.i32(i25 %p_Val2_45_3, i32 4, i32 24)
  %p_Val2_47_4 = sext i21 %tmp_46 to i25
  %tmp_110_4 = add i25 %p_Val2_47_4, %p_Val2_49_3
  %tmp_115_4 = sub i25 %p_Val2_49_3, %p_Val2_47_4
  %p_Val2_49_4 = select i1 %tmp_61, i25 %tmp_110_4, i25 %tmp_115_4
  %tmp_67 = call i1 @_ssdm_op_BitSelect.i1.i25.i32(i25 %p_Val2_49_4, i32 24)
  %tmp_70 = call i1 @_ssdm_op_BitSelect.i1.i25.i32(i25 %p_Val2_49_4, i32 24)
  %tmp_85_cast_cast = select i1 %tmp_70, i14 -4094, i14 4094
  %tmp_48 = call i20 @_ssdm_op_PartSelect.i20.i25.i32.i32(i25 %p_Val2_49_4, i32 5, i32 24)
  %tmp_30 = zext i20 %tmp_48 to i25
  %p_Val2_42_5 = sext i20 %tmp_48 to i25
  %tmp_99_5 = sub i25 %p_Val2_45_4, %p_Val2_42_5
  %tmp_104_5 = add i25 %p_Val2_45_4, %tmp_30
  %p_Val2_45_5 = select i1 %tmp_67, i25 %tmp_99_5, i25 %tmp_104_5
  %tmp_50 = call i20 @_ssdm_op_PartSelect.i20.i25.i32.i32(i25 %p_Val2_45_4, i32 5, i32 24)
  %p_Val2_47_5 = sext i20 %tmp_50 to i25
  %tmp_110_5 = add i25 %p_Val2_47_5, %p_Val2_49_4
  %tmp_115_5 = sub i25 %p_Val2_49_4, %p_Val2_47_5
  %p_Val2_49_5 = select i1 %tmp_67, i25 %tmp_110_5, i25 %tmp_115_5
  %tmp_72 = call i1 @_ssdm_op_BitSelect.i1.i25.i32(i25 %p_Val2_49_5, i32 24)
  %tmp_75 = call i1 @_ssdm_op_BitSelect.i1.i25.i32(i25 %p_Val2_49_5, i32 24)
  %tmp_94_cast_cast = select i1 %tmp_75, i13 -2047, i13 2047
  %tmp_52 = call i19 @_ssdm_op_PartSelect.i19.i25.i32.i32(i25 %p_Val2_49_5, i32 6, i32 24)
  %tmp_31 = zext i19 %tmp_52 to i25
  %p_Val2_42_6 = sext i19 %tmp_52 to i25
  %tmp_99_6 = sub i25 %p_Val2_45_5, %p_Val2_42_6
  %tmp_104_6 = add i25 %p_Val2_45_5, %tmp_31
  %p_Val2_45_6 = select i1 %tmp_72, i25 %tmp_99_6, i25 %tmp_104_6
  %tmp_54 = call i19 @_ssdm_op_PartSelect.i19.i25.i32.i32(i25 %p_Val2_45_5, i32 6, i32 24)
  %p_Val2_47_6 = sext i19 %tmp_54 to i25
  %tmp_110_6 = add i25 %p_Val2_47_6, %p_Val2_49_5
  %tmp_115_6 = sub i25 %p_Val2_49_5, %p_Val2_47_6
  %p_Val2_49_6 = select i1 %tmp_72, i25 %tmp_110_6, i25 %tmp_115_6
  %tmp_77 = call i1 @_ssdm_op_BitSelect.i1.i25.i32(i25 %p_Val2_49_6, i32 24)
  %tmp_80 = call i1 @_ssdm_op_BitSelect.i1.i25.i32(i25 %p_Val2_49_6, i32 24)
  %tmp_103_cast_cast = select i1 %tmp_80, i13 -1023, i13 1023
  %tmp_56 = call i18 @_ssdm_op_PartSelect.i18.i25.i32.i32(i25 %p_Val2_49_6, i32 7, i32 24)
  %tmp_32 = zext i18 %tmp_56 to i25
  %tmp_58 = sext i18 %tmp_56 to i25
  %tmp_99_7 = sub i25 %p_Val2_45_6, %tmp_58
  %tmp_104_7 = add i25 %p_Val2_45_6, %tmp_32
  %p_Val2_45_7 = select i1 %tmp_77, i25 %tmp_99_7, i25 %tmp_104_7
  %tmp_60 = call i18 @_ssdm_op_PartSelect.i18.i25.i32.i32(i25 %p_Val2_45_6, i32 7, i32 24)
  %tmp_62 = sext i18 %tmp_60 to i25
  %tmp_110_7 = add i25 %tmp_62, %p_Val2_49_6
  %tmp_115_7 = sub i25 %p_Val2_49_6, %tmp_62
  %p_Val2_49_7 = select i1 %tmp_77, i25 %tmp_110_7, i25 %tmp_115_7
  %tmp_82 = call i1 @_ssdm_op_BitSelect.i1.i25.i32(i25 %p_Val2_49_7, i32 24)
  %tmp_85 = call i1 @_ssdm_op_BitSelect.i1.i25.i32(i25 %p_Val2_49_7, i32 24)
  %tmp_115_cast_cast = select i1 %tmp_85, i11 -511, i11 511
  %tmp_64 = call i17 @_ssdm_op_PartSelect.i17.i25.i32.i32(i25 %p_Val2_49_7, i32 8, i32 24)
  %tmp_65 = zext i17 %tmp_64 to i25
  %p_Val2_42_8 = sext i17 %tmp_64 to i25
  %tmp_99_8 = sub i25 %p_Val2_45_7, %p_Val2_42_8
  %tmp_104_8 = add i25 %p_Val2_45_7, %tmp_65
  %p_Val2_45_8 = select i1 %tmp_82, i25 %tmp_99_8, i25 %tmp_104_8
  %tmp_66 = call i17 @_ssdm_op_PartSelect.i17.i25.i32.i32(i25 %p_Val2_45_7, i32 8, i32 24)
  %p_Val2_47_8 = sext i17 %tmp_66 to i25
  %tmp_110_8 = add i25 %p_Val2_47_8, %p_Val2_49_7
  %tmp_115_8 = sub i25 %p_Val2_49_7, %p_Val2_47_8
  %p_Val2_49_8 = select i1 %tmp_82, i25 %tmp_110_8, i25 %tmp_115_8
  %tmp_86 = call i1 @_ssdm_op_BitSelect.i1.i25.i32(i25 %p_Val2_49_8, i32 24)
  %tmp_87 = call i1 @_ssdm_op_BitSelect.i1.i25.i32(i25 %p_Val2_49_8, i32 24)
  %tmp_124_cast_cast = select i1 %tmp_87, i11 -255, i11 255
  %tmp_68 = call i16 @_ssdm_op_PartSelect.i16.i25.i32.i32(i25 %p_Val2_49_8, i32 9, i32 24)
  %tmp_69 = zext i16 %tmp_68 to i25
  %p_Val2_42_9 = sext i16 %tmp_68 to i25
  %tmp_99_9 = sub i25 %p_Val2_45_8, %p_Val2_42_9
  %tmp_104_9 = add i25 %p_Val2_45_8, %tmp_69
  %p_Val2_45_9 = select i1 %tmp_86, i25 %tmp_99_9, i25 %tmp_104_9
  %tmp_71 = call i16 @_ssdm_op_PartSelect.i16.i25.i32.i32(i25 %p_Val2_45_8, i32 9, i32 24)
  %p_Val2_47_9 = sext i16 %tmp_71 to i25
  %tmp_110_9 = add i25 %p_Val2_47_9, %p_Val2_49_8
  %tmp_115_9 = sub i25 %p_Val2_49_8, %p_Val2_47_9
  %p_Val2_49_9 = select i1 %tmp_86, i25 %tmp_110_9, i25 %tmp_115_9
  %tmp_88 = call i1 @_ssdm_op_BitSelect.i1.i25.i32(i25 %p_Val2_49_9, i32 24)
  %tmp_89 = call i1 @_ssdm_op_BitSelect.i1.i25.i32(i25 %p_Val2_49_9, i32 24)
  %tmp_133_cast_cast = select i1 %tmp_89, i9 -127, i9 127
  %tmp_73 = call i15 @_ssdm_op_PartSelect.i15.i25.i32.i32(i25 %p_Val2_49_9, i32 10, i32 24)
  %tmp_74 = zext i15 %tmp_73 to i25
  %p_Val2_42_s = sext i15 %tmp_73 to i25
  %tmp_99_s = sub i25 %p_Val2_45_9, %p_Val2_42_s
  %tmp_104_s = add i25 %p_Val2_45_9, %tmp_74
  %p_Val2_45_s = select i1 %tmp_88, i25 %tmp_99_s, i25 %tmp_104_s
  %tmp_76 = call i15 @_ssdm_op_PartSelect.i15.i25.i32.i32(i25 %p_Val2_45_9, i32 10, i32 24)
  %p_Val2_47_s = sext i15 %tmp_76 to i25
  %tmp_110_s = add i25 %p_Val2_47_s, %p_Val2_49_9
  %tmp_115_s = sub i25 %p_Val2_49_9, %p_Val2_47_s
  %p_Val2_49_s = select i1 %tmp_88, i25 %tmp_110_s, i25 %tmp_115_s
  %tmp_90 = call i1 @_ssdm_op_BitSelect.i1.i25.i32(i25 %p_Val2_49_s, i32 24)
  %tmp_91 = call i1 @_ssdm_op_BitSelect.i1.i25.i32(i25 %p_Val2_49_s, i32 24)
  %tmp_142_cast_cast = select i1 %tmp_91, i9 -63, i9 63
  %tmp3 = add i19 %tmp_49_cast_cast, %tmp_43_cast_cast
  %tmp3_cast = sext i19 %tmp3 to i20
  %tmp2 = add i20 %ssdm_int_V_write_assign_1_cast, %tmp3_cast
  %tmp5 = add i16 %tmp_76_cast_cast, %tmp_67_cast_cast
  %tmp5_cast = sext i16 %tmp5 to i17
  %tmp4 = add i17 %tmp_58_cast_cast, %tmp5_cast
  %tmp4_cast = sext i17 %tmp4 to i20
  %tmp1 = add i20 %tmp2, %tmp4_cast
  %tmp8 = add i13 %tmp_103_cast_cast, %tmp_94_cast_cast
  %tmp8_cast = sext i13 %tmp8 to i14
  %tmp7 = add i14 %tmp_85_cast_cast, %tmp8_cast
  %tmp10 = add i11 %tmp_124_cast_cast, %tmp_115_cast_cast
  %tmp11 = add i9 %tmp_142_cast_cast, %tmp_133_cast_cast
  %tmp11_cast = sext i9 %tmp11 to i11
  %tmp9 = add i11 %tmp10, %tmp11_cast
  %tmp9_cast = sext i11 %tmp9 to i14
  %tmp6 = add i14 %tmp7, %tmp9_cast
  %tmp6_cast = sext i14 %tmp6 to i20
  %p_Val2_40_s = add i20 %tmp1, %tmp6_cast
  %p_Val2_40_10_cast = sext i20 %p_Val2_40_s to i25
  %tmp_78 = call i14 @_ssdm_op_PartSelect.i14.i25.i32.i32(i25 %p_Val2_49_s, i32 11, i32 24)
  %tmp_79 = zext i14 %tmp_78 to i25
  %p_Val2_42_7 = sext i14 %tmp_78 to i25
  %tmp_99_10 = sub i25 %p_Val2_45_s, %p_Val2_42_7
  %tmp_104_10 = add i25 %p_Val2_45_s, %tmp_79
  %p_Val2_45_10 = select i1 %tmp_90, i25 %tmp_99_10, i25 %tmp_104_10
  %OP1_V_cast = sext i25 %p_Val2_45_10 to i42
  %p_Val2_s = mul i42 %OP1_V_cast, 79597
  %ssdm_int_V_write_assign_4 = call i25 @_ssdm_op_PartSelect.i25.i42.i32.i32(i42 %p_Val2_s, i32 17, i32 41)
  %mrv = insertvalue { i25, i25 } undef, i25 %ssdm_int_V_write_assign_4, 0
  %mrv_1 = insertvalue { i25, i25 } %mrv, i25 %p_Val2_40_10_cast, 1
  ret { i25, i25 } %mrv_1
}

define weak void @_ssdm_op_Write.ap_auto.floatP(float*, float) {
entry:
  store float %1, float* %0
  ret void
}

define weak void @_ssdm_op_SpecTopModule(...) {
entry:
  ret void
}

define weak void @_ssdm_op_SpecPipeline(...) nounwind {
entry:
  ret void
}

define weak void @_ssdm_op_SpecBitsMap(...) {
entry:
  ret void
}

define weak i24 @_ssdm_op_Read.ap_auto.i24(i24) {
entry:
  ret i24 %0
}

define weak i19 @_ssdm_op_Read.ap_auto.i19(i19) {
entry:
  ret i19 %0
}

define weak float @_ssdm_op_Read.ap_auto.float(float) {
entry:
  ret float %0
}

define weak i8 @_ssdm_op_PartSelect.i8.i32.i32.i32(i32, i32, i32) nounwind readnone {
entry:
  %empty = call i32 @llvm.part.select.i32(i32 %0, i32 %1, i32 %2)
  %empty_13 = trunc i32 %empty to i8
  ret i8 %empty_13
}

declare i63 @_ssdm_op_PartSelect.i63.i64.i32.i32(i64, i32, i32) nounwind readnone

declare i52 @_ssdm_op_PartSelect.i52.i64.i32.i32(i64, i32, i32) nounwind readnone

define weak i25 @_ssdm_op_PartSelect.i25.i42.i32.i32(i42, i32, i32) nounwind readnone {
entry:
  %empty = call i42 @llvm.part.select.i42(i42 %0, i32 %1, i32 %2)
  %empty_14 = trunc i42 %empty to i25
  ret i25 %empty_14
}

define weak i24 @_ssdm_op_PartSelect.i24.i25.i32.i32(i25, i32, i32) nounwind readnone {
entry:
  %empty = call i25 @llvm.part.select.i25(i25 %0, i32 %1, i32 %2)
  %empty_15 = trunc i25 %empty to i24
  ret i24 %empty_15
}

define weak i23 @_ssdm_op_PartSelect.i23.i25.i32.i32(i25, i32, i32) nounwind readnone {
entry:
  %empty = call i25 @llvm.part.select.i25(i25 %0, i32 %1, i32 %2)
  %empty_16 = trunc i25 %empty to i23
  ret i23 %empty_16
}

define weak i22 @_ssdm_op_PartSelect.i22.i25.i32.i32(i25, i32, i32) nounwind readnone {
entry:
  %empty = call i25 @llvm.part.select.i25(i25 %0, i32 %1, i32 %2)
  %empty_17 = trunc i25 %empty to i22
  ret i22 %empty_17
}

define weak i21 @_ssdm_op_PartSelect.i21.i25.i32.i32(i25, i32, i32) nounwind readnone {
entry:
  %empty = call i25 @llvm.part.select.i25(i25 %0, i32 %1, i32 %2)
  %empty_18 = trunc i25 %empty to i21
  ret i21 %empty_18
}

define weak i20 @_ssdm_op_PartSelect.i20.i25.i32.i32(i25, i32, i32) nounwind readnone {
entry:
  %empty = call i25 @llvm.part.select.i25(i25 %0, i32 %1, i32 %2)
  %empty_19 = trunc i25 %empty to i20
  ret i20 %empty_19
}

declare i19 @_ssdm_op_PartSelect.i19.i54.i32.i32(i54, i32, i32) nounwind readnone

declare i19 @_ssdm_op_PartSelect.i19.i32.i32.i32(i32, i32, i32) nounwind readnone

define weak i19 @_ssdm_op_PartSelect.i19.i25.i32.i32(i25, i32, i32) nounwind readnone {
entry:
  %empty = call i25 @llvm.part.select.i25(i25 %0, i32 %1, i32 %2)
  %empty_20 = trunc i25 %empty to i19
  ret i19 %empty_20
}

define weak i18 @_ssdm_op_PartSelect.i18.i25.i32.i32(i25, i32, i32) nounwind readnone {
entry:
  %empty = call i25 @llvm.part.select.i25(i25 %0, i32 %1, i32 %2)
  %empty_21 = trunc i25 %empty to i18
  ret i18 %empty_21
}

define weak i17 @_ssdm_op_PartSelect.i17.i25.i32.i32(i25, i32, i32) nounwind readnone {
entry:
  %empty = call i25 @llvm.part.select.i25(i25 %0, i32 %1, i32 %2)
  %empty_22 = trunc i25 %empty to i17
  ret i17 %empty_22
}

define weak i16 @_ssdm_op_PartSelect.i16.i25.i32.i32(i25, i32, i32) nounwind readnone {
entry:
  %empty = call i25 @llvm.part.select.i25(i25 %0, i32 %1, i32 %2)
  %empty_23 = trunc i25 %empty to i16
  ret i16 %empty_23
}

define weak i15 @_ssdm_op_PartSelect.i15.i25.i32.i32(i25, i32, i32) nounwind readnone {
entry:
  %empty = call i25 @llvm.part.select.i25(i25 %0, i32 %1, i32 %2)
  %empty_24 = trunc i25 %empty to i15
  ret i15 %empty_24
}

define weak i14 @_ssdm_op_PartSelect.i14.i25.i32.i32(i25, i32, i32) nounwind readnone {
entry:
  %empty = call i25 @llvm.part.select.i25(i25 %0, i32 %1, i32 %2)
  %empty_25 = trunc i25 %empty to i14
  ret i14 %empty_25
}

define weak i11 @_ssdm_op_PartSelect.i11.i64.i32.i32(i64, i32, i32) nounwind readnone {
entry:
  %empty = call i64 @llvm.part.select.i64(i64 %0, i32 %1, i32 %2)
  %empty_26 = trunc i64 %empty to i11
  ret i11 %empty_26
}

declare i16 @_ssdm_op_HSub(...)

declare i16 @_ssdm_op_HMul(...)

declare i16 @_ssdm_op_HDiv(...)

declare i16 @_ssdm_op_HAdd(...)

define weak i1 @_ssdm_op_BitSelect.i1.i64.i32(i64, i32) nounwind readnone {
entry:
  %empty = zext i32 %1 to i64
  %empty_27 = shl i64 1, %empty
  %empty_28 = and i64 %0, %empty_27
  %empty_29 = icmp ne i64 %empty_28, 0
  ret i1 %empty_29
}

define weak i1 @_ssdm_op_BitSelect.i1.i25.i32(i25, i32) nounwind readnone {
entry:
  %empty = trunc i32 %1 to i25
  %empty_30 = shl i25 1, %empty
  %empty_31 = and i25 %0, %empty_30
  %empty_32 = icmp ne i25 %empty_31, 0
  ret i1 %empty_32
}

define weak i1 @_ssdm_op_BitSelect.i1.i24.i32(i24, i32) nounwind readnone {
entry:
  %empty = trunc i32 %1 to i24
  %empty_33 = shl i24 1, %empty
  %empty_34 = and i24 %0, %empty_33
  %empty_35 = icmp ne i24 %empty_34, 0
  ret i1 %empty_35
}

define weak i53 @_ssdm_op_BitConcatenate.i53.i1.i52(i1, i52) nounwind readnone {
entry:
  %empty = zext i1 %0 to i53
  %empty_36 = zext i52 %1 to i53
  %empty_37 = shl i53 %empty, 52
  %empty_38 = or i53 %empty_37, %empty_36
  ret i53 %empty_38
}

define weak i24 @_ssdm_op_BitConcatenate.i24.i19.i5(i19, i5) nounwind readnone {
entry:
  %empty = zext i19 %0 to i24
  %empty_39 = zext i5 %1 to i24
  %empty_40 = shl i24 %empty, 5
  %empty_41 = or i24 %empty_40, %empty_39
  ret i24 %empty_41
}

declare void @_GLOBAL__I_a9() nounwind

declare void @_GLOBAL__I_a18() nounwind

declare void @_GLOBAL__I_a() nounwind

!hls.encrypted.func = !{}
!llvm.map.gv = !{!0}

!0 = metadata !{metadata !1, [3 x i32]* @llvm_global_ctors_0}
!1 = metadata !{metadata !2}
!2 = metadata !{i32 0, i32 31, metadata !3}
!3 = metadata !{metadata !4}
!4 = metadata !{metadata !"llvm.global_ctors.0", metadata !5, metadata !"", i32 0, i32 31}
!5 = metadata !{metadata !6}
!6 = metadata !{i32 0, i32 2, i32 1}
!7 = metadata !{metadata !8}
!8 = metadata !{i32 0, i32 31, metadata !9}
!9 = metadata !{metadata !10}
!10 = metadata !{metadata !"I", metadata !11, metadata !"float", i32 0, i32 31}
!11 = metadata !{metadata !12}
!12 = metadata !{i32 0, i32 0, i32 0}
!13 = metadata !{metadata !14}
!14 = metadata !{i32 0, i32 31, metadata !15}
!15 = metadata !{metadata !16}
!16 = metadata !{metadata !"Q", metadata !11, metadata !"float", i32 0, i32 31}
!17 = metadata !{metadata !18}
!18 = metadata !{i32 0, i32 31, metadata !19}
!19 = metadata !{metadata !20}
!20 = metadata !{metadata !"R", metadata !21, metadata !"float", i32 0, i32 31}
!21 = metadata !{metadata !22}
!22 = metadata !{i32 0, i32 0, i32 1}
!23 = metadata !{metadata !24}
!24 = metadata !{i32 0, i32 31, metadata !25}
!25 = metadata !{metadata !26}
!26 = metadata !{metadata !"theta", metadata !21, metadata !"float", i32 0, i32 31}
