; ModuleID = 'D:/Projects/vivado/project_3/dft_256_precomputed/dft/dft_opt10/.autopilot/db/a.o.2.bc'
target datalayout = "e-p:64:64:64-i1:8:8-i8:8:8-i16:16:16-i32:32:32-i64:64:64-f32:32:32-f64:64:64-v64:64:64-v128:128:128-a0:0:64-s0:64:64-f80:128:128-n8:16:32:64-S128"
target triple = "x86_64-w64-mingw32"

@sct18 = internal unnamed_addr constant [256 x float] [float 0.000000e+00, float 0xBF992146A0000000, float 0xBFA91F70E0000000, float 0xBFB2D527E0000000, float 0xBFB917A460000000, float 0xBFBF5653C0000000, float 0xBFC2C80C80000000, float 0xBFC5E21540000000, float 0xBFC8F8B580000000, float 0xBFCC0B8060000000, float 0xBFCF19F800000000, float 0xBFD111D360000000, float 0xBFD2940780000000, float 0xBFD4135DA0000000, float 0xBFD58F9B20000000, float 0xBFD7088500000000, float 0xBFD87DE0E0000000, float 0xBFD9EF7800000000, float 0xBFDB5D0FA0000000, float 0xBFDCC66D40000000, float 0xBFDE2B5E60000000, float 0xBFDF8BA400000000, float 0xBFE0738820000000, float 0xBFE11EB420000000, float 0xBFE1C73AC0000000, float 0xBFE26D04E0000000, float 0xBFE30FF760000000, float 0xBFE3AFFB00000000, float 0xBFE44CF280000000, float 0xBFE4E6CB20000000, float 0xBFE57D6940000000, float 0xBFE610B840000000, float 0xBFE6A09EE0000000, float 0xBFE72D0800000000, float 0xBFE7B5DEE0000000, float 0xBFE83B0E60000000, float 0xBFE8BC7F80000000, float 0xBFE93A2160000000, float 0xBFE9B3E140000000, float 0xBFEA29A800000000, float 0xBFEA9B6700000000, float 0xBFEB090B40000000, float 0xBFEB728420000000, float 0xBFEBD7C0C0000000, float 0xBFEC38B260000000, float 0xBFEC954A80000000, float 0xBFECED7A60000000, float 0xBFED413560000000, float 0xBFED906CC0000000, float 0xBFEDDB1420000000, float 0xBFEE2120E0000000, float 0xBFEE628880000000, float 0xBFEE9F40A0000000, float 0xBFEED740C0000000, float 0xBFEF0A7E80000000, float 0xBFEF38F360000000, float 0xBFEF629740000000, float 0xBFEF8765C0000000, float 0xBFEFA75680000000, float 0xBFEFC26560000000, float 0xBFEFD88E40000000, float 0xBFEFE9CCC0000000, float 0xBFEFF620E0000000, float 0xBFEFFD88C0000000, float -1.000000e+00, float 0xBFEFFD88C0000000, float 0xBFEFF620E0000000, float 0xBFEFE9CCC0000000, float 0xBFEFD88E40000000, float 0xBFEFC26560000000, float 0xBFEFA75680000000, float 0xBFEF8765C0000000, float 0xBFEF629740000000, float 0xBFEF38F360000000, float 0xBFEF0A7E80000000, float 0xBFEED740C0000000, float 0xBFEE9F40A0000000, float 0xBFEE628880000000, float 0xBFEE2120E0000000, float 0xBFEDDB1420000000, float 0xBFED906CC0000000, float 0xBFED413560000000, float 0xBFECED7A60000000, float 0xBFEC954A80000000, float 0xBFEC38B260000000, float 0xBFEBD7C0C0000000, float 0xBFEB728420000000, float 0xBFEB090B40000000, float 0xBFEA9B6700000000, float 0xBFEA29A800000000, float 0xBFE9B3E140000000, float 0xBFE93A2160000000, float 0xBFE8BC7F80000000, float 0xBFE83B0E60000000, float 0xBFE7B5DEE0000000, float 0xBFE72D0800000000, float 0xBFE6A09EE0000000, float 0xBFE610B840000000, float 0xBFE57D6940000000, float 0xBFE4E6CB20000000, float 0xBFE44CF280000000, float 0xBFE3AFFB00000000, float 0xBFE30FF760000000, float 0xBFE26D04E0000000, float 0xBFE1C73AC0000000, float 0xBFE11EB420000000, float 0xBFE0738820000000, float 0xBFDF8BA400000000, float 0xBFDE2B5E60000000, float 0xBFDCC66D40000000, float 0xBFDB5D0FA0000000, float 0xBFD9EF7800000000, float 0xBFD87DE0E0000000, float 0xBFD7088500000000, float 0xBFD58F9B20000000, float 0xBFD4135DA0000000, float 0xBFD2940780000000, float 0xBFD111D360000000, float 0xBFCF19F800000000, float 0xBFCC0B8060000000, float 0xBFC8F8B580000000, float 0xBFC5E21540000000, float 0xBFC2C80C80000000, float 0xBFBF5653C0000000, float 0xBFB917A460000000, float 0xBFB2D527E0000000, float 0xBFA91F70E0000000, float 0xBF992146A0000000, float -0.000000e+00, float 0x3F992146A0000000, float 0x3FA91F70E0000000, float 0x3FB2D527E0000000, float 0x3FB917A460000000, float 0x3FBF5653C0000000, float 0x3FC2C80C80000000, float 0x3FC5E21540000000, float 0x3FC8F8B580000000, float 0x3FCC0B8060000000, float 0x3FCF19F800000000, float 0x3FD111D360000000, float 0x3FD2940780000000, float 0x3FD4135DA0000000, float 0x3FD58F9B20000000, float 0x3FD7088500000000, float 0x3FD87DE0E0000000, float 0x3FD9EF7800000000, float 0x3FDB5D0FA0000000, float 0x3FDCC66D40000000, float 0x3FDE2B5E60000000, float 0x3FDF8BA400000000, float 0x3FE0738820000000, float 0x3FE11EB420000000, float 0x3FE1C73AC0000000, float 0x3FE26D04E0000000, float 0x3FE30FF760000000, float 0x3FE3AFFB00000000, float 0x3FE44CF280000000, float 0x3FE4E6CB20000000, float 0x3FE57D6940000000, float 0x3FE610B840000000, float 0x3FE6A09EE0000000, float 0x3FE72D0800000000, float 0x3FE7B5DEE0000000, float 0x3FE83B0E60000000, float 0x3FE8BC7F80000000, float 0x3FE93A2160000000, float 0x3FE9B3E140000000, float 0x3FEA29A800000000, float 0x3FEA9B6700000000, float 0x3FEB090B40000000, float 0x3FEB728420000000, float 0x3FEBD7C0C0000000, float 0x3FEC38B260000000, float 0x3FEC954A80000000, float 0x3FECED7A60000000, float 0x3FED413560000000, float 0x3FED906CC0000000, float 0x3FEDDB1420000000, float 0x3FEE2120E0000000, float 0x3FEE628880000000, float 0x3FEE9F40A0000000, float 0x3FEED740C0000000, float 0x3FEF0A7E80000000, float 0x3FEF38F360000000, float 0x3FEF629740000000, float 0x3FEF8765C0000000, float 0x3FEFA75680000000, float 0x3FEFC26560000000, float 0x3FEFD88E40000000, float 0x3FEFE9CCC0000000, float 0x3FEFF620E0000000, float 0x3FEFFD88C0000000, float 1.000000e+00, float 0x3FEFFD88C0000000, float 0x3FEFF620E0000000, float 0x3FEFE9CCC0000000, float 0x3FEFD88E40000000, float 0x3FEFC26560000000, float 0x3FEFA75680000000, float 0x3FEF8765C0000000, float 0x3FEF629740000000, float 0x3FEF38F360000000, float 0x3FEF0A7E80000000, float 0x3FEED740C0000000, float 0x3FEE9F40A0000000, float 0x3FEE628880000000, float 0x3FEE2120E0000000, float 0x3FEDDB1420000000, float 0x3FED906CC0000000, float 0x3FED413560000000, float 0x3FECED7A60000000, float 0x3FEC954A80000000, float 0x3FEC38B260000000, float 0x3FEBD7C0C0000000, float 0x3FEB728420000000, float 0x3FEB090B40000000, float 0x3FEA9B6700000000, float 0x3FEA29A800000000, float 0x3FE9B3E140000000, float 0x3FE93A2160000000, float 0x3FE8BC7F80000000, float 0x3FE83B0E60000000, float 0x3FE7B5DEE0000000, float 0x3FE72D0800000000, float 0x3FE6A09EE0000000, float 0x3FE610B840000000, float 0x3FE57D6940000000, float 0x3FE4E6CB20000000, float 0x3FE44CF280000000, float 0x3FE3AFFB00000000, float 0x3FE30FF760000000, float 0x3FE26D04E0000000, float 0x3FE1C73AC0000000, float 0x3FE11EB420000000, float 0x3FE0738820000000, float 0x3FDF8BA400000000, float 0x3FDE2B5E60000000, float 0x3FDCC66D40000000, float 0x3FDB5D0FA0000000, float 0x3FD9EF7800000000, float 0x3FD87DE0E0000000, float 0x3FD7088500000000, float 0x3FD58F9B20000000, float 0x3FD4135DA0000000, float 0x3FD2940780000000, float 0x3FD111D360000000, float 0x3FCF19F800000000, float 0x3FCC0B8060000000, float 0x3FC8F8B580000000, float 0x3FC5E21540000000, float 0x3FC2C80C80000000, float 0x3FBF5653C0000000, float 0x3FB917A460000000, float 0x3FB2D527E0000000, float 0x3FA91F70E0000000, float 0x3F992146A0000000]
@sct = internal unnamed_addr constant [256 x float] [float 0.000000e+00, float 0xBF992146A0000000, float 0xBFA91F70E0000000, float 0xBFB2D527E0000000, float 0xBFB917A460000000, float 0xBFBF5653C0000000, float 0xBFC2C80C80000000, float 0xBFC5E21540000000, float 0xBFC8F8B580000000, float 0xBFCC0B8060000000, float 0xBFCF19F800000000, float 0xBFD111D360000000, float 0xBFD2940780000000, float 0xBFD4135DA0000000, float 0xBFD58F9B20000000, float 0xBFD7088500000000, float 0xBFD87DE0E0000000, float 0xBFD9EF7800000000, float 0xBFDB5D0FA0000000, float 0xBFDCC66D40000000, float 0xBFDE2B5E60000000, float 0xBFDF8BA400000000, float 0xBFE0738820000000, float 0xBFE11EB420000000, float 0xBFE1C73AC0000000, float 0xBFE26D04E0000000, float 0xBFE30FF760000000, float 0xBFE3AFFB00000000, float 0xBFE44CF280000000, float 0xBFE4E6CB20000000, float 0xBFE57D6940000000, float 0xBFE610B840000000, float 0xBFE6A09EE0000000, float 0xBFE72D0800000000, float 0xBFE7B5DEE0000000, float 0xBFE83B0E60000000, float 0xBFE8BC7F80000000, float 0xBFE93A2160000000, float 0xBFE9B3E140000000, float 0xBFEA29A800000000, float 0xBFEA9B6700000000, float 0xBFEB090B40000000, float 0xBFEB728420000000, float 0xBFEBD7C0C0000000, float 0xBFEC38B260000000, float 0xBFEC954A80000000, float 0xBFECED7A60000000, float 0xBFED413560000000, float 0xBFED906CC0000000, float 0xBFEDDB1420000000, float 0xBFEE2120E0000000, float 0xBFEE628880000000, float 0xBFEE9F40A0000000, float 0xBFEED740C0000000, float 0xBFEF0A7E80000000, float 0xBFEF38F360000000, float 0xBFEF629740000000, float 0xBFEF8765C0000000, float 0xBFEFA75680000000, float 0xBFEFC26560000000, float 0xBFEFD88E40000000, float 0xBFEFE9CCC0000000, float 0xBFEFF620E0000000, float 0xBFEFFD88C0000000, float -1.000000e+00, float 0xBFEFFD88C0000000, float 0xBFEFF620E0000000, float 0xBFEFE9CCC0000000, float 0xBFEFD88E40000000, float 0xBFEFC26560000000, float 0xBFEFA75680000000, float 0xBFEF8765C0000000, float 0xBFEF629740000000, float 0xBFEF38F360000000, float 0xBFEF0A7E80000000, float 0xBFEED740C0000000, float 0xBFEE9F40A0000000, float 0xBFEE628880000000, float 0xBFEE2120E0000000, float 0xBFEDDB1420000000, float 0xBFED906CC0000000, float 0xBFED413560000000, float 0xBFECED7A60000000, float 0xBFEC954A80000000, float 0xBFEC38B260000000, float 0xBFEBD7C0C0000000, float 0xBFEB728420000000, float 0xBFEB090B40000000, float 0xBFEA9B6700000000, float 0xBFEA29A800000000, float 0xBFE9B3E140000000, float 0xBFE93A2160000000, float 0xBFE8BC7F80000000, float 0xBFE83B0E60000000, float 0xBFE7B5DEE0000000, float 0xBFE72D0800000000, float 0xBFE6A09EE0000000, float 0xBFE610B840000000, float 0xBFE57D6940000000, float 0xBFE4E6CB20000000, float 0xBFE44CF280000000, float 0xBFE3AFFB00000000, float 0xBFE30FF760000000, float 0xBFE26D04E0000000, float 0xBFE1C73AC0000000, float 0xBFE11EB420000000, float 0xBFE0738820000000, float 0xBFDF8BA400000000, float 0xBFDE2B5E60000000, float 0xBFDCC66D40000000, float 0xBFDB5D0FA0000000, float 0xBFD9EF7800000000, float 0xBFD87DE0E0000000, float 0xBFD7088500000000, float 0xBFD58F9B20000000, float 0xBFD4135DA0000000, float 0xBFD2940780000000, float 0xBFD111D360000000, float 0xBFCF19F800000000, float 0xBFCC0B8060000000, float 0xBFC8F8B580000000, float 0xBFC5E21540000000, float 0xBFC2C80C80000000, float 0xBFBF5653C0000000, float 0xBFB917A460000000, float 0xBFB2D527E0000000, float 0xBFA91F70E0000000, float 0xBF992146A0000000, float -0.000000e+00, float 0x3F992146A0000000, float 0x3FA91F70E0000000, float 0x3FB2D527E0000000, float 0x3FB917A460000000, float 0x3FBF5653C0000000, float 0x3FC2C80C80000000, float 0x3FC5E21540000000, float 0x3FC8F8B580000000, float 0x3FCC0B8060000000, float 0x3FCF19F800000000, float 0x3FD111D360000000, float 0x3FD2940780000000, float 0x3FD4135DA0000000, float 0x3FD58F9B20000000, float 0x3FD7088500000000, float 0x3FD87DE0E0000000, float 0x3FD9EF7800000000, float 0x3FDB5D0FA0000000, float 0x3FDCC66D40000000, float 0x3FDE2B5E60000000, float 0x3FDF8BA400000000, float 0x3FE0738820000000, float 0x3FE11EB420000000, float 0x3FE1C73AC0000000, float 0x3FE26D04E0000000, float 0x3FE30FF760000000, float 0x3FE3AFFB00000000, float 0x3FE44CF280000000, float 0x3FE4E6CB20000000, float 0x3FE57D6940000000, float 0x3FE610B840000000, float 0x3FE6A09EE0000000, float 0x3FE72D0800000000, float 0x3FE7B5DEE0000000, float 0x3FE83B0E60000000, float 0x3FE8BC7F80000000, float 0x3FE93A2160000000, float 0x3FE9B3E140000000, float 0x3FEA29A800000000, float 0x3FEA9B6700000000, float 0x3FEB090B40000000, float 0x3FEB728420000000, float 0x3FEBD7C0C0000000, float 0x3FEC38B260000000, float 0x3FEC954A80000000, float 0x3FECED7A60000000, float 0x3FED413560000000, float 0x3FED906CC0000000, float 0x3FEDDB1420000000, float 0x3FEE2120E0000000, float 0x3FEE628880000000, float 0x3FEE9F40A0000000, float 0x3FEED740C0000000, float 0x3FEF0A7E80000000, float 0x3FEF38F360000000, float 0x3FEF629740000000, float 0x3FEF8765C0000000, float 0x3FEFA75680000000, float 0x3FEFC26560000000, float 0x3FEFD88E40000000, float 0x3FEFE9CCC0000000, float 0x3FEFF620E0000000, float 0x3FEFFD88C0000000, float 1.000000e+00, float 0x3FEFFD88C0000000, float 0x3FEFF620E0000000, float 0x3FEFE9CCC0000000, float 0x3FEFD88E40000000, float 0x3FEFC26560000000, float 0x3FEFA75680000000, float 0x3FEF8765C0000000, float 0x3FEF629740000000, float 0x3FEF38F360000000, float 0x3FEF0A7E80000000, float 0x3FEED740C0000000, float 0x3FEE9F40A0000000, float 0x3FEE628880000000, float 0x3FEE2120E0000000, float 0x3FEDDB1420000000, float 0x3FED906CC0000000, float 0x3FED413560000000, float 0x3FECED7A60000000, float 0x3FEC954A80000000, float 0x3FEC38B260000000, float 0x3FEBD7C0C0000000, float 0x3FEB728420000000, float 0x3FEB090B40000000, float 0x3FEA9B6700000000, float 0x3FEA29A800000000, float 0x3FE9B3E140000000, float 0x3FE93A2160000000, float 0x3FE8BC7F80000000, float 0x3FE83B0E60000000, float 0x3FE7B5DEE0000000, float 0x3FE72D0800000000, float 0x3FE6A09EE0000000, float 0x3FE610B840000000, float 0x3FE57D6940000000, float 0x3FE4E6CB20000000, float 0x3FE44CF280000000, float 0x3FE3AFFB00000000, float 0x3FE30FF760000000, float 0x3FE26D04E0000000, float 0x3FE1C73AC0000000, float 0x3FE11EB420000000, float 0x3FE0738820000000, float 0x3FDF8BA400000000, float 0x3FDE2B5E60000000, float 0x3FDCC66D40000000, float 0x3FDB5D0FA0000000, float 0x3FD9EF7800000000, float 0x3FD87DE0E0000000, float 0x3FD7088500000000, float 0x3FD58F9B20000000, float 0x3FD4135DA0000000, float 0x3FD2940780000000, float 0x3FD111D360000000, float 0x3FCF19F800000000, float 0x3FCC0B8060000000, float 0x3FC8F8B580000000, float 0x3FC5E21540000000, float 0x3FC2C80C80000000, float 0x3FBF5653C0000000, float 0x3FB917A460000000, float 0x3FB2D527E0000000, float 0x3FA91F70E0000000, float 0x3F992146A0000000], align 16
@llvm_global_ctors_1 = appending global [1 x void ()*] [void ()* @_GLOBAL__I_a]
@llvm_global_ctors_0 = appending global [1 x i32] [i32 65535]
@dft_str = internal unnamed_addr constant [4 x i8] c"dft\00"
@cct17 = internal unnamed_addr constant [256 x float] [float 1.000000e+00, float 0x3FEFFD88C0000000, float 0x3FEFF620E0000000, float 0x3FEFE9CCC0000000, float 0x3FEFD88E40000000, float 0x3FEFC26560000000, float 0x3FEFA75680000000, float 0x3FEF8765C0000000, float 0x3FEF629740000000, float 0x3FEF38F360000000, float 0x3FEF0A7E80000000, float 0x3FEED740C0000000, float 0x3FEE9F40A0000000, float 0x3FEE628880000000, float 0x3FEE2120E0000000, float 0x3FEDDB1420000000, float 0x3FED906CC0000000, float 0x3FED413560000000, float 0x3FECED7A60000000, float 0x3FEC954A80000000, float 0x3FEC38B260000000, float 0x3FEBD7C0C0000000, float 0x3FEB728420000000, float 0x3FEB090B40000000, float 0x3FEA9B6700000000, float 0x3FEA29A800000000, float 0x3FE9B3E140000000, float 0x3FE93A2160000000, float 0x3FE8BC7F80000000, float 0x3FE83B0E60000000, float 0x3FE7B5DEE0000000, float 0x3FE72D0800000000, float 0x3FE6A09EE0000000, float 0x3FE610B840000000, float 0x3FE57D6940000000, float 0x3FE4E6CB20000000, float 0x3FE44CF280000000, float 0x3FE3AFFB00000000, float 0x3FE30FF760000000, float 0x3FE26D04E0000000, float 0x3FE1C73AC0000000, float 0x3FE11EB420000000, float 0x3FE0738820000000, float 0x3FDF8BA400000000, float 0x3FDE2B5E60000000, float 0x3FDCC66D40000000, float 0x3FDB5D0FA0000000, float 0x3FD9EF7800000000, float 0x3FD87DE0E0000000, float 0x3FD7088500000000, float 0x3FD58F9B20000000, float 0x3FD4135DA0000000, float 0x3FD2940780000000, float 0x3FD111D360000000, float 0x3FCF19F800000000, float 0x3FCC0B8060000000, float 0x3FC8F8B580000000, float 0x3FC5E21540000000, float 0x3FC2C80C80000000, float 0x3FBF5653C0000000, float 0x3FB917A460000000, float 0x3FB2D527E0000000, float 0x3FA91F70E0000000, float 0x3F992146A0000000, float 0.000000e+00, float 0xBF992146A0000000, float 0xBFA91F70E0000000, float 0xBFB2D527E0000000, float 0xBFB917A460000000, float 0xBFBF5653C0000000, float 0xBFC2C80C80000000, float 0xBFC5E21540000000, float 0xBFC8F8B580000000, float 0xBFCC0B8060000000, float 0xBFCF19F800000000, float 0xBFD111D360000000, float 0xBFD2940780000000, float 0xBFD4135DA0000000, float 0xBFD58F9B20000000, float 0xBFD7088500000000, float 0xBFD87DE0E0000000, float 0xBFD9EF7800000000, float 0xBFDB5D0FA0000000, float 0xBFDCC66D40000000, float 0xBFDE2B5E60000000, float 0xBFDF8BA400000000, float 0xBFE0738820000000, float 0xBFE11EB420000000, float 0xBFE1C73AC0000000, float 0xBFE26D04E0000000, float 0xBFE30FF760000000, float 0xBFE3AFFB00000000, float 0xBFE44CF280000000, float 0xBFE4E6CB20000000, float 0xBFE57D6940000000, float 0xBFE610B840000000, float 0xBFE6A09EE0000000, float 0xBFE72D0800000000, float 0xBFE7B5DEE0000000, float 0xBFE83B0E60000000, float 0xBFE8BC7F80000000, float 0xBFE93A2160000000, float 0xBFE9B3E140000000, float 0xBFEA29A800000000, float 0xBFEA9B6700000000, float 0xBFEB090B40000000, float 0xBFEB728420000000, float 0xBFEBD7C0C0000000, float 0xBFEC38B260000000, float 0xBFEC954A80000000, float 0xBFECED7A60000000, float 0xBFED413560000000, float 0xBFED906CC0000000, float 0xBFEDDB1420000000, float 0xBFEE2120E0000000, float 0xBFEE628880000000, float 0xBFEE9F40A0000000, float 0xBFEED740C0000000, float 0xBFEF0A7E80000000, float 0xBFEF38F360000000, float 0xBFEF629740000000, float 0xBFEF8765C0000000, float 0xBFEFA75680000000, float 0xBFEFC26560000000, float 0xBFEFD88E40000000, float 0xBFEFE9CCC0000000, float 0xBFEFF620E0000000, float 0xBFEFFD88C0000000, float -1.000000e+00, float 0xBFEFFD88C0000000, float 0xBFEFF620E0000000, float 0xBFEFE9CCC0000000, float 0xBFEFD88E40000000, float 0xBFEFC26560000000, float 0xBFEFA75680000000, float 0xBFEF8765C0000000, float 0xBFEF629740000000, float 0xBFEF38F360000000, float 0xBFEF0A7E80000000, float 0xBFEED740C0000000, float 0xBFEE9F40A0000000, float 0xBFEE628880000000, float 0xBFEE2120E0000000, float 0xBFEDDB1420000000, float 0xBFED906CC0000000, float 0xBFED413560000000, float 0xBFECED7A60000000, float 0xBFEC954A80000000, float 0xBFEC38B260000000, float 0xBFEBD7C0C0000000, float 0xBFEB728420000000, float 0xBFEB090B40000000, float 0xBFEA9B6700000000, float 0xBFEA29A800000000, float 0xBFE9B3E140000000, float 0xBFE93A2160000000, float 0xBFE8BC7F80000000, float 0xBFE83B0E60000000, float 0xBFE7B5DEE0000000, float 0xBFE72D0800000000, float 0xBFE6A09EE0000000, float 0xBFE610B840000000, float 0xBFE57D6940000000, float 0xBFE4E6CB20000000, float 0xBFE44CF280000000, float 0xBFE3AFFB00000000, float 0xBFE30FF760000000, float 0xBFE26D04E0000000, float 0xBFE1C73AC0000000, float 0xBFE11EB420000000, float 0xBFE0738820000000, float 0xBFDF8BA400000000, float 0xBFDE2B5E60000000, float 0xBFDCC66D40000000, float 0xBFDB5D0FA0000000, float 0xBFD9EF7800000000, float 0xBFD87DE0E0000000, float 0xBFD7088500000000, float 0xBFD58F9B20000000, float 0xBFD4135DA0000000, float 0xBFD2940780000000, float 0xBFD111D360000000, float 0xBFCF19F800000000, float 0xBFCC0B8060000000, float 0xBFC8F8B580000000, float 0xBFC5E21540000000, float 0xBFC2C80C80000000, float 0xBFBF5653C0000000, float 0xBFB917A460000000, float 0xBFB2D527E0000000, float 0xBFA91F70E0000000, float 0xBF992146A0000000, float -0.000000e+00, float 0x3F992146A0000000, float 0x3FA91F70E0000000, float 0x3FB2D527E0000000, float 0x3FB917A460000000, float 0x3FBF5653C0000000, float 0x3FC2C80C80000000, float 0x3FC5E21540000000, float 0x3FC8F8B580000000, float 0x3FCC0B8060000000, float 0x3FCF19F800000000, float 0x3FD111D360000000, float 0x3FD2940780000000, float 0x3FD4135DA0000000, float 0x3FD58F9B20000000, float 0x3FD7088500000000, float 0x3FD87DE0E0000000, float 0x3FD9EF7800000000, float 0x3FDB5D0FA0000000, float 0x3FDCC66D40000000, float 0x3FDE2B5E60000000, float 0x3FDF8BA400000000, float 0x3FE0738820000000, float 0x3FE11EB420000000, float 0x3FE1C73AC0000000, float 0x3FE26D04E0000000, float 0x3FE30FF760000000, float 0x3FE3AFFB00000000, float 0x3FE44CF280000000, float 0x3FE4E6CB20000000, float 0x3FE57D6940000000, float 0x3FE610B840000000, float 0x3FE6A09EE0000000, float 0x3FE72D0800000000, float 0x3FE7B5DEE0000000, float 0x3FE83B0E60000000, float 0x3FE8BC7F80000000, float 0x3FE93A2160000000, float 0x3FE9B3E140000000, float 0x3FEA29A800000000, float 0x3FEA9B6700000000, float 0x3FEB090B40000000, float 0x3FEB728420000000, float 0x3FEBD7C0C0000000, float 0x3FEC38B260000000, float 0x3FEC954A80000000, float 0x3FECED7A60000000, float 0x3FED413560000000, float 0x3FED906CC0000000, float 0x3FEDDB1420000000, float 0x3FEE2120E0000000, float 0x3FEE628880000000, float 0x3FEE9F40A0000000, float 0x3FEED740C0000000, float 0x3FEF0A7E80000000, float 0x3FEF38F360000000, float 0x3FEF629740000000, float 0x3FEF8765C0000000, float 0x3FEFA75680000000, float 0x3FEFC26560000000, float 0x3FEFD88E40000000, float 0x3FEFE9CCC0000000, float 0x3FEFF620E0000000, float 0x3FEFFD88C0000000]
@cct = internal unnamed_addr constant [256 x float] [float 1.000000e+00, float 0x3FEFFD88C0000000, float 0x3FEFF620E0000000, float 0x3FEFE9CCC0000000, float 0x3FEFD88E40000000, float 0x3FEFC26560000000, float 0x3FEFA75680000000, float 0x3FEF8765C0000000, float 0x3FEF629740000000, float 0x3FEF38F360000000, float 0x3FEF0A7E80000000, float 0x3FEED740C0000000, float 0x3FEE9F40A0000000, float 0x3FEE628880000000, float 0x3FEE2120E0000000, float 0x3FEDDB1420000000, float 0x3FED906CC0000000, float 0x3FED413560000000, float 0x3FECED7A60000000, float 0x3FEC954A80000000, float 0x3FEC38B260000000, float 0x3FEBD7C0C0000000, float 0x3FEB728420000000, float 0x3FEB090B40000000, float 0x3FEA9B6700000000, float 0x3FEA29A800000000, float 0x3FE9B3E140000000, float 0x3FE93A2160000000, float 0x3FE8BC7F80000000, float 0x3FE83B0E60000000, float 0x3FE7B5DEE0000000, float 0x3FE72D0800000000, float 0x3FE6A09EE0000000, float 0x3FE610B840000000, float 0x3FE57D6940000000, float 0x3FE4E6CB20000000, float 0x3FE44CF280000000, float 0x3FE3AFFB00000000, float 0x3FE30FF760000000, float 0x3FE26D04E0000000, float 0x3FE1C73AC0000000, float 0x3FE11EB420000000, float 0x3FE0738820000000, float 0x3FDF8BA400000000, float 0x3FDE2B5E60000000, float 0x3FDCC66D40000000, float 0x3FDB5D0FA0000000, float 0x3FD9EF7800000000, float 0x3FD87DE0E0000000, float 0x3FD7088500000000, float 0x3FD58F9B20000000, float 0x3FD4135DA0000000, float 0x3FD2940780000000, float 0x3FD111D360000000, float 0x3FCF19F800000000, float 0x3FCC0B8060000000, float 0x3FC8F8B580000000, float 0x3FC5E21540000000, float 0x3FC2C80C80000000, float 0x3FBF5653C0000000, float 0x3FB917A460000000, float 0x3FB2D527E0000000, float 0x3FA91F70E0000000, float 0x3F992146A0000000, float 0.000000e+00, float 0xBF992146A0000000, float 0xBFA91F70E0000000, float 0xBFB2D527E0000000, float 0xBFB917A460000000, float 0xBFBF5653C0000000, float 0xBFC2C80C80000000, float 0xBFC5E21540000000, float 0xBFC8F8B580000000, float 0xBFCC0B8060000000, float 0xBFCF19F800000000, float 0xBFD111D360000000, float 0xBFD2940780000000, float 0xBFD4135DA0000000, float 0xBFD58F9B20000000, float 0xBFD7088500000000, float 0xBFD87DE0E0000000, float 0xBFD9EF7800000000, float 0xBFDB5D0FA0000000, float 0xBFDCC66D40000000, float 0xBFDE2B5E60000000, float 0xBFDF8BA400000000, float 0xBFE0738820000000, float 0xBFE11EB420000000, float 0xBFE1C73AC0000000, float 0xBFE26D04E0000000, float 0xBFE30FF760000000, float 0xBFE3AFFB00000000, float 0xBFE44CF280000000, float 0xBFE4E6CB20000000, float 0xBFE57D6940000000, float 0xBFE610B840000000, float 0xBFE6A09EE0000000, float 0xBFE72D0800000000, float 0xBFE7B5DEE0000000, float 0xBFE83B0E60000000, float 0xBFE8BC7F80000000, float 0xBFE93A2160000000, float 0xBFE9B3E140000000, float 0xBFEA29A800000000, float 0xBFEA9B6700000000, float 0xBFEB090B40000000, float 0xBFEB728420000000, float 0xBFEBD7C0C0000000, float 0xBFEC38B260000000, float 0xBFEC954A80000000, float 0xBFECED7A60000000, float 0xBFED413560000000, float 0xBFED906CC0000000, float 0xBFEDDB1420000000, float 0xBFEE2120E0000000, float 0xBFEE628880000000, float 0xBFEE9F40A0000000, float 0xBFEED740C0000000, float 0xBFEF0A7E80000000, float 0xBFEF38F360000000, float 0xBFEF629740000000, float 0xBFEF8765C0000000, float 0xBFEFA75680000000, float 0xBFEFC26560000000, float 0xBFEFD88E40000000, float 0xBFEFE9CCC0000000, float 0xBFEFF620E0000000, float 0xBFEFFD88C0000000, float -1.000000e+00, float 0xBFEFFD88C0000000, float 0xBFEFF620E0000000, float 0xBFEFE9CCC0000000, float 0xBFEFD88E40000000, float 0xBFEFC26560000000, float 0xBFEFA75680000000, float 0xBFEF8765C0000000, float 0xBFEF629740000000, float 0xBFEF38F360000000, float 0xBFEF0A7E80000000, float 0xBFEED740C0000000, float 0xBFEE9F40A0000000, float 0xBFEE628880000000, float 0xBFEE2120E0000000, float 0xBFEDDB1420000000, float 0xBFED906CC0000000, float 0xBFED413560000000, float 0xBFECED7A60000000, float 0xBFEC954A80000000, float 0xBFEC38B260000000, float 0xBFEBD7C0C0000000, float 0xBFEB728420000000, float 0xBFEB090B40000000, float 0xBFEA9B6700000000, float 0xBFEA29A800000000, float 0xBFE9B3E140000000, float 0xBFE93A2160000000, float 0xBFE8BC7F80000000, float 0xBFE83B0E60000000, float 0xBFE7B5DEE0000000, float 0xBFE72D0800000000, float 0xBFE6A09EE0000000, float 0xBFE610B840000000, float 0xBFE57D6940000000, float 0xBFE4E6CB20000000, float 0xBFE44CF280000000, float 0xBFE3AFFB00000000, float 0xBFE30FF760000000, float 0xBFE26D04E0000000, float 0xBFE1C73AC0000000, float 0xBFE11EB420000000, float 0xBFE0738820000000, float 0xBFDF8BA400000000, float 0xBFDE2B5E60000000, float 0xBFDCC66D40000000, float 0xBFDB5D0FA0000000, float 0xBFD9EF7800000000, float 0xBFD87DE0E0000000, float 0xBFD7088500000000, float 0xBFD58F9B20000000, float 0xBFD4135DA0000000, float 0xBFD2940780000000, float 0xBFD111D360000000, float 0xBFCF19F800000000, float 0xBFCC0B8060000000, float 0xBFC8F8B580000000, float 0xBFC5E21540000000, float 0xBFC2C80C80000000, float 0xBFBF5653C0000000, float 0xBFB917A460000000, float 0xBFB2D527E0000000, float 0xBFA91F70E0000000, float 0xBF992146A0000000, float -0.000000e+00, float 0x3F992146A0000000, float 0x3FA91F70E0000000, float 0x3FB2D527E0000000, float 0x3FB917A460000000, float 0x3FBF5653C0000000, float 0x3FC2C80C80000000, float 0x3FC5E21540000000, float 0x3FC8F8B580000000, float 0x3FCC0B8060000000, float 0x3FCF19F800000000, float 0x3FD111D360000000, float 0x3FD2940780000000, float 0x3FD4135DA0000000, float 0x3FD58F9B20000000, float 0x3FD7088500000000, float 0x3FD87DE0E0000000, float 0x3FD9EF7800000000, float 0x3FDB5D0FA0000000, float 0x3FDCC66D40000000, float 0x3FDE2B5E60000000, float 0x3FDF8BA400000000, float 0x3FE0738820000000, float 0x3FE11EB420000000, float 0x3FE1C73AC0000000, float 0x3FE26D04E0000000, float 0x3FE30FF760000000, float 0x3FE3AFFB00000000, float 0x3FE44CF280000000, float 0x3FE4E6CB20000000, float 0x3FE57D6940000000, float 0x3FE610B840000000, float 0x3FE6A09EE0000000, float 0x3FE72D0800000000, float 0x3FE7B5DEE0000000, float 0x3FE83B0E60000000, float 0x3FE8BC7F80000000, float 0x3FE93A2160000000, float 0x3FE9B3E140000000, float 0x3FEA29A800000000, float 0x3FEA9B6700000000, float 0x3FEB090B40000000, float 0x3FEB728420000000, float 0x3FEBD7C0C0000000, float 0x3FEC38B260000000, float 0x3FEC954A80000000, float 0x3FECED7A60000000, float 0x3FED413560000000, float 0x3FED906CC0000000, float 0x3FEDDB1420000000, float 0x3FEE2120E0000000, float 0x3FEE628880000000, float 0x3FEE9F40A0000000, float 0x3FEED740C0000000, float 0x3FEF0A7E80000000, float 0x3FEF38F360000000, float 0x3FEF629740000000, float 0x3FEF8765C0000000, float 0x3FEFA75680000000, float 0x3FEFC26560000000, float 0x3FEFD88E40000000, float 0x3FEFE9CCC0000000, float 0x3FEFF620E0000000, float 0x3FEFFD88C0000000], align 16
@p_str4 = private unnamed_addr constant [9 x i8] c"Loop_Row\00", align 1
@p_str2 = private unnamed_addr constant [14 x i8] c"Loop_Col_Imag\00", align 1
@p_str1 = private unnamed_addr constant [1 x i8] zeroinitializer, align 1
@p_str = private unnamed_addr constant [14 x i8] c"Loop_Col_Real\00", align 1

define internal fastcc float @dft_loop_col_real(i9 %i, i10 %j, [64 x float]* nocapture %real_i_0, [64 x float]* nocapture %real_i_1, [64 x float]* nocapture %real_i_2, [64 x float]* nocapture %real_i_3, [64 x float]* nocapture %imag_i_0, [64 x float]* nocapture %imag_i_1, [64 x float]* nocapture %imag_i_2, [64 x float]* nocapture %imag_i_3) {
  %j_read = call i10 @_ssdm_op_Read.ap_auto.i10(i10 %j)
  %i_read = call i9 @_ssdm_op_Read.ap_auto.i9(i9 %i)
  %j_cast1 = zext i10 %j_read to i32
  %i_cast = zext i9 %i_read to i32
  %tmp_10 = trunc i10 %j_read to i9
  %tmp = add i9 128, %tmp_10
  %tmp_cast = zext i9 %tmp to i32
  br label %1

; <label>:1                                       ; preds = %2, %0
  %val_o = phi float [ 0.000000e+00, %0 ], [ %tmp_7, %2 ]
  %p_0 = phi i32 [ %j_cast1, %0 ], [ %j_assign, %2 ]
  %exitcond = icmp eq i32 %p_0, %tmp_cast
  br i1 %exitcond, label %3, label %2

; <label>:2                                       ; preds = %1
  %empty = call i32 (...)* @_ssdm_op_SpecLoopTripCount(i64 128, i64 128, i64 128)
  call void (...)* @_ssdm_op_SpecLoopName([14 x i8]* @p_str) nounwind
  %tmp_2 = call i32 (...)* @_ssdm_op_SpecRegionBegin([14 x i8]* @p_str)
  call void (...)* @_ssdm_op_SpecPipeline(i32 1, i32 1, i32 1, i32 0, [1 x i8]* @p_str1) nounwind
  %tmp_1 = mul nsw i32 %p_0, %i_cast
  %tmp_11 = call i1 @_ssdm_op_BitSelect.i1.i32.i32(i32 %tmp_1, i32 31)
  %tmp_12 = trunc i32 %tmp_1 to i8
  %p_and_f = call i32 @_ssdm_op_BitConcatenate.i32.i24.i8(i24 0, i8 %tmp_12)
  %tmp_13 = trunc i32 %tmp_1 to i8
  %tmp_14 = sub i8 0, %tmp_13
  %p_and_t = call i32 @_ssdm_op_BitConcatenate.i32.i24.i8(i24 0, i8 %tmp_14)
  %p_neg_t = sub i32 0, %p_and_t
  %index = select i1 %tmp_11, i32 %p_neg_t, i32 %p_and_f
  %tmp_15 = trunc i32 %p_0 to i2
  %newIndex = call i30 @_ssdm_op_PartSelect.i30.i32.i32.i32(i32 %p_0, i32 2, i32 31)
  %newIndex7 = zext i30 %newIndex to i64
  %real_i_0_addr = getelementptr [64 x float]* %real_i_0, i64 0, i64 %newIndex7
  %real_i_0_load = load float* %real_i_0_addr, align 4
  %real_i_1_addr = getelementptr [64 x float]* %real_i_1, i64 0, i64 %newIndex7
  %real_i_1_load = load float* %real_i_1_addr, align 4
  %real_i_2_addr = getelementptr [64 x float]* %real_i_2, i64 0, i64 %newIndex7
  %real_i_2_load = load float* %real_i_2_addr, align 4
  %real_i_3_addr = getelementptr [64 x float]* %real_i_3, i64 0, i64 %newIndex7
  %real_i_3_load = load float* %real_i_3_addr, align 4
  %tmp_8 = call float @_ssdm_op_Mux.ap_auto.4float.i2(float %real_i_0_load, float %real_i_1_load, float %real_i_2_load, float %real_i_3_load, i2 %tmp_15)
  %tmp_3 = sext i32 %index to i64
  %cct17_addr = getelementptr inbounds [256 x float]* @cct17, i64 0, i64 %tmp_3
  %cct17_load = load float* %cct17_addr, align 4
  %tmp_4 = fmul float %tmp_8, %cct17_load
  %imag_i_0_addr = getelementptr [64 x float]* %imag_i_0, i64 0, i64 %newIndex7
  %imag_i_0_load = load float* %imag_i_0_addr, align 4
  %imag_i_1_addr = getelementptr [64 x float]* %imag_i_1, i64 0, i64 %newIndex7
  %imag_i_1_load = load float* %imag_i_1_addr, align 4
  %imag_i_2_addr = getelementptr [64 x float]* %imag_i_2, i64 0, i64 %newIndex7
  %imag_i_2_load = load float* %imag_i_2_addr, align 4
  %imag_i_3_addr = getelementptr [64 x float]* %imag_i_3, i64 0, i64 %newIndex7
  %imag_i_3_load = load float* %imag_i_3_addr, align 4
  %tmp_9 = call float @_ssdm_op_Mux.ap_auto.4float.i2(float %imag_i_0_load, float %imag_i_1_load, float %imag_i_2_load, float %imag_i_3_load, i2 %tmp_15)
  %sct18_addr = getelementptr inbounds [256 x float]* @sct18, i64 0, i64 %tmp_3
  %sct18_load = load float* %sct18_addr, align 4
  %tmp_5 = fmul float %tmp_9, %sct18_load
  %tmp_6 = fsub float %tmp_4, %tmp_5
  %tmp_7 = fadd float %val_o, %tmp_6
  %empty_6 = call i32 (...)* @_ssdm_op_SpecRegionEnd([14 x i8]* @p_str, i32 %tmp_2)
  %j_assign = add nsw i32 1, %p_0
  br label %1

; <label>:3                                       ; preds = %1
  ret float %val_o
}

define internal fastcc float @dft_loop_col_imag(i9 %i, i10 %j, [64 x float]* nocapture %real_i_0, [64 x float]* nocapture %real_i_1, [64 x float]* nocapture %real_i_2, [64 x float]* nocapture %real_i_3, [64 x float]* nocapture %imag_i_0, [64 x float]* nocapture %imag_i_1, [64 x float]* nocapture %imag_i_2, [64 x float]* nocapture %imag_i_3) {
  %j_read = call i10 @_ssdm_op_Read.ap_auto.i10(i10 %j)
  %i_read = call i9 @_ssdm_op_Read.ap_auto.i9(i9 %i)
  %j_cast1 = zext i10 %j_read to i32
  %i_cast = zext i9 %i_read to i32
  %tmp_16 = trunc i10 %j_read to i9
  %tmp = add i9 128, %tmp_16
  %tmp_cast = zext i9 %tmp to i32
  br label %1

; <label>:1                                       ; preds = %2, %0
  %val_o = phi float [ 0.000000e+00, %0 ], [ %tmp_5, %2 ]
  %p_0 = phi i32 [ %j_cast1, %0 ], [ %j_assign, %2 ]
  %exitcond = icmp eq i32 %p_0, %tmp_cast
  br i1 %exitcond, label %3, label %2

; <label>:2                                       ; preds = %1
  %empty = call i32 (...)* @_ssdm_op_SpecLoopTripCount(i64 128, i64 128, i64 128)
  call void (...)* @_ssdm_op_SpecLoopName([14 x i8]* @p_str2) nounwind
  %tmp_s = call i32 (...)* @_ssdm_op_SpecRegionBegin([14 x i8]* @p_str2)
  call void (...)* @_ssdm_op_SpecPipeline(i32 1, i32 1, i32 1, i32 0, [1 x i8]* @p_str1) nounwind
  %tmp_9 = mul nsw i32 %p_0, %i_cast
  %tmp_17 = call i1 @_ssdm_op_BitSelect.i1.i32.i32(i32 %tmp_9, i32 31)
  %tmp_18 = trunc i32 %tmp_9 to i8
  %p_and_f = call i32 @_ssdm_op_BitConcatenate.i32.i24.i8(i24 0, i8 %tmp_18)
  %tmp_19 = trunc i32 %tmp_9 to i8
  %tmp_20 = sub i8 0, %tmp_19
  %p_and_t = call i32 @_ssdm_op_BitConcatenate.i32.i24.i8(i24 0, i8 %tmp_20)
  %p_neg_t = sub i32 0, %p_and_t
  %index = select i1 %tmp_17, i32 %p_neg_t, i32 %p_and_f
  %tmp_21 = trunc i32 %p_0 to i2
  %newIndex = call i30 @_ssdm_op_PartSelect.i30.i32.i32.i32(i32 %p_0, i32 2, i32 31)
  %newIndex7 = zext i30 %newIndex to i64
  %real_i_0_addr = getelementptr [64 x float]* %real_i_0, i64 0, i64 %newIndex7
  %real_i_0_load = load float* %real_i_0_addr, align 4
  %real_i_1_addr = getelementptr [64 x float]* %real_i_1, i64 0, i64 %newIndex7
  %real_i_1_load = load float* %real_i_1_addr, align 4
  %real_i_2_addr = getelementptr [64 x float]* %real_i_2, i64 0, i64 %newIndex7
  %real_i_2_load = load float* %real_i_2_addr, align 4
  %real_i_3_addr = getelementptr [64 x float]* %real_i_3, i64 0, i64 %newIndex7
  %real_i_3_load = load float* %real_i_3_addr, align 4
  %tmp_6 = call float @_ssdm_op_Mux.ap_auto.4float.i2(float %real_i_0_load, float %real_i_1_load, float %real_i_2_load, float %real_i_3_load, i2 %tmp_21)
  %tmp_1 = sext i32 %index to i64
  %sct_addr = getelementptr inbounds [256 x float]* @sct, i64 0, i64 %tmp_1
  %sct_load = load float* %sct_addr, align 4
  %tmp_2 = fmul float %tmp_6, %sct_load
  %imag_i_0_addr = getelementptr [64 x float]* %imag_i_0, i64 0, i64 %newIndex7
  %imag_i_0_load = load float* %imag_i_0_addr, align 4
  %imag_i_1_addr = getelementptr [64 x float]* %imag_i_1, i64 0, i64 %newIndex7
  %imag_i_1_load = load float* %imag_i_1_addr, align 4
  %imag_i_2_addr = getelementptr [64 x float]* %imag_i_2, i64 0, i64 %newIndex7
  %imag_i_2_load = load float* %imag_i_2_addr, align 4
  %imag_i_3_addr = getelementptr [64 x float]* %imag_i_3, i64 0, i64 %newIndex7
  %imag_i_3_load = load float* %imag_i_3_addr, align 4
  %tmp_7 = call float @_ssdm_op_Mux.ap_auto.4float.i2(float %imag_i_0_load, float %imag_i_1_load, float %imag_i_2_load, float %imag_i_3_load, i2 %tmp_21)
  %cct_addr = getelementptr inbounds [256 x float]* @cct, i64 0, i64 %tmp_1
  %cct_load = load float* %cct_addr, align 4
  %tmp_3 = fmul float %tmp_7, %cct_load
  %tmp_4 = fadd float %tmp_2, %tmp_3
  %tmp_5 = fadd float %val_o, %tmp_4
  %empty_7 = call i32 (...)* @_ssdm_op_SpecRegionEnd([14 x i8]* @p_str2, i32 %tmp_s)
  %j_assign = add nsw i32 1, %p_0
  br label %1

; <label>:3                                       ; preds = %1
  ret float %val_o
}

declare i9 @llvm.part.select.i9(i9, i32, i32) nounwind readnone

declare i32 @llvm.part.select.i32(i32, i32, i32) nounwind readnone

declare void @llvm.dbg.value(metadata, i64, metadata) nounwind readnone

define void @dft([64 x float]* %real_i_0, [64 x float]* %real_i_1, [64 x float]* %real_i_2, [64 x float]* %real_i_3, [64 x float]* %imag_i_0, [64 x float]* %imag_i_1, [64 x float]* %imag_i_2, [64 x float]* %imag_i_3, [64 x float]* %real_o_0, [64 x float]* %real_o_1, [64 x float]* %real_o_2, [64 x float]* %real_o_3, [64 x float]* %imag_o_0, [64 x float]* %imag_o_1, [64 x float]* %imag_o_2, [64 x float]* %imag_o_3) {
codeRepl:
  call void (...)* @_ssdm_op_SpecDataflowPipeline(i32 -1, [1 x i8]* @p_str1) nounwind
  call void (...)* @_ssdm_op_SpecBitsMap([64 x float]* %imag_o_3), !map !7
  call void (...)* @_ssdm_op_SpecBitsMap([64 x float]* %imag_o_2), !map !13
  call void (...)* @_ssdm_op_SpecBitsMap([64 x float]* %imag_o_1), !map !19
  call void (...)* @_ssdm_op_SpecBitsMap([64 x float]* %imag_o_0), !map !25
  call void (...)* @_ssdm_op_SpecBitsMap([64 x float]* %real_o_3), !map !31
  call void (...)* @_ssdm_op_SpecBitsMap([64 x float]* %real_o_2), !map !35
  call void (...)* @_ssdm_op_SpecBitsMap([64 x float]* %real_o_1), !map !39
  call void (...)* @_ssdm_op_SpecBitsMap([64 x float]* %real_o_0), !map !43
  call void (...)* @_ssdm_op_SpecBitsMap([64 x float]* %imag_i_3), !map !47
  call void (...)* @_ssdm_op_SpecBitsMap([64 x float]* %imag_i_2), !map !51
  call void (...)* @_ssdm_op_SpecBitsMap([64 x float]* %imag_i_1), !map !55
  call void (...)* @_ssdm_op_SpecBitsMap([64 x float]* %imag_i_0), !map !59
  call void (...)* @_ssdm_op_SpecBitsMap([64 x float]* %real_i_3), !map !63
  call void (...)* @_ssdm_op_SpecBitsMap([64 x float]* %real_i_2), !map !67
  call void (...)* @_ssdm_op_SpecBitsMap([64 x float]* %real_i_1), !map !71
  call void (...)* @_ssdm_op_SpecBitsMap([64 x float]* %real_i_0), !map !75
  call void (...)* @_ssdm_op_SpecTopModule([4 x i8]* @dft_str) nounwind
  call fastcc void @dft_Loop_Loop_Row_proc([64 x float]* %imag_o_0, [64 x float]* %imag_o_1, [64 x float]* %imag_o_2, [64 x float]* %imag_o_3, [64 x float]* %real_i_0, [64 x float]* %real_i_1, [64 x float]* %real_i_2, [64 x float]* %real_i_3, [64 x float]* %imag_i_0, [64 x float]* %imag_i_1, [64 x float]* %imag_i_2, [64 x float]* %imag_i_3, [64 x float]* %real_o_0, [64 x float]* %real_o_1, [64 x float]* %real_o_2, [64 x float]* %real_o_3)
  ret void
}

define weak void @_ssdm_op_SpecTopModule(...) {
entry:
  ret void
}

define weak i32 @_ssdm_op_SpecRegionEnd(...) {
entry:
  ret i32 0
}

define weak i32 @_ssdm_op_SpecRegionBegin(...) {
entry:
  ret i32 0
}

define weak void @_ssdm_op_SpecPipeline(...) nounwind {
entry:
  ret void
}

define weak i32 @_ssdm_op_SpecLoopTripCount(...) {
entry:
  ret i32 0
}

define weak void @_ssdm_op_SpecLoopName(...) nounwind {
entry:
  ret void
}

define weak void @_ssdm_op_SpecDataflowPipeline(...) nounwind {
entry:
  ret void
}

define weak void @_ssdm_op_SpecBitsMap(...) {
entry:
  ret void
}

define weak i9 @_ssdm_op_Read.ap_auto.i9(i9) {
entry:
  ret i9 %0
}

define weak i10 @_ssdm_op_Read.ap_auto.i10(i10) {
entry:
  ret i10 %0
}

declare i9 @_ssdm_op_PartSelect.i9.i10.i32.i32(i10, i32, i32) nounwind readnone

declare i8 @_ssdm_op_PartSelect.i8.i32.i32.i32(i32, i32, i32) nounwind readnone

define weak i7 @_ssdm_op_PartSelect.i7.i9.i32.i32(i9, i32, i32) nounwind readnone {
entry:
  %empty = call i9 @llvm.part.select.i9(i9 %0, i32 %1, i32 %2)
  %empty_8 = trunc i9 %empty to i7
  ret i7 %empty_8
}

define weak i30 @_ssdm_op_PartSelect.i30.i32.i32.i32(i32, i32, i32) nounwind readnone {
entry:
  %empty = call i32 @llvm.part.select.i32(i32 %0, i32 %1, i32 %2)
  %empty_9 = trunc i32 %empty to i30
  ret i30 %empty_9
}

declare i2 @_ssdm_op_PartSelect.i2.i9.i32.i32(i9, i32, i32) nounwind readnone

declare i2 @_ssdm_op_PartSelect.i2.i32.i32.i32(i32, i32, i32) nounwind readnone

define weak float @_ssdm_op_Mux.ap_auto.4float.i2(float, float, float, float, i2) {
entry:
  switch i2 %4, label %case3 [
    i2 0, label %case0
    i2 1, label %case1
    i2 -2, label %case2
  ]

case0:                                            ; preds = %case3, %case2, %case1, %entry
  %merge = phi float [ %0, %entry ], [ %1, %case1 ], [ %2, %case2 ], [ %3, %case3 ]
  ret float %merge

case1:                                            ; preds = %entry
  br label %case0

case2:                                            ; preds = %entry
  br label %case0

case3:                                            ; preds = %entry
  br label %case0
}

declare i16 @_ssdm_op_HSub(...)

declare i16 @_ssdm_op_HMul(...)

declare i16 @_ssdm_op_HDiv(...)

declare i16 @_ssdm_op_HAdd(...)

define weak i1 @_ssdm_op_BitSelect.i1.i32.i32(i32, i32) nounwind readnone {
entry:
  %empty = shl i32 1, %1
  %empty_10 = and i32 %0, %empty
  %empty_11 = icmp ne i32 %empty_10, 0
  ret i1 %empty_11
}

define weak i32 @_ssdm_op_BitConcatenate.i32.i24.i8(i24, i8) nounwind readnone {
entry:
  %empty = zext i24 %0 to i32
  %empty_12 = zext i8 %1 to i32
  %empty_13 = shl i32 %empty, 8
  %empty_14 = or i32 %empty_13, %empty_12
  ret i32 %empty_14
}

declare void @_GLOBAL__I_a() nounwind

define internal fastcc void @dft_Loop_Loop_Row_proc([64 x float]* nocapture %imag_o_0, [64 x float]* nocapture %imag_o_1, [64 x float]* nocapture %imag_o_2, [64 x float]* nocapture %imag_o_3, [64 x float]* nocapture %real_i_0, [64 x float]* nocapture %real_i_1, [64 x float]* nocapture %real_i_2, [64 x float]* nocapture %real_i_3, [64 x float]* nocapture %imag_i_0, [64 x float]* nocapture %imag_i_1, [64 x float]* nocapture %imag_i_2, [64 x float]* nocapture %imag_i_3, [64 x float]* nocapture %real_o_0, [64 x float]* nocapture %real_o_1, [64 x float]* nocapture %real_o_2, [64 x float]* nocapture %real_o_3) {
newFuncRoot:
  br label %0

dft_.exit2.exitStub:                              ; preds = %0
  ret void

; <label>:0                                       ; preds = %1, %newFuncRoot
  %i_0_i_i = phi i9 [ 0, %newFuncRoot ], [ %i, %1 ]
  %exitcond_i_i = icmp eq i9 %i_0_i_i, -256
  %empty = call i32 (...)* @_ssdm_op_SpecLoopTripCount(i64 256, i64 256, i64 256) nounwind
  %i = add i9 %i_0_i_i, 1
  br i1 %exitcond_i_i, label %dft_.exit2.exitStub, label %3

; <label>:1                                       ; preds = %branch312, %branch211, %branch110, %branch09
  br label %0

branch09:                                         ; preds = %2
  store float %tmp_8_i, float* %imag_o_0_addr, align 4
  br label %1

; <label>:2                                       ; preds = %branch3, %branch2, %branch1, %branch0
  %tmp_7_i = fadd float %imag_tmp1, %imag_tmp2
  %tmp_8_i = fadd float %tmp_7_i, 0.000000e+00
  %imag_o_0_addr = getelementptr [64 x float]* %imag_o_0, i64 0, i64 %newIndex1
  %imag_o_1_addr = getelementptr [64 x float]* %imag_o_1, i64 0, i64 %newIndex1
  %imag_o_2_addr = getelementptr [64 x float]* %imag_o_2, i64 0, i64 %newIndex1
  %imag_o_3_addr = getelementptr [64 x float]* %imag_o_3, i64 0, i64 %newIndex1
  switch i2 %tmp, label %branch312 [
    i2 0, label %branch09
    i2 1, label %branch110
    i2 -2, label %branch211
  ]

branch0:                                          ; preds = %3
  store float %tmp_i_15, float* %real_o_0_addr, align 4
  br label %2

; <label>:3                                       ; preds = %0
  call void (...)* @_ssdm_op_SpecLoopName([9 x i8]* @p_str4) nounwind
  %real_tmp1 = call fastcc float @dft_loop_col_real(i9 %i_0_i_i, i10 0, [64 x float]* %real_i_0, [64 x float]* %real_i_1, [64 x float]* %real_i_2, [64 x float]* %real_i_3, [64 x float]* %imag_i_0, [64 x float]* %imag_i_1, [64 x float]* %imag_i_2, [64 x float]* %imag_i_3)
  %real_tmp2 = call fastcc float @dft_loop_col_real(i9 %i_0_i_i, i10 128, [64 x float]* %real_i_0, [64 x float]* %real_i_1, [64 x float]* %real_i_2, [64 x float]* %real_i_3, [64 x float]* %imag_i_0, [64 x float]* %imag_i_1, [64 x float]* %imag_i_2, [64 x float]* %imag_i_3)
  %tmp_i = fadd float %real_tmp1, %real_tmp2
  %imag_tmp1 = call fastcc float @dft_loop_col_imag(i9 %i_0_i_i, i10 0, [64 x float]* %real_i_0, [64 x float]* %real_i_1, [64 x float]* %real_i_2, [64 x float]* %real_i_3, [64 x float]* %imag_i_0, [64 x float]* %imag_i_1, [64 x float]* %imag_i_2, [64 x float]* %imag_i_3)
  %imag_tmp2 = call fastcc float @dft_loop_col_imag(i9 %i_0_i_i, i10 128, [64 x float]* %real_i_0, [64 x float]* %real_i_1, [64 x float]* %real_i_2, [64 x float]* %real_i_3, [64 x float]* %imag_i_0, [64 x float]* %imag_i_1, [64 x float]* %imag_i_2, [64 x float]* %imag_i_3)
  %tmp_i_15 = fadd float %tmp_i, 0.000000e+00
  %tmp = trunc i9 %i_0_i_i to i2
  %newIndex = call i7 @_ssdm_op_PartSelect.i7.i9.i32.i32(i9 %i_0_i_i, i32 2, i32 8)
  %newIndex1 = zext i7 %newIndex to i64
  %real_o_0_addr = getelementptr [64 x float]* %real_o_0, i64 0, i64 %newIndex1
  %real_o_1_addr = getelementptr [64 x float]* %real_o_1, i64 0, i64 %newIndex1
  %real_o_2_addr = getelementptr [64 x float]* %real_o_2, i64 0, i64 %newIndex1
  %real_o_3_addr = getelementptr [64 x float]* %real_o_3, i64 0, i64 %newIndex1
  switch i2 %tmp, label %branch3 [
    i2 0, label %branch0
    i2 1, label %branch1
    i2 -2, label %branch2
  ]

branch1:                                          ; preds = %3
  store float %tmp_i_15, float* %real_o_1_addr, align 4
  br label %2

branch2:                                          ; preds = %3
  store float %tmp_i_15, float* %real_o_2_addr, align 4
  br label %2

branch3:                                          ; preds = %3
  store float %tmp_i_15, float* %real_o_3_addr, align 4
  br label %2

branch110:                                        ; preds = %2
  store float %tmp_8_i, float* %imag_o_1_addr, align 4
  br label %1

branch211:                                        ; preds = %2
  store float %tmp_8_i, float* %imag_o_2_addr, align 4
  br label %1

branch312:                                        ; preds = %2
  store float %tmp_8_i, float* %imag_o_3_addr, align 4
  br label %1
}

!hls.encrypted.func = !{}
!llvm.map.gv = !{!0}

!0 = metadata !{metadata !1, [1 x i32]* @llvm_global_ctors_0}
!1 = metadata !{metadata !2}
!2 = metadata !{i32 0, i32 31, metadata !3}
!3 = metadata !{metadata !4}
!4 = metadata !{metadata !"llvm.global_ctors.0", metadata !5, metadata !"", i32 0, i32 31}
!5 = metadata !{metadata !6}
!6 = metadata !{i32 0, i32 0, i32 1}
!7 = metadata !{metadata !8}
!8 = metadata !{i32 0, i32 31, metadata !9}
!9 = metadata !{metadata !10}
!10 = metadata !{metadata !"imag_o", metadata !11, metadata !"float", i32 0, i32 31}
!11 = metadata !{metadata !12}
!12 = metadata !{i32 3, i32 255, i32 4}
!13 = metadata !{metadata !14}
!14 = metadata !{i32 0, i32 31, metadata !15}
!15 = metadata !{metadata !16}
!16 = metadata !{metadata !"imag_o", metadata !17, metadata !"float", i32 0, i32 31}
!17 = metadata !{metadata !18}
!18 = metadata !{i32 2, i32 254, i32 4}
!19 = metadata !{metadata !20}
!20 = metadata !{i32 0, i32 31, metadata !21}
!21 = metadata !{metadata !22}
!22 = metadata !{metadata !"imag_o", metadata !23, metadata !"float", i32 0, i32 31}
!23 = metadata !{metadata !24}
!24 = metadata !{i32 1, i32 253, i32 4}
!25 = metadata !{metadata !26}
!26 = metadata !{i32 0, i32 31, metadata !27}
!27 = metadata !{metadata !28}
!28 = metadata !{metadata !"imag_o", metadata !29, metadata !"float", i32 0, i32 31}
!29 = metadata !{metadata !30}
!30 = metadata !{i32 0, i32 252, i32 4}
!31 = metadata !{metadata !32}
!32 = metadata !{i32 0, i32 31, metadata !33}
!33 = metadata !{metadata !34}
!34 = metadata !{metadata !"real_o", metadata !11, metadata !"float", i32 0, i32 31}
!35 = metadata !{metadata !36}
!36 = metadata !{i32 0, i32 31, metadata !37}
!37 = metadata !{metadata !38}
!38 = metadata !{metadata !"real_o", metadata !17, metadata !"float", i32 0, i32 31}
!39 = metadata !{metadata !40}
!40 = metadata !{i32 0, i32 31, metadata !41}
!41 = metadata !{metadata !42}
!42 = metadata !{metadata !"real_o", metadata !23, metadata !"float", i32 0, i32 31}
!43 = metadata !{metadata !44}
!44 = metadata !{i32 0, i32 31, metadata !45}
!45 = metadata !{metadata !46}
!46 = metadata !{metadata !"real_o", metadata !29, metadata !"float", i32 0, i32 31}
!47 = metadata !{metadata !48}
!48 = metadata !{i32 0, i32 31, metadata !49}
!49 = metadata !{metadata !50}
!50 = metadata !{metadata !"imag_i", metadata !11, metadata !"float", i32 0, i32 31}
!51 = metadata !{metadata !52}
!52 = metadata !{i32 0, i32 31, metadata !53}
!53 = metadata !{metadata !54}
!54 = metadata !{metadata !"imag_i", metadata !17, metadata !"float", i32 0, i32 31}
!55 = metadata !{metadata !56}
!56 = metadata !{i32 0, i32 31, metadata !57}
!57 = metadata !{metadata !58}
!58 = metadata !{metadata !"imag_i", metadata !23, metadata !"float", i32 0, i32 31}
!59 = metadata !{metadata !60}
!60 = metadata !{i32 0, i32 31, metadata !61}
!61 = metadata !{metadata !62}
!62 = metadata !{metadata !"imag_i", metadata !29, metadata !"float", i32 0, i32 31}
!63 = metadata !{metadata !64}
!64 = metadata !{i32 0, i32 31, metadata !65}
!65 = metadata !{metadata !66}
!66 = metadata !{metadata !"real_i", metadata !11, metadata !"float", i32 0, i32 31}
!67 = metadata !{metadata !68}
!68 = metadata !{i32 0, i32 31, metadata !69}
!69 = metadata !{metadata !70}
!70 = metadata !{metadata !"real_i", metadata !17, metadata !"float", i32 0, i32 31}
!71 = metadata !{metadata !72}
!72 = metadata !{i32 0, i32 31, metadata !73}
!73 = metadata !{metadata !74}
!74 = metadata !{metadata !"real_i", metadata !23, metadata !"float", i32 0, i32 31}
!75 = metadata !{metadata !76}
!76 = metadata !{i32 0, i32 31, metadata !77}
!77 = metadata !{metadata !78}
!78 = metadata !{metadata !"real_i", metadata !29, metadata !"float", i32 0, i32 31}
