; ModuleID = 'D:/Projects/vivado/project_3/dft_256_precomputed/dft/dft_opt10/.autopilot/db/a.o.3.bc'
target datalayout = "e-p:64:64:64-i1:8:8-i8:8:8-i16:16:16-i32:32:32-i64:64:64-f32:32:32-f64:64:64-v64:64:64-v128:128:128-a0:0:64-s0:64:64-f80:128:128-n8:16:32:64-S128"
target triple = "x86_64-w64-mingw32"

@sct18 = internal unnamed_addr constant [256 x float] [float 0.000000e+00, float 0xBF992146A0000000, float 0xBFA91F70E0000000, float 0xBFB2D527E0000000, float 0xBFB917A460000000, float 0xBFBF5653C0000000, float 0xBFC2C80C80000000, float 0xBFC5E21540000000, float 0xBFC8F8B580000000, float 0xBFCC0B8060000000, float 0xBFCF19F800000000, float 0xBFD111D360000000, float 0xBFD2940780000000, float 0xBFD4135DA0000000, float 0xBFD58F9B20000000, float 0xBFD7088500000000, float 0xBFD87DE0E0000000, float 0xBFD9EF7800000000, float 0xBFDB5D0FA0000000, float 0xBFDCC66D40000000, float 0xBFDE2B5E60000000, float 0xBFDF8BA400000000, float 0xBFE0738820000000, float 0xBFE11EB420000000, float 0xBFE1C73AC0000000, float 0xBFE26D04E0000000, float 0xBFE30FF760000000, float 0xBFE3AFFB00000000, float 0xBFE44CF280000000, float 0xBFE4E6CB20000000, float 0xBFE57D6940000000, float 0xBFE610B840000000, float 0xBFE6A09EE0000000, float 0xBFE72D0800000000, float 0xBFE7B5DEE0000000, float 0xBFE83B0E60000000, float 0xBFE8BC7F80000000, float 0xBFE93A2160000000, float 0xBFE9B3E140000000, float 0xBFEA29A800000000, float 0xBFEA9B6700000000, float 0xBFEB090B40000000, float 0xBFEB728420000000, float 0xBFEBD7C0C0000000, float 0xBFEC38B260000000, float 0xBFEC954A80000000, float 0xBFECED7A60000000, float 0xBFED413560000000, float 0xBFED906CC0000000, float 0xBFEDDB1420000000, float 0xBFEE2120E0000000, float 0xBFEE628880000000, float 0xBFEE9F40A0000000, float 0xBFEED740C0000000, float 0xBFEF0A7E80000000, float 0xBFEF38F360000000, float 0xBFEF629740000000, float 0xBFEF8765C0000000, float 0xBFEFA75680000000, float 0xBFEFC26560000000, float 0xBFEFD88E40000000, float 0xBFEFE9CCC0000000, float 0xBFEFF620E0000000, float 0xBFEFFD88C0000000, float -1.000000e+00, float 0xBFEFFD88C0000000, float 0xBFEFF620E0000000, float 0xBFEFE9CCC0000000, float 0xBFEFD88E40000000, float 0xBFEFC26560000000, float 0xBFEFA75680000000, float 0xBFEF8765C0000000, float 0xBFEF629740000000, float 0xBFEF38F360000000, float 0xBFEF0A7E80000000, float 0xBFEED740C0000000, float 0xBFEE9F40A0000000, float 0xBFEE628880000000, float 0xBFEE2120E0000000, float 0xBFEDDB1420000000, float 0xBFED906CC0000000, float 0xBFED413560000000, float 0xBFECED7A60000000, float 0xBFEC954A80000000, float 0xBFEC38B260000000, float 0xBFEBD7C0C0000000, float 0xBFEB728420000000, float 0xBFEB090B40000000, float 0xBFEA9B6700000000, float 0xBFEA29A800000000, float 0xBFE9B3E140000000, float 0xBFE93A2160000000, float 0xBFE8BC7F80000000, float 0xBFE83B0E60000000, float 0xBFE7B5DEE0000000, float 0xBFE72D0800000000, float 0xBFE6A09EE0000000, float 0xBFE610B840000000, float 0xBFE57D6940000000, float 0xBFE4E6CB20000000, float 0xBFE44CF280000000, float 0xBFE3AFFB00000000, float 0xBFE30FF760000000, float 0xBFE26D04E0000000, float 0xBFE1C73AC0000000, float 0xBFE11EB420000000, float 0xBFE0738820000000, float 0xBFDF8BA400000000, float 0xBFDE2B5E60000000, float 0xBFDCC66D40000000, float 0xBFDB5D0FA0000000, float 0xBFD9EF7800000000, float 0xBFD87DE0E0000000, float 0xBFD7088500000000, float 0xBFD58F9B20000000, float 0xBFD4135DA0000000, float 0xBFD2940780000000, float 0xBFD111D360000000, float 0xBFCF19F800000000, float 0xBFCC0B8060000000, float 0xBFC8F8B580000000, float 0xBFC5E21540000000, float 0xBFC2C80C80000000, float 0xBFBF5653C0000000, float 0xBFB917A460000000, float 0xBFB2D527E0000000, float 0xBFA91F70E0000000, float 0xBF992146A0000000, float -0.000000e+00, float 0x3F992146A0000000, float 0x3FA91F70E0000000, float 0x3FB2D527E0000000, float 0x3FB917A460000000, float 0x3FBF5653C0000000, float 0x3FC2C80C80000000, float 0x3FC5E21540000000, float 0x3FC8F8B580000000, float 0x3FCC0B8060000000, float 0x3FCF19F800000000, float 0x3FD111D360000000, float 0x3FD2940780000000, float 0x3FD4135DA0000000, float 0x3FD58F9B20000000, float 0x3FD7088500000000, float 0x3FD87DE0E0000000, float 0x3FD9EF7800000000, float 0x3FDB5D0FA0000000, float 0x3FDCC66D40000000, float 0x3FDE2B5E60000000, float 0x3FDF8BA400000000, float 0x3FE0738820000000, float 0x3FE11EB420000000, float 0x3FE1C73AC0000000, float 0x3FE26D04E0000000, float 0x3FE30FF760000000, float 0x3FE3AFFB00000000, float 0x3FE44CF280000000, float 0x3FE4E6CB20000000, float 0x3FE57D6940000000, float 0x3FE610B840000000, float 0x3FE6A09EE0000000, float 0x3FE72D0800000000, float 0x3FE7B5DEE0000000, float 0x3FE83B0E60000000, float 0x3FE8BC7F80000000, float 0x3FE93A2160000000, float 0x3FE9B3E140000000, float 0x3FEA29A800000000, float 0x3FEA9B6700000000, float 0x3FEB090B40000000, float 0x3FEB728420000000, float 0x3FEBD7C0C0000000, float 0x3FEC38B260000000, float 0x3FEC954A80000000, float 0x3FECED7A60000000, float 0x3FED413560000000, float 0x3FED906CC0000000, float 0x3FEDDB1420000000, float 0x3FEE2120E0000000, float 0x3FEE628880000000, float 0x3FEE9F40A0000000, float 0x3FEED740C0000000, float 0x3FEF0A7E80000000, float 0x3FEF38F360000000, float 0x3FEF629740000000, float 0x3FEF8765C0000000, float 0x3FEFA75680000000, float 0x3FEFC26560000000, float 0x3FEFD88E40000000, float 0x3FEFE9CCC0000000, float 0x3FEFF620E0000000, float 0x3FEFFD88C0000000, float 1.000000e+00, float 0x3FEFFD88C0000000, float 0x3FEFF620E0000000, float 0x3FEFE9CCC0000000, float 0x3FEFD88E40000000, float 0x3FEFC26560000000, float 0x3FEFA75680000000, float 0x3FEF8765C0000000, float 0x3FEF629740000000, float 0x3FEF38F360000000, float 0x3FEF0A7E80000000, float 0x3FEED740C0000000, float 0x3FEE9F40A0000000, float 0x3FEE628880000000, float 0x3FEE2120E0000000, float 0x3FEDDB1420000000, float 0x3FED906CC0000000, float 0x3FED413560000000, float 0x3FECED7A60000000, float 0x3FEC954A80000000, float 0x3FEC38B260000000, float 0x3FEBD7C0C0000000, float 0x3FEB728420000000, float 0x3FEB090B40000000, float 0x3FEA9B6700000000, float 0x3FEA29A800000000, float 0x3FE9B3E140000000, float 0x3FE93A2160000000, float 0x3FE8BC7F80000000, float 0x3FE83B0E60000000, float 0x3FE7B5DEE0000000, float 0x3FE72D0800000000, float 0x3FE6A09EE0000000, float 0x3FE610B840000000, float 0x3FE57D6940000000, float 0x3FE4E6CB20000000, float 0x3FE44CF280000000, float 0x3FE3AFFB00000000, float 0x3FE30FF760000000, float 0x3FE26D04E0000000, float 0x3FE1C73AC0000000, float 0x3FE11EB420000000, float 0x3FE0738820000000, float 0x3FDF8BA400000000, float 0x3FDE2B5E60000000, float 0x3FDCC66D40000000, float 0x3FDB5D0FA0000000, float 0x3FD9EF7800000000, float 0x3FD87DE0E0000000, float 0x3FD7088500000000, float 0x3FD58F9B20000000, float 0x3FD4135DA0000000, float 0x3FD2940780000000, float 0x3FD111D360000000, float 0x3FCF19F800000000, float 0x3FCC0B8060000000, float 0x3FC8F8B580000000, float 0x3FC5E21540000000, float 0x3FC2C80C80000000, float 0x3FBF5653C0000000, float 0x3FB917A460000000, float 0x3FB2D527E0000000, float 0x3FA91F70E0000000, float 0x3F992146A0000000] ; [#uses=1 type=[256 x float]*]
@sct = internal unnamed_addr constant [256 x float] [float 0.000000e+00, float 0xBF992146A0000000, float 0xBFA91F70E0000000, float 0xBFB2D527E0000000, float 0xBFB917A460000000, float 0xBFBF5653C0000000, float 0xBFC2C80C80000000, float 0xBFC5E21540000000, float 0xBFC8F8B580000000, float 0xBFCC0B8060000000, float 0xBFCF19F800000000, float 0xBFD111D360000000, float 0xBFD2940780000000, float 0xBFD4135DA0000000, float 0xBFD58F9B20000000, float 0xBFD7088500000000, float 0xBFD87DE0E0000000, float 0xBFD9EF7800000000, float 0xBFDB5D0FA0000000, float 0xBFDCC66D40000000, float 0xBFDE2B5E60000000, float 0xBFDF8BA400000000, float 0xBFE0738820000000, float 0xBFE11EB420000000, float 0xBFE1C73AC0000000, float 0xBFE26D04E0000000, float 0xBFE30FF760000000, float 0xBFE3AFFB00000000, float 0xBFE44CF280000000, float 0xBFE4E6CB20000000, float 0xBFE57D6940000000, float 0xBFE610B840000000, float 0xBFE6A09EE0000000, float 0xBFE72D0800000000, float 0xBFE7B5DEE0000000, float 0xBFE83B0E60000000, float 0xBFE8BC7F80000000, float 0xBFE93A2160000000, float 0xBFE9B3E140000000, float 0xBFEA29A800000000, float 0xBFEA9B6700000000, float 0xBFEB090B40000000, float 0xBFEB728420000000, float 0xBFEBD7C0C0000000, float 0xBFEC38B260000000, float 0xBFEC954A80000000, float 0xBFECED7A60000000, float 0xBFED413560000000, float 0xBFED906CC0000000, float 0xBFEDDB1420000000, float 0xBFEE2120E0000000, float 0xBFEE628880000000, float 0xBFEE9F40A0000000, float 0xBFEED740C0000000, float 0xBFEF0A7E80000000, float 0xBFEF38F360000000, float 0xBFEF629740000000, float 0xBFEF8765C0000000, float 0xBFEFA75680000000, float 0xBFEFC26560000000, float 0xBFEFD88E40000000, float 0xBFEFE9CCC0000000, float 0xBFEFF620E0000000, float 0xBFEFFD88C0000000, float -1.000000e+00, float 0xBFEFFD88C0000000, float 0xBFEFF620E0000000, float 0xBFEFE9CCC0000000, float 0xBFEFD88E40000000, float 0xBFEFC26560000000, float 0xBFEFA75680000000, float 0xBFEF8765C0000000, float 0xBFEF629740000000, float 0xBFEF38F360000000, float 0xBFEF0A7E80000000, float 0xBFEED740C0000000, float 0xBFEE9F40A0000000, float 0xBFEE628880000000, float 0xBFEE2120E0000000, float 0xBFEDDB1420000000, float 0xBFED906CC0000000, float 0xBFED413560000000, float 0xBFECED7A60000000, float 0xBFEC954A80000000, float 0xBFEC38B260000000, float 0xBFEBD7C0C0000000, float 0xBFEB728420000000, float 0xBFEB090B40000000, float 0xBFEA9B6700000000, float 0xBFEA29A800000000, float 0xBFE9B3E140000000, float 0xBFE93A2160000000, float 0xBFE8BC7F80000000, float 0xBFE83B0E60000000, float 0xBFE7B5DEE0000000, float 0xBFE72D0800000000, float 0xBFE6A09EE0000000, float 0xBFE610B840000000, float 0xBFE57D6940000000, float 0xBFE4E6CB20000000, float 0xBFE44CF280000000, float 0xBFE3AFFB00000000, float 0xBFE30FF760000000, float 0xBFE26D04E0000000, float 0xBFE1C73AC0000000, float 0xBFE11EB420000000, float 0xBFE0738820000000, float 0xBFDF8BA400000000, float 0xBFDE2B5E60000000, float 0xBFDCC66D40000000, float 0xBFDB5D0FA0000000, float 0xBFD9EF7800000000, float 0xBFD87DE0E0000000, float 0xBFD7088500000000, float 0xBFD58F9B20000000, float 0xBFD4135DA0000000, float 0xBFD2940780000000, float 0xBFD111D360000000, float 0xBFCF19F800000000, float 0xBFCC0B8060000000, float 0xBFC8F8B580000000, float 0xBFC5E21540000000, float 0xBFC2C80C80000000, float 0xBFBF5653C0000000, float 0xBFB917A460000000, float 0xBFB2D527E0000000, float 0xBFA91F70E0000000, float 0xBF992146A0000000, float -0.000000e+00, float 0x3F992146A0000000, float 0x3FA91F70E0000000, float 0x3FB2D527E0000000, float 0x3FB917A460000000, float 0x3FBF5653C0000000, float 0x3FC2C80C80000000, float 0x3FC5E21540000000, float 0x3FC8F8B580000000, float 0x3FCC0B8060000000, float 0x3FCF19F800000000, float 0x3FD111D360000000, float 0x3FD2940780000000, float 0x3FD4135DA0000000, float 0x3FD58F9B20000000, float 0x3FD7088500000000, float 0x3FD87DE0E0000000, float 0x3FD9EF7800000000, float 0x3FDB5D0FA0000000, float 0x3FDCC66D40000000, float 0x3FDE2B5E60000000, float 0x3FDF8BA400000000, float 0x3FE0738820000000, float 0x3FE11EB420000000, float 0x3FE1C73AC0000000, float 0x3FE26D04E0000000, float 0x3FE30FF760000000, float 0x3FE3AFFB00000000, float 0x3FE44CF280000000, float 0x3FE4E6CB20000000, float 0x3FE57D6940000000, float 0x3FE610B840000000, float 0x3FE6A09EE0000000, float 0x3FE72D0800000000, float 0x3FE7B5DEE0000000, float 0x3FE83B0E60000000, float 0x3FE8BC7F80000000, float 0x3FE93A2160000000, float 0x3FE9B3E140000000, float 0x3FEA29A800000000, float 0x3FEA9B6700000000, float 0x3FEB090B40000000, float 0x3FEB728420000000, float 0x3FEBD7C0C0000000, float 0x3FEC38B260000000, float 0x3FEC954A80000000, float 0x3FECED7A60000000, float 0x3FED413560000000, float 0x3FED906CC0000000, float 0x3FEDDB1420000000, float 0x3FEE2120E0000000, float 0x3FEE628880000000, float 0x3FEE9F40A0000000, float 0x3FEED740C0000000, float 0x3FEF0A7E80000000, float 0x3FEF38F360000000, float 0x3FEF629740000000, float 0x3FEF8765C0000000, float 0x3FEFA75680000000, float 0x3FEFC26560000000, float 0x3FEFD88E40000000, float 0x3FEFE9CCC0000000, float 0x3FEFF620E0000000, float 0x3FEFFD88C0000000, float 1.000000e+00, float 0x3FEFFD88C0000000, float 0x3FEFF620E0000000, float 0x3FEFE9CCC0000000, float 0x3FEFD88E40000000, float 0x3FEFC26560000000, float 0x3FEFA75680000000, float 0x3FEF8765C0000000, float 0x3FEF629740000000, float 0x3FEF38F360000000, float 0x3FEF0A7E80000000, float 0x3FEED740C0000000, float 0x3FEE9F40A0000000, float 0x3FEE628880000000, float 0x3FEE2120E0000000, float 0x3FEDDB1420000000, float 0x3FED906CC0000000, float 0x3FED413560000000, float 0x3FECED7A60000000, float 0x3FEC954A80000000, float 0x3FEC38B260000000, float 0x3FEBD7C0C0000000, float 0x3FEB728420000000, float 0x3FEB090B40000000, float 0x3FEA9B6700000000, float 0x3FEA29A800000000, float 0x3FE9B3E140000000, float 0x3FE93A2160000000, float 0x3FE8BC7F80000000, float 0x3FE83B0E60000000, float 0x3FE7B5DEE0000000, float 0x3FE72D0800000000, float 0x3FE6A09EE0000000, float 0x3FE610B840000000, float 0x3FE57D6940000000, float 0x3FE4E6CB20000000, float 0x3FE44CF280000000, float 0x3FE3AFFB00000000, float 0x3FE30FF760000000, float 0x3FE26D04E0000000, float 0x3FE1C73AC0000000, float 0x3FE11EB420000000, float 0x3FE0738820000000, float 0x3FDF8BA400000000, float 0x3FDE2B5E60000000, float 0x3FDCC66D40000000, float 0x3FDB5D0FA0000000, float 0x3FD9EF7800000000, float 0x3FD87DE0E0000000, float 0x3FD7088500000000, float 0x3FD58F9B20000000, float 0x3FD4135DA0000000, float 0x3FD2940780000000, float 0x3FD111D360000000, float 0x3FCF19F800000000, float 0x3FCC0B8060000000, float 0x3FC8F8B580000000, float 0x3FC5E21540000000, float 0x3FC2C80C80000000, float 0x3FBF5653C0000000, float 0x3FB917A460000000, float 0x3FB2D527E0000000, float 0x3FA91F70E0000000, float 0x3F992146A0000000], align 16 ; [#uses=1 type=[256 x float]*]
@llvm_global_ctors_1 = appending global [1 x void ()*] [void ()* @_GLOBAL__I_a] ; [#uses=0 type=[1 x void ()*]*]
@llvm_global_ctors_0 = appending global [1 x i32] [i32 65535] ; [#uses=0 type=[1 x i32]*]
@dft_str = internal unnamed_addr constant [4 x i8] c"dft\00" ; [#uses=1 type=[4 x i8]*]
@cct17 = internal unnamed_addr constant [256 x float] [float 1.000000e+00, float 0x3FEFFD88C0000000, float 0x3FEFF620E0000000, float 0x3FEFE9CCC0000000, float 0x3FEFD88E40000000, float 0x3FEFC26560000000, float 0x3FEFA75680000000, float 0x3FEF8765C0000000, float 0x3FEF629740000000, float 0x3FEF38F360000000, float 0x3FEF0A7E80000000, float 0x3FEED740C0000000, float 0x3FEE9F40A0000000, float 0x3FEE628880000000, float 0x3FEE2120E0000000, float 0x3FEDDB1420000000, float 0x3FED906CC0000000, float 0x3FED413560000000, float 0x3FECED7A60000000, float 0x3FEC954A80000000, float 0x3FEC38B260000000, float 0x3FEBD7C0C0000000, float 0x3FEB728420000000, float 0x3FEB090B40000000, float 0x3FEA9B6700000000, float 0x3FEA29A800000000, float 0x3FE9B3E140000000, float 0x3FE93A2160000000, float 0x3FE8BC7F80000000, float 0x3FE83B0E60000000, float 0x3FE7B5DEE0000000, float 0x3FE72D0800000000, float 0x3FE6A09EE0000000, float 0x3FE610B840000000, float 0x3FE57D6940000000, float 0x3FE4E6CB20000000, float 0x3FE44CF280000000, float 0x3FE3AFFB00000000, float 0x3FE30FF760000000, float 0x3FE26D04E0000000, float 0x3FE1C73AC0000000, float 0x3FE11EB420000000, float 0x3FE0738820000000, float 0x3FDF8BA400000000, float 0x3FDE2B5E60000000, float 0x3FDCC66D40000000, float 0x3FDB5D0FA0000000, float 0x3FD9EF7800000000, float 0x3FD87DE0E0000000, float 0x3FD7088500000000, float 0x3FD58F9B20000000, float 0x3FD4135DA0000000, float 0x3FD2940780000000, float 0x3FD111D360000000, float 0x3FCF19F800000000, float 0x3FCC0B8060000000, float 0x3FC8F8B580000000, float 0x3FC5E21540000000, float 0x3FC2C80C80000000, float 0x3FBF5653C0000000, float 0x3FB917A460000000, float 0x3FB2D527E0000000, float 0x3FA91F70E0000000, float 0x3F992146A0000000, float 0.000000e+00, float 0xBF992146A0000000, float 0xBFA91F70E0000000, float 0xBFB2D527E0000000, float 0xBFB917A460000000, float 0xBFBF5653C0000000, float 0xBFC2C80C80000000, float 0xBFC5E21540000000, float 0xBFC8F8B580000000, float 0xBFCC0B8060000000, float 0xBFCF19F800000000, float 0xBFD111D360000000, float 0xBFD2940780000000, float 0xBFD4135DA0000000, float 0xBFD58F9B20000000, float 0xBFD7088500000000, float 0xBFD87DE0E0000000, float 0xBFD9EF7800000000, float 0xBFDB5D0FA0000000, float 0xBFDCC66D40000000, float 0xBFDE2B5E60000000, float 0xBFDF8BA400000000, float 0xBFE0738820000000, float 0xBFE11EB420000000, float 0xBFE1C73AC0000000, float 0xBFE26D04E0000000, float 0xBFE30FF760000000, float 0xBFE3AFFB00000000, float 0xBFE44CF280000000, float 0xBFE4E6CB20000000, float 0xBFE57D6940000000, float 0xBFE610B840000000, float 0xBFE6A09EE0000000, float 0xBFE72D0800000000, float 0xBFE7B5DEE0000000, float 0xBFE83B0E60000000, float 0xBFE8BC7F80000000, float 0xBFE93A2160000000, float 0xBFE9B3E140000000, float 0xBFEA29A800000000, float 0xBFEA9B6700000000, float 0xBFEB090B40000000, float 0xBFEB728420000000, float 0xBFEBD7C0C0000000, float 0xBFEC38B260000000, float 0xBFEC954A80000000, float 0xBFECED7A60000000, float 0xBFED413560000000, float 0xBFED906CC0000000, float 0xBFEDDB1420000000, float 0xBFEE2120E0000000, float 0xBFEE628880000000, float 0xBFEE9F40A0000000, float 0xBFEED740C0000000, float 0xBFEF0A7E80000000, float 0xBFEF38F360000000, float 0xBFEF629740000000, float 0xBFEF8765C0000000, float 0xBFEFA75680000000, float 0xBFEFC26560000000, float 0xBFEFD88E40000000, float 0xBFEFE9CCC0000000, float 0xBFEFF620E0000000, float 0xBFEFFD88C0000000, float -1.000000e+00, float 0xBFEFFD88C0000000, float 0xBFEFF620E0000000, float 0xBFEFE9CCC0000000, float 0xBFEFD88E40000000, float 0xBFEFC26560000000, float 0xBFEFA75680000000, float 0xBFEF8765C0000000, float 0xBFEF629740000000, float 0xBFEF38F360000000, float 0xBFEF0A7E80000000, float 0xBFEED740C0000000, float 0xBFEE9F40A0000000, float 0xBFEE628880000000, float 0xBFEE2120E0000000, float 0xBFEDDB1420000000, float 0xBFED906CC0000000, float 0xBFED413560000000, float 0xBFECED7A60000000, float 0xBFEC954A80000000, float 0xBFEC38B260000000, float 0xBFEBD7C0C0000000, float 0xBFEB728420000000, float 0xBFEB090B40000000, float 0xBFEA9B6700000000, float 0xBFEA29A800000000, float 0xBFE9B3E140000000, float 0xBFE93A2160000000, float 0xBFE8BC7F80000000, float 0xBFE83B0E60000000, float 0xBFE7B5DEE0000000, float 0xBFE72D0800000000, float 0xBFE6A09EE0000000, float 0xBFE610B840000000, float 0xBFE57D6940000000, float 0xBFE4E6CB20000000, float 0xBFE44CF280000000, float 0xBFE3AFFB00000000, float 0xBFE30FF760000000, float 0xBFE26D04E0000000, float 0xBFE1C73AC0000000, float 0xBFE11EB420000000, float 0xBFE0738820000000, float 0xBFDF8BA400000000, float 0xBFDE2B5E60000000, float 0xBFDCC66D40000000, float 0xBFDB5D0FA0000000, float 0xBFD9EF7800000000, float 0xBFD87DE0E0000000, float 0xBFD7088500000000, float 0xBFD58F9B20000000, float 0xBFD4135DA0000000, float 0xBFD2940780000000, float 0xBFD111D360000000, float 0xBFCF19F800000000, float 0xBFCC0B8060000000, float 0xBFC8F8B580000000, float 0xBFC5E21540000000, float 0xBFC2C80C80000000, float 0xBFBF5653C0000000, float 0xBFB917A460000000, float 0xBFB2D527E0000000, float 0xBFA91F70E0000000, float 0xBF992146A0000000, float -0.000000e+00, float 0x3F992146A0000000, float 0x3FA91F70E0000000, float 0x3FB2D527E0000000, float 0x3FB917A460000000, float 0x3FBF5653C0000000, float 0x3FC2C80C80000000, float 0x3FC5E21540000000, float 0x3FC8F8B580000000, float 0x3FCC0B8060000000, float 0x3FCF19F800000000, float 0x3FD111D360000000, float 0x3FD2940780000000, float 0x3FD4135DA0000000, float 0x3FD58F9B20000000, float 0x3FD7088500000000, float 0x3FD87DE0E0000000, float 0x3FD9EF7800000000, float 0x3FDB5D0FA0000000, float 0x3FDCC66D40000000, float 0x3FDE2B5E60000000, float 0x3FDF8BA400000000, float 0x3FE0738820000000, float 0x3FE11EB420000000, float 0x3FE1C73AC0000000, float 0x3FE26D04E0000000, float 0x3FE30FF760000000, float 0x3FE3AFFB00000000, float 0x3FE44CF280000000, float 0x3FE4E6CB20000000, float 0x3FE57D6940000000, float 0x3FE610B840000000, float 0x3FE6A09EE0000000, float 0x3FE72D0800000000, float 0x3FE7B5DEE0000000, float 0x3FE83B0E60000000, float 0x3FE8BC7F80000000, float 0x3FE93A2160000000, float 0x3FE9B3E140000000, float 0x3FEA29A800000000, float 0x3FEA9B6700000000, float 0x3FEB090B40000000, float 0x3FEB728420000000, float 0x3FEBD7C0C0000000, float 0x3FEC38B260000000, float 0x3FEC954A80000000, float 0x3FECED7A60000000, float 0x3FED413560000000, float 0x3FED906CC0000000, float 0x3FEDDB1420000000, float 0x3FEE2120E0000000, float 0x3FEE628880000000, float 0x3FEE9F40A0000000, float 0x3FEED740C0000000, float 0x3FEF0A7E80000000, float 0x3FEF38F360000000, float 0x3FEF629740000000, float 0x3FEF8765C0000000, float 0x3FEFA75680000000, float 0x3FEFC26560000000, float 0x3FEFD88E40000000, float 0x3FEFE9CCC0000000, float 0x3FEFF620E0000000, float 0x3FEFFD88C0000000] ; [#uses=1 type=[256 x float]*]
@cct = internal unnamed_addr constant [256 x float] [float 1.000000e+00, float 0x3FEFFD88C0000000, float 0x3FEFF620E0000000, float 0x3FEFE9CCC0000000, float 0x3FEFD88E40000000, float 0x3FEFC26560000000, float 0x3FEFA75680000000, float 0x3FEF8765C0000000, float 0x3FEF629740000000, float 0x3FEF38F360000000, float 0x3FEF0A7E80000000, float 0x3FEED740C0000000, float 0x3FEE9F40A0000000, float 0x3FEE628880000000, float 0x3FEE2120E0000000, float 0x3FEDDB1420000000, float 0x3FED906CC0000000, float 0x3FED413560000000, float 0x3FECED7A60000000, float 0x3FEC954A80000000, float 0x3FEC38B260000000, float 0x3FEBD7C0C0000000, float 0x3FEB728420000000, float 0x3FEB090B40000000, float 0x3FEA9B6700000000, float 0x3FEA29A800000000, float 0x3FE9B3E140000000, float 0x3FE93A2160000000, float 0x3FE8BC7F80000000, float 0x3FE83B0E60000000, float 0x3FE7B5DEE0000000, float 0x3FE72D0800000000, float 0x3FE6A09EE0000000, float 0x3FE610B840000000, float 0x3FE57D6940000000, float 0x3FE4E6CB20000000, float 0x3FE44CF280000000, float 0x3FE3AFFB00000000, float 0x3FE30FF760000000, float 0x3FE26D04E0000000, float 0x3FE1C73AC0000000, float 0x3FE11EB420000000, float 0x3FE0738820000000, float 0x3FDF8BA400000000, float 0x3FDE2B5E60000000, float 0x3FDCC66D40000000, float 0x3FDB5D0FA0000000, float 0x3FD9EF7800000000, float 0x3FD87DE0E0000000, float 0x3FD7088500000000, float 0x3FD58F9B20000000, float 0x3FD4135DA0000000, float 0x3FD2940780000000, float 0x3FD111D360000000, float 0x3FCF19F800000000, float 0x3FCC0B8060000000, float 0x3FC8F8B580000000, float 0x3FC5E21540000000, float 0x3FC2C80C80000000, float 0x3FBF5653C0000000, float 0x3FB917A460000000, float 0x3FB2D527E0000000, float 0x3FA91F70E0000000, float 0x3F992146A0000000, float 0.000000e+00, float 0xBF992146A0000000, float 0xBFA91F70E0000000, float 0xBFB2D527E0000000, float 0xBFB917A460000000, float 0xBFBF5653C0000000, float 0xBFC2C80C80000000, float 0xBFC5E21540000000, float 0xBFC8F8B580000000, float 0xBFCC0B8060000000, float 0xBFCF19F800000000, float 0xBFD111D360000000, float 0xBFD2940780000000, float 0xBFD4135DA0000000, float 0xBFD58F9B20000000, float 0xBFD7088500000000, float 0xBFD87DE0E0000000, float 0xBFD9EF7800000000, float 0xBFDB5D0FA0000000, float 0xBFDCC66D40000000, float 0xBFDE2B5E60000000, float 0xBFDF8BA400000000, float 0xBFE0738820000000, float 0xBFE11EB420000000, float 0xBFE1C73AC0000000, float 0xBFE26D04E0000000, float 0xBFE30FF760000000, float 0xBFE3AFFB00000000, float 0xBFE44CF280000000, float 0xBFE4E6CB20000000, float 0xBFE57D6940000000, float 0xBFE610B840000000, float 0xBFE6A09EE0000000, float 0xBFE72D0800000000, float 0xBFE7B5DEE0000000, float 0xBFE83B0E60000000, float 0xBFE8BC7F80000000, float 0xBFE93A2160000000, float 0xBFE9B3E140000000, float 0xBFEA29A800000000, float 0xBFEA9B6700000000, float 0xBFEB090B40000000, float 0xBFEB728420000000, float 0xBFEBD7C0C0000000, float 0xBFEC38B260000000, float 0xBFEC954A80000000, float 0xBFECED7A60000000, float 0xBFED413560000000, float 0xBFED906CC0000000, float 0xBFEDDB1420000000, float 0xBFEE2120E0000000, float 0xBFEE628880000000, float 0xBFEE9F40A0000000, float 0xBFEED740C0000000, float 0xBFEF0A7E80000000, float 0xBFEF38F360000000, float 0xBFEF629740000000, float 0xBFEF8765C0000000, float 0xBFEFA75680000000, float 0xBFEFC26560000000, float 0xBFEFD88E40000000, float 0xBFEFE9CCC0000000, float 0xBFEFF620E0000000, float 0xBFEFFD88C0000000, float -1.000000e+00, float 0xBFEFFD88C0000000, float 0xBFEFF620E0000000, float 0xBFEFE9CCC0000000, float 0xBFEFD88E40000000, float 0xBFEFC26560000000, float 0xBFEFA75680000000, float 0xBFEF8765C0000000, float 0xBFEF629740000000, float 0xBFEF38F360000000, float 0xBFEF0A7E80000000, float 0xBFEED740C0000000, float 0xBFEE9F40A0000000, float 0xBFEE628880000000, float 0xBFEE2120E0000000, float 0xBFEDDB1420000000, float 0xBFED906CC0000000, float 0xBFED413560000000, float 0xBFECED7A60000000, float 0xBFEC954A80000000, float 0xBFEC38B260000000, float 0xBFEBD7C0C0000000, float 0xBFEB728420000000, float 0xBFEB090B40000000, float 0xBFEA9B6700000000, float 0xBFEA29A800000000, float 0xBFE9B3E140000000, float 0xBFE93A2160000000, float 0xBFE8BC7F80000000, float 0xBFE83B0E60000000, float 0xBFE7B5DEE0000000, float 0xBFE72D0800000000, float 0xBFE6A09EE0000000, float 0xBFE610B840000000, float 0xBFE57D6940000000, float 0xBFE4E6CB20000000, float 0xBFE44CF280000000, float 0xBFE3AFFB00000000, float 0xBFE30FF760000000, float 0xBFE26D04E0000000, float 0xBFE1C73AC0000000, float 0xBFE11EB420000000, float 0xBFE0738820000000, float 0xBFDF8BA400000000, float 0xBFDE2B5E60000000, float 0xBFDCC66D40000000, float 0xBFDB5D0FA0000000, float 0xBFD9EF7800000000, float 0xBFD87DE0E0000000, float 0xBFD7088500000000, float 0xBFD58F9B20000000, float 0xBFD4135DA0000000, float 0xBFD2940780000000, float 0xBFD111D360000000, float 0xBFCF19F800000000, float 0xBFCC0B8060000000, float 0xBFC8F8B580000000, float 0xBFC5E21540000000, float 0xBFC2C80C80000000, float 0xBFBF5653C0000000, float 0xBFB917A460000000, float 0xBFB2D527E0000000, float 0xBFA91F70E0000000, float 0xBF992146A0000000, float -0.000000e+00, float 0x3F992146A0000000, float 0x3FA91F70E0000000, float 0x3FB2D527E0000000, float 0x3FB917A460000000, float 0x3FBF5653C0000000, float 0x3FC2C80C80000000, float 0x3FC5E21540000000, float 0x3FC8F8B580000000, float 0x3FCC0B8060000000, float 0x3FCF19F800000000, float 0x3FD111D360000000, float 0x3FD2940780000000, float 0x3FD4135DA0000000, float 0x3FD58F9B20000000, float 0x3FD7088500000000, float 0x3FD87DE0E0000000, float 0x3FD9EF7800000000, float 0x3FDB5D0FA0000000, float 0x3FDCC66D40000000, float 0x3FDE2B5E60000000, float 0x3FDF8BA400000000, float 0x3FE0738820000000, float 0x3FE11EB420000000, float 0x3FE1C73AC0000000, float 0x3FE26D04E0000000, float 0x3FE30FF760000000, float 0x3FE3AFFB00000000, float 0x3FE44CF280000000, float 0x3FE4E6CB20000000, float 0x3FE57D6940000000, float 0x3FE610B840000000, float 0x3FE6A09EE0000000, float 0x3FE72D0800000000, float 0x3FE7B5DEE0000000, float 0x3FE83B0E60000000, float 0x3FE8BC7F80000000, float 0x3FE93A2160000000, float 0x3FE9B3E140000000, float 0x3FEA29A800000000, float 0x3FEA9B6700000000, float 0x3FEB090B40000000, float 0x3FEB728420000000, float 0x3FEBD7C0C0000000, float 0x3FEC38B260000000, float 0x3FEC954A80000000, float 0x3FECED7A60000000, float 0x3FED413560000000, float 0x3FED906CC0000000, float 0x3FEDDB1420000000, float 0x3FEE2120E0000000, float 0x3FEE628880000000, float 0x3FEE9F40A0000000, float 0x3FEED740C0000000, float 0x3FEF0A7E80000000, float 0x3FEF38F360000000, float 0x3FEF629740000000, float 0x3FEF8765C0000000, float 0x3FEFA75680000000, float 0x3FEFC26560000000, float 0x3FEFD88E40000000, float 0x3FEFE9CCC0000000, float 0x3FEFF620E0000000, float 0x3FEFFD88C0000000], align 16 ; [#uses=1 type=[256 x float]*]
@p_str4 = private unnamed_addr constant [9 x i8] c"Loop_Row\00", align 1 ; [#uses=1 type=[9 x i8]*]
@p_str2 = private unnamed_addr constant [14 x i8] c"Loop_Col_Imag\00", align 1 ; [#uses=3 type=[14 x i8]*]
@p_str1 = private unnamed_addr constant [1 x i8] zeroinitializer, align 1 ; [#uses=3 type=[1 x i8]*]
@p_str = private unnamed_addr constant [14 x i8] c"Loop_Col_Real\00", align 1 ; [#uses=3 type=[14 x i8]*]

; [#uses=2]
define internal fastcc float @dft_loop_col_real(i9 %i, i10 %j, [64 x float]* nocapture %real_i_0, [64 x float]* nocapture %real_i_1, [64 x float]* nocapture %real_i_2, [64 x float]* nocapture %real_i_3, [64 x float]* nocapture %imag_i_0, [64 x float]* nocapture %imag_i_1, [64 x float]* nocapture %imag_i_2, [64 x float]* nocapture %imag_i_3) {
  %j_read = call i10 @_ssdm_op_Read.ap_auto.i10(i10 %j) ; [#uses=2 type=i10]
  call void @llvm.dbg.value(metadata !{i10 %j_read}, i64 0, metadata !7), !dbg !18 ; [debug line = 4:31] [debug variable = j]
  %i_read = call i9 @_ssdm_op_Read.ap_auto.i9(i9 %i) ; [#uses=1 type=i9]
  call void @llvm.dbg.value(metadata !{i9 %i_read}, i64 0, metadata !19), !dbg !20 ; [debug line = 4:24] [debug variable = i]
  %j_cast1 = zext i10 %j_read to i32              ; [#uses=1 type=i32]
  %i_cast = zext i9 %i_read to i32                ; [#uses=1 type=i32]
  call void @llvm.dbg.value(metadata !{i9 %i}, i64 0, metadata !19), !dbg !20 ; [debug line = 4:24] [debug variable = i]
  call void @llvm.dbg.value(metadata !{i10 %j}, i64 0, metadata !7), !dbg !18 ; [debug line = 4:31] [debug variable = j]
  call void @llvm.dbg.value(metadata !{[64 x float]* %real_i_0}, i64 0, metadata !21), !dbg !26 ; [debug line = 4:40] [debug variable = real_i[0]]
  call void @llvm.dbg.value(metadata !{[64 x float]* %real_i_1}, i64 0, metadata !27), !dbg !26 ; [debug line = 4:40] [debug variable = real_i[1]]
  call void @llvm.dbg.value(metadata !{[64 x float]* %real_i_2}, i64 0, metadata !28), !dbg !26 ; [debug line = 4:40] [debug variable = real_i[2]]
  call void @llvm.dbg.value(metadata !{[64 x float]* %real_i_3}, i64 0, metadata !29), !dbg !26 ; [debug line = 4:40] [debug variable = real_i[3]]
  call void @llvm.dbg.value(metadata !{[64 x float]* %imag_i_0}, i64 0, metadata !30), !dbg !32 ; [debug line = 4:77] [debug variable = imag_i[0]]
  call void @llvm.dbg.value(metadata !{[64 x float]* %imag_i_1}, i64 0, metadata !33), !dbg !32 ; [debug line = 4:77] [debug variable = imag_i[1]]
  call void @llvm.dbg.value(metadata !{[64 x float]* %imag_i_2}, i64 0, metadata !34), !dbg !32 ; [debug line = 4:77] [debug variable = imag_i[2]]
  call void @llvm.dbg.value(metadata !{[64 x float]* %imag_i_3}, i64 0, metadata !35), !dbg !32 ; [debug line = 4:77] [debug variable = imag_i[3]]
  %tmp_10 = trunc i10 %j_read to i9, !dbg !36     ; [#uses=1 type=i9] [debug line = 5:31]
  %tmp = add i9 128, %tmp_10, !dbg !36            ; [#uses=1 type=i9] [debug line = 5:31]
  %tmp_cast = zext i9 %tmp to i32, !dbg !36       ; [#uses=1 type=i32] [debug line = 5:31]
  br label %1, !dbg !36                           ; [debug line = 5:31]

; <label>:1                                       ; preds = %2, %0
  %val_o = phi float [ 0.000000e+00, %0 ], [ %tmp_7, %2 ] ; [#uses=2 type=float]
  %p_0 = phi i32 [ %j_cast1, %0 ], [ %j_assign, %2 ] ; [#uses=5 type=i32]
  %exitcond = icmp eq i32 %p_0, %tmp_cast, !dbg !36 ; [#uses=1 type=i1] [debug line = 5:31]
  br i1 %exitcond, label %3, label %2, !dbg !36   ; [debug line = 5:31]

; <label>:2                                       ; preds = %1
  %empty = call i32 (...)* @_ssdm_op_SpecLoopTripCount(i64 128, i64 128, i64 128) ; [#uses=0 type=i32]
  call void (...)* @_ssdm_op_SpecLoopName([14 x i8]* @p_str) nounwind, !dbg !39 ; [debug line = 5:61]
  %tmp_2 = call i32 (...)* @_ssdm_op_SpecRegionBegin([14 x i8]* @p_str), !dbg !39 ; [#uses=1 type=i32] [debug line = 5:61]
  call void (...)* @_ssdm_op_SpecPipeline(i32 1, i32 1, i32 1, i32 0, [1 x i8]* @p_str1) nounwind, !dbg !41 ; [debug line = 6:1]
  %tmp_1 = mul nsw i32 %p_0, %i_cast, !dbg !42    ; [#uses=3 type=i32] [debug line = 7:41]
  %tmp_11 = call i1 @_ssdm_op_BitSelect.i1.i32.i32(i32 %tmp_1, i32 31), !dbg !42 ; [#uses=1 type=i1] [debug line = 7:41]
  %tmp_12 = trunc i32 %tmp_1 to i8                ; [#uses=1 type=i8]
  %p_and_f = call i32 @_ssdm_op_BitConcatenate.i32.i24.i8(i24 0, i8 %tmp_12), !dbg !42 ; [#uses=1 type=i32] [debug line = 7:41]
  %tmp_13 = trunc i32 %tmp_1 to i8, !dbg !42      ; [#uses=1 type=i8] [debug line = 7:41]
  %tmp_14 = sub i8 0, %tmp_13, !dbg !42           ; [#uses=1 type=i8] [debug line = 7:41]
  %p_and_t = call i32 @_ssdm_op_BitConcatenate.i32.i24.i8(i24 0, i8 %tmp_14), !dbg !42 ; [#uses=1 type=i32] [debug line = 7:41]
  %p_neg_t = sub i32 0, %p_and_t, !dbg !42        ; [#uses=1 type=i32] [debug line = 7:41]
  %index = select i1 %tmp_11, i32 %p_neg_t, i32 %p_and_f, !dbg !42 ; [#uses=1 type=i32] [debug line = 7:41]
  call void @llvm.dbg.value(metadata !{i32 %index}, i64 0, metadata !43), !dbg !42 ; [debug line = 7:41] [debug variable = index]
  %tmp_15 = trunc i32 %p_0 to i2                  ; [#uses=2 type=i2]
  %newIndex = call i30 @_ssdm_op_PartSelect.i30.i32.i32.i32(i32 %p_0, i32 2, i32 31) ; [#uses=1 type=i30]
  %newIndex7 = zext i30 %newIndex to i64          ; [#uses=8 type=i64]
  %real_i_0_addr = getelementptr [64 x float]* %real_i_0, i64 0, i64 %newIndex7 ; [#uses=1 type=float*]
  %real_i_0_load = load float* %real_i_0_addr, align 4 ; [#uses=1 type=float]
  %real_i_1_addr = getelementptr [64 x float]* %real_i_1, i64 0, i64 %newIndex7 ; [#uses=1 type=float*]
  %real_i_1_load = load float* %real_i_1_addr, align 4 ; [#uses=1 type=float]
  %real_i_2_addr = getelementptr [64 x float]* %real_i_2, i64 0, i64 %newIndex7 ; [#uses=1 type=float*]
  %real_i_2_load = load float* %real_i_2_addr, align 4 ; [#uses=1 type=float]
  %real_i_3_addr = getelementptr [64 x float]* %real_i_3, i64 0, i64 %newIndex7 ; [#uses=1 type=float*]
  %real_i_3_load = load float* %real_i_3_addr, align 4 ; [#uses=1 type=float]
  %tmp_8 = call float @_ssdm_op_Mux.ap_auto.4float.i2(float %real_i_0_load, float %real_i_1_load, float %real_i_2_load, float %real_i_3_load, i2 %tmp_15) ; [#uses=1 type=float]
  %tmp_3 = sext i32 %index to i64, !dbg !44       ; [#uses=2 type=i64] [debug line = 8:3]
  %cct17_addr = getelementptr inbounds [256 x float]* @cct17, i64 0, i64 %tmp_3, !dbg !44 ; [#uses=1 type=float*] [debug line = 8:3]
  %cct17_load = load float* %cct17_addr, align 4, !dbg !44 ; [#uses=1 type=float] [debug line = 8:3]
  %tmp_4 = fmul float %tmp_8, %cct17_load, !dbg !44 ; [#uses=1 type=float] [debug line = 8:3]
  %imag_i_0_addr = getelementptr [64 x float]* %imag_i_0, i64 0, i64 %newIndex7 ; [#uses=1 type=float*]
  %imag_i_0_load = load float* %imag_i_0_addr, align 4 ; [#uses=1 type=float]
  %imag_i_1_addr = getelementptr [64 x float]* %imag_i_1, i64 0, i64 %newIndex7 ; [#uses=1 type=float*]
  %imag_i_1_load = load float* %imag_i_1_addr, align 4 ; [#uses=1 type=float]
  %imag_i_2_addr = getelementptr [64 x float]* %imag_i_2, i64 0, i64 %newIndex7 ; [#uses=1 type=float*]
  %imag_i_2_load = load float* %imag_i_2_addr, align 4 ; [#uses=1 type=float]
  %imag_i_3_addr = getelementptr [64 x float]* %imag_i_3, i64 0, i64 %newIndex7 ; [#uses=1 type=float*]
  %imag_i_3_load = load float* %imag_i_3_addr, align 4 ; [#uses=1 type=float]
  %tmp_9 = call float @_ssdm_op_Mux.ap_auto.4float.i2(float %imag_i_0_load, float %imag_i_1_load, float %imag_i_2_load, float %imag_i_3_load, i2 %tmp_15) ; [#uses=1 type=float]
  %sct18_addr = getelementptr inbounds [256 x float]* @sct18, i64 0, i64 %tmp_3, !dbg !44 ; [#uses=1 type=float*] [debug line = 8:3]
  %sct18_load = load float* %sct18_addr, align 4, !dbg !44 ; [#uses=1 type=float] [debug line = 8:3]
  %tmp_5 = fmul float %tmp_9, %sct18_load, !dbg !44 ; [#uses=1 type=float] [debug line = 8:3]
  %tmp_6 = fsub float %tmp_4, %tmp_5, !dbg !44    ; [#uses=1 type=float] [debug line = 8:3]
  %tmp_7 = fadd float %val_o, %tmp_6, !dbg !44    ; [#uses=1 type=float] [debug line = 8:3]
  %empty_6 = call i32 (...)* @_ssdm_op_SpecRegionEnd([14 x i8]* @p_str, i32 %tmp_2), !dbg !45 ; [#uses=0 type=i32] [debug line = 9:2]
  %j_assign = add nsw i32 1, %p_0, !dbg !46       ; [#uses=1 type=i32] [debug line = 5:43]
  call void @llvm.dbg.value(metadata !{i32 %j_assign}, i64 0, metadata !7), !dbg !46 ; [debug line = 5:43] [debug variable = j]
  br label %1, !dbg !46                           ; [debug line = 5:43]

; <label>:3                                       ; preds = %1
  ret float %val_o, !dbg !47                      ; [debug line = 10:1]
}

; [#uses=2]
define internal fastcc float @dft_loop_col_imag(i9 %i, i10 %j, [64 x float]* nocapture %real_i_0, [64 x float]* nocapture %real_i_1, [64 x float]* nocapture %real_i_2, [64 x float]* nocapture %real_i_3, [64 x float]* nocapture %imag_i_0, [64 x float]* nocapture %imag_i_1, [64 x float]* nocapture %imag_i_2, [64 x float]* nocapture %imag_i_3) {
  %j_read = call i10 @_ssdm_op_Read.ap_auto.i10(i10 %j) ; [#uses=2 type=i10]
  call void @llvm.dbg.value(metadata !{i10 %j_read}, i64 0, metadata !48), !dbg !50 ; [debug line = 12:31] [debug variable = j]
  %i_read = call i9 @_ssdm_op_Read.ap_auto.i9(i9 %i) ; [#uses=1 type=i9]
  call void @llvm.dbg.value(metadata !{i9 %i_read}, i64 0, metadata !51), !dbg !52 ; [debug line = 12:24] [debug variable = i]
  %j_cast1 = zext i10 %j_read to i32              ; [#uses=1 type=i32]
  %i_cast = zext i9 %i_read to i32                ; [#uses=1 type=i32]
  call void @llvm.dbg.value(metadata !{i9 %i}, i64 0, metadata !51), !dbg !52 ; [debug line = 12:24] [debug variable = i]
  call void @llvm.dbg.value(metadata !{i10 %j}, i64 0, metadata !48), !dbg !50 ; [debug line = 12:31] [debug variable = j]
  call void @llvm.dbg.value(metadata !{[64 x float]* %real_i_0}, i64 0, metadata !53), !dbg !55 ; [debug line = 12:40] [debug variable = real_i[0]]
  call void @llvm.dbg.value(metadata !{[64 x float]* %real_i_1}, i64 0, metadata !56), !dbg !55 ; [debug line = 12:40] [debug variable = real_i[1]]
  call void @llvm.dbg.value(metadata !{[64 x float]* %real_i_2}, i64 0, metadata !57), !dbg !55 ; [debug line = 12:40] [debug variable = real_i[2]]
  call void @llvm.dbg.value(metadata !{[64 x float]* %real_i_3}, i64 0, metadata !58), !dbg !55 ; [debug line = 12:40] [debug variable = real_i[3]]
  call void @llvm.dbg.value(metadata !{[64 x float]* %imag_i_0}, i64 0, metadata !59), !dbg !61 ; [debug line = 12:77] [debug variable = imag_i[0]]
  call void @llvm.dbg.value(metadata !{[64 x float]* %imag_i_1}, i64 0, metadata !62), !dbg !61 ; [debug line = 12:77] [debug variable = imag_i[1]]
  call void @llvm.dbg.value(metadata !{[64 x float]* %imag_i_2}, i64 0, metadata !63), !dbg !61 ; [debug line = 12:77] [debug variable = imag_i[2]]
  call void @llvm.dbg.value(metadata !{[64 x float]* %imag_i_3}, i64 0, metadata !64), !dbg !61 ; [debug line = 12:77] [debug variable = imag_i[3]]
  %tmp_16 = trunc i10 %j_read to i9, !dbg !65     ; [#uses=1 type=i9] [debug line = 13:31]
  %tmp = add i9 128, %tmp_16, !dbg !65            ; [#uses=1 type=i9] [debug line = 13:31]
  %tmp_cast = zext i9 %tmp to i32, !dbg !65       ; [#uses=1 type=i32] [debug line = 13:31]
  br label %1, !dbg !65                           ; [debug line = 13:31]

; <label>:1                                       ; preds = %2, %0
  %val_o = phi float [ 0.000000e+00, %0 ], [ %tmp_5, %2 ] ; [#uses=2 type=float]
  %p_0 = phi i32 [ %j_cast1, %0 ], [ %j_assign, %2 ] ; [#uses=5 type=i32]
  %exitcond = icmp eq i32 %p_0, %tmp_cast, !dbg !65 ; [#uses=1 type=i1] [debug line = 13:31]
  br i1 %exitcond, label %3, label %2, !dbg !65   ; [debug line = 13:31]

; <label>:2                                       ; preds = %1
  %empty = call i32 (...)* @_ssdm_op_SpecLoopTripCount(i64 128, i64 128, i64 128) ; [#uses=0 type=i32]
  call void (...)* @_ssdm_op_SpecLoopName([14 x i8]* @p_str2) nounwind, !dbg !68 ; [debug line = 13:61]
  %tmp_s = call i32 (...)* @_ssdm_op_SpecRegionBegin([14 x i8]* @p_str2), !dbg !68 ; [#uses=1 type=i32] [debug line = 13:61]
  call void (...)* @_ssdm_op_SpecPipeline(i32 1, i32 1, i32 1, i32 0, [1 x i8]* @p_str1) nounwind, !dbg !70 ; [debug line = 14:1]
  %tmp_9 = mul nsw i32 %p_0, %i_cast, !dbg !71    ; [#uses=3 type=i32] [debug line = 15:41]
  %tmp_17 = call i1 @_ssdm_op_BitSelect.i1.i32.i32(i32 %tmp_9, i32 31), !dbg !71 ; [#uses=1 type=i1] [debug line = 15:41]
  %tmp_18 = trunc i32 %tmp_9 to i8                ; [#uses=1 type=i8]
  %p_and_f = call i32 @_ssdm_op_BitConcatenate.i32.i24.i8(i24 0, i8 %tmp_18), !dbg !71 ; [#uses=1 type=i32] [debug line = 15:41]
  %tmp_19 = trunc i32 %tmp_9 to i8, !dbg !71      ; [#uses=1 type=i8] [debug line = 15:41]
  %tmp_20 = sub i8 0, %tmp_19, !dbg !71           ; [#uses=1 type=i8] [debug line = 15:41]
  %p_and_t = call i32 @_ssdm_op_BitConcatenate.i32.i24.i8(i24 0, i8 %tmp_20), !dbg !71 ; [#uses=1 type=i32] [debug line = 15:41]
  %p_neg_t = sub i32 0, %p_and_t, !dbg !71        ; [#uses=1 type=i32] [debug line = 15:41]
  %index = select i1 %tmp_17, i32 %p_neg_t, i32 %p_and_f, !dbg !71 ; [#uses=1 type=i32] [debug line = 15:41]
  call void @llvm.dbg.value(metadata !{i32 %index}, i64 0, metadata !72), !dbg !71 ; [debug line = 15:41] [debug variable = index]
  %tmp_21 = trunc i32 %p_0 to i2                  ; [#uses=2 type=i2]
  %newIndex = call i30 @_ssdm_op_PartSelect.i30.i32.i32.i32(i32 %p_0, i32 2, i32 31) ; [#uses=1 type=i30]
  %newIndex7 = zext i30 %newIndex to i64          ; [#uses=8 type=i64]
  %real_i_0_addr = getelementptr [64 x float]* %real_i_0, i64 0, i64 %newIndex7 ; [#uses=1 type=float*]
  %real_i_0_load = load float* %real_i_0_addr, align 4 ; [#uses=1 type=float]
  %real_i_1_addr = getelementptr [64 x float]* %real_i_1, i64 0, i64 %newIndex7 ; [#uses=1 type=float*]
  %real_i_1_load = load float* %real_i_1_addr, align 4 ; [#uses=1 type=float]
  %real_i_2_addr = getelementptr [64 x float]* %real_i_2, i64 0, i64 %newIndex7 ; [#uses=1 type=float*]
  %real_i_2_load = load float* %real_i_2_addr, align 4 ; [#uses=1 type=float]
  %real_i_3_addr = getelementptr [64 x float]* %real_i_3, i64 0, i64 %newIndex7 ; [#uses=1 type=float*]
  %real_i_3_load = load float* %real_i_3_addr, align 4 ; [#uses=1 type=float]
  %tmp_6 = call float @_ssdm_op_Mux.ap_auto.4float.i2(float %real_i_0_load, float %real_i_1_load, float %real_i_2_load, float %real_i_3_load, i2 %tmp_21) ; [#uses=1 type=float]
  %tmp_1 = sext i32 %index to i64, !dbg !73       ; [#uses=2 type=i64] [debug line = 16:3]
  %sct_addr = getelementptr inbounds [256 x float]* @sct, i64 0, i64 %tmp_1, !dbg !73 ; [#uses=1 type=float*] [debug line = 16:3]
  %sct_load = load float* %sct_addr, align 4, !dbg !73 ; [#uses=1 type=float] [debug line = 16:3]
  %tmp_2 = fmul float %tmp_6, %sct_load, !dbg !73 ; [#uses=1 type=float] [debug line = 16:3]
  %imag_i_0_addr = getelementptr [64 x float]* %imag_i_0, i64 0, i64 %newIndex7 ; [#uses=1 type=float*]
  %imag_i_0_load = load float* %imag_i_0_addr, align 4 ; [#uses=1 type=float]
  %imag_i_1_addr = getelementptr [64 x float]* %imag_i_1, i64 0, i64 %newIndex7 ; [#uses=1 type=float*]
  %imag_i_1_load = load float* %imag_i_1_addr, align 4 ; [#uses=1 type=float]
  %imag_i_2_addr = getelementptr [64 x float]* %imag_i_2, i64 0, i64 %newIndex7 ; [#uses=1 type=float*]
  %imag_i_2_load = load float* %imag_i_2_addr, align 4 ; [#uses=1 type=float]
  %imag_i_3_addr = getelementptr [64 x float]* %imag_i_3, i64 0, i64 %newIndex7 ; [#uses=1 type=float*]
  %imag_i_3_load = load float* %imag_i_3_addr, align 4 ; [#uses=1 type=float]
  %tmp_7 = call float @_ssdm_op_Mux.ap_auto.4float.i2(float %imag_i_0_load, float %imag_i_1_load, float %imag_i_2_load, float %imag_i_3_load, i2 %tmp_21) ; [#uses=1 type=float]
  %cct_addr = getelementptr inbounds [256 x float]* @cct, i64 0, i64 %tmp_1, !dbg !73 ; [#uses=1 type=float*] [debug line = 16:3]
  %cct_load = load float* %cct_addr, align 4, !dbg !73 ; [#uses=1 type=float] [debug line = 16:3]
  %tmp_3 = fmul float %tmp_7, %cct_load, !dbg !73 ; [#uses=1 type=float] [debug line = 16:3]
  %tmp_4 = fadd float %tmp_2, %tmp_3, !dbg !73    ; [#uses=1 type=float] [debug line = 16:3]
  %tmp_5 = fadd float %val_o, %tmp_4, !dbg !73    ; [#uses=1 type=float] [debug line = 16:3]
  %empty_7 = call i32 (...)* @_ssdm_op_SpecRegionEnd([14 x i8]* @p_str2, i32 %tmp_s), !dbg !74 ; [#uses=0 type=i32] [debug line = 17:2]
  %j_assign = add nsw i32 1, %p_0, !dbg !75       ; [#uses=1 type=i32] [debug line = 13:43]
  call void @llvm.dbg.value(metadata !{i32 %j_assign}, i64 0, metadata !48), !dbg !75 ; [debug line = 13:43] [debug variable = j]
  br label %1, !dbg !75                           ; [debug line = 13:43]

; <label>:3                                       ; preds = %1
  ret float %val_o, !dbg !76                      ; [debug line = 18:1]
}

; [#uses=1]
declare i9 @llvm.part.select.i9(i9, i32, i32) nounwind readnone

; [#uses=1]
declare i32 @llvm.part.select.i32(i32, i32, i32) nounwind readnone

; [#uses=49]
declare void @llvm.dbg.value(metadata, i64, metadata) nounwind readnone

; [#uses=0]
define void @dft([64 x float]* %real_i_0, [64 x float]* %real_i_1, [64 x float]* %real_i_2, [64 x float]* %real_i_3, [64 x float]* %imag_i_0, [64 x float]* %imag_i_1, [64 x float]* %imag_i_2, [64 x float]* %imag_i_3, [64 x float]* %real_o_0, [64 x float]* %real_o_1, [64 x float]* %real_o_2, [64 x float]* %real_o_3, [64 x float]* %imag_o_0, [64 x float]* %imag_o_1, [64 x float]* %imag_o_2, [64 x float]* %imag_o_3) {
codeRepl:
  call void (...)* @_ssdm_op_SpecDataflowPipeline(i32 -1, [1 x i8]* @p_str1) nounwind, !dbg !77 ; [debug line = 26:1]
  call void (...)* @_ssdm_op_SpecBitsMap([64 x float]* %imag_o_3), !map !82
  call void (...)* @_ssdm_op_SpecBitsMap([64 x float]* %imag_o_2), !map !88
  call void (...)* @_ssdm_op_SpecBitsMap([64 x float]* %imag_o_1), !map !94
  call void (...)* @_ssdm_op_SpecBitsMap([64 x float]* %imag_o_0), !map !100
  call void (...)* @_ssdm_op_SpecBitsMap([64 x float]* %real_o_3), !map !106
  call void (...)* @_ssdm_op_SpecBitsMap([64 x float]* %real_o_2), !map !110
  call void (...)* @_ssdm_op_SpecBitsMap([64 x float]* %real_o_1), !map !114
  call void (...)* @_ssdm_op_SpecBitsMap([64 x float]* %real_o_0), !map !118
  call void (...)* @_ssdm_op_SpecBitsMap([64 x float]* %imag_i_3), !map !122
  call void (...)* @_ssdm_op_SpecBitsMap([64 x float]* %imag_i_2), !map !126
  call void (...)* @_ssdm_op_SpecBitsMap([64 x float]* %imag_i_1), !map !130
  call void (...)* @_ssdm_op_SpecBitsMap([64 x float]* %imag_i_0), !map !134
  call void (...)* @_ssdm_op_SpecBitsMap([64 x float]* %real_i_3), !map !138
  call void (...)* @_ssdm_op_SpecBitsMap([64 x float]* %real_i_2), !map !142
  call void (...)* @_ssdm_op_SpecBitsMap([64 x float]* %real_i_1), !map !146
  call void (...)* @_ssdm_op_SpecBitsMap([64 x float]* %real_i_0), !map !150
  call void (...)* @_ssdm_op_SpecTopModule([4 x i8]* @dft_str) nounwind
  call void @llvm.dbg.value(metadata !{[64 x float]* %real_i_0}, i64 0, metadata !154), !dbg !156 ; [debug line = 21:16] [debug variable = real_i[0]]
  call void @llvm.dbg.value(metadata !{[64 x float]* %real_i_1}, i64 0, metadata !157), !dbg !156 ; [debug line = 21:16] [debug variable = real_i[1]]
  call void @llvm.dbg.value(metadata !{[64 x float]* %real_i_2}, i64 0, metadata !158), !dbg !156 ; [debug line = 21:16] [debug variable = real_i[2]]
  call void @llvm.dbg.value(metadata !{[64 x float]* %real_i_3}, i64 0, metadata !159), !dbg !156 ; [debug line = 21:16] [debug variable = real_i[3]]
  call void @llvm.dbg.value(metadata !{[64 x float]* %imag_i_0}, i64 0, metadata !160), !dbg !162 ; [debug line = 21:53] [debug variable = imag_i[0]]
  call void @llvm.dbg.value(metadata !{[64 x float]* %imag_i_1}, i64 0, metadata !163), !dbg !162 ; [debug line = 21:53] [debug variable = imag_i[1]]
  call void @llvm.dbg.value(metadata !{[64 x float]* %imag_i_2}, i64 0, metadata !164), !dbg !162 ; [debug line = 21:53] [debug variable = imag_i[2]]
  call void @llvm.dbg.value(metadata !{[64 x float]* %imag_i_3}, i64 0, metadata !165), !dbg !162 ; [debug line = 21:53] [debug variable = imag_i[3]]
  call void @llvm.dbg.value(metadata !{[64 x float]* %real_o_0}, i64 0, metadata !166), !dbg !168 ; [debug line = 21:90] [debug variable = real_o[0]]
  call void @llvm.dbg.value(metadata !{[64 x float]* %real_o_1}, i64 0, metadata !169), !dbg !168 ; [debug line = 21:90] [debug variable = real_o[1]]
  call void @llvm.dbg.value(metadata !{[64 x float]* %real_o_2}, i64 0, metadata !170), !dbg !168 ; [debug line = 21:90] [debug variable = real_o[2]]
  call void @llvm.dbg.value(metadata !{[64 x float]* %real_o_3}, i64 0, metadata !171), !dbg !168 ; [debug line = 21:90] [debug variable = real_o[3]]
  call void @llvm.dbg.value(metadata !{[64 x float]* %imag_o_0}, i64 0, metadata !172), !dbg !174 ; [debug line = 21:127] [debug variable = imag_o[0]]
  call void @llvm.dbg.value(metadata !{[64 x float]* %imag_o_1}, i64 0, metadata !175), !dbg !174 ; [debug line = 21:127] [debug variable = imag_o[1]]
  call void @llvm.dbg.value(metadata !{[64 x float]* %imag_o_2}, i64 0, metadata !176), !dbg !174 ; [debug line = 21:127] [debug variable = imag_o[2]]
  call void @llvm.dbg.value(metadata !{[64 x float]* %imag_o_3}, i64 0, metadata !177), !dbg !174 ; [debug line = 21:127] [debug variable = imag_o[3]]
  call fastcc void @dft_Loop_Loop_Row_proc([64 x float]* %imag_o_0, [64 x float]* %imag_o_1, [64 x float]* %imag_o_2, [64 x float]* %imag_o_3, [64 x float]* %real_i_0, [64 x float]* %real_i_1, [64 x float]* %real_i_2, [64 x float]* %real_i_3, [64 x float]* %imag_i_0, [64 x float]* %imag_i_1, [64 x float]* %imag_i_2, [64 x float]* %imag_i_3, [64 x float]* %real_o_0, [64 x float]* %real_o_1, [64 x float]* %real_o_2, [64 x float]* %real_o_3)
  ret void, !dbg !178                             ; [debug line = 54:1]
}

; [#uses=1]
define weak void @_ssdm_op_SpecTopModule(...) {
entry:
  ret void
}

; [#uses=2]
define weak i32 @_ssdm_op_SpecRegionEnd(...) {
entry:
  ret i32 0
}

; [#uses=2]
define weak i32 @_ssdm_op_SpecRegionBegin(...) {
entry:
  ret i32 0
}

; [#uses=2]
define weak void @_ssdm_op_SpecPipeline(...) nounwind {
entry:
  ret void
}

; [#uses=3]
define weak i32 @_ssdm_op_SpecLoopTripCount(...) {
entry:
  ret i32 0
}

; [#uses=3]
define weak void @_ssdm_op_SpecLoopName(...) nounwind {
entry:
  ret void
}

; [#uses=1]
define weak void @_ssdm_op_SpecDataflowPipeline(...) nounwind {
entry:
  ret void
}

; [#uses=16]
define weak void @_ssdm_op_SpecBitsMap(...) {
entry:
  ret void
}

; [#uses=2]
define weak i9 @_ssdm_op_Read.ap_auto.i9(i9) {
entry:
  ret i9 %0
}

; [#uses=2]
define weak i10 @_ssdm_op_Read.ap_auto.i10(i10) {
entry:
  ret i10 %0
}

; [#uses=0]
declare i9 @_ssdm_op_PartSelect.i9.i10.i32.i32(i10, i32, i32) nounwind readnone

; [#uses=0]
declare i8 @_ssdm_op_PartSelect.i8.i32.i32.i32(i32, i32, i32) nounwind readnone

; [#uses=1]
define weak i7 @_ssdm_op_PartSelect.i7.i9.i32.i32(i9, i32, i32) nounwind readnone {
entry:
  %empty = call i9 @llvm.part.select.i9(i9 %0, i32 %1, i32 %2) ; [#uses=1 type=i9]
  %empty_8 = trunc i9 %empty to i7                ; [#uses=1 type=i7]
  ret i7 %empty_8
}

; [#uses=2]
define weak i30 @_ssdm_op_PartSelect.i30.i32.i32.i32(i32, i32, i32) nounwind readnone {
entry:
  %empty = call i32 @llvm.part.select.i32(i32 %0, i32 %1, i32 %2) ; [#uses=1 type=i32]
  %empty_9 = trunc i32 %empty to i30              ; [#uses=1 type=i30]
  ret i30 %empty_9
}

; [#uses=0]
declare i2 @_ssdm_op_PartSelect.i2.i9.i32.i32(i9, i32, i32) nounwind readnone

; [#uses=0]
declare i2 @_ssdm_op_PartSelect.i2.i32.i32.i32(i32, i32, i32) nounwind readnone

; [#uses=4]
define weak float @_ssdm_op_Mux.ap_auto.4float.i2(float, float, float, float, i2) {
entry:
  switch i2 %4, label %case3 [
    i2 0, label %case0
    i2 1, label %case1
    i2 -2, label %case2
  ]

case0:                                            ; preds = %case3, %case2, %case1, %entry
  %merge = phi float [ %0, %entry ], [ %1, %case1 ], [ %2, %case2 ], [ %3, %case3 ] ; [#uses=1 type=float]
  ret float %merge

case1:                                            ; preds = %entry
  br label %case0

case2:                                            ; preds = %entry
  br label %case0

case3:                                            ; preds = %entry
  br label %case0
}

; [#uses=0]
declare i16 @_ssdm_op_HSub(...)

; [#uses=0]
declare i16 @_ssdm_op_HMul(...)

; [#uses=0]
declare i16 @_ssdm_op_HDiv(...)

; [#uses=0]
declare i16 @_ssdm_op_HAdd(...)

; [#uses=2]
define weak i1 @_ssdm_op_BitSelect.i1.i32.i32(i32, i32) nounwind readnone {
entry:
  %empty = shl i32 1, %1                          ; [#uses=1 type=i32]
  %empty_10 = and i32 %0, %empty                  ; [#uses=1 type=i32]
  %empty_11 = icmp ne i32 %empty_10, 0            ; [#uses=1 type=i1]
  ret i1 %empty_11
}

; [#uses=4]
define weak i32 @_ssdm_op_BitConcatenate.i32.i24.i8(i24, i8) nounwind readnone {
entry:
  %empty = zext i24 %0 to i32                     ; [#uses=1 type=i32]
  %empty_12 = zext i8 %1 to i32                   ; [#uses=1 type=i32]
  %empty_13 = shl i32 %empty, 8                   ; [#uses=1 type=i32]
  %empty_14 = or i32 %empty_13, %empty_12         ; [#uses=1 type=i32]
  ret i32 %empty_14
}

; [#uses=1]
declare void @_GLOBAL__I_a() nounwind

; [#uses=1]
define internal fastcc void @dft_Loop_Loop_Row_proc([64 x float]* nocapture %imag_o_0, [64 x float]* nocapture %imag_o_1, [64 x float]* nocapture %imag_o_2, [64 x float]* nocapture %imag_o_3, [64 x float]* nocapture %real_i_0, [64 x float]* nocapture %real_i_1, [64 x float]* nocapture %real_i_2, [64 x float]* nocapture %real_i_3, [64 x float]* nocapture %imag_i_0, [64 x float]* nocapture %imag_i_1, [64 x float]* nocapture %imag_i_2, [64 x float]* nocapture %imag_i_3, [64 x float]* nocapture %real_o_0, [64 x float]* nocapture %real_o_1, [64 x float]* nocapture %real_o_2, [64 x float]* nocapture %real_o_3) {
newFuncRoot:
  br label %0

dft_.exit2.exitStub:                              ; preds = %0
  ret void

; <label>:0                                       ; preds = %1, %newFuncRoot
  %i_0_i_i = phi i9 [ 0, %newFuncRoot ], [ %i, %1 ] ; [#uses=8 type=i9]
  %exitcond_i_i = icmp eq i9 %i_0_i_i, -256, !dbg !179 ; [#uses=1 type=i1] [debug line = 28:25]
  %empty = call i32 (...)* @_ssdm_op_SpecLoopTripCount(i64 256, i64 256, i64 256) nounwind ; [#uses=0 type=i32]
  %i = add i9 %i_0_i_i, 1, !dbg !181              ; [#uses=1 type=i9] [debug line = 28:54]
  br i1 %exitcond_i_i, label %dft_.exit2.exitStub, label %3, !dbg !179 ; [debug line = 28:25]

; <label>:1                                       ; preds = %branch312, %branch211, %branch110, %branch09
  call void @llvm.dbg.value(metadata !{i9 %i}, i64 0, metadata !182) nounwind, !dbg !181 ; [debug line = 28:54] [debug variable = i]
  br label %0, !dbg !181                          ; [debug line = 28:54]

branch09:                                         ; preds = %2
  store float %tmp_8_i, float* %imag_o_0_addr, align 4, !dbg !183 ; [debug line = 50:9]
  br label %1, !dbg !183                          ; [debug line = 50:9]

; <label>:2                                       ; preds = %branch3, %branch2, %branch1, %branch0
  %tmp_7_i = fadd float %imag_tmp1, %imag_tmp2, !dbg !183 ; [#uses=1 type=float] [debug line = 50:9]
  %tmp_8_i = fadd float %tmp_7_i, 0.000000e+00, !dbg !183 ; [#uses=4 type=float] [debug line = 50:9]
  %imag_o_0_addr = getelementptr [64 x float]* %imag_o_0, i64 0, i64 %newIndex1, !dbg !183 ; [#uses=1 type=float*] [debug line = 50:9]
  %imag_o_1_addr = getelementptr [64 x float]* %imag_o_1, i64 0, i64 %newIndex1, !dbg !183 ; [#uses=1 type=float*] [debug line = 50:9]
  %imag_o_2_addr = getelementptr [64 x float]* %imag_o_2, i64 0, i64 %newIndex1, !dbg !183 ; [#uses=1 type=float*] [debug line = 50:9]
  %imag_o_3_addr = getelementptr [64 x float]* %imag_o_3, i64 0, i64 %newIndex1, !dbg !183 ; [#uses=1 type=float*] [debug line = 50:9]
  switch i2 %tmp, label %branch312 [
    i2 0, label %branch09
    i2 1, label %branch110
    i2 -2, label %branch211
  ], !dbg !183                                    ; [debug line = 50:9]

branch0:                                          ; preds = %3
  store float %tmp_i_15, float* %real_o_0_addr, align 4, !dbg !185 ; [debug line = 48:9]
  br label %2, !dbg !185                          ; [debug line = 48:9]

; <label>:3                                       ; preds = %0
  call void (...)* @_ssdm_op_SpecLoopName([9 x i8]* @p_str4) nounwind, !dbg !186 ; [debug line = 28:60]
  %real_tmp1 = call fastcc float @dft_loop_col_real(i9 %i_0_i_i, i10 0, [64 x float]* %real_i_0, [64 x float]* %real_i_1, [64 x float]* %real_i_2, [64 x float]* %real_i_3, [64 x float]* %imag_i_0, [64 x float]* %imag_i_1, [64 x float]* %imag_i_2, [64 x float]* %imag_i_3), !dbg !187 ; [#uses=1 type=float] [debug line = 41:9]
  call void @llvm.dbg.value(metadata !{float %real_tmp1}, i64 0, metadata !188), !dbg !187 ; [debug line = 41:9] [debug variable = real_tmp1]
  %real_tmp2 = call fastcc float @dft_loop_col_real(i9 %i_0_i_i, i10 128, [64 x float]* %real_i_0, [64 x float]* %real_i_1, [64 x float]* %real_i_2, [64 x float]* %real_i_3, [64 x float]* %imag_i_0, [64 x float]* %imag_i_1, [64 x float]* %imag_i_2, [64 x float]* %imag_i_3), !dbg !189 ; [#uses=1 type=float] [debug line = 42:9]
  %tmp_i = fadd float %real_tmp1, %real_tmp2, !dbg !185 ; [#uses=1 type=float] [debug line = 48:9]
  call void @llvm.dbg.value(metadata !{float %real_tmp2}, i64 0, metadata !190), !dbg !189 ; [debug line = 42:9] [debug variable = real_tmp2]
  %imag_tmp1 = call fastcc float @dft_loop_col_imag(i9 %i_0_i_i, i10 0, [64 x float]* %real_i_0, [64 x float]* %real_i_1, [64 x float]* %real_i_2, [64 x float]* %real_i_3, [64 x float]* %imag_i_0, [64 x float]* %imag_i_1, [64 x float]* %imag_i_2, [64 x float]* %imag_i_3), !dbg !191 ; [#uses=1 type=float] [debug line = 44:9]
  call void @llvm.dbg.value(metadata !{float %imag_tmp1}, i64 0, metadata !192), !dbg !191 ; [debug line = 44:9] [debug variable = imag_tmp1]
  %imag_tmp2 = call fastcc float @dft_loop_col_imag(i9 %i_0_i_i, i10 128, [64 x float]* %real_i_0, [64 x float]* %real_i_1, [64 x float]* %real_i_2, [64 x float]* %real_i_3, [64 x float]* %imag_i_0, [64 x float]* %imag_i_1, [64 x float]* %imag_i_2, [64 x float]* %imag_i_3), !dbg !193 ; [#uses=1 type=float] [debug line = 45:9]
  call void @llvm.dbg.value(metadata !{float %imag_tmp2}, i64 0, metadata !194), !dbg !193 ; [debug line = 45:9] [debug variable = imag_tmp2]
  %tmp_i_15 = fadd float %tmp_i, 0.000000e+00, !dbg !185 ; [#uses=4 type=float] [debug line = 48:9]
  %tmp = trunc i9 %i_0_i_i to i2                  ; [#uses=2 type=i2]
  %newIndex = call i7 @_ssdm_op_PartSelect.i7.i9.i32.i32(i9 %i_0_i_i, i32 2, i32 8) ; [#uses=1 type=i7]
  %newIndex1 = zext i7 %newIndex to i64           ; [#uses=8 type=i64]
  %real_o_0_addr = getelementptr [64 x float]* %real_o_0, i64 0, i64 %newIndex1, !dbg !185 ; [#uses=1 type=float*] [debug line = 48:9]
  %real_o_1_addr = getelementptr [64 x float]* %real_o_1, i64 0, i64 %newIndex1, !dbg !185 ; [#uses=1 type=float*] [debug line = 48:9]
  %real_o_2_addr = getelementptr [64 x float]* %real_o_2, i64 0, i64 %newIndex1, !dbg !185 ; [#uses=1 type=float*] [debug line = 48:9]
  %real_o_3_addr = getelementptr [64 x float]* %real_o_3, i64 0, i64 %newIndex1, !dbg !185 ; [#uses=1 type=float*] [debug line = 48:9]
  switch i2 %tmp, label %branch3 [
    i2 0, label %branch0
    i2 1, label %branch1
    i2 -2, label %branch2
  ], !dbg !185                                    ; [debug line = 48:9]

branch1:                                          ; preds = %3
  store float %tmp_i_15, float* %real_o_1_addr, align 4, !dbg !185 ; [debug line = 48:9]
  br label %2, !dbg !185                          ; [debug line = 48:9]

branch2:                                          ; preds = %3
  store float %tmp_i_15, float* %real_o_2_addr, align 4, !dbg !185 ; [debug line = 48:9]
  br label %2, !dbg !185                          ; [debug line = 48:9]

branch3:                                          ; preds = %3
  store float %tmp_i_15, float* %real_o_3_addr, align 4, !dbg !185 ; [debug line = 48:9]
  br label %2, !dbg !185                          ; [debug line = 48:9]

branch110:                                        ; preds = %2
  store float %tmp_8_i, float* %imag_o_1_addr, align 4, !dbg !183 ; [debug line = 50:9]
  br label %1, !dbg !183                          ; [debug line = 50:9]

branch211:                                        ; preds = %2
  store float %tmp_8_i, float* %imag_o_2_addr, align 4, !dbg !183 ; [debug line = 50:9]
  br label %1, !dbg !183                          ; [debug line = 50:9]

branch312:                                        ; preds = %2
  store float %tmp_8_i, float* %imag_o_3_addr, align 4, !dbg !183 ; [debug line = 50:9]
  br label %1, !dbg !183                          ; [debug line = 50:9]
}

!hls.encrypted.func = !{}
!llvm.map.gv = !{!0}

!0 = metadata !{metadata !1, [1 x i32]* @llvm_global_ctors_0}
!1 = metadata !{metadata !2}
!2 = metadata !{i32 0, i32 31, metadata !3}
!3 = metadata !{metadata !4}
!4 = metadata !{metadata !"llvm.global_ctors.0", metadata !5, metadata !"", i32 0, i32 31}
!5 = metadata !{metadata !6}
!6 = metadata !{i32 0, i32 0, i32 1}
!7 = metadata !{i32 786689, metadata !8, metadata !"j", metadata !9, i32 33554436, metadata !12, i32 0, i32 0} ; [ DW_TAG_arg_variable ]
!8 = metadata !{i32 786478, i32 0, metadata !9, metadata !"loop_col_real", metadata !"loop_col_real", metadata !"_Z13loop_col_realiiPfS_S_", metadata !9, i32 4, metadata !10, i1 false, i1 true, i32 0, i32 0, null, i32 256, i1 false, null, null, null, metadata !16, i32 4} ; [ DW_TAG_subprogram ]
!9 = metadata !{i32 786473, metadata !"dft.cpp", metadata !"d:/Projects/vivado/project_3/dft_256_precomputed", null} ; [ DW_TAG_file_type ]
!10 = metadata !{i32 786453, i32 0, metadata !"", i32 0, i32 0, i64 0, i64 0, i64 0, i32 0, null, metadata !11, i32 0, i32 0} ; [ DW_TAG_subroutine_type ]
!11 = metadata !{null, metadata !12, metadata !12, metadata !13, metadata !13, metadata !13}
!12 = metadata !{i32 786468, null, metadata !"int", null, i32 0, i64 32, i64 32, i64 0, i32 0, i32 5} ; [ DW_TAG_base_type ]
!13 = metadata !{i32 786447, null, metadata !"", null, i32 0, i64 64, i64 64, i64 0, i32 0, metadata !14} ; [ DW_TAG_pointer_type ]
!14 = metadata !{i32 786454, null, metadata !"DTYPE", metadata !9, i32 10, i64 0, i64 0, i64 0, i32 0, metadata !15} ; [ DW_TAG_typedef ]
!15 = metadata !{i32 786468, null, metadata !"float", null, i32 0, i64 32, i64 32, i64 0, i32 0, i32 4} ; [ DW_TAG_base_type ]
!16 = metadata !{metadata !17}
!17 = metadata !{i32 786468}                      ; [ DW_TAG_base_type ]
!18 = metadata !{i32 4, i32 31, metadata !8, null}
!19 = metadata !{i32 786689, metadata !8, metadata !"i", metadata !9, i32 16777220, metadata !12, i32 0, i32 0} ; [ DW_TAG_arg_variable ]
!20 = metadata !{i32 4, i32 24, metadata !8, null}
!21 = metadata !{i32 790531, metadata !22, metadata !"real_i[0]", null, i32 4, metadata !14, i32 0, i32 0} ; [ DW_TAG_arg_variable_field ]
!22 = metadata !{i32 786689, metadata !8, metadata !"real_i", null, i32 4, metadata !23, i32 0, i32 0} ; [ DW_TAG_arg_variable ]
!23 = metadata !{i32 786433, null, metadata !"", null, i32 0, i64 0, i64 0, i32 0, i32 0, metadata !14, metadata !24, i32 0, i32 0} ; [ DW_TAG_array_type ]
!24 = metadata !{metadata !25}
!25 = metadata !{i32 786465, i64 0, i64 255}      ; [ DW_TAG_subrange_type ]
!26 = metadata !{i32 4, i32 40, metadata !8, null}
!27 = metadata !{i32 790531, metadata !22, metadata !"real_i[1]", null, i32 4, metadata !14, i32 0, i32 0} ; [ DW_TAG_arg_variable_field ]
!28 = metadata !{i32 790531, metadata !22, metadata !"real_i[2]", null, i32 4, metadata !14, i32 0, i32 0} ; [ DW_TAG_arg_variable_field ]
!29 = metadata !{i32 790531, metadata !22, metadata !"real_i[3]", null, i32 4, metadata !14, i32 0, i32 0} ; [ DW_TAG_arg_variable_field ]
!30 = metadata !{i32 790531, metadata !31, metadata !"imag_i[0]", null, i32 4, metadata !14, i32 0, i32 0} ; [ DW_TAG_arg_variable_field ]
!31 = metadata !{i32 786689, metadata !8, metadata !"imag_i", null, i32 4, metadata !23, i32 0, i32 0} ; [ DW_TAG_arg_variable ]
!32 = metadata !{i32 4, i32 77, metadata !8, null}
!33 = metadata !{i32 790531, metadata !31, metadata !"imag_i[1]", null, i32 4, metadata !14, i32 0, i32 0} ; [ DW_TAG_arg_variable_field ]
!34 = metadata !{i32 790531, metadata !31, metadata !"imag_i[2]", null, i32 4, metadata !14, i32 0, i32 0} ; [ DW_TAG_arg_variable_field ]
!35 = metadata !{i32 790531, metadata !31, metadata !"imag_i[3]", null, i32 4, metadata !14, i32 0, i32 0} ; [ DW_TAG_arg_variable_field ]
!36 = metadata !{i32 5, i32 31, metadata !37, null}
!37 = metadata !{i32 786443, metadata !38, i32 5, i32 17, metadata !9, i32 1} ; [ DW_TAG_lexical_block ]
!38 = metadata !{i32 786443, metadata !8, i32 4, i32 122, metadata !9, i32 0} ; [ DW_TAG_lexical_block ]
!39 = metadata !{i32 5, i32 61, metadata !40, null}
!40 = metadata !{i32 786443, metadata !37, i32 5, i32 60, metadata !9, i32 2} ; [ DW_TAG_lexical_block ]
!41 = metadata !{i32 6, i32 1, metadata !40, null}
!42 = metadata !{i32 7, i32 41, metadata !40, null}
!43 = metadata !{i32 786688, metadata !40, metadata !"index", metadata !9, i32 7, metadata !12, i32 0, i32 0} ; [ DW_TAG_auto_variable ]
!44 = metadata !{i32 8, i32 3, metadata !40, null}
!45 = metadata !{i32 9, i32 2, metadata !40, null}
!46 = metadata !{i32 5, i32 43, metadata !37, null}
!47 = metadata !{i32 10, i32 1, metadata !38, null}
!48 = metadata !{i32 786689, metadata !49, metadata !"j", metadata !9, i32 33554444, metadata !12, i32 0, i32 0} ; [ DW_TAG_arg_variable ]
!49 = metadata !{i32 786478, i32 0, metadata !9, metadata !"loop_col_imag", metadata !"loop_col_imag", metadata !"_Z13loop_col_imagiiPfS_S_", metadata !9, i32 12, metadata !10, i1 false, i1 true, i32 0, i32 0, null, i32 256, i1 false, null, null, null, metadata !16, i32 12} ; [ DW_TAG_subprogram ]
!50 = metadata !{i32 12, i32 31, metadata !49, null}
!51 = metadata !{i32 786689, metadata !49, metadata !"i", metadata !9, i32 16777228, metadata !12, i32 0, i32 0} ; [ DW_TAG_arg_variable ]
!52 = metadata !{i32 12, i32 24, metadata !49, null}
!53 = metadata !{i32 790531, metadata !54, metadata !"real_i[0]", null, i32 12, metadata !14, i32 0, i32 0} ; [ DW_TAG_arg_variable_field ]
!54 = metadata !{i32 786689, metadata !49, metadata !"real_i", null, i32 12, metadata !23, i32 0, i32 0} ; [ DW_TAG_arg_variable ]
!55 = metadata !{i32 12, i32 40, metadata !49, null}
!56 = metadata !{i32 790531, metadata !54, metadata !"real_i[1]", null, i32 12, metadata !14, i32 0, i32 0} ; [ DW_TAG_arg_variable_field ]
!57 = metadata !{i32 790531, metadata !54, metadata !"real_i[2]", null, i32 12, metadata !14, i32 0, i32 0} ; [ DW_TAG_arg_variable_field ]
!58 = metadata !{i32 790531, metadata !54, metadata !"real_i[3]", null, i32 12, metadata !14, i32 0, i32 0} ; [ DW_TAG_arg_variable_field ]
!59 = metadata !{i32 790531, metadata !60, metadata !"imag_i[0]", null, i32 12, metadata !14, i32 0, i32 0} ; [ DW_TAG_arg_variable_field ]
!60 = metadata !{i32 786689, metadata !49, metadata !"imag_i", null, i32 12, metadata !23, i32 0, i32 0} ; [ DW_TAG_arg_variable ]
!61 = metadata !{i32 12, i32 77, metadata !49, null}
!62 = metadata !{i32 790531, metadata !60, metadata !"imag_i[1]", null, i32 12, metadata !14, i32 0, i32 0} ; [ DW_TAG_arg_variable_field ]
!63 = metadata !{i32 790531, metadata !60, metadata !"imag_i[2]", null, i32 12, metadata !14, i32 0, i32 0} ; [ DW_TAG_arg_variable_field ]
!64 = metadata !{i32 790531, metadata !60, metadata !"imag_i[3]", null, i32 12, metadata !14, i32 0, i32 0} ; [ DW_TAG_arg_variable_field ]
!65 = metadata !{i32 13, i32 31, metadata !66, null}
!66 = metadata !{i32 786443, metadata !67, i32 13, i32 17, metadata !9, i32 4} ; [ DW_TAG_lexical_block ]
!67 = metadata !{i32 786443, metadata !49, i32 12, i32 122, metadata !9, i32 3} ; [ DW_TAG_lexical_block ]
!68 = metadata !{i32 13, i32 61, metadata !69, null}
!69 = metadata !{i32 786443, metadata !66, i32 13, i32 60, metadata !9, i32 5} ; [ DW_TAG_lexical_block ]
!70 = metadata !{i32 14, i32 1, metadata !69, null}
!71 = metadata !{i32 15, i32 41, metadata !69, null}
!72 = metadata !{i32 786688, metadata !69, metadata !"index", metadata !9, i32 15, metadata !12, i32 0, i32 0} ; [ DW_TAG_auto_variable ]
!73 = metadata !{i32 16, i32 3, metadata !69, null}
!74 = metadata !{i32 17, i32 2, metadata !69, null}
!75 = metadata !{i32 13, i32 43, metadata !66, null}
!76 = metadata !{i32 18, i32 1, metadata !67, null}
!77 = metadata !{i32 26, i32 1, metadata !78, null}
!78 = metadata !{i32 786443, metadata !79, i32 21, i32 158, metadata !9, i32 6} ; [ DW_TAG_lexical_block ]
!79 = metadata !{i32 786478, i32 0, metadata !9, metadata !"dft", metadata !"dft", metadata !"_Z3dftPfS_S_S_", metadata !9, i32 21, metadata !80, i1 false, i1 true, i32 0, i32 0, null, i32 256, i1 false, null, null, null, metadata !16, i32 21} ; [ DW_TAG_subprogram ]
!80 = metadata !{i32 786453, i32 0, metadata !"", i32 0, i32 0, i64 0, i64 0, i64 0, i32 0, null, metadata !81, i32 0, i32 0} ; [ DW_TAG_subroutine_type ]
!81 = metadata !{null, metadata !13, metadata !13, metadata !13, metadata !13}
!82 = metadata !{metadata !83}
!83 = metadata !{i32 0, i32 31, metadata !84}
!84 = metadata !{metadata !85}
!85 = metadata !{metadata !"imag_o", metadata !86, metadata !"float", i32 0, i32 31}
!86 = metadata !{metadata !87}
!87 = metadata !{i32 3, i32 255, i32 4}
!88 = metadata !{metadata !89}
!89 = metadata !{i32 0, i32 31, metadata !90}
!90 = metadata !{metadata !91}
!91 = metadata !{metadata !"imag_o", metadata !92, metadata !"float", i32 0, i32 31}
!92 = metadata !{metadata !93}
!93 = metadata !{i32 2, i32 254, i32 4}
!94 = metadata !{metadata !95}
!95 = metadata !{i32 0, i32 31, metadata !96}
!96 = metadata !{metadata !97}
!97 = metadata !{metadata !"imag_o", metadata !98, metadata !"float", i32 0, i32 31}
!98 = metadata !{metadata !99}
!99 = metadata !{i32 1, i32 253, i32 4}
!100 = metadata !{metadata !101}
!101 = metadata !{i32 0, i32 31, metadata !102}
!102 = metadata !{metadata !103}
!103 = metadata !{metadata !"imag_o", metadata !104, metadata !"float", i32 0, i32 31}
!104 = metadata !{metadata !105}
!105 = metadata !{i32 0, i32 252, i32 4}
!106 = metadata !{metadata !107}
!107 = metadata !{i32 0, i32 31, metadata !108}
!108 = metadata !{metadata !109}
!109 = metadata !{metadata !"real_o", metadata !86, metadata !"float", i32 0, i32 31}
!110 = metadata !{metadata !111}
!111 = metadata !{i32 0, i32 31, metadata !112}
!112 = metadata !{metadata !113}
!113 = metadata !{metadata !"real_o", metadata !92, metadata !"float", i32 0, i32 31}
!114 = metadata !{metadata !115}
!115 = metadata !{i32 0, i32 31, metadata !116}
!116 = metadata !{metadata !117}
!117 = metadata !{metadata !"real_o", metadata !98, metadata !"float", i32 0, i32 31}
!118 = metadata !{metadata !119}
!119 = metadata !{i32 0, i32 31, metadata !120}
!120 = metadata !{metadata !121}
!121 = metadata !{metadata !"real_o", metadata !104, metadata !"float", i32 0, i32 31}
!122 = metadata !{metadata !123}
!123 = metadata !{i32 0, i32 31, metadata !124}
!124 = metadata !{metadata !125}
!125 = metadata !{metadata !"imag_i", metadata !86, metadata !"float", i32 0, i32 31}
!126 = metadata !{metadata !127}
!127 = metadata !{i32 0, i32 31, metadata !128}
!128 = metadata !{metadata !129}
!129 = metadata !{metadata !"imag_i", metadata !92, metadata !"float", i32 0, i32 31}
!130 = metadata !{metadata !131}
!131 = metadata !{i32 0, i32 31, metadata !132}
!132 = metadata !{metadata !133}
!133 = metadata !{metadata !"imag_i", metadata !98, metadata !"float", i32 0, i32 31}
!134 = metadata !{metadata !135}
!135 = metadata !{i32 0, i32 31, metadata !136}
!136 = metadata !{metadata !137}
!137 = metadata !{metadata !"imag_i", metadata !104, metadata !"float", i32 0, i32 31}
!138 = metadata !{metadata !139}
!139 = metadata !{i32 0, i32 31, metadata !140}
!140 = metadata !{metadata !141}
!141 = metadata !{metadata !"real_i", metadata !86, metadata !"float", i32 0, i32 31}
!142 = metadata !{metadata !143}
!143 = metadata !{i32 0, i32 31, metadata !144}
!144 = metadata !{metadata !145}
!145 = metadata !{metadata !"real_i", metadata !92, metadata !"float", i32 0, i32 31}
!146 = metadata !{metadata !147}
!147 = metadata !{i32 0, i32 31, metadata !148}
!148 = metadata !{metadata !149}
!149 = metadata !{metadata !"real_i", metadata !98, metadata !"float", i32 0, i32 31}
!150 = metadata !{metadata !151}
!151 = metadata !{i32 0, i32 31, metadata !152}
!152 = metadata !{metadata !153}
!153 = metadata !{metadata !"real_i", metadata !104, metadata !"float", i32 0, i32 31}
!154 = metadata !{i32 790531, metadata !155, metadata !"real_i[0]", null, i32 21, metadata !14, i32 0, i32 0} ; [ DW_TAG_arg_variable_field ]
!155 = metadata !{i32 786689, metadata !79, metadata !"real_i", null, i32 21, metadata !23, i32 0, i32 0} ; [ DW_TAG_arg_variable ]
!156 = metadata !{i32 21, i32 16, metadata !79, null}
!157 = metadata !{i32 790531, metadata !155, metadata !"real_i[1]", null, i32 21, metadata !14, i32 0, i32 0} ; [ DW_TAG_arg_variable_field ]
!158 = metadata !{i32 790531, metadata !155, metadata !"real_i[2]", null, i32 21, metadata !14, i32 0, i32 0} ; [ DW_TAG_arg_variable_field ]
!159 = metadata !{i32 790531, metadata !155, metadata !"real_i[3]", null, i32 21, metadata !14, i32 0, i32 0} ; [ DW_TAG_arg_variable_field ]
!160 = metadata !{i32 790531, metadata !161, metadata !"imag_i[0]", null, i32 21, metadata !14, i32 0, i32 0} ; [ DW_TAG_arg_variable_field ]
!161 = metadata !{i32 786689, metadata !79, metadata !"imag_i", null, i32 21, metadata !23, i32 0, i32 0} ; [ DW_TAG_arg_variable ]
!162 = metadata !{i32 21, i32 53, metadata !79, null}
!163 = metadata !{i32 790531, metadata !161, metadata !"imag_i[1]", null, i32 21, metadata !14, i32 0, i32 0} ; [ DW_TAG_arg_variable_field ]
!164 = metadata !{i32 790531, metadata !161, metadata !"imag_i[2]", null, i32 21, metadata !14, i32 0, i32 0} ; [ DW_TAG_arg_variable_field ]
!165 = metadata !{i32 790531, metadata !161, metadata !"imag_i[3]", null, i32 21, metadata !14, i32 0, i32 0} ; [ DW_TAG_arg_variable_field ]
!166 = metadata !{i32 790531, metadata !167, metadata !"real_o[0]", null, i32 21, metadata !14, i32 0, i32 0} ; [ DW_TAG_arg_variable_field ]
!167 = metadata !{i32 786689, metadata !79, metadata !"real_o", null, i32 21, metadata !23, i32 0, i32 0} ; [ DW_TAG_arg_variable ]
!168 = metadata !{i32 21, i32 90, metadata !79, null}
!169 = metadata !{i32 790531, metadata !167, metadata !"real_o[1]", null, i32 21, metadata !14, i32 0, i32 0} ; [ DW_TAG_arg_variable_field ]
!170 = metadata !{i32 790531, metadata !167, metadata !"real_o[2]", null, i32 21, metadata !14, i32 0, i32 0} ; [ DW_TAG_arg_variable_field ]
!171 = metadata !{i32 790531, metadata !167, metadata !"real_o[3]", null, i32 21, metadata !14, i32 0, i32 0} ; [ DW_TAG_arg_variable_field ]
!172 = metadata !{i32 790531, metadata !173, metadata !"imag_o[0]", null, i32 21, metadata !14, i32 0, i32 0} ; [ DW_TAG_arg_variable_field ]
!173 = metadata !{i32 786689, metadata !79, metadata !"imag_o", null, i32 21, metadata !23, i32 0, i32 0} ; [ DW_TAG_arg_variable ]
!174 = metadata !{i32 21, i32 127, metadata !79, null}
!175 = metadata !{i32 790531, metadata !173, metadata !"imag_o[1]", null, i32 21, metadata !14, i32 0, i32 0} ; [ DW_TAG_arg_variable_field ]
!176 = metadata !{i32 790531, metadata !173, metadata !"imag_o[2]", null, i32 21, metadata !14, i32 0, i32 0} ; [ DW_TAG_arg_variable_field ]
!177 = metadata !{i32 790531, metadata !173, metadata !"imag_o[3]", null, i32 21, metadata !14, i32 0, i32 0} ; [ DW_TAG_arg_variable_field ]
!178 = metadata !{i32 54, i32 1, metadata !78, null}
!179 = metadata !{i32 28, i32 25, metadata !180, null}
!180 = metadata !{i32 786443, metadata !78, i32 28, i32 12, metadata !9, i32 7} ; [ DW_TAG_lexical_block ]
!181 = metadata !{i32 28, i32 54, metadata !180, null}
!182 = metadata !{i32 786688, metadata !180, metadata !"i", metadata !9, i32 28, metadata !12, i32 0, i32 0} ; [ DW_TAG_auto_variable ]
!183 = metadata !{i32 50, i32 9, metadata !184, null}
!184 = metadata !{i32 786443, metadata !180, i32 28, i32 59, metadata !9, i32 8} ; [ DW_TAG_lexical_block ]
!185 = metadata !{i32 48, i32 9, metadata !184, null}
!186 = metadata !{i32 28, i32 60, metadata !184, null}
!187 = metadata !{i32 41, i32 9, metadata !184, null}
!188 = metadata !{i32 786688, metadata !184, metadata !"real_tmp1", metadata !9, i32 30, metadata !14, i32 0, i32 0} ; [ DW_TAG_auto_variable ]
!189 = metadata !{i32 42, i32 9, metadata !184, null}
!190 = metadata !{i32 786688, metadata !184, metadata !"real_tmp2", metadata !9, i32 30, metadata !14, i32 0, i32 0} ; [ DW_TAG_auto_variable ]
!191 = metadata !{i32 44, i32 9, metadata !184, null}
!192 = metadata !{i32 786688, metadata !184, metadata !"imag_tmp1", metadata !9, i32 33, metadata !14, i32 0, i32 0} ; [ DW_TAG_auto_variable ]
!193 = metadata !{i32 45, i32 9, metadata !184, null}
!194 = metadata !{i32 786688, metadata !184, metadata !"imag_tmp2", metadata !9, i32 33, metadata !14, i32 0, i32 0} ; [ DW_TAG_auto_variable ]
