

================================================================
== Vivado HLS Report for 'dft'
================================================================
* Date:           Mon Oct 31 23:53:31 2016

* Version:        2015.4 (Build 1412921 on Wed Nov 18 09:58:55 AM 2015)
* Project:        dft
* Solution:       dft_opt10
* Product family: zynq
* Target device:  xc7z020clg484-1


================================================================
== Performance Estimates
================================================================
+ Timing (ns): 
    * Summary: 
    +--------+-------+----------+------------+
    |  Clock | Target| Estimated| Uncertainty|
    +--------+-------+----------+------------+
    |ap_clk  |  10.00|      8.09|        1.25|
    +--------+-------+----------+------------+

+ Latency (clock cycles): 
    * Summary: 
    +--------+--------+--------+--------+----------+
    |     Latency     |     Interval    | Pipeline |
    |   min  |   max  |   min  |   max  |   Type   |
    +--------+--------+--------+--------+----------+
    |  677889|  677889|  677890|  677890| dataflow |
    +--------+--------+--------+--------+----------+

    + Detail: 
        * Instance: 
        +----------------------------------+------------------------+--------+--------+--------+--------+---------+
        |                                  |                        |     Latency     |     Interval    | Pipeline|
        |             Instance             |         Module         |   min  |   max  |   min  |   max  |   Type  |
        +----------------------------------+------------------------+--------+--------+--------+--------+---------+
        |grp_dft_Loop_Loop_Row_proc_fu_54  |dft_Loop_Loop_Row_proc  |  677889|  677889|  677889|  677889|   none  |
        +----------------------------------+------------------------+--------+--------+--------+--------+---------+

        * Loop: 
        N/A



================================================================
== Utilization Estimates
================================================================
* Summary: 
+-----------------+---------+-------+--------+-------+
|       Name      | BRAM_18K| DSP48E|   FF   |  LUT  |
+-----------------+---------+-------+--------+-------+
|DSP              |        -|      -|       -|      -|
|Expression       |        -|      -|       -|      -|
|FIFO             |        -|      -|       -|      -|
|Instance         |        4|     16|    1866|   2830|
|Memory           |        -|      -|       -|      -|
|Multiplexer      |        -|      -|       -|      -|
|Register         |        -|      -|       2|      -|
+-----------------+---------+-------+--------+-------+
|Total            |        4|     16|    1868|   2830|
+-----------------+---------+-------+--------+-------+
|Available        |      280|    220|  106400|  53200|
+-----------------+---------+-------+--------+-------+
|Utilization (%)  |        1|      7|       1|      5|
+-----------------+---------+-------+--------+-------+

+ Detail: 
    * Instance: 
    +---------------------------+------------------------+---------+-------+------+------+
    |          Instance         |         Module         | BRAM_18K| DSP48E|  FF  |  LUT |
    +---------------------------+------------------------+---------+-------+------+------+
    |dft_Loop_Loop_Row_proc_U0  |dft_Loop_Loop_Row_proc  |        4|     16|  1866|  2830|
    +---------------------------+------------------------+---------+-------+------+------+
    |Total                      |                        |        4|     16|  1866|  2830|
    +---------------------------+------------------------+---------+-------+------+------+

    * DSP48: 
    N/A

    * Memory: 
    N/A

    * FIFO: 
    N/A

    * Expression: 
    N/A

    * Multiplexer: 
    N/A

    * Register: 
    +-------------------------------------------+---+----+-----+-----------+
    |                    Name                   | FF| LUT| Bits| Const Bits|
    +-------------------------------------------+---+----+-----+-----------+
    |ap_CS                                      |  1|   0|    1|          0|
    |ap_reg_procdone_dft_Loop_Loop_Row_proc_U0  |  1|   0|    1|          0|
    +-------------------------------------------+---+----+-----+-----------+
    |Total                                      |  2|   0|    2|          0|
    +-------------------------------------------+---+----+-----+-----------+



================================================================
== Interface
================================================================
* Summary: 
+-------------------+-----+-----+------------+--------------+--------------+
|     RTL Ports     | Dir | Bits|  Protocol  | Source Object|    C Type    |
+-------------------+-----+-----+------------+--------------+--------------+
|real_i_0_address0  | out |    6|  ap_memory |   real_i_0   |     array    |
|real_i_0_ce0       | out |    1|  ap_memory |   real_i_0   |     array    |
|real_i_0_d0        | out |   32|  ap_memory |   real_i_0   |     array    |
|real_i_0_q0        |  in |   32|  ap_memory |   real_i_0   |     array    |
|real_i_0_we0       | out |    1|  ap_memory |   real_i_0   |     array    |
|real_i_0_address1  | out |    6|  ap_memory |   real_i_0   |     array    |
|real_i_0_ce1       | out |    1|  ap_memory |   real_i_0   |     array    |
|real_i_0_d1        | out |   32|  ap_memory |   real_i_0   |     array    |
|real_i_0_q1        |  in |   32|  ap_memory |   real_i_0   |     array    |
|real_i_0_we1       | out |    1|  ap_memory |   real_i_0   |     array    |
|real_i_1_address0  | out |    6|  ap_memory |   real_i_1   |     array    |
|real_i_1_ce0       | out |    1|  ap_memory |   real_i_1   |     array    |
|real_i_1_d0        | out |   32|  ap_memory |   real_i_1   |     array    |
|real_i_1_q0        |  in |   32|  ap_memory |   real_i_1   |     array    |
|real_i_1_we0       | out |    1|  ap_memory |   real_i_1   |     array    |
|real_i_1_address1  | out |    6|  ap_memory |   real_i_1   |     array    |
|real_i_1_ce1       | out |    1|  ap_memory |   real_i_1   |     array    |
|real_i_1_d1        | out |   32|  ap_memory |   real_i_1   |     array    |
|real_i_1_q1        |  in |   32|  ap_memory |   real_i_1   |     array    |
|real_i_1_we1       | out |    1|  ap_memory |   real_i_1   |     array    |
|real_i_2_address0  | out |    6|  ap_memory |   real_i_2   |     array    |
|real_i_2_ce0       | out |    1|  ap_memory |   real_i_2   |     array    |
|real_i_2_d0        | out |   32|  ap_memory |   real_i_2   |     array    |
|real_i_2_q0        |  in |   32|  ap_memory |   real_i_2   |     array    |
|real_i_2_we0       | out |    1|  ap_memory |   real_i_2   |     array    |
|real_i_2_address1  | out |    6|  ap_memory |   real_i_2   |     array    |
|real_i_2_ce1       | out |    1|  ap_memory |   real_i_2   |     array    |
|real_i_2_d1        | out |   32|  ap_memory |   real_i_2   |     array    |
|real_i_2_q1        |  in |   32|  ap_memory |   real_i_2   |     array    |
|real_i_2_we1       | out |    1|  ap_memory |   real_i_2   |     array    |
|real_i_3_address0  | out |    6|  ap_memory |   real_i_3   |     array    |
|real_i_3_ce0       | out |    1|  ap_memory |   real_i_3   |     array    |
|real_i_3_d0        | out |   32|  ap_memory |   real_i_3   |     array    |
|real_i_3_q0        |  in |   32|  ap_memory |   real_i_3   |     array    |
|real_i_3_we0       | out |    1|  ap_memory |   real_i_3   |     array    |
|real_i_3_address1  | out |    6|  ap_memory |   real_i_3   |     array    |
|real_i_3_ce1       | out |    1|  ap_memory |   real_i_3   |     array    |
|real_i_3_d1        | out |   32|  ap_memory |   real_i_3   |     array    |
|real_i_3_q1        |  in |   32|  ap_memory |   real_i_3   |     array    |
|real_i_3_we1       | out |    1|  ap_memory |   real_i_3   |     array    |
|imag_i_0_address0  | out |    6|  ap_memory |   imag_i_0   |     array    |
|imag_i_0_ce0       | out |    1|  ap_memory |   imag_i_0   |     array    |
|imag_i_0_d0        | out |   32|  ap_memory |   imag_i_0   |     array    |
|imag_i_0_q0        |  in |   32|  ap_memory |   imag_i_0   |     array    |
|imag_i_0_we0       | out |    1|  ap_memory |   imag_i_0   |     array    |
|imag_i_0_address1  | out |    6|  ap_memory |   imag_i_0   |     array    |
|imag_i_0_ce1       | out |    1|  ap_memory |   imag_i_0   |     array    |
|imag_i_0_d1        | out |   32|  ap_memory |   imag_i_0   |     array    |
|imag_i_0_q1        |  in |   32|  ap_memory |   imag_i_0   |     array    |
|imag_i_0_we1       | out |    1|  ap_memory |   imag_i_0   |     array    |
|imag_i_1_address0  | out |    6|  ap_memory |   imag_i_1   |     array    |
|imag_i_1_ce0       | out |    1|  ap_memory |   imag_i_1   |     array    |
|imag_i_1_d0        | out |   32|  ap_memory |   imag_i_1   |     array    |
|imag_i_1_q0        |  in |   32|  ap_memory |   imag_i_1   |     array    |
|imag_i_1_we0       | out |    1|  ap_memory |   imag_i_1   |     array    |
|imag_i_1_address1  | out |    6|  ap_memory |   imag_i_1   |     array    |
|imag_i_1_ce1       | out |    1|  ap_memory |   imag_i_1   |     array    |
|imag_i_1_d1        | out |   32|  ap_memory |   imag_i_1   |     array    |
|imag_i_1_q1        |  in |   32|  ap_memory |   imag_i_1   |     array    |
|imag_i_1_we1       | out |    1|  ap_memory |   imag_i_1   |     array    |
|imag_i_2_address0  | out |    6|  ap_memory |   imag_i_2   |     array    |
|imag_i_2_ce0       | out |    1|  ap_memory |   imag_i_2   |     array    |
|imag_i_2_d0        | out |   32|  ap_memory |   imag_i_2   |     array    |
|imag_i_2_q0        |  in |   32|  ap_memory |   imag_i_2   |     array    |
|imag_i_2_we0       | out |    1|  ap_memory |   imag_i_2   |     array    |
|imag_i_2_address1  | out |    6|  ap_memory |   imag_i_2   |     array    |
|imag_i_2_ce1       | out |    1|  ap_memory |   imag_i_2   |     array    |
|imag_i_2_d1        | out |   32|  ap_memory |   imag_i_2   |     array    |
|imag_i_2_q1        |  in |   32|  ap_memory |   imag_i_2   |     array    |
|imag_i_2_we1       | out |    1|  ap_memory |   imag_i_2   |     array    |
|imag_i_3_address0  | out |    6|  ap_memory |   imag_i_3   |     array    |
|imag_i_3_ce0       | out |    1|  ap_memory |   imag_i_3   |     array    |
|imag_i_3_d0        | out |   32|  ap_memory |   imag_i_3   |     array    |
|imag_i_3_q0        |  in |   32|  ap_memory |   imag_i_3   |     array    |
|imag_i_3_we0       | out |    1|  ap_memory |   imag_i_3   |     array    |
|imag_i_3_address1  | out |    6|  ap_memory |   imag_i_3   |     array    |
|imag_i_3_ce1       | out |    1|  ap_memory |   imag_i_3   |     array    |
|imag_i_3_d1        | out |   32|  ap_memory |   imag_i_3   |     array    |
|imag_i_3_q1        |  in |   32|  ap_memory |   imag_i_3   |     array    |
|imag_i_3_we1       | out |    1|  ap_memory |   imag_i_3   |     array    |
|real_o_0_address0  | out |    6|  ap_memory |   real_o_0   |     array    |
|real_o_0_ce0       | out |    1|  ap_memory |   real_o_0   |     array    |
|real_o_0_d0        | out |   32|  ap_memory |   real_o_0   |     array    |
|real_o_0_q0        |  in |   32|  ap_memory |   real_o_0   |     array    |
|real_o_0_we0       | out |    1|  ap_memory |   real_o_0   |     array    |
|real_o_0_address1  | out |    6|  ap_memory |   real_o_0   |     array    |
|real_o_0_ce1       | out |    1|  ap_memory |   real_o_0   |     array    |
|real_o_0_d1        | out |   32|  ap_memory |   real_o_0   |     array    |
|real_o_0_q1        |  in |   32|  ap_memory |   real_o_0   |     array    |
|real_o_0_we1       | out |    1|  ap_memory |   real_o_0   |     array    |
|real_o_1_address0  | out |    6|  ap_memory |   real_o_1   |     array    |
|real_o_1_ce0       | out |    1|  ap_memory |   real_o_1   |     array    |
|real_o_1_d0        | out |   32|  ap_memory |   real_o_1   |     array    |
|real_o_1_q0        |  in |   32|  ap_memory |   real_o_1   |     array    |
|real_o_1_we0       | out |    1|  ap_memory |   real_o_1   |     array    |
|real_o_1_address1  | out |    6|  ap_memory |   real_o_1   |     array    |
|real_o_1_ce1       | out |    1|  ap_memory |   real_o_1   |     array    |
|real_o_1_d1        | out |   32|  ap_memory |   real_o_1   |     array    |
|real_o_1_q1        |  in |   32|  ap_memory |   real_o_1   |     array    |
|real_o_1_we1       | out |    1|  ap_memory |   real_o_1   |     array    |
|real_o_2_address0  | out |    6|  ap_memory |   real_o_2   |     array    |
|real_o_2_ce0       | out |    1|  ap_memory |   real_o_2   |     array    |
|real_o_2_d0        | out |   32|  ap_memory |   real_o_2   |     array    |
|real_o_2_q0        |  in |   32|  ap_memory |   real_o_2   |     array    |
|real_o_2_we0       | out |    1|  ap_memory |   real_o_2   |     array    |
|real_o_2_address1  | out |    6|  ap_memory |   real_o_2   |     array    |
|real_o_2_ce1       | out |    1|  ap_memory |   real_o_2   |     array    |
|real_o_2_d1        | out |   32|  ap_memory |   real_o_2   |     array    |
|real_o_2_q1        |  in |   32|  ap_memory |   real_o_2   |     array    |
|real_o_2_we1       | out |    1|  ap_memory |   real_o_2   |     array    |
|real_o_3_address0  | out |    6|  ap_memory |   real_o_3   |     array    |
|real_o_3_ce0       | out |    1|  ap_memory |   real_o_3   |     array    |
|real_o_3_d0        | out |   32|  ap_memory |   real_o_3   |     array    |
|real_o_3_q0        |  in |   32|  ap_memory |   real_o_3   |     array    |
|real_o_3_we0       | out |    1|  ap_memory |   real_o_3   |     array    |
|real_o_3_address1  | out |    6|  ap_memory |   real_o_3   |     array    |
|real_o_3_ce1       | out |    1|  ap_memory |   real_o_3   |     array    |
|real_o_3_d1        | out |   32|  ap_memory |   real_o_3   |     array    |
|real_o_3_q1        |  in |   32|  ap_memory |   real_o_3   |     array    |
|real_o_3_we1       | out |    1|  ap_memory |   real_o_3   |     array    |
|imag_o_0_address0  | out |    6|  ap_memory |   imag_o_0   |     array    |
|imag_o_0_ce0       | out |    1|  ap_memory |   imag_o_0   |     array    |
|imag_o_0_d0        | out |   32|  ap_memory |   imag_o_0   |     array    |
|imag_o_0_q0        |  in |   32|  ap_memory |   imag_o_0   |     array    |
|imag_o_0_we0       | out |    1|  ap_memory |   imag_o_0   |     array    |
|imag_o_0_address1  | out |    6|  ap_memory |   imag_o_0   |     array    |
|imag_o_0_ce1       | out |    1|  ap_memory |   imag_o_0   |     array    |
|imag_o_0_d1        | out |   32|  ap_memory |   imag_o_0   |     array    |
|imag_o_0_q1        |  in |   32|  ap_memory |   imag_o_0   |     array    |
|imag_o_0_we1       | out |    1|  ap_memory |   imag_o_0   |     array    |
|imag_o_1_address0  | out |    6|  ap_memory |   imag_o_1   |     array    |
|imag_o_1_ce0       | out |    1|  ap_memory |   imag_o_1   |     array    |
|imag_o_1_d0        | out |   32|  ap_memory |   imag_o_1   |     array    |
|imag_o_1_q0        |  in |   32|  ap_memory |   imag_o_1   |     array    |
|imag_o_1_we0       | out |    1|  ap_memory |   imag_o_1   |     array    |
|imag_o_1_address1  | out |    6|  ap_memory |   imag_o_1   |     array    |
|imag_o_1_ce1       | out |    1|  ap_memory |   imag_o_1   |     array    |
|imag_o_1_d1        | out |   32|  ap_memory |   imag_o_1   |     array    |
|imag_o_1_q1        |  in |   32|  ap_memory |   imag_o_1   |     array    |
|imag_o_1_we1       | out |    1|  ap_memory |   imag_o_1   |     array    |
|imag_o_2_address0  | out |    6|  ap_memory |   imag_o_2   |     array    |
|imag_o_2_ce0       | out |    1|  ap_memory |   imag_o_2   |     array    |
|imag_o_2_d0        | out |   32|  ap_memory |   imag_o_2   |     array    |
|imag_o_2_q0        |  in |   32|  ap_memory |   imag_o_2   |     array    |
|imag_o_2_we0       | out |    1|  ap_memory |   imag_o_2   |     array    |
|imag_o_2_address1  | out |    6|  ap_memory |   imag_o_2   |     array    |
|imag_o_2_ce1       | out |    1|  ap_memory |   imag_o_2   |     array    |
|imag_o_2_d1        | out |   32|  ap_memory |   imag_o_2   |     array    |
|imag_o_2_q1        |  in |   32|  ap_memory |   imag_o_2   |     array    |
|imag_o_2_we1       | out |    1|  ap_memory |   imag_o_2   |     array    |
|imag_o_3_address0  | out |    6|  ap_memory |   imag_o_3   |     array    |
|imag_o_3_ce0       | out |    1|  ap_memory |   imag_o_3   |     array    |
|imag_o_3_d0        | out |   32|  ap_memory |   imag_o_3   |     array    |
|imag_o_3_q0        |  in |   32|  ap_memory |   imag_o_3   |     array    |
|imag_o_3_we0       | out |    1|  ap_memory |   imag_o_3   |     array    |
|imag_o_3_address1  | out |    6|  ap_memory |   imag_o_3   |     array    |
|imag_o_3_ce1       | out |    1|  ap_memory |   imag_o_3   |     array    |
|imag_o_3_d1        | out |   32|  ap_memory |   imag_o_3   |     array    |
|imag_o_3_q1        |  in |   32|  ap_memory |   imag_o_3   |     array    |
|imag_o_3_we1       | out |    1|  ap_memory |   imag_o_3   |     array    |
|ap_clk             |  in |    1| ap_ctrl_hs |      dft     | return value |
|ap_rst             |  in |    1| ap_ctrl_hs |      dft     | return value |
|ap_done            | out |    1| ap_ctrl_hs |      dft     | return value |
|ap_start           |  in |    1| ap_ctrl_hs |      dft     | return value |
|ap_idle            | out |    1| ap_ctrl_hs |      dft     | return value |
|ap_ready           | out |    1| ap_ctrl_hs |      dft     | return value |
+-------------------+-----+-----+------------+--------------+--------------+

============================================================
+ Verbose Summary: Synthesis Manager
============================================================
InlineROM: 1
ExposeGlobal: 0
============================================================
+ Verbose Summary: CDFG Model
============================================================
IsTopModel: 1
ResetActiveHigh: 1
IsCombinational: 2
IsDatapathOnly: 2
HasWiredReturn: 1
HasMFsm: 0
HasVarLatency: 1
IsPipeline: 0
IsRtlPipelined: 0
IsInstanceOverlapped: 0
IsDontTouch: 0
HasImplIP: 0
IsGatedGlobalClock: 0


============================================================
+ Verbose Summary: Schedule
============================================================
* Number of FSM states: 2
* Pipeline: 0
* Dataflow Pipeline: 1
  DF-Pipeline-0: Size = 2, States = { 1 2 }

* FSM state transitions: 
1 --> 
	2  / true
2 --> 
* FSM state operations: 

 <State 1>: 0.00ns
ST_1: stg_3 [2/2] 0.00ns
codeRepl:18  call fastcc void @dft_Loop_Loop_Row_proc([64 x float]* %imag_o_0, [64 x float]* %imag_o_1, [64 x float]* %imag_o_2, [64 x float]* %imag_o_3, [64 x float]* %real_i_0, [64 x float]* %real_i_1, [64 x float]* %real_i_2, [64 x float]* %real_i_3, [64 x float]* %imag_i_0, [64 x float]* %imag_i_1, [64 x float]* %imag_i_2, [64 x float]* %imag_i_3, [64 x float]* %real_o_0, [64 x float]* %real_o_1, [64 x float]* %real_o_2, [64 x float]* %real_o_3)


 <State 2>: 0.00ns
ST_2: stg_4 [1/1] 0.00ns
codeRepl:0  call void (...)* @_ssdm_op_SpecDataflowPipeline(i32 -1, [1 x i8]* @p_str1) nounwind

ST_2: stg_5 [1/1] 0.00ns
codeRepl:1  call void (...)* @_ssdm_op_SpecBitsMap([64 x float]* %imag_o_3), !map !7

ST_2: stg_6 [1/1] 0.00ns
codeRepl:2  call void (...)* @_ssdm_op_SpecBitsMap([64 x float]* %imag_o_2), !map !13

ST_2: stg_7 [1/1] 0.00ns
codeRepl:3  call void (...)* @_ssdm_op_SpecBitsMap([64 x float]* %imag_o_1), !map !19

ST_2: stg_8 [1/1] 0.00ns
codeRepl:4  call void (...)* @_ssdm_op_SpecBitsMap([64 x float]* %imag_o_0), !map !25

ST_2: stg_9 [1/1] 0.00ns
codeRepl:5  call void (...)* @_ssdm_op_SpecBitsMap([64 x float]* %real_o_3), !map !31

ST_2: stg_10 [1/1] 0.00ns
codeRepl:6  call void (...)* @_ssdm_op_SpecBitsMap([64 x float]* %real_o_2), !map !35

ST_2: stg_11 [1/1] 0.00ns
codeRepl:7  call void (...)* @_ssdm_op_SpecBitsMap([64 x float]* %real_o_1), !map !39

ST_2: stg_12 [1/1] 0.00ns
codeRepl:8  call void (...)* @_ssdm_op_SpecBitsMap([64 x float]* %real_o_0), !map !43

ST_2: stg_13 [1/1] 0.00ns
codeRepl:9  call void (...)* @_ssdm_op_SpecBitsMap([64 x float]* %imag_i_3), !map !47

ST_2: stg_14 [1/1] 0.00ns
codeRepl:10  call void (...)* @_ssdm_op_SpecBitsMap([64 x float]* %imag_i_2), !map !51

ST_2: stg_15 [1/1] 0.00ns
codeRepl:11  call void (...)* @_ssdm_op_SpecBitsMap([64 x float]* %imag_i_1), !map !55

ST_2: stg_16 [1/1] 0.00ns
codeRepl:12  call void (...)* @_ssdm_op_SpecBitsMap([64 x float]* %imag_i_0), !map !59

ST_2: stg_17 [1/1] 0.00ns
codeRepl:13  call void (...)* @_ssdm_op_SpecBitsMap([64 x float]* %real_i_3), !map !63

ST_2: stg_18 [1/1] 0.00ns
codeRepl:14  call void (...)* @_ssdm_op_SpecBitsMap([64 x float]* %real_i_2), !map !67

ST_2: stg_19 [1/1] 0.00ns
codeRepl:15  call void (...)* @_ssdm_op_SpecBitsMap([64 x float]* %real_i_1), !map !71

ST_2: stg_20 [1/1] 0.00ns
codeRepl:16  call void (...)* @_ssdm_op_SpecBitsMap([64 x float]* %real_i_0), !map !75

ST_2: stg_21 [1/1] 0.00ns
codeRepl:17  call void (...)* @_ssdm_op_SpecTopModule([4 x i8]* @dft_str) nounwind

ST_2: stg_22 [1/2] 0.00ns
codeRepl:18  call fastcc void @dft_Loop_Loop_Row_proc([64 x float]* %imag_o_0, [64 x float]* %imag_o_1, [64 x float]* %imag_o_2, [64 x float]* %imag_o_3, [64 x float]* %real_i_0, [64 x float]* %real_i_1, [64 x float]* %real_i_2, [64 x float]* %real_i_3, [64 x float]* %imag_i_0, [64 x float]* %imag_i_1, [64 x float]* %imag_i_2, [64 x float]* %imag_i_3, [64 x float]* %real_o_0, [64 x float]* %real_o_1, [64 x float]* %real_o_2, [64 x float]* %real_o_3)

ST_2: stg_23 [1/1] 0.00ns
codeRepl:19  ret void



============================================================
+ Verbose Summary: Binding
============================================================
STG Binding: 
---------------- STG Properties BEGIN ----------------
- Is combinational: 0
- Is one-state seq: 0
- Is datapath-only: 0
- Is clock enabled: 0
- Is pipelined: 0
- Is top level: 1
Port [ Return ] is wired: 1; IO mode=ap_ctrl_hs:ce=0
Port [ real_i_0]:  wired=1; compound=1; hidden=0; nouse=0; global=0; static=0; extern=0; dir=0; type=1; mode=0x137b2a49100; pingpong=0; private_global=0; MemPort=[13]; IO mode=ap_memory:ce=0
Port [ real_i_1]:  wired=1; compound=1; hidden=0; nouse=0; global=0; static=0; extern=0; dir=0; type=1; mode=0x137b2a49970; pingpong=0; private_global=0; MemPort=[13]; IO mode=ap_memory:ce=0
Port [ real_i_2]:  wired=1; compound=1; hidden=0; nouse=0; global=0; static=0; extern=0; dir=0; type=1; mode=0x137b2a49190; pingpong=0; private_global=0; MemPort=[13]; IO mode=ap_memory:ce=0
Port [ real_i_3]:  wired=1; compound=1; hidden=0; nouse=0; global=0; static=0; extern=0; dir=0; type=1; mode=0x137b2a49bb0; pingpong=0; private_global=0; MemPort=[13]; IO mode=ap_memory:ce=0
Port [ imag_i_0]:  wired=1; compound=1; hidden=0; nouse=0; global=0; static=0; extern=0; dir=0; type=1; mode=0x137b2a49460; pingpong=0; private_global=0; MemPort=[13]; IO mode=ap_memory:ce=0
Port [ imag_i_1]:  wired=1; compound=1; hidden=0; nouse=0; global=0; static=0; extern=0; dir=0; type=1; mode=0x137b2a4a1e0; pingpong=0; private_global=0; MemPort=[13]; IO mode=ap_memory:ce=0
Port [ imag_i_2]:  wired=1; compound=1; hidden=0; nouse=0; global=0; static=0; extern=0; dir=0; type=1; mode=0x137b2a4a150; pingpong=0; private_global=0; MemPort=[13]; IO mode=ap_memory:ce=0
Port [ imag_i_3]:  wired=1; compound=1; hidden=0; nouse=0; global=0; static=0; extern=0; dir=0; type=1; mode=0x137b2a4a810; pingpong=0; private_global=0; MemPort=[13]; IO mode=ap_memory:ce=0
Port [ real_o_0]:  wired=1; compound=1; hidden=0; nouse=0; global=0; static=0; extern=0; dir=1; type=1; mode=0x137b2a497c0; pingpong=0; private_global=0; MemPort=[03]; IO mode=ap_memory:ce=0
Port [ real_o_1]:  wired=1; compound=1; hidden=0; nouse=0; global=0; static=0; extern=0; dir=1; type=1; mode=0x137b2a49e80; pingpong=0; private_global=0; MemPort=[03]; IO mode=ap_memory:ce=0
Port [ real_o_2]:  wired=1; compound=1; hidden=0; nouse=0; global=0; static=0; extern=0; dir=1; type=1; mode=0x137b2a49fa0; pingpong=0; private_global=0; MemPort=[03]; IO mode=ap_memory:ce=0
Port [ real_o_3]:  wired=1; compound=1; hidden=0; nouse=0; global=0; static=0; extern=0; dir=1; type=1; mode=0x137b2a4aa50; pingpong=0; private_global=0; MemPort=[03]; IO mode=ap_memory:ce=0
Port [ imag_o_0]:  wired=1; compound=1; hidden=0; nouse=0; global=0; static=0; extern=0; dir=1; type=1; mode=0x137b2a4a300; pingpong=0; private_global=0; MemPort=[03]; IO mode=ap_memory:ce=0
Port [ imag_o_1]:  wired=1; compound=1; hidden=0; nouse=0; global=0; static=0; extern=0; dir=1; type=1; mode=0x137b2a4adb0; pingpong=0; private_global=0; MemPort=[03]; IO mode=ap_memory:ce=0
Port [ imag_o_2]:  wired=1; compound=1; hidden=0; nouse=0; global=0; static=0; extern=0; dir=1; type=1; mode=0x137b2a49f10; pingpong=0; private_global=0; MemPort=[03]; IO mode=ap_memory:ce=0
Port [ imag_o_3]:  wired=1; compound=1; hidden=0; nouse=0; global=0; static=0; extern=0; dir=1; type=1; mode=0x137b2a4a8a0; pingpong=0; private_global=0; MemPort=[03]; IO mode=ap_memory:ce=0
Port [ cct17]:  wired=0; compound=1; hidden=1; nouse=1; global=1; static=1; extern=0; dir=0; type=1; mode=0x137b2a4a780; pingpong=0; private_global=0; linkage=7; visibility=0; MemPort=[1]; IO mode=ap_memory:ce=0
Port [ sct18]:  wired=0; compound=1; hidden=1; nouse=1; global=1; static=1; extern=0; dir=0; type=1; mode=0x137b2a4ac00; pingpong=0; private_global=0; linkage=7; visibility=0; MemPort=[1]; IO mode=ap_memory:ce=0
Port [ sct]:  wired=0; compound=1; hidden=1; nouse=1; global=1; static=1; extern=0; dir=0; type=1; mode=0x137b2a4ab70; pingpong=0; private_global=0; linkage=7; visibility=0; MemPort=[1]; IO mode=ap_memory:ce=0
Port [ cct]:  wired=0; compound=1; hidden=1; nouse=1; global=1; static=1; extern=0; dir=0; type=1; mode=0x137b2a49580; pingpong=0; private_global=0; linkage=7; visibility=0; MemPort=[1]; IO mode=ap_memory:ce=0
---------------- STG Properties END ------------------

---------------- Datapath Model BEGIN ----------------

<LifeTime>
<method=bitvector/>
stg_4  (specdataflowpipeline) [ 000]
stg_5  (specbitsmap         ) [ 000]
stg_6  (specbitsmap         ) [ 000]
stg_7  (specbitsmap         ) [ 000]
stg_8  (specbitsmap         ) [ 000]
stg_9  (specbitsmap         ) [ 000]
stg_10 (specbitsmap         ) [ 000]
stg_11 (specbitsmap         ) [ 000]
stg_12 (specbitsmap         ) [ 000]
stg_13 (specbitsmap         ) [ 000]
stg_14 (specbitsmap         ) [ 000]
stg_15 (specbitsmap         ) [ 000]
stg_16 (specbitsmap         ) [ 000]
stg_17 (specbitsmap         ) [ 000]
stg_18 (specbitsmap         ) [ 000]
stg_19 (specbitsmap         ) [ 000]
stg_20 (specbitsmap         ) [ 000]
stg_21 (spectopmodule       ) [ 000]
stg_22 (call                ) [ 000]
stg_23 (ret                 ) [ 000]
</LifeTime>

<model>

<comp_list>
<comp id="0" class="1000" name="real_i_0">
<pin_list>
<pin id="1" dir="1" index="0" bw="1" slack="0"/>
</pin_list>
<bind>
<StgValue><ssdm name="real_i_0"/><MemPortTyVec>1 3 </MemPortTyVec>
</StgValue>
</bind>
</comp>

<comp id="2" class="1000" name="real_i_1">
<pin_list>
<pin id="3" dir="1" index="0" bw="1" slack="0"/>
</pin_list>
<bind>
<StgValue><ssdm name="real_i_1"/><MemPortTyVec>1 3 </MemPortTyVec>
</StgValue>
</bind>
</comp>

<comp id="4" class="1000" name="real_i_2">
<pin_list>
<pin id="5" dir="1" index="0" bw="1" slack="0"/>
</pin_list>
<bind>
<StgValue><ssdm name="real_i_2"/><MemPortTyVec>1 3 </MemPortTyVec>
</StgValue>
</bind>
</comp>

<comp id="6" class="1000" name="real_i_3">
<pin_list>
<pin id="7" dir="1" index="0" bw="1" slack="0"/>
</pin_list>
<bind>
<StgValue><ssdm name="real_i_3"/><MemPortTyVec>1 3 </MemPortTyVec>
</StgValue>
</bind>
</comp>

<comp id="8" class="1000" name="imag_i_0">
<pin_list>
<pin id="9" dir="1" index="0" bw="1" slack="0"/>
</pin_list>
<bind>
<StgValue><ssdm name="imag_i_0"/><MemPortTyVec>1 3 </MemPortTyVec>
</StgValue>
</bind>
</comp>

<comp id="10" class="1000" name="imag_i_1">
<pin_list>
<pin id="11" dir="1" index="0" bw="1" slack="0"/>
</pin_list>
<bind>
<StgValue><ssdm name="imag_i_1"/><MemPortTyVec>1 3 </MemPortTyVec>
</StgValue>
</bind>
</comp>

<comp id="12" class="1000" name="imag_i_2">
<pin_list>
<pin id="13" dir="1" index="0" bw="1" slack="0"/>
</pin_list>
<bind>
<StgValue><ssdm name="imag_i_2"/><MemPortTyVec>1 3 </MemPortTyVec>
</StgValue>
</bind>
</comp>

<comp id="14" class="1000" name="imag_i_3">
<pin_list>
<pin id="15" dir="1" index="0" bw="1" slack="0"/>
</pin_list>
<bind>
<StgValue><ssdm name="imag_i_3"/><MemPortTyVec>1 3 </MemPortTyVec>
</StgValue>
</bind>
</comp>

<comp id="16" class="1000" name="real_o_0">
<pin_list>
<pin id="17" dir="1" index="0" bw="1" slack="0"/>
</pin_list>
<bind>
<StgValue><ssdm name="real_o_0"/><MemPortTyVec>0 3 </MemPortTyVec>
</StgValue>
</bind>
</comp>

<comp id="18" class="1000" name="real_o_1">
<pin_list>
<pin id="19" dir="1" index="0" bw="1" slack="0"/>
</pin_list>
<bind>
<StgValue><ssdm name="real_o_1"/><MemPortTyVec>0 3 </MemPortTyVec>
</StgValue>
</bind>
</comp>

<comp id="20" class="1000" name="real_o_2">
<pin_list>
<pin id="21" dir="1" index="0" bw="1" slack="0"/>
</pin_list>
<bind>
<StgValue><ssdm name="real_o_2"/><MemPortTyVec>0 3 </MemPortTyVec>
</StgValue>
</bind>
</comp>

<comp id="22" class="1000" name="real_o_3">
<pin_list>
<pin id="23" dir="1" index="0" bw="1" slack="0"/>
</pin_list>
<bind>
<StgValue><ssdm name="real_o_3"/><MemPortTyVec>0 3 </MemPortTyVec>
</StgValue>
</bind>
</comp>

<comp id="24" class="1000" name="imag_o_0">
<pin_list>
<pin id="25" dir="1" index="0" bw="1" slack="0"/>
</pin_list>
<bind>
<StgValue><ssdm name="imag_o_0"/><MemPortTyVec>0 3 </MemPortTyVec>
</StgValue>
</bind>
</comp>

<comp id="26" class="1000" name="imag_o_1">
<pin_list>
<pin id="27" dir="1" index="0" bw="1" slack="0"/>
</pin_list>
<bind>
<StgValue><ssdm name="imag_o_1"/><MemPortTyVec>0 3 </MemPortTyVec>
</StgValue>
</bind>
</comp>

<comp id="28" class="1000" name="imag_o_2">
<pin_list>
<pin id="29" dir="1" index="0" bw="1" slack="0"/>
</pin_list>
<bind>
<StgValue><ssdm name="imag_o_2"/><MemPortTyVec>0 3 </MemPortTyVec>
</StgValue>
</bind>
</comp>

<comp id="30" class="1000" name="imag_o_3">
<pin_list>
<pin id="31" dir="1" index="0" bw="1" slack="0"/>
</pin_list>
<bind>
<StgValue><ssdm name="imag_o_3"/><MemPortTyVec>0 3 </MemPortTyVec>
</StgValue>
</bind>
</comp>

<comp id="32" class="1000" name="cct17">
<pin_list>
<pin id="33" dir="1" index="0" bw="1" slack="0"/>
</pin_list>
<bind>
<StgValue><ssdm name="cct17"/><MemPortTyVec>1 </MemPortTyVec>
</StgValue>
</bind>
</comp>

<comp id="34" class="1000" name="sct18">
<pin_list>
<pin id="35" dir="1" index="0" bw="1" slack="0"/>
</pin_list>
<bind>
<StgValue><ssdm name="sct18"/><MemPortTyVec>1 </MemPortTyVec>
</StgValue>
</bind>
</comp>

<comp id="36" class="1000" name="sct">
<pin_list>
<pin id="37" dir="1" index="0" bw="1" slack="0"/>
</pin_list>
<bind>
<StgValue><ssdm name="sct"/><MemPortTyVec>1 </MemPortTyVec>
</StgValue>
</bind>
</comp>

<comp id="38" class="1000" name="cct">
<pin_list>
<pin id="39" dir="1" index="0" bw="1" slack="0"/>
</pin_list>
<bind>
<StgValue><ssdm name="cct"/><MemPortTyVec>1 </MemPortTyVec>
</StgValue>
</bind>
</comp>

<comp id="40" class="1001" name="const_40">
<pin_list>
<pin id="41" dir="1" index="0" bw="1" slack="0"/>
</pin_list>
<bind>
<StgValue><ssdm name="dft_Loop_Loop_Row_proc"/></StgValue>
</bind>
</comp>

<comp id="42" class="1001" name="const_42">
<pin_list>
<pin id="43" dir="1" index="0" bw="1" slack="2147483647"/>
</pin_list>
<bind>
<StgValue><ssdm name="_ssdm_op_SpecDataflowPipeline"/></StgValue>
</bind>
</comp>

<comp id="44" class="1001" name="const_44">
<pin_list>
<pin id="45" dir="1" index="0" bw="1" slack="2147483647"/>
</pin_list>
<bind>
<StgValue><ssdm name=""/></StgValue>
</bind>
</comp>

<comp id="46" class="1001" name="const_46">
<pin_list>
<pin id="47" dir="1" index="0" bw="1" slack="2147483647"/>
</pin_list>
<bind>
<StgValue><ssdm name="p_str1"/></StgValue>
</bind>
</comp>

<comp id="48" class="1001" name="const_48">
<pin_list>
<pin id="49" dir="1" index="0" bw="1" slack="2147483647"/>
</pin_list>
<bind>
<StgValue><ssdm name="_ssdm_op_SpecBitsMap"/></StgValue>
</bind>
</comp>

<comp id="50" class="1001" name="const_50">
<pin_list>
<pin id="51" dir="1" index="0" bw="1" slack="2147483647"/>
</pin_list>
<bind>
<StgValue><ssdm name="_ssdm_op_SpecTopModule"/></StgValue>
</bind>
</comp>

<comp id="52" class="1001" name="const_52">
<pin_list>
<pin id="53" dir="1" index="0" bw="1" slack="2147483647"/>
</pin_list>
<bind>
<StgValue><ssdm name="dft_str"/></StgValue>
</bind>
</comp>

<comp id="54" class="1004" name="grp_dft_Loop_Loop_Row_proc_fu_54">
<pin_list>
<pin id="55" dir="0" index="0" bw="0" slack="0"/>
<pin id="56" dir="0" index="1" bw="32" slack="0"/>
<pin id="57" dir="0" index="2" bw="32" slack="0"/>
<pin id="58" dir="0" index="3" bw="32" slack="0"/>
<pin id="59" dir="0" index="4" bw="32" slack="0"/>
<pin id="60" dir="0" index="5" bw="32" slack="0"/>
<pin id="61" dir="0" index="6" bw="32" slack="0"/>
<pin id="62" dir="0" index="7" bw="32" slack="0"/>
<pin id="63" dir="0" index="8" bw="32" slack="0"/>
<pin id="64" dir="0" index="9" bw="32" slack="0"/>
<pin id="65" dir="0" index="10" bw="32" slack="0"/>
<pin id="66" dir="0" index="11" bw="32" slack="0"/>
<pin id="67" dir="0" index="12" bw="32" slack="0"/>
<pin id="68" dir="0" index="13" bw="32" slack="0"/>
<pin id="69" dir="0" index="14" bw="32" slack="0"/>
<pin id="70" dir="0" index="15" bw="32" slack="0"/>
<pin id="71" dir="0" index="16" bw="32" slack="0"/>
<pin id="72" dir="0" index="17" bw="32" slack="0"/>
<pin id="73" dir="0" index="18" bw="32" slack="0"/>
<pin id="74" dir="0" index="19" bw="32" slack="0"/>
<pin id="75" dir="0" index="20" bw="32" slack="0"/>
<pin id="76" dir="1" index="21" bw="0" slack="2147483647"/>
</pin_list>
<bind>
<opcode="call(48) " fcode="call"/>
<opset="stg_3/1 "/>
</bind>
</comp>

</comp_list>

<net_list>
<net id="77"><net_src comp="40" pin="0"/><net_sink comp="54" pin=0"/></net>

<net id="78"><net_src comp="24" pin="0"/><net_sink comp="54" pin=1"/></net>

<net id="79"><net_src comp="26" pin="0"/><net_sink comp="54" pin=2"/></net>

<net id="80"><net_src comp="28" pin="0"/><net_sink comp="54" pin=3"/></net>

<net id="81"><net_src comp="30" pin="0"/><net_sink comp="54" pin=4"/></net>

<net id="82"><net_src comp="0" pin="0"/><net_sink comp="54" pin=5"/></net>

<net id="83"><net_src comp="2" pin="0"/><net_sink comp="54" pin=6"/></net>

<net id="84"><net_src comp="4" pin="0"/><net_sink comp="54" pin=7"/></net>

<net id="85"><net_src comp="6" pin="0"/><net_sink comp="54" pin=8"/></net>

<net id="86"><net_src comp="8" pin="0"/><net_sink comp="54" pin=9"/></net>

<net id="87"><net_src comp="10" pin="0"/><net_sink comp="54" pin=10"/></net>

<net id="88"><net_src comp="12" pin="0"/><net_sink comp="54" pin=11"/></net>

<net id="89"><net_src comp="14" pin="0"/><net_sink comp="54" pin=12"/></net>

<net id="90"><net_src comp="16" pin="0"/><net_sink comp="54" pin=13"/></net>

<net id="91"><net_src comp="18" pin="0"/><net_sink comp="54" pin=14"/></net>

<net id="92"><net_src comp="20" pin="0"/><net_sink comp="54" pin=15"/></net>

<net id="93"><net_src comp="22" pin="0"/><net_sink comp="54" pin=16"/></net>

<net id="94"><net_src comp="32" pin="0"/><net_sink comp="54" pin=17"/></net>

<net id="95"><net_src comp="34" pin="0"/><net_sink comp="54" pin=18"/></net>

<net id="96"><net_src comp="36" pin="0"/><net_sink comp="54" pin=19"/></net>

<net id="97"><net_src comp="38" pin="0"/><net_sink comp="54" pin=20"/></net>

</net_list>

</model> 
---------------- Datapath Model END ------------------

* FSMD analyzer results:
  - Output states:
  - Chain level:
	State 1
	State 2


============================================================
+ Verbose Summary: Datapath Resource usage 
============================================================

* Functional unit list:
|----------|----------------------------------|---------|---------|---------|---------|
| Operation|          Functional Unit         |  DSP48E |  Delay  |    FF   |   LUT   |
|----------|----------------------------------|---------|---------|---------|---------|
|   call   | grp_dft_Loop_Loop_Row_proc_fu_54 |    16   |  56.556 |   2317  |   2730  |
|----------|----------------------------------|---------|---------|---------|---------|
|   Total  |                                  |    16   |  56.556 |   2317  |   2730  |
|----------|----------------------------------|---------|---------|---------|---------|

Memories:
+-----+--------+--------+--------+
|     |  BRAM  |   FF   |   LUT  |
+-----+--------+--------+--------+
| cct |    1   |    0   |    0   |
|cct17|    1   |    0   |    0   |
| sct |    1   |    0   |    0   |
|sct18|    1   |    0   |    0   |
+-----+--------+--------+--------+
|Total|    4   |    0   |    0   |
+-----+--------+--------+--------+

* Register list:
N/A

* Multiplexer (MUX) list: 
|--------|------|------|------|--------|
|  Comp  |  Pin | Size |  BW  | S x BW |
|--------|------|------|------|--------|
|  Total |      |      |      |    0   |
|--------|------|------|------|--------|



* Summary:
+-----------+--------+--------+--------+--------+--------+
|           |  BRAM  | DSP48E |  Delay |   FF   |   LUT  |
+-----------+--------+--------+--------+--------+--------+
|  Function |    -   |   16   |   56   |  2317  |  2730  |
|   Memory  |    4   |    -   |    -   |    0   |    0   |
|Multiplexer|    -   |    -   |    -   |    -   |    -   |
|  Register |    -   |    -   |    -   |    -   |    -   |
+-----------+--------+--------+--------+--------+--------+
|   Total   |    4   |   16   |   56   |  2317  |  2730  |
+-----------+--------+--------+--------+--------+--------+
