

================================================================
== Vivado HLS Report for 'dft'
================================================================
* Date:           Sat Oct 29 16:33:14 2016

* Version:        2015.4 (Build 1412921 on Wed Nov 18 09:58:55 AM 2015)
* Project:        dft
* Solution:       baseline
* Product family: zynq
* Target device:  xc7z020clg484-1


================================================================
== Performance Estimates
================================================================
+ Timing (ns): 
    * Summary: 
    +--------+-------+----------+------------+
    |  Clock | Target| Estimated| Uncertainty|
    +--------+-------+----------+------------+
    |ap_clk  |  10.00|      8.69|        1.25|
    +--------+-------+----------+------------+

+ Latency (clock cycles): 
    * Summary: 
    +----------+----------+----------+----------+---------+
    |       Latency       |       Interval      | Pipeline|
    |    min   |    max   |    min   |    max   |   Type  |
    +----------+----------+----------+----------+---------+
    |  17635074|  56170242|  17635075|  56170243|   none  |
    +----------+----------+----------+----------+---------+

    + Detail: 
        * Instance: 
        N/A

        * Loop: 
        +-------------+----------+----------+----------------+-----------+-----------+------+----------+
        |             |       Latency       |    Iteration   |  Initiation Interval  | Trip |          |
        |  Loop Name  |    min   |    max   |     Latency    |  achieved |   target  | Count| Pipelined|
        +-------------+----------+----------+----------------+-----------+-----------+------+----------+
        |- Loop 1     |  17634560|  56169728| 68885 ~ 219413 |          -|          -|   256|    no    |
        | + Loop 1.1  |     68864|    219392|    269 ~ 857   |          -|          -|   256|    no    |
        |- Loop 2     |       512|       512|               2|          -|          -|   256|    no    |
        +-------------+----------+----------+----------------+-----------+-----------+------+----------+

============================================================
+ Verbose Summary: Synthesis Manager
============================================================
InlineROM: 1
ExposeGlobal: 0
============================================================
+ Verbose Summary: CDFG Model
============================================================
IsTopModel: 1
ResetActiveHigh: 1
IsCombinational: 0
IsDatapathOnly: 0
HasWiredReturn: 1
HasMFsm: 0
HasVarLatency: 1
IsPipeline: 0
IsRtlPipelined: 0
IsInstanceOverlapped: 0
IsDontTouch: 0
HasImplIP: 0
IsGatedGlobalClock: 0


============================================================
+ Verbose Summary: Schedule
============================================================
* Number of FSM states: 52
* Pipeline: 0
* Dataflow Pipeline: 0

* FSM state transitions: 
1 --> 
	2  / true
2 --> 
	3  / (!exitcond2)
	51  / (exitcond2)
3 --> 
	4  / true
4 --> 
	5  / true
5 --> 
	6  / true
6 --> 
	7  / true
7 --> 
	8  / true
8 --> 
	9  / true
9 --> 
	10  / true
10 --> 
	11  / true
11 --> 
	12  / true
12 --> 
	13  / true
13 --> 
	14  / true
14 --> 
	15  / true
15 --> 
	16  / true
16 --> 
	17  / true
17 --> 
	18  / true
18 --> 
	19  / true
19 --> 
	20  / true
20 --> 
	21  / true
21 --> 
	22  / true
22 --> 
	2  / (exitcond1)
	23  / (!exitcond1)
23 --> 
	24  / true
24 --> 
	25  / true
25 --> 
	26  / true
26 --> 
	27  / true
27 --> 
	28  / true
28 --> 
	29  / true
29 --> 
	30  / true
30 --> 
	31  / true
31 --> 
	32  / true
32 --> 
	33  / true
33 --> 
	34  / true
34 --> 
	35  / true
35 --> 
	36  / true
36 --> 
	37  / true
37 --> 
	38  / true
38 --> 
	39  / true
39 --> 
	40  / true
40 --> 
	41  / true
41 --> 
	42  / true
42 --> 
	43  / true
43 --> 
	44  / true
44 --> 
	45  / true
45 --> 
	46  / true
46 --> 
	47  / true
47 --> 
	48  / true
48 --> 
	49  / true
49 --> 
	50  / true
50 --> 
	22  / true
51 --> 
	52  / (!exitcond)
52 --> 
	51  / true
* FSM state operations: 

 <State 1>: 2.71ns
ST_1: stg_53 [1/1] 0.00ns
:0  call void (...)* @_ssdm_op_SpecBitsMap([256 x float]* %sample_real) nounwind, !map !7

ST_1: stg_54 [1/1] 0.00ns
:1  call void (...)* @_ssdm_op_SpecBitsMap([256 x float]* %sample_imag) nounwind, !map !13

ST_1: stg_55 [1/1] 0.00ns
:2  call void (...)* @_ssdm_op_SpecTopModule([4 x i8]* @dft_str) nounwind

ST_1: tmp_real [1/1] 2.71ns
:3  %tmp_real = alloca [256 x float], align 16

ST_1: tmp_imag [1/1] 2.71ns
:4  %tmp_imag = alloca [256 x float], align 16

ST_1: stg_58 [1/1] 1.57ns
:5  br label %.loopexit


 <State 2>: 6.41ns
ST_2: i [1/1] 0.00ns
.loopexit:0  %i = phi i9 [ 0, %0 ], [ %i_2, %2 ]

ST_2: i_cast3 [1/1] 0.00ns
.loopexit:1  %i_cast3 = zext i9 %i to i32

ST_2: exitcond2 [1/1] 2.03ns
.loopexit:2  %exitcond2 = icmp eq i9 %i, -256

ST_2: empty [1/1] 0.00ns
.loopexit:3  %empty = call i32 (...)* @_ssdm_op_SpecLoopTripCount(i64 256, i64 256, i64 256) nounwind

ST_2: i_2 [1/1] 1.84ns
.loopexit:4  %i_2 = add i9 %i, 1

ST_2: stg_64 [1/1] 1.57ns
.loopexit:5  br i1 %exitcond2, label %.preheader, label %1

ST_2: tmp_s [6/6] 6.41ns
:5  %tmp_s = sitofp i32 %i_cast3 to float


 <State 3>: 6.41ns
ST_3: tmp_s [5/6] 6.41ns
:5  %tmp_s = sitofp i32 %i_cast3 to float


 <State 4>: 6.41ns
ST_4: tmp_s [4/6] 6.41ns
:5  %tmp_s = sitofp i32 %i_cast3 to float


 <State 5>: 6.41ns
ST_5: tmp_s [3/6] 6.41ns
:5  %tmp_s = sitofp i32 %i_cast3 to float


 <State 6>: 6.41ns
ST_6: tmp_s [2/6] 6.41ns
:5  %tmp_s = sitofp i32 %i_cast3 to float


 <State 7>: 6.41ns
ST_7: tmp_s [1/6] 6.41ns
:5  %tmp_s = sitofp i32 %i_cast3 to float


 <State 8>: 5.55ns
ST_8: tmp_14 [1/1] 5.55ns
:6  %tmp_14 = fpext float %tmp_s to double


 <State 9>: 7.79ns
ST_9: tmp_15 [6/6] 7.79ns
:7  %tmp_15 = fmul double %tmp_14, 0x401921FB5444261E


 <State 10>: 7.79ns
ST_10: tmp_15 [5/6] 7.79ns
:7  %tmp_15 = fmul double %tmp_14, 0x401921FB5444261E


 <State 11>: 7.79ns
ST_11: tmp_15 [4/6] 7.79ns
:7  %tmp_15 = fmul double %tmp_14, 0x401921FB5444261E


 <State 12>: 7.79ns
ST_12: tmp_15 [3/6] 7.79ns
:7  %tmp_15 = fmul double %tmp_14, 0x401921FB5444261E


 <State 13>: 7.79ns
ST_13: tmp_15 [2/6] 7.79ns
:7  %tmp_15 = fmul double %tmp_14, 0x401921FB5444261E


 <State 14>: 7.79ns
ST_14: tmp_15 [1/6] 7.79ns
:7  %tmp_15 = fmul double %tmp_14, 0x401921FB5444261E


 <State 15>: 7.79ns
ST_15: tmp_16 [6/6] 7.79ns
:8  %tmp_16 = fmul double %tmp_15, 3.906250e-03


 <State 16>: 7.79ns
ST_16: tmp_16 [5/6] 7.79ns
:8  %tmp_16 = fmul double %tmp_15, 3.906250e-03


 <State 17>: 7.79ns
ST_17: tmp_16 [4/6] 7.79ns
:8  %tmp_16 = fmul double %tmp_15, 3.906250e-03


 <State 18>: 7.79ns
ST_18: tmp_16 [3/6] 7.79ns
:8  %tmp_16 = fmul double %tmp_15, 3.906250e-03


 <State 19>: 7.79ns
ST_19: tmp_16 [2/6] 7.79ns
:8  %tmp_16 = fmul double %tmp_15, 3.906250e-03


 <State 20>: 7.79ns
ST_20: tmp_16 [1/6] 7.79ns
:8  %tmp_16 = fmul double %tmp_15, 3.906250e-03


 <State 21>: 6.50ns
ST_21: tmp [1/1] 0.00ns
:0  %tmp = zext i9 %i to i64

ST_21: tmp_real_addr [1/1] 0.00ns
:1  %tmp_real_addr = getelementptr inbounds [256 x float]* %tmp_real, i64 0, i64 %tmp

ST_21: stg_86 [1/1] 2.71ns
:2  store float 0.000000e+00, float* %tmp_real_addr, align 4

ST_21: tmp_imag_addr [1/1] 0.00ns
:3  %tmp_imag_addr = getelementptr inbounds [256 x float]* %tmp_imag, i64 0, i64 %tmp

ST_21: stg_88 [1/1] 2.71ns
:4  store float 0.000000e+00, float* %tmp_imag_addr, align 4

ST_21: w [1/1] 6.50ns
:9  %w = fptrunc double %tmp_16 to float

ST_21: stg_90 [1/1] 1.57ns
:10  br label %2


 <State 22>: 6.41ns
ST_22: tmp_17 [1/1] 0.00ns
:0  %tmp_17 = phi float [ 0.000000e+00, %1 ], [ %tmp_31, %3 ]

ST_22: tmp_18 [1/1] 0.00ns
:1  %tmp_18 = phi float [ 0.000000e+00, %1 ], [ %tmp_27, %3 ]

ST_22: j [1/1] 0.00ns
:2  %j = phi i9 [ 0, %1 ], [ %j_1, %3 ]

ST_22: j_cast2 [1/1] 0.00ns
:3  %j_cast2 = zext i9 %j to i32

ST_22: exitcond1 [1/1] 2.03ns
:4  %exitcond1 = icmp eq i9 %j, -256

ST_22: empty_27 [1/1] 0.00ns
:5  %empty_27 = call i32 (...)* @_ssdm_op_SpecLoopTripCount(i64 256, i64 256, i64 256) nounwind

ST_22: j_1 [1/1] 1.84ns
:6  %j_1 = add i9 %j, 1

ST_22: stg_98 [1/1] 0.00ns
:7  br i1 %exitcond1, label %.loopexit, label %3

ST_22: tmp_20 [6/6] 6.41ns
:0  %tmp_20 = sitofp i32 %j_cast2 to float


 <State 23>: 6.41ns
ST_23: tmp_20 [5/6] 6.41ns
:0  %tmp_20 = sitofp i32 %j_cast2 to float


 <State 24>: 6.41ns
ST_24: tmp_20 [4/6] 6.41ns
:0  %tmp_20 = sitofp i32 %j_cast2 to float


 <State 25>: 6.41ns
ST_25: tmp_20 [3/6] 6.41ns
:0  %tmp_20 = sitofp i32 %j_cast2 to float


 <State 26>: 6.41ns
ST_26: tmp_20 [2/6] 6.41ns
:0  %tmp_20 = sitofp i32 %j_cast2 to float


 <State 27>: 6.41ns
ST_27: tmp_20 [1/6] 6.41ns
:0  %tmp_20 = sitofp i32 %j_cast2 to float


 <State 28>: 5.70ns
ST_28: tmp_21 [4/4] 5.70ns
:1  %tmp_21 = fmul float %tmp_20, %w


 <State 29>: 5.70ns
ST_29: tmp_21 [3/4] 5.70ns
:1  %tmp_21 = fmul float %tmp_20, %w


 <State 30>: 5.70ns
ST_30: tmp_21 [2/4] 5.70ns
:1  %tmp_21 = fmul float %tmp_20, %w


 <State 31>: 5.70ns
ST_31: tmp_21 [1/4] 5.70ns
:1  %tmp_21 = fmul float %tmp_20, %w


 <State 32>: 5.55ns
ST_32: x_assign [1/1] 5.55ns
:2  %x_assign = fpext float %tmp_21 to double


 <State 33>: 7.00ns
ST_33: call_ret_i_i_i [2/2] 7.00ns
:3  %call_ret_i_i_i = call fastcc { double, double } @dft_sin_cos_range_redux_cordic(double %x_assign) nounwind


 <State 34>: 8.22ns
ST_34: call_ret_i_i_i [1/2] 8.22ns
:3  %call_ret_i_i_i = call fastcc { double, double } @dft_sin_cos_range_redux_cordic(double %x_assign) nounwind

ST_34: c_out [1/1] 0.00ns
:4  %c_out = extractvalue { double, double } %call_ret_i_i_i, 1

ST_34: s_out [1/1] 0.00ns
:6  %s_out = extractvalue { double, double } %call_ret_i_i_i, 0


 <State 35>: 7.87ns
ST_35: c [1/1] 6.50ns
:5  %c = fptrunc double %c_out to float

ST_35: tmp_108_to_int [1/1] 0.00ns
:7  %tmp_108_to_int = bitcast double %s_out to i64

ST_35: tmp_108_neg [1/1] 1.37ns
:8  %tmp_108_neg = xor i64 %tmp_108_to_int, -9223372036854775808

ST_35: tmp_22 [1/1] 0.00ns
:9  %tmp_22 = bitcast i64 %tmp_108_neg to double

ST_35: s [1/1] 6.50ns
:10  %s = fptrunc double %tmp_22 to float

ST_35: tmp_23 [1/1] 0.00ns
:11  %tmp_23 = zext i9 %j to i64

ST_35: sample_real_addr_1 [1/1] 0.00ns
:12  %sample_real_addr_1 = getelementptr [256 x float]* %sample_real, i64 0, i64 %tmp_23

ST_35: sample_real_load [2/2] 2.71ns
:13  %sample_real_load = load float* %sample_real_addr_1, align 4

ST_35: sample_imag_addr_1 [1/1] 0.00ns
:15  %sample_imag_addr_1 = getelementptr [256 x float]* %sample_imag, i64 0, i64 %tmp_23

ST_35: sample_imag_load [2/2] 2.71ns
:16  %sample_imag_load = load float* %sample_imag_addr_1, align 4


 <State 36>: 8.41ns
ST_36: sample_real_load [1/2] 2.71ns
:13  %sample_real_load = load float* %sample_real_addr_1, align 4

ST_36: tmp_24 [4/4] 5.70ns
:14  %tmp_24 = fmul float %sample_real_load, %c

ST_36: sample_imag_load [1/2] 2.71ns
:16  %sample_imag_load = load float* %sample_imag_addr_1, align 4

ST_36: tmp_25 [4/4] 5.70ns
:17  %tmp_25 = fmul float %sample_imag_load, %s

ST_36: tmp_28 [4/4] 5.70ns
:21  %tmp_28 = fmul float %sample_real_load, %s

ST_36: tmp_29 [4/4] 5.70ns
:22  %tmp_29 = fmul float %sample_imag_load, %c


 <State 37>: 5.70ns
ST_37: tmp_24 [3/4] 5.70ns
:14  %tmp_24 = fmul float %sample_real_load, %c

ST_37: tmp_25 [3/4] 5.70ns
:17  %tmp_25 = fmul float %sample_imag_load, %s

ST_37: tmp_28 [3/4] 5.70ns
:21  %tmp_28 = fmul float %sample_real_load, %s

ST_37: tmp_29 [3/4] 5.70ns
:22  %tmp_29 = fmul float %sample_imag_load, %c


 <State 38>: 5.70ns
ST_38: tmp_24 [2/4] 5.70ns
:14  %tmp_24 = fmul float %sample_real_load, %c

ST_38: tmp_25 [2/4] 5.70ns
:17  %tmp_25 = fmul float %sample_imag_load, %s

ST_38: tmp_28 [2/4] 5.70ns
:21  %tmp_28 = fmul float %sample_real_load, %s

ST_38: tmp_29 [2/4] 5.70ns
:22  %tmp_29 = fmul float %sample_imag_load, %c


 <State 39>: 5.70ns
ST_39: tmp_24 [1/4] 5.70ns
:14  %tmp_24 = fmul float %sample_real_load, %c

ST_39: tmp_25 [1/4] 5.70ns
:17  %tmp_25 = fmul float %sample_imag_load, %s

ST_39: tmp_28 [1/4] 5.70ns
:21  %tmp_28 = fmul float %sample_real_load, %s

ST_39: tmp_29 [1/4] 5.70ns
:22  %tmp_29 = fmul float %sample_imag_load, %c


 <State 40>: 7.26ns
ST_40: tmp_26 [5/5] 7.26ns
:18  %tmp_26 = fsub float %tmp_24, %tmp_25

ST_40: tmp_30 [5/5] 7.26ns
:23  %tmp_30 = fadd float %tmp_28, %tmp_29


 <State 41>: 7.26ns
ST_41: tmp_26 [4/5] 7.26ns
:18  %tmp_26 = fsub float %tmp_24, %tmp_25

ST_41: tmp_30 [4/5] 7.26ns
:23  %tmp_30 = fadd float %tmp_28, %tmp_29


 <State 42>: 7.26ns
ST_42: tmp_26 [3/5] 7.26ns
:18  %tmp_26 = fsub float %tmp_24, %tmp_25

ST_42: tmp_30 [3/5] 7.26ns
:23  %tmp_30 = fadd float %tmp_28, %tmp_29


 <State 43>: 7.26ns
ST_43: tmp_26 [2/5] 7.26ns
:18  %tmp_26 = fsub float %tmp_24, %tmp_25

ST_43: tmp_30 [2/5] 7.26ns
:23  %tmp_30 = fadd float %tmp_28, %tmp_29


 <State 44>: 7.26ns
ST_44: tmp_26 [1/5] 7.26ns
:18  %tmp_26 = fsub float %tmp_24, %tmp_25

ST_44: tmp_30 [1/5] 7.26ns
:23  %tmp_30 = fadd float %tmp_28, %tmp_29


 <State 45>: 7.26ns
ST_45: tmp_27 [5/5] 7.26ns
:19  %tmp_27 = fadd float %tmp_18, %tmp_26

ST_45: tmp_31 [5/5] 7.26ns
:24  %tmp_31 = fadd float %tmp_17, %tmp_30


 <State 46>: 7.26ns
ST_46: tmp_27 [4/5] 7.26ns
:19  %tmp_27 = fadd float %tmp_18, %tmp_26

ST_46: tmp_31 [4/5] 7.26ns
:24  %tmp_31 = fadd float %tmp_17, %tmp_30


 <State 47>: 7.26ns
ST_47: tmp_27 [3/5] 7.26ns
:19  %tmp_27 = fadd float %tmp_18, %tmp_26

ST_47: tmp_31 [3/5] 7.26ns
:24  %tmp_31 = fadd float %tmp_17, %tmp_30


 <State 48>: 7.26ns
ST_48: tmp_27 [2/5] 7.26ns
:19  %tmp_27 = fadd float %tmp_18, %tmp_26

ST_48: tmp_31 [2/5] 7.26ns
:24  %tmp_31 = fadd float %tmp_17, %tmp_30


 <State 49>: 7.26ns
ST_49: tmp_27 [1/5] 7.26ns
:19  %tmp_27 = fadd float %tmp_18, %tmp_26

ST_49: tmp_31 [1/5] 7.26ns
:24  %tmp_31 = fadd float %tmp_17, %tmp_30


 <State 50>: 2.71ns
ST_50: stg_162 [1/1] 2.71ns
:20  store float %tmp_27, float* %tmp_real_addr, align 4

ST_50: stg_163 [1/1] 2.71ns
:25  store float %tmp_31, float* %tmp_imag_addr, align 4

ST_50: stg_164 [1/1] 0.00ns
:26  br label %2


 <State 51>: 2.71ns
ST_51: i1 [1/1] 0.00ns
.preheader:0  %i1 = phi i9 [ %i_1, %4 ], [ 0, %.loopexit ]

ST_51: exitcond [1/1] 2.03ns
.preheader:1  %exitcond = icmp eq i9 %i1, -256

ST_51: empty_28 [1/1] 0.00ns
.preheader:2  %empty_28 = call i32 (...)* @_ssdm_op_SpecLoopTripCount(i64 256, i64 256, i64 256) nounwind

ST_51: i_1 [1/1] 1.84ns
.preheader:3  %i_1 = add i9 %i1, 1

ST_51: stg_169 [1/1] 0.00ns
.preheader:4  br i1 %exitcond, label %5, label %4

ST_51: tmp_19 [1/1] 0.00ns
:0  %tmp_19 = zext i9 %i1 to i64

ST_51: tmp_real_addr_1 [1/1] 0.00ns
:1  %tmp_real_addr_1 = getelementptr inbounds [256 x float]* %tmp_real, i64 0, i64 %tmp_19

ST_51: tmp_real_load [2/2] 2.71ns
:2  %tmp_real_load = load float* %tmp_real_addr_1, align 4

ST_51: tmp_imag_addr_1 [1/1] 0.00ns
:5  %tmp_imag_addr_1 = getelementptr inbounds [256 x float]* %tmp_imag, i64 0, i64 %tmp_19

ST_51: tmp_imag_load [2/2] 2.71ns
:6  %tmp_imag_load = load float* %tmp_imag_addr_1, align 4

ST_51: stg_175 [1/1] 0.00ns
:0  ret void


 <State 52>: 5.42ns
ST_52: tmp_real_load [1/2] 2.71ns
:2  %tmp_real_load = load float* %tmp_real_addr_1, align 4

ST_52: sample_real_addr [1/1] 0.00ns
:3  %sample_real_addr = getelementptr [256 x float]* %sample_real, i64 0, i64 %tmp_19

ST_52: stg_178 [1/1] 2.71ns
:4  store float %tmp_real_load, float* %sample_real_addr, align 4

ST_52: tmp_imag_load [1/2] 2.71ns
:6  %tmp_imag_load = load float* %tmp_imag_addr_1, align 4

ST_52: sample_imag_addr [1/1] 0.00ns
:7  %sample_imag_addr = getelementptr [256 x float]* %sample_imag, i64 0, i64 %tmp_19

ST_52: stg_181 [1/1] 2.71ns
:8  store float %tmp_imag_load, float* %sample_imag_addr, align 4

ST_52: stg_182 [1/1] 0.00ns
:9  br label %.preheader



============================================================
+ Verbose Summary: Binding
============================================================
STG Binding: 
---------------- STG Properties BEGIN ----------------
- Is combinational: 0
- Is one-state seq: 0
- Is datapath-only: 0
- Is clock enabled: 0
- Is pipelined: 0
- Is top level: 1
Port [ Return ] is wired: 1; IO mode=ap_ctrl_hs:ce=0
Port [ sample_real]:  wired=1; compound=1; hidden=0; nouse=0; global=0; static=0; extern=0; dir=2; type=1; mode=0x20150b28c40; pingpong=0; private_global=0; MemPort=[23]; IO mode=ap_memory:ce=0
Port [ sample_imag]:  wired=1; compound=1; hidden=0; nouse=0; global=0; static=0; extern=0; dir=2; type=1; mode=0x20150b282b0; pingpong=0; private_global=0; MemPort=[23]; IO mode=ap_memory:ce=0
Port [ pp_V]:  wired=0; compound=1; hidden=1; nouse=1; global=1; static=1; extern=0; dir=0; type=1; mode=0x20150b27650; pingpong=0; private_global=0; linkage=7; visibility=0; MemPort=[1]; IO mode=ap_memory:ce=0
Port [ hls_cordic_ctab_table_128_V]:  wired=0; compound=1; hidden=1; nouse=1; global=1; static=1; extern=0; dir=0; type=1; mode=0x20150b27e30; pingpong=0; private_global=0; linkage=7; visibility=0; MemPort=[1]; IO mode=ap_memory:ce=0
---------------- STG Properties END ------------------

---------------- Datapath Model BEGIN ----------------

<LifeTime>
<method=bitvector/>
stg_53             (specbitsmap      ) [ 00000000000000000000000000000000000000000000000000000]
stg_54             (specbitsmap      ) [ 00000000000000000000000000000000000000000000000000000]
stg_55             (spectopmodule    ) [ 00000000000000000000000000000000000000000000000000000]
tmp_real           (alloca           ) [ 00111111111111111111111111111111111111111111111111111]
tmp_imag           (alloca           ) [ 00111111111111111111111111111111111111111111111111111]
stg_58             (br               ) [ 01111111111111111111111111111111111111111111111111100]
i                  (phi              ) [ 00111111111111111111110000000000000000000000000000000]
i_cast3            (zext             ) [ 00011111000000000000000000000000000000000000000000000]
exitcond2          (icmp             ) [ 00111111111111111111111111111111111111111111111111100]
empty              (speclooptripcount) [ 00000000000000000000000000000000000000000000000000000]
i_2                (add              ) [ 01111111111111111111111111111111111111111111111111100]
stg_64             (br               ) [ 00111111111111111111111111111111111111111111111111111]
tmp_s              (sitofp           ) [ 00000000100000000000000000000000000000000000000000000]
tmp_14             (fpext            ) [ 00000000011111100000000000000000000000000000000000000]
tmp_15             (dmul             ) [ 00000000000000011111100000000000000000000000000000000]
tmp_16             (dmul             ) [ 00000000000000000000010000000000000000000000000000000]
tmp                (zext             ) [ 00000000000000000000000000000000000000000000000000000]
tmp_real_addr      (getelementptr    ) [ 00000000000000000000001111111111111111111111111111100]
stg_86             (store            ) [ 00000000000000000000000000000000000000000000000000000]
tmp_imag_addr      (getelementptr    ) [ 00000000000000000000001111111111111111111111111111100]
stg_88             (store            ) [ 00000000000000000000000000000000000000000000000000000]
w                  (fptrunc          ) [ 00000000000000000000001111111111111111111111111111100]
stg_90             (br               ) [ 00111111111111111111111111111111111111111111111111100]
tmp_17             (phi              ) [ 00000000000000000000001111111111111111111111111111000]
tmp_18             (phi              ) [ 00000000000000000000001111111111111111111111111111000]
j                  (phi              ) [ 00000000000000000000001111111111111100000000000000000]
j_cast2            (zext             ) [ 00000000000000000000000111110000000000000000000000000]
exitcond1          (icmp             ) [ 00111111111111111111111111111111111111111111111111100]
empty_27           (speclooptripcount) [ 00000000000000000000000000000000000000000000000000000]
j_1                (add              ) [ 00111111111111111111111111111111111111111111111111100]
stg_98             (br               ) [ 01111111111111111111111111111111111111111111111111100]
tmp_20             (sitofp           ) [ 00000000000000000000000000001111000000000000000000000]
tmp_21             (fmul             ) [ 00000000000000000000000000000000100000000000000000000]
x_assign           (fpext            ) [ 00000000000000000000000000000000011000000000000000000]
call_ret_i_i_i     (call             ) [ 00000000000000000000000000000000000000000000000000000]
c_out              (extractvalue     ) [ 00000000000000000000000000000000000100000000000000000]
s_out              (extractvalue     ) [ 00000000000000000000000000000000000100000000000000000]
c                  (fptrunc          ) [ 00000000000000000000000000000000000011110000000000000]
tmp_108_to_int     (bitcast          ) [ 00000000000000000000000000000000000000000000000000000]
tmp_108_neg        (xor              ) [ 00000000000000000000000000000000000000000000000000000]
tmp_22             (bitcast          ) [ 00000000000000000000000000000000000000000000000000000]
s                  (fptrunc          ) [ 00000000000000000000000000000000000011110000000000000]
tmp_23             (zext             ) [ 00000000000000000000000000000000000000000000000000000]
sample_real_addr_1 (getelementptr    ) [ 00000000000000000000000000000000000010000000000000000]
sample_imag_addr_1 (getelementptr    ) [ 00000000000000000000000000000000000010000000000000000]
sample_real_load   (load             ) [ 00000000000000000000000000000000000001110000000000000]
sample_imag_load   (load             ) [ 00000000000000000000000000000000000001110000000000000]
tmp_24             (fmul             ) [ 00000000000000000000000000000000000000001111100000000]
tmp_25             (fmul             ) [ 00000000000000000000000000000000000000001111100000000]
tmp_28             (fmul             ) [ 00000000000000000000000000000000000000001111100000000]
tmp_29             (fmul             ) [ 00000000000000000000000000000000000000001111100000000]
tmp_26             (fsub             ) [ 00000000000000000000000000000000000000000000011111000]
tmp_30             (fadd             ) [ 00000000000000000000000000000000000000000000011111000]
tmp_27             (fadd             ) [ 00111111111111111111111000000000000000000000000000100]
tmp_31             (fadd             ) [ 00111111111111111111111000000000000000000000000000100]
stg_162            (store            ) [ 00000000000000000000000000000000000000000000000000000]
stg_163            (store            ) [ 00000000000000000000000000000000000000000000000000000]
stg_164            (br               ) [ 00111111111111111111111111111111111111111111111111100]
i1                 (phi              ) [ 00000000000000000000000000000000000000000000000000010]
exitcond           (icmp             ) [ 00000000000000000000000000000000000000000000000000011]
empty_28           (speclooptripcount) [ 00000000000000000000000000000000000000000000000000000]
i_1                (add              ) [ 00100000000000000000000000000000000000000000000000011]
stg_169            (br               ) [ 00000000000000000000000000000000000000000000000000000]
tmp_19             (zext             ) [ 00000000000000000000000000000000000000000000000000001]
tmp_real_addr_1    (getelementptr    ) [ 00000000000000000000000000000000000000000000000000001]
tmp_imag_addr_1    (getelementptr    ) [ 00000000000000000000000000000000000000000000000000001]
stg_175            (ret              ) [ 00000000000000000000000000000000000000000000000000000]
tmp_real_load      (load             ) [ 00000000000000000000000000000000000000000000000000000]
sample_real_addr   (getelementptr    ) [ 00000000000000000000000000000000000000000000000000000]
stg_178            (store            ) [ 00000000000000000000000000000000000000000000000000000]
tmp_imag_load      (load             ) [ 00000000000000000000000000000000000000000000000000000]
sample_imag_addr   (getelementptr    ) [ 00000000000000000000000000000000000000000000000000000]
stg_181            (store            ) [ 00000000000000000000000000000000000000000000000000000]
stg_182            (br               ) [ 00100000000000000000000000000000000000000000000000011]
</LifeTime>

<model>

<comp_list>
<comp id="0" class="1000" name="sample_real">
<pin_list>
<pin id="1" dir="1" index="0" bw="1" slack="0"/>
</pin_list>
<bind>
<StgValue><ssdm name="sample_real"/><MemPortTyVec>2 3 </MemPortTyVec>
</StgValue>
</bind>
</comp>

<comp id="2" class="1000" name="sample_imag">
<pin_list>
<pin id="3" dir="1" index="0" bw="1" slack="0"/>
</pin_list>
<bind>
<StgValue><ssdm name="sample_imag"/><MemPortTyVec>2 3 </MemPortTyVec>
</StgValue>
</bind>
</comp>

<comp id="4" class="1000" name="pp_V">
<pin_list>
<pin id="5" dir="1" index="0" bw="1" slack="0"/>
</pin_list>
<bind>
<StgValue><ssdm name="pp_V"/><MemPortTyVec>1 </MemPortTyVec>
</StgValue>
</bind>
</comp>

<comp id="6" class="1000" name="hls_cordic_ctab_table_128_V">
<pin_list>
<pin id="7" dir="1" index="0" bw="1" slack="0"/>
</pin_list>
<bind>
<StgValue><ssdm name="hls_cordic_ctab_table_128_V"/><MemPortTyVec>1 </MemPortTyVec>
</StgValue>
</bind>
</comp>

<comp id="8" class="1001" name="const_8">
<pin_list>
<pin id="9" dir="1" index="0" bw="1" slack="2147483647"/>
</pin_list>
<bind>
<StgValue><ssdm name="_ssdm_op_SpecBitsMap"/></StgValue>
</bind>
</comp>

<comp id="10" class="1001" name="const_10">
<pin_list>
<pin id="11" dir="1" index="0" bw="1" slack="2147483647"/>
</pin_list>
<bind>
<StgValue><ssdm name="_ssdm_op_SpecTopModule"/></StgValue>
</bind>
</comp>

<comp id="12" class="1001" name="const_12">
<pin_list>
<pin id="13" dir="1" index="0" bw="1" slack="2147483647"/>
</pin_list>
<bind>
<StgValue><ssdm name="dft_str"/></StgValue>
</bind>
</comp>

<comp id="14" class="1001" name="const_14">
<pin_list>
<pin id="15" dir="1" index="0" bw="1" slack="0"/>
</pin_list>
<bind>
<StgValue><ssdm name=""/></StgValue>
</bind>
</comp>

<comp id="16" class="1001" name="const_16">
<pin_list>
<pin id="17" dir="1" index="0" bw="1" slack="1"/>
</pin_list>
<bind>
<StgValue><ssdm name=""/></StgValue>
</bind>
</comp>

<comp id="18" class="1001" name="const_18">
<pin_list>
<pin id="19" dir="1" index="0" bw="1" slack="0"/>
</pin_list>
<bind>
<StgValue><ssdm name=""/></StgValue>
</bind>
</comp>

<comp id="20" class="1001" name="const_20">
<pin_list>
<pin id="21" dir="1" index="0" bw="1" slack="2147483647"/>
</pin_list>
<bind>
<StgValue><ssdm name="_ssdm_op_SpecLoopTripCount"/></StgValue>
</bind>
</comp>

<comp id="22" class="1001" name="const_22">
<pin_list>
<pin id="23" dir="1" index="0" bw="1" slack="2147483647"/>
</pin_list>
<bind>
<StgValue><ssdm name=""/></StgValue>
</bind>
</comp>

<comp id="24" class="1001" name="const_24">
<pin_list>
<pin id="25" dir="1" index="0" bw="1" slack="0"/>
</pin_list>
<bind>
<StgValue><ssdm name=""/></StgValue>
</bind>
</comp>

<comp id="26" class="1001" name="const_26">
<pin_list>
<pin id="27" dir="1" index="0" bw="1" slack="0"/>
</pin_list>
<bind>
<StgValue><ssdm name=""/></StgValue>
</bind>
</comp>

<comp id="28" class="1001" name="const_28">
<pin_list>
<pin id="29" dir="1" index="0" bw="1" slack="0"/>
</pin_list>
<bind>
<StgValue><ssdm name=""/></StgValue>
</bind>
</comp>

<comp id="30" class="1001" name="const_30">
<pin_list>
<pin id="31" dir="1" index="0" bw="1" slack="0"/>
</pin_list>
<bind>
<StgValue><ssdm name=""/></StgValue>
</bind>
</comp>

<comp id="32" class="1001" name="const_32">
<pin_list>
<pin id="33" dir="1" index="0" bw="1" slack="0"/>
</pin_list>
<bind>
<StgValue><ssdm name=""/></StgValue>
</bind>
</comp>

<comp id="34" class="1001" name="const_34">
<pin_list>
<pin id="35" dir="1" index="0" bw="1" slack="0"/>
</pin_list>
<bind>
<StgValue><ssdm name="dft_sin_cos_range_redux_cordic"/></StgValue>
</bind>
</comp>

<comp id="36" class="1001" name="const_36">
<pin_list>
<pin id="37" dir="1" index="0" bw="1" slack="0"/>
</pin_list>
<bind>
<StgValue><ssdm name=""/></StgValue>
</bind>
</comp>

<comp id="38" class="1004" name="tmp_real_alloca_fu_38">
<pin_list>
<pin id="39" dir="0" index="0" bw="1" slack="0"/>
<pin id="40" dir="1" index="1" bw="32" slack="2147483647"/>
</pin_list>
<bind>
<opcode="alloca(26) " fcode="alloca"/>
<opset="tmp_real/1 "/>
</bind>
</comp>

<comp id="42" class="1004" name="tmp_imag_alloca_fu_42">
<pin_list>
<pin id="43" dir="0" index="0" bw="1" slack="0"/>
<pin id="44" dir="1" index="1" bw="32" slack="2147483647"/>
</pin_list>
<bind>
<opcode="alloca(26) " fcode="alloca"/>
<opset="tmp_imag/1 "/>
</bind>
</comp>

<comp id="46" class="1004" name="tmp_real_addr_gep_fu_46">
<pin_list>
<pin id="47" dir="0" index="0" bw="32" slack="2147483647"/>
<pin id="48" dir="0" index="1" bw="1" slack="0"/>
<pin id="49" dir="0" index="2" bw="9" slack="0"/>
<pin id="50" dir="1" index="3" bw="8" slack="0"/>
</pin_list>
<bind>
<opcode="getelementptr(29) " fcode="getelementptr"/>
<opset="tmp_real_addr/21 "/>
</bind>
</comp>

<comp id="52" class="1004" name="grp_access_fu_52">
<pin_list>
<pin id="53" dir="0" index="0" bw="8" slack="0"/>
<pin id="54" dir="0" index="1" bw="32" slack="0"/>
<pin id="55" dir="1" index="2" bw="32" slack="0"/>
</pin_list>
<bind>
<opcode="load(27) store(28) " fcode="load"/>
<opset="stg_86/21 stg_162/50 tmp_real_load/51 "/>
</bind>
</comp>

<comp id="58" class="1004" name="tmp_imag_addr_gep_fu_58">
<pin_list>
<pin id="59" dir="0" index="0" bw="32" slack="2147483647"/>
<pin id="60" dir="0" index="1" bw="1" slack="0"/>
<pin id="61" dir="0" index="2" bw="9" slack="0"/>
<pin id="62" dir="1" index="3" bw="8" slack="0"/>
</pin_list>
<bind>
<opcode="getelementptr(29) " fcode="getelementptr"/>
<opset="tmp_imag_addr/21 "/>
</bind>
</comp>

<comp id="64" class="1004" name="grp_access_fu_64">
<pin_list>
<pin id="65" dir="0" index="0" bw="8" slack="0"/>
<pin id="66" dir="0" index="1" bw="32" slack="0"/>
<pin id="67" dir="1" index="2" bw="32" slack="0"/>
</pin_list>
<bind>
<opcode="load(27) store(28) " fcode="load"/>
<opset="stg_88/21 stg_163/50 tmp_imag_load/51 "/>
</bind>
</comp>

<comp id="70" class="1004" name="sample_real_addr_1_gep_fu_70">
<pin_list>
<pin id="71" dir="0" index="0" bw="32" slack="0"/>
<pin id="72" dir="0" index="1" bw="1" slack="0"/>
<pin id="73" dir="0" index="2" bw="9" slack="0"/>
<pin id="74" dir="1" index="3" bw="8" slack="0"/>
</pin_list>
<bind>
<opcode="getelementptr(29) " fcode="getelementptr"/>
<opset="sample_real_addr_1/35 "/>
</bind>
</comp>

<comp id="77" class="1004" name="grp_access_fu_77">
<pin_list>
<pin id="78" dir="0" index="0" bw="8" slack="0"/>
<pin id="79" dir="0" index="1" bw="32" slack="0"/>
<pin id="80" dir="1" index="2" bw="32" slack="0"/>
</pin_list>
<bind>
<opcode="load(27) store(28) " fcode="store"/>
<opset="sample_real_load/35 stg_178/52 "/>
</bind>
</comp>

<comp id="82" class="1004" name="sample_imag_addr_1_gep_fu_82">
<pin_list>
<pin id="83" dir="0" index="0" bw="32" slack="0"/>
<pin id="84" dir="0" index="1" bw="1" slack="0"/>
<pin id="85" dir="0" index="2" bw="9" slack="0"/>
<pin id="86" dir="1" index="3" bw="8" slack="0"/>
</pin_list>
<bind>
<opcode="getelementptr(29) " fcode="getelementptr"/>
<opset="sample_imag_addr_1/35 "/>
</bind>
</comp>

<comp id="89" class="1004" name="grp_access_fu_89">
<pin_list>
<pin id="90" dir="0" index="0" bw="8" slack="0"/>
<pin id="91" dir="0" index="1" bw="32" slack="0"/>
<pin id="92" dir="1" index="2" bw="32" slack="0"/>
</pin_list>
<bind>
<opcode="load(27) store(28) " fcode="store"/>
<opset="sample_imag_load/35 stg_181/52 "/>
</bind>
</comp>

<comp id="94" class="1004" name="tmp_real_addr_1_gep_fu_94">
<pin_list>
<pin id="95" dir="0" index="0" bw="32" slack="2147483647"/>
<pin id="96" dir="0" index="1" bw="1" slack="0"/>
<pin id="97" dir="0" index="2" bw="9" slack="0"/>
<pin id="98" dir="1" index="3" bw="8" slack="0"/>
</pin_list>
<bind>
<opcode="getelementptr(29) " fcode="getelementptr"/>
<opset="tmp_real_addr_1/51 "/>
</bind>
</comp>

<comp id="101" class="1004" name="tmp_imag_addr_1_gep_fu_101">
<pin_list>
<pin id="102" dir="0" index="0" bw="32" slack="2147483647"/>
<pin id="103" dir="0" index="1" bw="1" slack="0"/>
<pin id="104" dir="0" index="2" bw="9" slack="0"/>
<pin id="105" dir="1" index="3" bw="8" slack="0"/>
</pin_list>
<bind>
<opcode="getelementptr(29) " fcode="getelementptr"/>
<opset="tmp_imag_addr_1/51 "/>
</bind>
</comp>

<comp id="108" class="1004" name="sample_real_addr_gep_fu_108">
<pin_list>
<pin id="109" dir="0" index="0" bw="32" slack="0"/>
<pin id="110" dir="0" index="1" bw="1" slack="0"/>
<pin id="111" dir="0" index="2" bw="9" slack="1"/>
<pin id="112" dir="1" index="3" bw="8" slack="0"/>
</pin_list>
<bind>
<opcode="getelementptr(29) " fcode="getelementptr"/>
<opset="sample_real_addr/52 "/>
</bind>
</comp>

<comp id="117" class="1004" name="sample_imag_addr_gep_fu_117">
<pin_list>
<pin id="118" dir="0" index="0" bw="32" slack="0"/>
<pin id="119" dir="0" index="1" bw="1" slack="0"/>
<pin id="120" dir="0" index="2" bw="9" slack="1"/>
<pin id="121" dir="1" index="3" bw="8" slack="0"/>
</pin_list>
<bind>
<opcode="getelementptr(29) " fcode="getelementptr"/>
<opset="sample_imag_addr/52 "/>
</bind>
</comp>

<comp id="126" class="1005" name="i_reg_126">
<pin_list>
<pin id="127" dir="0" index="0" bw="9" slack="1"/>
<pin id="128" dir="1" index="1" bw="9" slack="1"/>
</pin_list>
<bind>
<opset="i (phireg) "/>
</bind>
</comp>

<comp id="130" class="1004" name="i_phi_fu_130">
<pin_list>
<pin id="131" dir="0" index="0" bw="1" slack="1"/>
<pin id="132" dir="0" index="1" bw="0" slack="2147483647"/>
<pin id="133" dir="0" index="2" bw="9" slack="0"/>
<pin id="134" dir="0" index="3" bw="0" slack="2147483647"/>
<pin id="135" dir="1" index="4" bw="9" slack="0"/>
</pin_list>
<bind>
<opcode="phi(47) " fcode="phi"/>
<opset="i/2 "/>
</bind>
</comp>

<comp id="138" class="1005" name="tmp_17_reg_138">
<pin_list>
<pin id="139" dir="0" index="0" bw="32" slack="1"/>
<pin id="140" dir="1" index="1" bw="32" slack="1"/>
</pin_list>
<bind>
<opset="tmp_17 (phireg) "/>
</bind>
</comp>

<comp id="142" class="1004" name="tmp_17_phi_fu_142">
<pin_list>
<pin id="143" dir="0" index="0" bw="32" slack="1"/>
<pin id="144" dir="0" index="1" bw="0" slack="2147483647"/>
<pin id="145" dir="0" index="2" bw="32" slack="1"/>
<pin id="146" dir="0" index="3" bw="0" slack="2147483647"/>
<pin id="147" dir="1" index="4" bw="32" slack="23"/>
</pin_list>
<bind>
<opcode="phi(47) " fcode="phi"/>
<opset="tmp_17/22 "/>
</bind>
</comp>

<comp id="150" class="1005" name="tmp_18_reg_150">
<pin_list>
<pin id="151" dir="0" index="0" bw="32" slack="1"/>
<pin id="152" dir="1" index="1" bw="32" slack="1"/>
</pin_list>
<bind>
<opset="tmp_18 (phireg) "/>
</bind>
</comp>

<comp id="154" class="1004" name="tmp_18_phi_fu_154">
<pin_list>
<pin id="155" dir="0" index="0" bw="32" slack="1"/>
<pin id="156" dir="0" index="1" bw="0" slack="2147483647"/>
<pin id="157" dir="0" index="2" bw="32" slack="1"/>
<pin id="158" dir="0" index="3" bw="0" slack="2147483647"/>
<pin id="159" dir="1" index="4" bw="32" slack="23"/>
</pin_list>
<bind>
<opcode="phi(47) " fcode="phi"/>
<opset="tmp_18/22 "/>
</bind>
</comp>

<comp id="162" class="1005" name="j_reg_162">
<pin_list>
<pin id="163" dir="0" index="0" bw="9" slack="1"/>
<pin id="164" dir="1" index="1" bw="9" slack="1"/>
</pin_list>
<bind>
<opset="j (phireg) "/>
</bind>
</comp>

<comp id="166" class="1004" name="j_phi_fu_166">
<pin_list>
<pin id="167" dir="0" index="0" bw="1" slack="1"/>
<pin id="168" dir="0" index="1" bw="0" slack="2147483647"/>
<pin id="169" dir="0" index="2" bw="9" slack="0"/>
<pin id="170" dir="0" index="3" bw="0" slack="2147483647"/>
<pin id="171" dir="1" index="4" bw="9" slack="0"/>
</pin_list>
<bind>
<opcode="phi(47) " fcode="phi"/>
<opset="j/22 "/>
</bind>
</comp>

<comp id="174" class="1005" name="i1_reg_174">
<pin_list>
<pin id="175" dir="0" index="0" bw="9" slack="1"/>
<pin id="176" dir="1" index="1" bw="9" slack="1"/>
</pin_list>
<bind>
<opset="i1 (phireg) "/>
</bind>
</comp>

<comp id="178" class="1004" name="i1_phi_fu_178">
<pin_list>
<pin id="179" dir="0" index="0" bw="9" slack="0"/>
<pin id="180" dir="0" index="1" bw="0" slack="2147483647"/>
<pin id="181" dir="0" index="2" bw="1" slack="1"/>
<pin id="182" dir="0" index="3" bw="0" slack="2147483647"/>
<pin id="183" dir="1" index="4" bw="9" slack="0"/>
</pin_list>
<bind>
<opcode="phi(47) " fcode="phi"/>
<opset="i1/51 "/>
</bind>
</comp>

<comp id="185" class="1004" name="grp_dft_sin_cos_range_redux_cordic_fu_185">
<pin_list>
<pin id="186" dir="0" index="0" bw="128" slack="0"/>
<pin id="187" dir="0" index="1" bw="64" slack="1"/>
<pin id="188" dir="0" index="2" bw="70" slack="0"/>
<pin id="189" dir="0" index="3" bw="126" slack="0"/>
<pin id="190" dir="1" index="4" bw="128" slack="0"/>
</pin_list>
<bind>
<opcode="call(48) " fcode="call"/>
<opset="call_ret_i_i_i/33 "/>
</bind>
</comp>

<comp id="194" class="1004" name="grp_fu_194">
<pin_list>
<pin id="195" dir="0" index="0" bw="32" slack="1"/>
<pin id="196" dir="0" index="1" bw="32" slack="1"/>
<pin id="197" dir="1" index="2" bw="32" slack="1"/>
</pin_list>
<bind>
<opcode="fadd(9) fsub(11) " fcode="fadd"/>
<opset="tmp_26/40 tmp_27/45 "/>
</bind>
</comp>

<comp id="198" class="1004" name="grp_fu_198">
<pin_list>
<pin id="199" dir="0" index="0" bw="32" slack="1"/>
<pin id="200" dir="0" index="1" bw="32" slack="1"/>
<pin id="201" dir="1" index="2" bw="32" slack="1"/>
</pin_list>
<bind>
<opcode="fadd(9) " fcode="fadd"/>
<opset="tmp_30/40 tmp_31/45 "/>
</bind>
</comp>

<comp id="204" class="1004" name="grp_fu_204">
<pin_list>
<pin id="205" dir="0" index="0" bw="32" slack="0"/>
<pin id="206" dir="0" index="1" bw="32" slack="1"/>
<pin id="207" dir="1" index="2" bw="32" slack="1"/>
</pin_list>
<bind>
<opcode="fmul(13) " fcode="fmul"/>
<opset="tmp_21/28 tmp_24/36 "/>
</bind>
</comp>

<comp id="209" class="1004" name="grp_fu_209">
<pin_list>
<pin id="210" dir="0" index="0" bw="32" slack="0"/>
<pin id="211" dir="0" index="1" bw="32" slack="1"/>
<pin id="212" dir="1" index="2" bw="32" slack="1"/>
</pin_list>
<bind>
<opcode="fmul(13) " fcode="fmul"/>
<opset="tmp_25/36 "/>
</bind>
</comp>

<comp id="214" class="1004" name="grp_fu_214">
<pin_list>
<pin id="215" dir="0" index="0" bw="32" slack="0"/>
<pin id="216" dir="0" index="1" bw="32" slack="1"/>
<pin id="217" dir="1" index="2" bw="32" slack="1"/>
</pin_list>
<bind>
<opcode="fmul(13) " fcode="fmul"/>
<opset="tmp_28/36 "/>
</bind>
</comp>

<comp id="219" class="1004" name="grp_fu_219">
<pin_list>
<pin id="220" dir="0" index="0" bw="32" slack="0"/>
<pin id="221" dir="0" index="1" bw="32" slack="1"/>
<pin id="222" dir="1" index="2" bw="32" slack="1"/>
</pin_list>
<bind>
<opcode="fmul(13) " fcode="fmul"/>
<opset="tmp_29/36 "/>
</bind>
</comp>

<comp id="224" class="1004" name="grp_fu_224">
<pin_list>
<pin id="225" dir="0" index="0" bw="9" slack="0"/>
<pin id="226" dir="1" index="1" bw="32" slack="1"/>
</pin_list>
<bind>
<opcode="sitofp(39) " fcode="sitofp"/>
<opset="tmp_s/2 tmp_20/22 "/>
</bind>
</comp>

<comp id="227" class="1004" name="grp_fu_227">
<pin_list>
<pin id="228" dir="0" index="0" bw="64" slack="1"/>
<pin id="229" dir="1" index="1" bw="32" slack="1"/>
</pin_list>
<bind>
<opcode="fptrunc(40) " fcode="fptrunc"/>
<opset="w/21 c/35 "/>
</bind>
</comp>

<comp id="230" class="1004" name="s_fu_230">
<pin_list>
<pin id="231" dir="0" index="0" bw="64" slack="0"/>
<pin id="232" dir="1" index="1" bw="32" slack="1"/>
</pin_list>
<bind>
<opcode="fptrunc(40) " fcode="fptrunc"/>
<opset="s/35 "/>
</bind>
</comp>

<comp id="233" class="1004" name="grp_fu_233">
<pin_list>
<pin id="234" dir="0" index="0" bw="32" slack="1"/>
<pin id="235" dir="1" index="1" bw="64" slack="1"/>
</pin_list>
<bind>
<opcode="fpext(41) " fcode="fpext"/>
<opset="tmp_14/8 x_assign/32 "/>
</bind>
</comp>

<comp id="236" class="1004" name="grp_fu_236">
<pin_list>
<pin id="237" dir="0" index="0" bw="64" slack="1"/>
<pin id="238" dir="0" index="1" bw="64" slack="0"/>
<pin id="239" dir="1" index="2" bw="64" slack="1"/>
</pin_list>
<bind>
<opcode="dmul(510) " fcode="dmul"/>
<opset="tmp_15/9 tmp_16/15 "/>
</bind>
</comp>

<comp id="242" class="1005" name="reg_242">
<pin_list>
<pin id="243" dir="0" index="0" bw="32" slack="1"/>
<pin id="244" dir="1" index="1" bw="32" slack="1"/>
</pin_list>
<bind>
<opset="tmp_s tmp_20 "/>
</bind>
</comp>

<comp id="248" class="1005" name="reg_248">
<pin_list>
<pin id="249" dir="0" index="0" bw="64" slack="1"/>
<pin id="250" dir="1" index="1" bw="64" slack="1"/>
</pin_list>
<bind>
<opset="tmp_14 x_assign "/>
</bind>
</comp>

<comp id="254" class="1005" name="reg_254">
<pin_list>
<pin id="255" dir="0" index="0" bw="64" slack="1"/>
<pin id="256" dir="1" index="1" bw="64" slack="1"/>
</pin_list>
<bind>
<opset="tmp_15 tmp_16 "/>
</bind>
</comp>

<comp id="260" class="1005" name="reg_260">
<pin_list>
<pin id="261" dir="0" index="0" bw="32" slack="1"/>
<pin id="262" dir="1" index="1" bw="32" slack="1"/>
</pin_list>
<bind>
<opset="tmp_21 tmp_24 "/>
</bind>
</comp>

<comp id="266" class="1005" name="reg_266">
<pin_list>
<pin id="267" dir="0" index="0" bw="32" slack="1"/>
<pin id="268" dir="1" index="1" bw="32" slack="1"/>
</pin_list>
<bind>
<opset="tmp_26 tmp_27 "/>
</bind>
</comp>

<comp id="273" class="1005" name="reg_273">
<pin_list>
<pin id="274" dir="0" index="0" bw="32" slack="1"/>
<pin id="275" dir="1" index="1" bw="32" slack="1"/>
</pin_list>
<bind>
<opset="tmp_30 tmp_31 "/>
</bind>
</comp>

<comp id="280" class="1004" name="i_cast3_fu_280">
<pin_list>
<pin id="281" dir="0" index="0" bw="9" slack="0"/>
<pin id="282" dir="1" index="1" bw="32" slack="0"/>
</pin_list>
<bind>
<opcode="zext(34) " fcode="zext"/>
<opset="i_cast3/2 "/>
</bind>
</comp>

<comp id="285" class="1004" name="exitcond2_fu_285">
<pin_list>
<pin id="286" dir="0" index="0" bw="9" slack="0"/>
<pin id="287" dir="0" index="1" bw="9" slack="0"/>
<pin id="288" dir="1" index="2" bw="1" slack="2147483647"/>
</pin_list>
<bind>
<opcode="icmp(45) " fcode="icmp"/>
<opset="exitcond2/2 "/>
</bind>
</comp>

<comp id="291" class="1004" name="i_2_fu_291">
<pin_list>
<pin id="292" dir="0" index="0" bw="9" slack="0"/>
<pin id="293" dir="0" index="1" bw="1" slack="0"/>
<pin id="294" dir="1" index="2" bw="9" slack="0"/>
</pin_list>
<bind>
<opcode="add(8) " fcode="add"/>
<opset="i_2/2 "/>
</bind>
</comp>

<comp id="297" class="1004" name="tmp_fu_297">
<pin_list>
<pin id="298" dir="0" index="0" bw="9" slack="19"/>
<pin id="299" dir="1" index="1" bw="64" slack="0"/>
</pin_list>
<bind>
<opcode="zext(34) " fcode="zext"/>
<opset="tmp/21 "/>
</bind>
</comp>

<comp id="303" class="1004" name="j_cast2_fu_303">
<pin_list>
<pin id="304" dir="0" index="0" bw="9" slack="0"/>
<pin id="305" dir="1" index="1" bw="32" slack="0"/>
</pin_list>
<bind>
<opcode="zext(34) " fcode="zext"/>
<opset="j_cast2/22 "/>
</bind>
</comp>

<comp id="308" class="1004" name="exitcond1_fu_308">
<pin_list>
<pin id="309" dir="0" index="0" bw="9" slack="0"/>
<pin id="310" dir="0" index="1" bw="9" slack="0"/>
<pin id="311" dir="1" index="2" bw="1" slack="2147483647"/>
</pin_list>
<bind>
<opcode="icmp(45) " fcode="icmp"/>
<opset="exitcond1/22 "/>
</bind>
</comp>

<comp id="314" class="1004" name="j_1_fu_314">
<pin_list>
<pin id="315" dir="0" index="0" bw="9" slack="0"/>
<pin id="316" dir="0" index="1" bw="1" slack="0"/>
<pin id="317" dir="1" index="2" bw="9" slack="0"/>
</pin_list>
<bind>
<opcode="add(8) " fcode="add"/>
<opset="j_1/22 "/>
</bind>
</comp>

<comp id="320" class="1004" name="c_out_fu_320">
<pin_list>
<pin id="321" dir="0" index="0" bw="128" slack="0"/>
<pin id="322" dir="1" index="1" bw="64" slack="1"/>
</pin_list>
<bind>
<opcode="extractvalue(56) " fcode="extractvalue"/>
<opset="c_out/34 "/>
</bind>
</comp>

<comp id="324" class="1004" name="s_out_fu_324">
<pin_list>
<pin id="325" dir="0" index="0" bw="128" slack="0"/>
<pin id="326" dir="1" index="1" bw="64" slack="1"/>
</pin_list>
<bind>
<opcode="extractvalue(56) " fcode="extractvalue"/>
<opset="s_out/34 "/>
</bind>
</comp>

<comp id="328" class="1004" name="tmp_108_to_int_fu_328">
<pin_list>
<pin id="329" dir="0" index="0" bw="64" slack="1"/>
<pin id="330" dir="1" index="1" bw="64" slack="0"/>
</pin_list>
<bind>
<opcode="bitcast(44) " fcode="bitcast"/>
<opset="tmp_108_to_int/35 "/>
</bind>
</comp>

<comp id="331" class="1004" name="tmp_108_neg_fu_331">
<pin_list>
<pin id="332" dir="0" index="0" bw="64" slack="0"/>
<pin id="333" dir="0" index="1" bw="64" slack="0"/>
<pin id="334" dir="1" index="2" bw="64" slack="0"/>
</pin_list>
<bind>
<opcode="xor(25) " fcode="xor"/>
<opset="tmp_108_neg/35 "/>
</bind>
</comp>

<comp id="337" class="1004" name="tmp_22_fu_337">
<pin_list>
<pin id="338" dir="0" index="0" bw="64" slack="0"/>
<pin id="339" dir="1" index="1" bw="64" slack="0"/>
</pin_list>
<bind>
<opcode="bitcast(44) " fcode="bitcast"/>
<opset="tmp_22/35 "/>
</bind>
</comp>

<comp id="342" class="1004" name="tmp_23_fu_342">
<pin_list>
<pin id="343" dir="0" index="0" bw="9" slack="13"/>
<pin id="344" dir="1" index="1" bw="64" slack="0"/>
</pin_list>
<bind>
<opcode="zext(34) " fcode="zext"/>
<opset="tmp_23/35 "/>
</bind>
</comp>

<comp id="348" class="1004" name="exitcond_fu_348">
<pin_list>
<pin id="349" dir="0" index="0" bw="9" slack="0"/>
<pin id="350" dir="0" index="1" bw="9" slack="0"/>
<pin id="351" dir="1" index="2" bw="1" slack="2147483647"/>
</pin_list>
<bind>
<opcode="icmp(45) " fcode="icmp"/>
<opset="exitcond/51 "/>
</bind>
</comp>

<comp id="354" class="1004" name="i_1_fu_354">
<pin_list>
<pin id="355" dir="0" index="0" bw="9" slack="0"/>
<pin id="356" dir="0" index="1" bw="1" slack="0"/>
<pin id="357" dir="1" index="2" bw="9" slack="0"/>
</pin_list>
<bind>
<opcode="add(8) " fcode="add"/>
<opset="i_1/51 "/>
</bind>
</comp>

<comp id="360" class="1004" name="tmp_19_fu_360">
<pin_list>
<pin id="361" dir="0" index="0" bw="9" slack="0"/>
<pin id="362" dir="1" index="1" bw="64" slack="0"/>
</pin_list>
<bind>
<opcode="zext(34) " fcode="zext"/>
<opset="tmp_19/51 "/>
</bind>
</comp>

<comp id="366" class="1005" name="i_cast3_reg_366">
<pin_list>
<pin id="367" dir="0" index="0" bw="32" slack="1"/>
<pin id="368" dir="1" index="1" bw="32" slack="1"/>
</pin_list>
<bind>
<opset="i_cast3 "/>
</bind>
</comp>

<comp id="374" class="1005" name="i_2_reg_374">
<pin_list>
<pin id="375" dir="0" index="0" bw="9" slack="0"/>
<pin id="376" dir="1" index="1" bw="9" slack="0"/>
</pin_list>
<bind>
<opset="i_2 "/>
</bind>
</comp>

<comp id="379" class="1005" name="tmp_real_addr_reg_379">
<pin_list>
<pin id="380" dir="0" index="0" bw="8" slack="29"/>
<pin id="381" dir="1" index="1" bw="8" slack="29"/>
</pin_list>
<bind>
<opset="tmp_real_addr "/>
</bind>
</comp>

<comp id="384" class="1005" name="tmp_imag_addr_reg_384">
<pin_list>
<pin id="385" dir="0" index="0" bw="8" slack="29"/>
<pin id="386" dir="1" index="1" bw="8" slack="29"/>
</pin_list>
<bind>
<opset="tmp_imag_addr "/>
</bind>
</comp>

<comp id="389" class="1005" name="w_reg_389">
<pin_list>
<pin id="390" dir="0" index="0" bw="32" slack="7"/>
<pin id="391" dir="1" index="1" bw="32" slack="7"/>
</pin_list>
<bind>
<opset="w "/>
</bind>
</comp>

<comp id="394" class="1005" name="j_cast2_reg_394">
<pin_list>
<pin id="395" dir="0" index="0" bw="32" slack="1"/>
<pin id="396" dir="1" index="1" bw="32" slack="1"/>
</pin_list>
<bind>
<opset="j_cast2 "/>
</bind>
</comp>

<comp id="402" class="1005" name="j_1_reg_402">
<pin_list>
<pin id="403" dir="0" index="0" bw="9" slack="0"/>
<pin id="404" dir="1" index="1" bw="9" slack="0"/>
</pin_list>
<bind>
<opset="j_1 "/>
</bind>
</comp>

<comp id="407" class="1005" name="c_out_reg_407">
<pin_list>
<pin id="408" dir="0" index="0" bw="64" slack="1"/>
<pin id="409" dir="1" index="1" bw="64" slack="1"/>
</pin_list>
<bind>
<opset="c_out "/>
</bind>
</comp>

<comp id="412" class="1005" name="s_out_reg_412">
<pin_list>
<pin id="413" dir="0" index="0" bw="64" slack="1"/>
<pin id="414" dir="1" index="1" bw="64" slack="1"/>
</pin_list>
<bind>
<opset="s_out "/>
</bind>
</comp>

<comp id="417" class="1005" name="c_reg_417">
<pin_list>
<pin id="418" dir="0" index="0" bw="32" slack="1"/>
<pin id="419" dir="1" index="1" bw="32" slack="1"/>
</pin_list>
<bind>
<opset="c "/>
</bind>
</comp>

<comp id="423" class="1005" name="s_reg_423">
<pin_list>
<pin id="424" dir="0" index="0" bw="32" slack="1"/>
<pin id="425" dir="1" index="1" bw="32" slack="1"/>
</pin_list>
<bind>
<opset="s "/>
</bind>
</comp>

<comp id="429" class="1005" name="sample_real_addr_1_reg_429">
<pin_list>
<pin id="430" dir="0" index="0" bw="8" slack="1"/>
<pin id="431" dir="1" index="1" bw="8" slack="1"/>
</pin_list>
<bind>
<opset="sample_real_addr_1 "/>
</bind>
</comp>

<comp id="434" class="1005" name="sample_imag_addr_1_reg_434">
<pin_list>
<pin id="435" dir="0" index="0" bw="8" slack="1"/>
<pin id="436" dir="1" index="1" bw="8" slack="1"/>
</pin_list>
<bind>
<opset="sample_imag_addr_1 "/>
</bind>
</comp>

<comp id="439" class="1005" name="sample_real_load_reg_439">
<pin_list>
<pin id="440" dir="0" index="0" bw="32" slack="1"/>
<pin id="441" dir="1" index="1" bw="32" slack="1"/>
</pin_list>
<bind>
<opset="sample_real_load "/>
</bind>
</comp>

<comp id="445" class="1005" name="sample_imag_load_reg_445">
<pin_list>
<pin id="446" dir="0" index="0" bw="32" slack="1"/>
<pin id="447" dir="1" index="1" bw="32" slack="1"/>
</pin_list>
<bind>
<opset="sample_imag_load "/>
</bind>
</comp>

<comp id="451" class="1005" name="tmp_25_reg_451">
<pin_list>
<pin id="452" dir="0" index="0" bw="32" slack="1"/>
<pin id="453" dir="1" index="1" bw="32" slack="1"/>
</pin_list>
<bind>
<opset="tmp_25 "/>
</bind>
</comp>

<comp id="456" class="1005" name="tmp_28_reg_456">
<pin_list>
<pin id="457" dir="0" index="0" bw="32" slack="1"/>
<pin id="458" dir="1" index="1" bw="32" slack="1"/>
</pin_list>
<bind>
<opset="tmp_28 "/>
</bind>
</comp>

<comp id="461" class="1005" name="tmp_29_reg_461">
<pin_list>
<pin id="462" dir="0" index="0" bw="32" slack="1"/>
<pin id="463" dir="1" index="1" bw="32" slack="1"/>
</pin_list>
<bind>
<opset="tmp_29 "/>
</bind>
</comp>

<comp id="469" class="1005" name="i_1_reg_469">
<pin_list>
<pin id="470" dir="0" index="0" bw="9" slack="0"/>
<pin id="471" dir="1" index="1" bw="9" slack="0"/>
</pin_list>
<bind>
<opset="i_1 "/>
</bind>
</comp>

<comp id="474" class="1005" name="tmp_19_reg_474">
<pin_list>
<pin id="475" dir="0" index="0" bw="64" slack="1"/>
<pin id="476" dir="1" index="1" bw="64" slack="1"/>
</pin_list>
<bind>
<opset="tmp_19 "/>
</bind>
</comp>

<comp id="480" class="1005" name="tmp_real_addr_1_reg_480">
<pin_list>
<pin id="481" dir="0" index="0" bw="8" slack="1"/>
<pin id="482" dir="1" index="1" bw="8" slack="1"/>
</pin_list>
<bind>
<opset="tmp_real_addr_1 "/>
</bind>
</comp>

<comp id="485" class="1005" name="tmp_imag_addr_1_reg_485">
<pin_list>
<pin id="486" dir="0" index="0" bw="8" slack="1"/>
<pin id="487" dir="1" index="1" bw="8" slack="1"/>
</pin_list>
<bind>
<opset="tmp_imag_addr_1 "/>
</bind>
</comp>

</comp_list>

<net_list>
<net id="41"><net_src comp="14" pin="0"/><net_sink comp="38" pin=0"/></net>

<net id="45"><net_src comp="14" pin="0"/><net_sink comp="42" pin=0"/></net>

<net id="51"><net_src comp="30" pin="0"/><net_sink comp="46" pin=1"/></net>

<net id="56"><net_src comp="32" pin="0"/><net_sink comp="52" pin=1"/></net>

<net id="57"><net_src comp="46" pin="3"/><net_sink comp="52" pin=0"/></net>

<net id="63"><net_src comp="30" pin="0"/><net_sink comp="58" pin=1"/></net>

<net id="68"><net_src comp="32" pin="0"/><net_sink comp="64" pin=1"/></net>

<net id="69"><net_src comp="58" pin="3"/><net_sink comp="64" pin=0"/></net>

<net id="75"><net_src comp="0" pin="0"/><net_sink comp="70" pin=0"/></net>

<net id="76"><net_src comp="30" pin="0"/><net_sink comp="70" pin=1"/></net>

<net id="81"><net_src comp="70" pin="3"/><net_sink comp="77" pin=0"/></net>

<net id="87"><net_src comp="2" pin="0"/><net_sink comp="82" pin=0"/></net>

<net id="88"><net_src comp="30" pin="0"/><net_sink comp="82" pin=1"/></net>

<net id="93"><net_src comp="82" pin="3"/><net_sink comp="89" pin=0"/></net>

<net id="99"><net_src comp="30" pin="0"/><net_sink comp="94" pin=1"/></net>

<net id="100"><net_src comp="94" pin="3"/><net_sink comp="52" pin=0"/></net>

<net id="106"><net_src comp="30" pin="0"/><net_sink comp="101" pin=1"/></net>

<net id="107"><net_src comp="101" pin="3"/><net_sink comp="64" pin=0"/></net>

<net id="113"><net_src comp="0" pin="0"/><net_sink comp="108" pin=0"/></net>

<net id="114"><net_src comp="30" pin="0"/><net_sink comp="108" pin=1"/></net>

<net id="115"><net_src comp="52" pin="2"/><net_sink comp="77" pin=1"/></net>

<net id="116"><net_src comp="108" pin="3"/><net_sink comp="77" pin=0"/></net>

<net id="122"><net_src comp="2" pin="0"/><net_sink comp="117" pin=0"/></net>

<net id="123"><net_src comp="30" pin="0"/><net_sink comp="117" pin=1"/></net>

<net id="124"><net_src comp="64" pin="2"/><net_sink comp="89" pin=1"/></net>

<net id="125"><net_src comp="117" pin="3"/><net_sink comp="89" pin=0"/></net>

<net id="129"><net_src comp="16" pin="0"/><net_sink comp="126" pin=0"/></net>

<net id="136"><net_src comp="126" pin="1"/><net_sink comp="130" pin=0"/></net>

<net id="137"><net_src comp="130" pin="4"/><net_sink comp="126" pin=0"/></net>

<net id="141"><net_src comp="32" pin="0"/><net_sink comp="138" pin=0"/></net>

<net id="148"><net_src comp="138" pin="1"/><net_sink comp="142" pin=0"/></net>

<net id="149"><net_src comp="142" pin="4"/><net_sink comp="138" pin=0"/></net>

<net id="153"><net_src comp="32" pin="0"/><net_sink comp="150" pin=0"/></net>

<net id="160"><net_src comp="150" pin="1"/><net_sink comp="154" pin=0"/></net>

<net id="161"><net_src comp="154" pin="4"/><net_sink comp="150" pin=0"/></net>

<net id="165"><net_src comp="16" pin="0"/><net_sink comp="162" pin=0"/></net>

<net id="172"><net_src comp="162" pin="1"/><net_sink comp="166" pin=0"/></net>

<net id="173"><net_src comp="166" pin="4"/><net_sink comp="162" pin=0"/></net>

<net id="177"><net_src comp="16" pin="0"/><net_sink comp="174" pin=0"/></net>

<net id="184"><net_src comp="174" pin="1"/><net_sink comp="178" pin=2"/></net>

<net id="191"><net_src comp="34" pin="0"/><net_sink comp="185" pin=0"/></net>

<net id="192"><net_src comp="4" pin="0"/><net_sink comp="185" pin=2"/></net>

<net id="193"><net_src comp="6" pin="0"/><net_sink comp="185" pin=3"/></net>

<net id="202"><net_src comp="150" pin="1"/><net_sink comp="194" pin=0"/></net>

<net id="203"><net_src comp="138" pin="1"/><net_sink comp="198" pin=0"/></net>

<net id="208"><net_src comp="77" pin="2"/><net_sink comp="204" pin=0"/></net>

<net id="213"><net_src comp="89" pin="2"/><net_sink comp="209" pin=0"/></net>

<net id="218"><net_src comp="77" pin="2"/><net_sink comp="214" pin=0"/></net>

<net id="223"><net_src comp="89" pin="2"/><net_sink comp="219" pin=0"/></net>

<net id="240"><net_src comp="26" pin="0"/><net_sink comp="236" pin=1"/></net>

<net id="241"><net_src comp="28" pin="0"/><net_sink comp="236" pin=1"/></net>

<net id="245"><net_src comp="224" pin="1"/><net_sink comp="242" pin=0"/></net>

<net id="246"><net_src comp="242" pin="1"/><net_sink comp="233" pin=0"/></net>

<net id="247"><net_src comp="242" pin="1"/><net_sink comp="204" pin=0"/></net>

<net id="251"><net_src comp="233" pin="1"/><net_sink comp="248" pin=0"/></net>

<net id="252"><net_src comp="248" pin="1"/><net_sink comp="236" pin=0"/></net>

<net id="253"><net_src comp="248" pin="1"/><net_sink comp="185" pin=1"/></net>

<net id="257"><net_src comp="236" pin="2"/><net_sink comp="254" pin=0"/></net>

<net id="258"><net_src comp="254" pin="1"/><net_sink comp="236" pin=0"/></net>

<net id="259"><net_src comp="254" pin="1"/><net_sink comp="227" pin=0"/></net>

<net id="263"><net_src comp="204" pin="2"/><net_sink comp="260" pin=0"/></net>

<net id="264"><net_src comp="260" pin="1"/><net_sink comp="233" pin=0"/></net>

<net id="265"><net_src comp="260" pin="1"/><net_sink comp="194" pin=0"/></net>

<net id="269"><net_src comp="194" pin="2"/><net_sink comp="266" pin=0"/></net>

<net id="270"><net_src comp="266" pin="1"/><net_sink comp="194" pin=1"/></net>

<net id="271"><net_src comp="266" pin="1"/><net_sink comp="154" pin=2"/></net>

<net id="272"><net_src comp="266" pin="1"/><net_sink comp="52" pin=1"/></net>

<net id="276"><net_src comp="198" pin="2"/><net_sink comp="273" pin=0"/></net>

<net id="277"><net_src comp="273" pin="1"/><net_sink comp="198" pin=1"/></net>

<net id="278"><net_src comp="273" pin="1"/><net_sink comp="142" pin=2"/></net>

<net id="279"><net_src comp="273" pin="1"/><net_sink comp="64" pin=1"/></net>

<net id="283"><net_src comp="130" pin="4"/><net_sink comp="280" pin=0"/></net>

<net id="284"><net_src comp="280" pin="1"/><net_sink comp="224" pin=0"/></net>

<net id="289"><net_src comp="130" pin="4"/><net_sink comp="285" pin=0"/></net>

<net id="290"><net_src comp="18" pin="0"/><net_sink comp="285" pin=1"/></net>

<net id="295"><net_src comp="130" pin="4"/><net_sink comp="291" pin=0"/></net>

<net id="296"><net_src comp="24" pin="0"/><net_sink comp="291" pin=1"/></net>

<net id="300"><net_src comp="126" pin="1"/><net_sink comp="297" pin=0"/></net>

<net id="301"><net_src comp="297" pin="1"/><net_sink comp="46" pin=2"/></net>

<net id="302"><net_src comp="297" pin="1"/><net_sink comp="58" pin=2"/></net>

<net id="306"><net_src comp="166" pin="4"/><net_sink comp="303" pin=0"/></net>

<net id="307"><net_src comp="303" pin="1"/><net_sink comp="224" pin=0"/></net>

<net id="312"><net_src comp="166" pin="4"/><net_sink comp="308" pin=0"/></net>

<net id="313"><net_src comp="18" pin="0"/><net_sink comp="308" pin=1"/></net>

<net id="318"><net_src comp="166" pin="4"/><net_sink comp="314" pin=0"/></net>

<net id="319"><net_src comp="24" pin="0"/><net_sink comp="314" pin=1"/></net>

<net id="323"><net_src comp="185" pin="4"/><net_sink comp="320" pin=0"/></net>

<net id="327"><net_src comp="185" pin="4"/><net_sink comp="324" pin=0"/></net>

<net id="335"><net_src comp="328" pin="1"/><net_sink comp="331" pin=0"/></net>

<net id="336"><net_src comp="36" pin="0"/><net_sink comp="331" pin=1"/></net>

<net id="340"><net_src comp="331" pin="2"/><net_sink comp="337" pin=0"/></net>

<net id="341"><net_src comp="337" pin="1"/><net_sink comp="230" pin=0"/></net>

<net id="345"><net_src comp="162" pin="1"/><net_sink comp="342" pin=0"/></net>

<net id="346"><net_src comp="342" pin="1"/><net_sink comp="70" pin=2"/></net>

<net id="347"><net_src comp="342" pin="1"/><net_sink comp="82" pin=2"/></net>

<net id="352"><net_src comp="178" pin="4"/><net_sink comp="348" pin=0"/></net>

<net id="353"><net_src comp="18" pin="0"/><net_sink comp="348" pin=1"/></net>

<net id="358"><net_src comp="178" pin="4"/><net_sink comp="354" pin=0"/></net>

<net id="359"><net_src comp="24" pin="0"/><net_sink comp="354" pin=1"/></net>

<net id="363"><net_src comp="178" pin="4"/><net_sink comp="360" pin=0"/></net>

<net id="364"><net_src comp="360" pin="1"/><net_sink comp="94" pin=2"/></net>

<net id="365"><net_src comp="360" pin="1"/><net_sink comp="101" pin=2"/></net>

<net id="369"><net_src comp="280" pin="1"/><net_sink comp="366" pin=0"/></net>

<net id="370"><net_src comp="366" pin="1"/><net_sink comp="224" pin=0"/></net>

<net id="377"><net_src comp="291" pin="2"/><net_sink comp="374" pin=0"/></net>

<net id="378"><net_src comp="374" pin="1"/><net_sink comp="130" pin=2"/></net>

<net id="382"><net_src comp="46" pin="3"/><net_sink comp="379" pin=0"/></net>

<net id="383"><net_src comp="379" pin="1"/><net_sink comp="52" pin=0"/></net>

<net id="387"><net_src comp="58" pin="3"/><net_sink comp="384" pin=0"/></net>

<net id="388"><net_src comp="384" pin="1"/><net_sink comp="64" pin=0"/></net>

<net id="392"><net_src comp="227" pin="1"/><net_sink comp="389" pin=0"/></net>

<net id="393"><net_src comp="389" pin="1"/><net_sink comp="204" pin=1"/></net>

<net id="397"><net_src comp="303" pin="1"/><net_sink comp="394" pin=0"/></net>

<net id="398"><net_src comp="394" pin="1"/><net_sink comp="224" pin=0"/></net>

<net id="405"><net_src comp="314" pin="2"/><net_sink comp="402" pin=0"/></net>

<net id="406"><net_src comp="402" pin="1"/><net_sink comp="166" pin=2"/></net>

<net id="410"><net_src comp="320" pin="1"/><net_sink comp="407" pin=0"/></net>

<net id="411"><net_src comp="407" pin="1"/><net_sink comp="227" pin=0"/></net>

<net id="415"><net_src comp="324" pin="1"/><net_sink comp="412" pin=0"/></net>

<net id="416"><net_src comp="412" pin="1"/><net_sink comp="328" pin=0"/></net>

<net id="420"><net_src comp="227" pin="1"/><net_sink comp="417" pin=0"/></net>

<net id="421"><net_src comp="417" pin="1"/><net_sink comp="204" pin=1"/></net>

<net id="422"><net_src comp="417" pin="1"/><net_sink comp="219" pin=1"/></net>

<net id="426"><net_src comp="230" pin="1"/><net_sink comp="423" pin=0"/></net>

<net id="427"><net_src comp="423" pin="1"/><net_sink comp="209" pin=1"/></net>

<net id="428"><net_src comp="423" pin="1"/><net_sink comp="214" pin=1"/></net>

<net id="432"><net_src comp="70" pin="3"/><net_sink comp="429" pin=0"/></net>

<net id="433"><net_src comp="429" pin="1"/><net_sink comp="77" pin=0"/></net>

<net id="437"><net_src comp="82" pin="3"/><net_sink comp="434" pin=0"/></net>

<net id="438"><net_src comp="434" pin="1"/><net_sink comp="89" pin=0"/></net>

<net id="442"><net_src comp="77" pin="2"/><net_sink comp="439" pin=0"/></net>

<net id="443"><net_src comp="439" pin="1"/><net_sink comp="204" pin=0"/></net>

<net id="444"><net_src comp="439" pin="1"/><net_sink comp="214" pin=0"/></net>

<net id="448"><net_src comp="89" pin="2"/><net_sink comp="445" pin=0"/></net>

<net id="449"><net_src comp="445" pin="1"/><net_sink comp="209" pin=0"/></net>

<net id="450"><net_src comp="445" pin="1"/><net_sink comp="219" pin=0"/></net>

<net id="454"><net_src comp="209" pin="2"/><net_sink comp="451" pin=0"/></net>

<net id="455"><net_src comp="451" pin="1"/><net_sink comp="194" pin=1"/></net>

<net id="459"><net_src comp="214" pin="2"/><net_sink comp="456" pin=0"/></net>

<net id="460"><net_src comp="456" pin="1"/><net_sink comp="198" pin=0"/></net>

<net id="464"><net_src comp="219" pin="2"/><net_sink comp="461" pin=0"/></net>

<net id="465"><net_src comp="461" pin="1"/><net_sink comp="198" pin=1"/></net>

<net id="472"><net_src comp="354" pin="2"/><net_sink comp="469" pin=0"/></net>

<net id="473"><net_src comp="469" pin="1"/><net_sink comp="178" pin=0"/></net>

<net id="477"><net_src comp="360" pin="1"/><net_sink comp="474" pin=0"/></net>

<net id="478"><net_src comp="474" pin="1"/><net_sink comp="108" pin=2"/></net>

<net id="479"><net_src comp="474" pin="1"/><net_sink comp="117" pin=2"/></net>

<net id="483"><net_src comp="94" pin="3"/><net_sink comp="480" pin=0"/></net>

<net id="484"><net_src comp="480" pin="1"/><net_sink comp="52" pin=0"/></net>

<net id="488"><net_src comp="101" pin="3"/><net_sink comp="485" pin=0"/></net>

<net id="489"><net_src comp="485" pin="1"/><net_sink comp="64" pin=0"/></net>

</net_list>

</model> 
---------------- Datapath Model END ------------------

* FSMD analyzer results:
  - Output states:
  - Chain level:
	State 1
	State 2
		i_cast3 : 1
		exitcond2 : 1
		i_2 : 1
		stg_64 : 2
		tmp_s : 2
	State 3
	State 4
	State 5
	State 6
	State 7
	State 8
	State 9
	State 10
	State 11
	State 12
	State 13
	State 14
	State 15
	State 16
	State 17
	State 18
	State 19
	State 20
	State 21
		tmp_real_addr : 1
		stg_86 : 2
		tmp_imag_addr : 1
		stg_88 : 2
	State 22
		j_cast2 : 1
		exitcond1 : 1
		j_1 : 1
		stg_98 : 2
		tmp_20 : 2
	State 23
	State 24
	State 25
	State 26
	State 27
	State 28
	State 29
	State 30
	State 31
	State 32
	State 33
	State 34
		c_out : 1
		s_out : 1
	State 35
		tmp_108_neg : 1
		tmp_22 : 1
		s : 2
		sample_real_addr_1 : 1
		sample_real_load : 2
		sample_imag_addr_1 : 1
		sample_imag_load : 2
	State 36
		tmp_24 : 1
		tmp_25 : 1
		tmp_28 : 1
		tmp_29 : 1
	State 37
	State 38
	State 39
	State 40
	State 41
	State 42
	State 43
	State 44
	State 45
	State 46
	State 47
	State 48
	State 49
	State 50
	State 51
		exitcond : 1
		i_1 : 1
		stg_169 : 2
		tmp_19 : 1
		tmp_real_addr_1 : 2
		tmp_real_load : 3
		tmp_imag_addr_1 : 2
		tmp_imag_load : 3
	State 52
		stg_178 : 1
		stg_181 : 1


============================================================
+ Verbose Summary: Datapath Resource usage 
============================================================

* Functional unit list:
|----------|-------------------------------------------|---------|---------|---------|---------|---------|
| Operation|              Functional Unit              |   BRAM  |  DSP48E |  Delay  |    FF   |   LUT   |
|----------|-------------------------------------------|---------|---------|---------|---------|---------|
|   call   | grp_dft_sin_cos_range_redux_cordic_fu_185 |    1    |    4    |  25.872 |   4036  |  11699  |
|----------|-------------------------------------------|---------|---------|---------|---------|---------|
|          |                 grp_fu_204                |    0    |    3    |    0    |   143   |   321   |
|   fmul   |                 grp_fu_209                |    0    |    3    |    0    |   143   |   321   |
|          |                 grp_fu_214                |    0    |    3    |    0    |   143   |   321   |
|          |                 grp_fu_219                |    0    |    3    |    0    |   143   |   321   |
|----------|-------------------------------------------|---------|---------|---------|---------|---------|
|   fadd   |                 grp_fu_194                |    0    |    2    |    0    |   205   |   390   |
|          |                 grp_fu_198                |    0    |    2    |    0    |   205   |   390   |
|----------|-------------------------------------------|---------|---------|---------|---------|---------|
|   dmul   |                 grp_fu_236                |    0    |    11   |    0    |   317   |   578   |
|----------|-------------------------------------------|---------|---------|---------|---------|---------|
|  sitofp  |                 grp_fu_224                |    0    |    0    |    0    |   340   |   554   |
|----------|-------------------------------------------|---------|---------|---------|---------|---------|
|  fptrunc |                 grp_fu_227                |    0    |    0    |    0    |   128   |   277   |
|          |                  s_fu_230                 |    0    |    0    |    0    |   128   |   277   |
|----------|-------------------------------------------|---------|---------|---------|---------|---------|
|   fpext  |                 grp_fu_233                |    0    |    0    |    0    |   100   |   138   |
|----------|-------------------------------------------|---------|---------|---------|---------|---------|
|    xor   |             tmp_108_neg_fu_331            |    0    |    0    |    0    |    0    |    87   |
|----------|-------------------------------------------|---------|---------|---------|---------|---------|
|          |                 i_2_fu_291                |    0    |    0    |    0    |    0    |    9    |
|    add   |                 j_1_fu_314                |    0    |    0    |    0    |    0    |    9    |
|          |                 i_1_fu_354                |    0    |    0    |    0    |    0    |    9    |
|----------|-------------------------------------------|---------|---------|---------|---------|---------|
|          |              exitcond2_fu_285             |    0    |    0    |    0    |    0    |    3    |
|   icmp   |              exitcond1_fu_308             |    0    |    0    |    0    |    0    |    3    |
|          |              exitcond_fu_348              |    0    |    0    |    0    |    0    |    3    |
|----------|-------------------------------------------|---------|---------|---------|---------|---------|
|          |               i_cast3_fu_280              |    0    |    0    |    0    |    0    |    0    |
|          |                 tmp_fu_297                |    0    |    0    |    0    |    0    |    0    |
|   zext   |               j_cast2_fu_303              |    0    |    0    |    0    |    0    |    0    |
|          |               tmp_23_fu_342               |    0    |    0    |    0    |    0    |    0    |
|          |               tmp_19_fu_360               |    0    |    0    |    0    |    0    |    0    |
|----------|-------------------------------------------|---------|---------|---------|---------|---------|
|extractvalue|                c_out_fu_320               |    0    |    0    |    0    |    0    |    0    |
|          |                s_out_fu_324               |    0    |    0    |    0    |    0    |    0    |
|----------|-------------------------------------------|---------|---------|---------|---------|---------|
|   Total  |                                           |    1    |    31   |  25.872 |   6031  |  15710  |
|----------|-------------------------------------------|---------|---------|---------|---------|---------|

Memories:
+---------------------------+--------+--------+--------+
|                           |  BRAM  |   FF   |   LUT  |
+---------------------------+--------+--------+--------+
|hls_cordic_ctab_table_128_V|    4   |    0   |    0   |
|            pp_V           |    0   |   70   |    9   |
|          tmp_imag         |    1   |    0   |    0   |
|          tmp_real         |    1   |    0   |    0   |
+---------------------------+--------+--------+--------+
|           Total           |    6   |   70   |    9   |
+---------------------------+--------+--------+--------+

* Register list:
+--------------------------+--------+
|                          |   FF   |
+--------------------------+--------+
|       c_out_reg_407      |   64   |
|         c_reg_417        |   32   |
|        i1_reg_174        |    9   |
|        i_1_reg_469       |    9   |
|        i_2_reg_374       |    9   |
|      i_cast3_reg_366     |   32   |
|         i_reg_126        |    9   |
|        j_1_reg_402       |    9   |
|      j_cast2_reg_394     |   32   |
|         j_reg_162        |    9   |
|          reg_242         |   32   |
|          reg_248         |   64   |
|          reg_254         |   64   |
|          reg_260         |   32   |
|          reg_266         |   32   |
|          reg_273         |   32   |
|       s_out_reg_412      |   64   |
|         s_reg_423        |   32   |
|sample_imag_addr_1_reg_434|    8   |
| sample_imag_load_reg_445 |   32   |
|sample_real_addr_1_reg_429|    8   |
| sample_real_load_reg_439 |   32   |
|      tmp_17_reg_138      |   32   |
|      tmp_18_reg_150      |   32   |
|      tmp_19_reg_474      |   64   |
|      tmp_25_reg_451      |   32   |
|      tmp_28_reg_456      |   32   |
|      tmp_29_reg_461      |   32   |
|  tmp_imag_addr_1_reg_485 |    8   |
|   tmp_imag_addr_reg_384  |    8   |
|  tmp_real_addr_1_reg_480 |    8   |
|   tmp_real_addr_reg_379  |    8   |
|         w_reg_389        |   32   |
+--------------------------+--------+
|           Total          |   934  |
+--------------------------+--------+

* Multiplexer (MUX) list: 
|------------------|------|------|------|--------||---------||---------|
|       Comp       |  Pin | Size |  BW  | S x BW ||  Delay  ||   LUT   |
|------------------|------|------|------|--------||---------||---------|
| grp_access_fu_52 |  p0  |   4  |   8  |   32   ||    8    |
| grp_access_fu_52 |  p1  |   2  |  32  |   64   ||    32   |
| grp_access_fu_64 |  p0  |   4  |   8  |   32   ||    8    |
| grp_access_fu_64 |  p1  |   2  |  32  |   64   ||    32   |
| grp_access_fu_77 |  p0  |   3  |   8  |   24   ||    8    |
| grp_access_fu_89 |  p0  |   3  |   8  |   24   ||    8    |
|     i_reg_126    |  p0  |   2  |   9  |   18   ||    9    |
|  tmp_17_reg_138  |  p0  |   2  |  32  |   64   ||    32   |
|  tmp_18_reg_150  |  p0  |   2  |  32  |   64   ||    32   |
|     j_reg_162    |  p0  |   2  |   9  |   18   ||    9    |
|    grp_fu_194    |  p0  |   2  |  32  |   64   ||    32   |
|    grp_fu_194    |  p1  |   2  |  32  |   64   ||    32   |
|    grp_fu_198    |  p0  |   2  |  32  |   64   ||    32   |
|    grp_fu_198    |  p1  |   2  |  32  |   64   ||    32   |
|    grp_fu_204    |  p0  |   3  |  32  |   96   ||    32   |
|    grp_fu_204    |  p1  |   2  |  32  |   64   ||    32   |
|    grp_fu_209    |  p0  |   2  |  32  |   64   ||    32   |
|    grp_fu_214    |  p0  |   2  |  32  |   64   ||    32   |
|    grp_fu_219    |  p0  |   2  |  32  |   64   ||    32   |
|    grp_fu_224    |  p0  |   4  |   9  |   36   ||    9    |
|    grp_fu_227    |  p0  |   2  |  64  |   128  ||    64   |
|    grp_fu_233    |  p0  |   2  |  32  |   64   ||    32   |
|    grp_fu_236    |  p0  |   2  |  64  |   128  ||    64   |
|    grp_fu_236    |  p1  |   2  |  64  |   128  |
|------------------|------|------|------|--------||---------||---------|
|       Total      |      |      |      |  1496  ||  37.704 ||   635   |
|------------------|------|------|------|--------||---------||---------|



* Summary:
+-----------+--------+--------+--------+--------+--------+
|           |  BRAM  | DSP48E |  Delay |   FF   |   LUT  |
+-----------+--------+--------+--------+--------+--------+
|  Function |    1   |   31   |   25   |  6031  |  15710 |
|   Memory  |    6   |    -   |    -   |   70   |    9   |
|Multiplexer|    -   |    -   |   37   |    -   |   635  |
|  Register |    -   |    -   |    -   |   934  |    -   |
+-----------+--------+--------+--------+--------+--------+
|   Total   |    7   |   31   |   63   |  7035  |  16354 |
+-----------+--------+--------+--------+--------+--------+
