

================================================================
== Vivado HLS Report for 'dft_loop_flow1024'
================================================================
* Date:           Thu Nov 03 00:37:16 2016

* Version:        2015.4 (Build 1412921 on Wed Nov 18 09:58:55 AM 2015)
* Project:        dft
* Solution:       solution3
* Product family: zynq
* Target device:  xc7z020clg484-1


================================================================
== Performance Estimates
================================================================
+ Timing (ns): 
    * Summary: 
    +--------+-------+----------+------------+
    |  Clock | Target| Estimated| Uncertainty|
    +--------+-------+----------+------------+
    |ap_clk  |  10.00|      8.22|        1.25|
    +--------+-------+----------+------------+

+ Latency (clock cycles): 
    * Summary: 
    +-----+-----+-----+-----+----------+
    |  Latency  |  Interval | Pipeline |
    | min | max | min | max |   Type   |
    +-----+-----+-----+-----+----------+
    |  357|  357|  358|  358| dataflow |
    +-----+-----+-----+-----+----------+

    + Detail: 
        * Instance: 
        +-----------------------------------------+-------------------------------+-----+-----+-----+-----+---------+
        |                                         |                               |  Latency  |  Interval | Pipeline|
        |                 Instance                |             Module            | min | max | min | max |   Type  |
        +-----------------------------------------+-------------------------------+-----+-----+-----+-----+---------+
        |grp_dft_loop_flow1024_Loop_1_proc_fu_98  |dft_loop_flow1024_Loop_1_proc  |  357|  357|  357|  357|   none  |
        +-----------------------------------------+-------------------------------+-----+-----+-----+-----+---------+

        * Loop: 
        N/A



================================================================
== Utilization Estimates
================================================================
* Summary: 
+-----------------+---------+-------+--------+-------+
|       Name      | BRAM_18K| DSP48E|   FF   |  LUT  |
+-----------------+---------+-------+--------+-------+
|DSP              |        -|      -|       -|      -|
|Expression       |        -|      -|       -|      -|
|FIFO             |        -|      -|       -|      -|
|Instance         |       64|     54|    4841|  10205|
|Memory           |        -|      -|       -|      -|
|Multiplexer      |        -|      -|       -|      -|
|Register         |        -|      -|       2|      -|
+-----------------+---------+-------+--------+-------+
|Total            |       64|     54|    4843|  10205|
+-----------------+---------+-------+--------+-------+
|Available        |      280|    220|  106400|  53200|
+-----------------+---------+-------+--------+-------+
|Utilization (%)  |       22|     24|       4|     19|
+-----------------+---------+-------+--------+-------+

+ Detail: 
    * Instance: 
    +----------------------------------+-------------------------------+---------+-------+------+-------+
    |             Instance             |             Module            | BRAM_18K| DSP48E|  FF  |  LUT  |
    +----------------------------------+-------------------------------+---------+-------+------+-------+
    |dft_loop_flow1024_Loop_1_proc_U0  |dft_loop_flow1024_Loop_1_proc  |       64|     54|  4841|  10205|
    +----------------------------------+-------------------------------+---------+-------+------+-------+
    |Total                             |                               |       64|     54|  4841|  10205|
    +----------------------------------+-------------------------------+---------+-------+------+-------+

    * DSP48: 
    N/A

    * Memory: 
    N/A

    * FIFO: 
    N/A

    * Expression: 
    N/A

    * Multiplexer: 
    N/A

    * Register: 
    +--------------------------------------------------+---+----+-----+-----------+
    |                       Name                       | FF| LUT| Bits| Const Bits|
    +--------------------------------------------------+---+----+-----+-----------+
    |ap_CS                                             |  1|   0|    1|          0|
    |ap_reg_procdone_dft_loop_flow1024_Loop_1_proc_U0  |  1|   0|    1|          0|
    +--------------------------------------------------+---+----+-----+-----------+
    |Total                                             |  2|   0|    2|          0|
    +--------------------------------------------------+---+----+-----+-----------+



================================================================
== Interface
================================================================
* Summary: 
+-------------------------+-----+-----+------------+-------------------+--------------+
|        RTL Ports        | Dir | Bits|  Protocol  |   Source Object   |    C Type    |
+-------------------------+-----+-----+------------+-------------------+--------------+
|i_V_read                 |  in |   11|   ap_none  |      i_V_read     |    scalar    |
|real_i_0_address0        | out |    7|  ap_memory |      real_i_0     |     array    |
|real_i_0_ce0             | out |    1|  ap_memory |      real_i_0     |     array    |
|real_i_0_d0              | out |   32|  ap_memory |      real_i_0     |     array    |
|real_i_0_q0              |  in |   32|  ap_memory |      real_i_0     |     array    |
|real_i_0_we0             | out |    1|  ap_memory |      real_i_0     |     array    |
|real_i_0_address1        | out |    7|  ap_memory |      real_i_0     |     array    |
|real_i_0_ce1             | out |    1|  ap_memory |      real_i_0     |     array    |
|real_i_0_d1              | out |   32|  ap_memory |      real_i_0     |     array    |
|real_i_0_q1              |  in |   32|  ap_memory |      real_i_0     |     array    |
|real_i_0_we1             | out |    1|  ap_memory |      real_i_0     |     array    |
|real_i_1_address0        | out |    7|  ap_memory |      real_i_1     |     array    |
|real_i_1_ce0             | out |    1|  ap_memory |      real_i_1     |     array    |
|real_i_1_d0              | out |   32|  ap_memory |      real_i_1     |     array    |
|real_i_1_q0              |  in |   32|  ap_memory |      real_i_1     |     array    |
|real_i_1_we0             | out |    1|  ap_memory |      real_i_1     |     array    |
|real_i_1_address1        | out |    7|  ap_memory |      real_i_1     |     array    |
|real_i_1_ce1             | out |    1|  ap_memory |      real_i_1     |     array    |
|real_i_1_d1              | out |   32|  ap_memory |      real_i_1     |     array    |
|real_i_1_q1              |  in |   32|  ap_memory |      real_i_1     |     array    |
|real_i_1_we1             | out |    1|  ap_memory |      real_i_1     |     array    |
|real_i_2_address0        | out |    7|  ap_memory |      real_i_2     |     array    |
|real_i_2_ce0             | out |    1|  ap_memory |      real_i_2     |     array    |
|real_i_2_d0              | out |   32|  ap_memory |      real_i_2     |     array    |
|real_i_2_q0              |  in |   32|  ap_memory |      real_i_2     |     array    |
|real_i_2_we0             | out |    1|  ap_memory |      real_i_2     |     array    |
|real_i_2_address1        | out |    7|  ap_memory |      real_i_2     |     array    |
|real_i_2_ce1             | out |    1|  ap_memory |      real_i_2     |     array    |
|real_i_2_d1              | out |   32|  ap_memory |      real_i_2     |     array    |
|real_i_2_q1              |  in |   32|  ap_memory |      real_i_2     |     array    |
|real_i_2_we1             | out |    1|  ap_memory |      real_i_2     |     array    |
|real_i_3_address0        | out |    7|  ap_memory |      real_i_3     |     array    |
|real_i_3_ce0             | out |    1|  ap_memory |      real_i_3     |     array    |
|real_i_3_d0              | out |   32|  ap_memory |      real_i_3     |     array    |
|real_i_3_q0              |  in |   32|  ap_memory |      real_i_3     |     array    |
|real_i_3_we0             | out |    1|  ap_memory |      real_i_3     |     array    |
|real_i_3_address1        | out |    7|  ap_memory |      real_i_3     |     array    |
|real_i_3_ce1             | out |    1|  ap_memory |      real_i_3     |     array    |
|real_i_3_d1              | out |   32|  ap_memory |      real_i_3     |     array    |
|real_i_3_q1              |  in |   32|  ap_memory |      real_i_3     |     array    |
|real_i_3_we1             | out |    1|  ap_memory |      real_i_3     |     array    |
|real_i_4_address0        | out |    7|  ap_memory |      real_i_4     |     array    |
|real_i_4_ce0             | out |    1|  ap_memory |      real_i_4     |     array    |
|real_i_4_d0              | out |   32|  ap_memory |      real_i_4     |     array    |
|real_i_4_q0              |  in |   32|  ap_memory |      real_i_4     |     array    |
|real_i_4_we0             | out |    1|  ap_memory |      real_i_4     |     array    |
|real_i_4_address1        | out |    7|  ap_memory |      real_i_4     |     array    |
|real_i_4_ce1             | out |    1|  ap_memory |      real_i_4     |     array    |
|real_i_4_d1              | out |   32|  ap_memory |      real_i_4     |     array    |
|real_i_4_q1              |  in |   32|  ap_memory |      real_i_4     |     array    |
|real_i_4_we1             | out |    1|  ap_memory |      real_i_4     |     array    |
|real_i_5_address0        | out |    7|  ap_memory |      real_i_5     |     array    |
|real_i_5_ce0             | out |    1|  ap_memory |      real_i_5     |     array    |
|real_i_5_d0              | out |   32|  ap_memory |      real_i_5     |     array    |
|real_i_5_q0              |  in |   32|  ap_memory |      real_i_5     |     array    |
|real_i_5_we0             | out |    1|  ap_memory |      real_i_5     |     array    |
|real_i_5_address1        | out |    7|  ap_memory |      real_i_5     |     array    |
|real_i_5_ce1             | out |    1|  ap_memory |      real_i_5     |     array    |
|real_i_5_d1              | out |   32|  ap_memory |      real_i_5     |     array    |
|real_i_5_q1              |  in |   32|  ap_memory |      real_i_5     |     array    |
|real_i_5_we1             | out |    1|  ap_memory |      real_i_5     |     array    |
|real_i_6_address0        | out |    7|  ap_memory |      real_i_6     |     array    |
|real_i_6_ce0             | out |    1|  ap_memory |      real_i_6     |     array    |
|real_i_6_d0              | out |   32|  ap_memory |      real_i_6     |     array    |
|real_i_6_q0              |  in |   32|  ap_memory |      real_i_6     |     array    |
|real_i_6_we0             | out |    1|  ap_memory |      real_i_6     |     array    |
|real_i_6_address1        | out |    7|  ap_memory |      real_i_6     |     array    |
|real_i_6_ce1             | out |    1|  ap_memory |      real_i_6     |     array    |
|real_i_6_d1              | out |   32|  ap_memory |      real_i_6     |     array    |
|real_i_6_q1              |  in |   32|  ap_memory |      real_i_6     |     array    |
|real_i_6_we1             | out |    1|  ap_memory |      real_i_6     |     array    |
|real_i_7_address0        | out |    7|  ap_memory |      real_i_7     |     array    |
|real_i_7_ce0             | out |    1|  ap_memory |      real_i_7     |     array    |
|real_i_7_d0              | out |   32|  ap_memory |      real_i_7     |     array    |
|real_i_7_q0              |  in |   32|  ap_memory |      real_i_7     |     array    |
|real_i_7_we0             | out |    1|  ap_memory |      real_i_7     |     array    |
|real_i_7_address1        | out |    7|  ap_memory |      real_i_7     |     array    |
|real_i_7_ce1             | out |    1|  ap_memory |      real_i_7     |     array    |
|real_i_7_d1              | out |   32|  ap_memory |      real_i_7     |     array    |
|real_i_7_q1              |  in |   32|  ap_memory |      real_i_7     |     array    |
|real_i_7_we1             | out |    1|  ap_memory |      real_i_7     |     array    |
|imag_i_0_address0        | out |    7|  ap_memory |      imag_i_0     |     array    |
|imag_i_0_ce0             | out |    1|  ap_memory |      imag_i_0     |     array    |
|imag_i_0_d0              | out |   32|  ap_memory |      imag_i_0     |     array    |
|imag_i_0_q0              |  in |   32|  ap_memory |      imag_i_0     |     array    |
|imag_i_0_we0             | out |    1|  ap_memory |      imag_i_0     |     array    |
|imag_i_0_address1        | out |    7|  ap_memory |      imag_i_0     |     array    |
|imag_i_0_ce1             | out |    1|  ap_memory |      imag_i_0     |     array    |
|imag_i_0_d1              | out |   32|  ap_memory |      imag_i_0     |     array    |
|imag_i_0_q1              |  in |   32|  ap_memory |      imag_i_0     |     array    |
|imag_i_0_we1             | out |    1|  ap_memory |      imag_i_0     |     array    |
|imag_i_1_address0        | out |    7|  ap_memory |      imag_i_1     |     array    |
|imag_i_1_ce0             | out |    1|  ap_memory |      imag_i_1     |     array    |
|imag_i_1_d0              | out |   32|  ap_memory |      imag_i_1     |     array    |
|imag_i_1_q0              |  in |   32|  ap_memory |      imag_i_1     |     array    |
|imag_i_1_we0             | out |    1|  ap_memory |      imag_i_1     |     array    |
|imag_i_1_address1        | out |    7|  ap_memory |      imag_i_1     |     array    |
|imag_i_1_ce1             | out |    1|  ap_memory |      imag_i_1     |     array    |
|imag_i_1_d1              | out |   32|  ap_memory |      imag_i_1     |     array    |
|imag_i_1_q1              |  in |   32|  ap_memory |      imag_i_1     |     array    |
|imag_i_1_we1             | out |    1|  ap_memory |      imag_i_1     |     array    |
|imag_i_2_address0        | out |    7|  ap_memory |      imag_i_2     |     array    |
|imag_i_2_ce0             | out |    1|  ap_memory |      imag_i_2     |     array    |
|imag_i_2_d0              | out |   32|  ap_memory |      imag_i_2     |     array    |
|imag_i_2_q0              |  in |   32|  ap_memory |      imag_i_2     |     array    |
|imag_i_2_we0             | out |    1|  ap_memory |      imag_i_2     |     array    |
|imag_i_2_address1        | out |    7|  ap_memory |      imag_i_2     |     array    |
|imag_i_2_ce1             | out |    1|  ap_memory |      imag_i_2     |     array    |
|imag_i_2_d1              | out |   32|  ap_memory |      imag_i_2     |     array    |
|imag_i_2_q1              |  in |   32|  ap_memory |      imag_i_2     |     array    |
|imag_i_2_we1             | out |    1|  ap_memory |      imag_i_2     |     array    |
|imag_i_3_address0        | out |    7|  ap_memory |      imag_i_3     |     array    |
|imag_i_3_ce0             | out |    1|  ap_memory |      imag_i_3     |     array    |
|imag_i_3_d0              | out |   32|  ap_memory |      imag_i_3     |     array    |
|imag_i_3_q0              |  in |   32|  ap_memory |      imag_i_3     |     array    |
|imag_i_3_we0             | out |    1|  ap_memory |      imag_i_3     |     array    |
|imag_i_3_address1        | out |    7|  ap_memory |      imag_i_3     |     array    |
|imag_i_3_ce1             | out |    1|  ap_memory |      imag_i_3     |     array    |
|imag_i_3_d1              | out |   32|  ap_memory |      imag_i_3     |     array    |
|imag_i_3_q1              |  in |   32|  ap_memory |      imag_i_3     |     array    |
|imag_i_3_we1             | out |    1|  ap_memory |      imag_i_3     |     array    |
|imag_i_4_address0        | out |    7|  ap_memory |      imag_i_4     |     array    |
|imag_i_4_ce0             | out |    1|  ap_memory |      imag_i_4     |     array    |
|imag_i_4_d0              | out |   32|  ap_memory |      imag_i_4     |     array    |
|imag_i_4_q0              |  in |   32|  ap_memory |      imag_i_4     |     array    |
|imag_i_4_we0             | out |    1|  ap_memory |      imag_i_4     |     array    |
|imag_i_4_address1        | out |    7|  ap_memory |      imag_i_4     |     array    |
|imag_i_4_ce1             | out |    1|  ap_memory |      imag_i_4     |     array    |
|imag_i_4_d1              | out |   32|  ap_memory |      imag_i_4     |     array    |
|imag_i_4_q1              |  in |   32|  ap_memory |      imag_i_4     |     array    |
|imag_i_4_we1             | out |    1|  ap_memory |      imag_i_4     |     array    |
|imag_i_5_address0        | out |    7|  ap_memory |      imag_i_5     |     array    |
|imag_i_5_ce0             | out |    1|  ap_memory |      imag_i_5     |     array    |
|imag_i_5_d0              | out |   32|  ap_memory |      imag_i_5     |     array    |
|imag_i_5_q0              |  in |   32|  ap_memory |      imag_i_5     |     array    |
|imag_i_5_we0             | out |    1|  ap_memory |      imag_i_5     |     array    |
|imag_i_5_address1        | out |    7|  ap_memory |      imag_i_5     |     array    |
|imag_i_5_ce1             | out |    1|  ap_memory |      imag_i_5     |     array    |
|imag_i_5_d1              | out |   32|  ap_memory |      imag_i_5     |     array    |
|imag_i_5_q1              |  in |   32|  ap_memory |      imag_i_5     |     array    |
|imag_i_5_we1             | out |    1|  ap_memory |      imag_i_5     |     array    |
|imag_i_6_address0        | out |    7|  ap_memory |      imag_i_6     |     array    |
|imag_i_6_ce0             | out |    1|  ap_memory |      imag_i_6     |     array    |
|imag_i_6_d0              | out |   32|  ap_memory |      imag_i_6     |     array    |
|imag_i_6_q0              |  in |   32|  ap_memory |      imag_i_6     |     array    |
|imag_i_6_we0             | out |    1|  ap_memory |      imag_i_6     |     array    |
|imag_i_6_address1        | out |    7|  ap_memory |      imag_i_6     |     array    |
|imag_i_6_ce1             | out |    1|  ap_memory |      imag_i_6     |     array    |
|imag_i_6_d1              | out |   32|  ap_memory |      imag_i_6     |     array    |
|imag_i_6_q1              |  in |   32|  ap_memory |      imag_i_6     |     array    |
|imag_i_6_we1             | out |    1|  ap_memory |      imag_i_6     |     array    |
|imag_i_7_address0        | out |    7|  ap_memory |      imag_i_7     |     array    |
|imag_i_7_ce0             | out |    1|  ap_memory |      imag_i_7     |     array    |
|imag_i_7_d0              | out |   32|  ap_memory |      imag_i_7     |     array    |
|imag_i_7_q0              |  in |   32|  ap_memory |      imag_i_7     |     array    |
|imag_i_7_we0             | out |    1|  ap_memory |      imag_i_7     |     array    |
|imag_i_7_address1        | out |    7|  ap_memory |      imag_i_7     |     array    |
|imag_i_7_ce1             | out |    1|  ap_memory |      imag_i_7     |     array    |
|imag_i_7_d1              | out |   32|  ap_memory |      imag_i_7     |     array    |
|imag_i_7_q1              |  in |   32|  ap_memory |      imag_i_7     |     array    |
|imag_i_7_we1             | out |    1|  ap_memory |      imag_i_7     |     array    |
|imag_arr1024_1_address0  | out |    8|  ap_memory |   imag_arr1024_1  |     array    |
|imag_arr1024_1_ce0       | out |    1|  ap_memory |   imag_arr1024_1  |     array    |
|imag_arr1024_1_d0        | out |   32|  ap_memory |   imag_arr1024_1  |     array    |
|imag_arr1024_1_q0        |  in |   32|  ap_memory |   imag_arr1024_1  |     array    |
|imag_arr1024_1_we0       | out |    1|  ap_memory |   imag_arr1024_1  |     array    |
|imag_arr1024_1_address1  | out |    8|  ap_memory |   imag_arr1024_1  |     array    |
|imag_arr1024_1_ce1       | out |    1|  ap_memory |   imag_arr1024_1  |     array    |
|imag_arr1024_1_d1        | out |   32|  ap_memory |   imag_arr1024_1  |     array    |
|imag_arr1024_1_q1        |  in |   32|  ap_memory |   imag_arr1024_1  |     array    |
|imag_arr1024_1_we1       | out |    1|  ap_memory |   imag_arr1024_1  |     array    |
|real_arr1024_1_address0  | out |    8|  ap_memory |   real_arr1024_1  |     array    |
|real_arr1024_1_ce0       | out |    1|  ap_memory |   real_arr1024_1  |     array    |
|real_arr1024_1_d0        | out |   32|  ap_memory |   real_arr1024_1  |     array    |
|real_arr1024_1_q0        |  in |   32|  ap_memory |   real_arr1024_1  |     array    |
|real_arr1024_1_we0       | out |    1|  ap_memory |   real_arr1024_1  |     array    |
|real_arr1024_1_address1  | out |    8|  ap_memory |   real_arr1024_1  |     array    |
|real_arr1024_1_ce1       | out |    1|  ap_memory |   real_arr1024_1  |     array    |
|real_arr1024_1_d1        | out |   32|  ap_memory |   real_arr1024_1  |     array    |
|real_arr1024_1_q1        |  in |   32|  ap_memory |   real_arr1024_1  |     array    |
|real_arr1024_1_we1       | out |    1|  ap_memory |   real_arr1024_1  |     array    |
|imag_arr1024_0_address0  | out |    8|  ap_memory |   imag_arr1024_0  |     array    |
|imag_arr1024_0_ce0       | out |    1|  ap_memory |   imag_arr1024_0  |     array    |
|imag_arr1024_0_d0        | out |   32|  ap_memory |   imag_arr1024_0  |     array    |
|imag_arr1024_0_q0        |  in |   32|  ap_memory |   imag_arr1024_0  |     array    |
|imag_arr1024_0_we0       | out |    1|  ap_memory |   imag_arr1024_0  |     array    |
|imag_arr1024_0_address1  | out |    8|  ap_memory |   imag_arr1024_0  |     array    |
|imag_arr1024_0_ce1       | out |    1|  ap_memory |   imag_arr1024_0  |     array    |
|imag_arr1024_0_d1        | out |   32|  ap_memory |   imag_arr1024_0  |     array    |
|imag_arr1024_0_q1        |  in |   32|  ap_memory |   imag_arr1024_0  |     array    |
|imag_arr1024_0_we1       | out |    1|  ap_memory |   imag_arr1024_0  |     array    |
|real_arr1024_0_address0  | out |    8|  ap_memory |   real_arr1024_0  |     array    |
|real_arr1024_0_ce0       | out |    1|  ap_memory |   real_arr1024_0  |     array    |
|real_arr1024_0_d0        | out |   32|  ap_memory |   real_arr1024_0  |     array    |
|real_arr1024_0_q0        |  in |   32|  ap_memory |   real_arr1024_0  |     array    |
|real_arr1024_0_we0       | out |    1|  ap_memory |   real_arr1024_0  |     array    |
|real_arr1024_0_address1  | out |    8|  ap_memory |   real_arr1024_0  |     array    |
|real_arr1024_0_ce1       | out |    1|  ap_memory |   real_arr1024_0  |     array    |
|real_arr1024_0_d1        | out |   32|  ap_memory |   real_arr1024_0  |     array    |
|real_arr1024_0_q1        |  in |   32|  ap_memory |   real_arr1024_0  |     array    |
|real_arr1024_0_we1       | out |    1|  ap_memory |   real_arr1024_0  |     array    |
|imag_arr1024_3_address0  | out |    8|  ap_memory |   imag_arr1024_3  |     array    |
|imag_arr1024_3_ce0       | out |    1|  ap_memory |   imag_arr1024_3  |     array    |
|imag_arr1024_3_d0        | out |   32|  ap_memory |   imag_arr1024_3  |     array    |
|imag_arr1024_3_q0        |  in |   32|  ap_memory |   imag_arr1024_3  |     array    |
|imag_arr1024_3_we0       | out |    1|  ap_memory |   imag_arr1024_3  |     array    |
|imag_arr1024_3_address1  | out |    8|  ap_memory |   imag_arr1024_3  |     array    |
|imag_arr1024_3_ce1       | out |    1|  ap_memory |   imag_arr1024_3  |     array    |
|imag_arr1024_3_d1        | out |   32|  ap_memory |   imag_arr1024_3  |     array    |
|imag_arr1024_3_q1        |  in |   32|  ap_memory |   imag_arr1024_3  |     array    |
|imag_arr1024_3_we1       | out |    1|  ap_memory |   imag_arr1024_3  |     array    |
|real_arr1024_3_address0  | out |    8|  ap_memory |   real_arr1024_3  |     array    |
|real_arr1024_3_ce0       | out |    1|  ap_memory |   real_arr1024_3  |     array    |
|real_arr1024_3_d0        | out |   32|  ap_memory |   real_arr1024_3  |     array    |
|real_arr1024_3_q0        |  in |   32|  ap_memory |   real_arr1024_3  |     array    |
|real_arr1024_3_we0       | out |    1|  ap_memory |   real_arr1024_3  |     array    |
|real_arr1024_3_address1  | out |    8|  ap_memory |   real_arr1024_3  |     array    |
|real_arr1024_3_ce1       | out |    1|  ap_memory |   real_arr1024_3  |     array    |
|real_arr1024_3_d1        | out |   32|  ap_memory |   real_arr1024_3  |     array    |
|real_arr1024_3_q1        |  in |   32|  ap_memory |   real_arr1024_3  |     array    |
|real_arr1024_3_we1       | out |    1|  ap_memory |   real_arr1024_3  |     array    |
|imag_arr1024_2_address0  | out |    8|  ap_memory |   imag_arr1024_2  |     array    |
|imag_arr1024_2_ce0       | out |    1|  ap_memory |   imag_arr1024_2  |     array    |
|imag_arr1024_2_d0        | out |   32|  ap_memory |   imag_arr1024_2  |     array    |
|imag_arr1024_2_q0        |  in |   32|  ap_memory |   imag_arr1024_2  |     array    |
|imag_arr1024_2_we0       | out |    1|  ap_memory |   imag_arr1024_2  |     array    |
|imag_arr1024_2_address1  | out |    8|  ap_memory |   imag_arr1024_2  |     array    |
|imag_arr1024_2_ce1       | out |    1|  ap_memory |   imag_arr1024_2  |     array    |
|imag_arr1024_2_d1        | out |   32|  ap_memory |   imag_arr1024_2  |     array    |
|imag_arr1024_2_q1        |  in |   32|  ap_memory |   imag_arr1024_2  |     array    |
|imag_arr1024_2_we1       | out |    1|  ap_memory |   imag_arr1024_2  |     array    |
|real_arr1024_2_address0  | out |    8|  ap_memory |   real_arr1024_2  |     array    |
|real_arr1024_2_ce0       | out |    1|  ap_memory |   real_arr1024_2  |     array    |
|real_arr1024_2_d0        | out |   32|  ap_memory |   real_arr1024_2  |     array    |
|real_arr1024_2_q0        |  in |   32|  ap_memory |   real_arr1024_2  |     array    |
|real_arr1024_2_we0       | out |    1|  ap_memory |   real_arr1024_2  |     array    |
|real_arr1024_2_address1  | out |    8|  ap_memory |   real_arr1024_2  |     array    |
|real_arr1024_2_ce1       | out |    1|  ap_memory |   real_arr1024_2  |     array    |
|real_arr1024_2_d1        | out |   32|  ap_memory |   real_arr1024_2  |     array    |
|real_arr1024_2_q1        |  in |   32|  ap_memory |   real_arr1024_2  |     array    |
|real_arr1024_2_we1       | out |    1|  ap_memory |   real_arr1024_2  |     array    |
|ap_clk                   |  in |    1| ap_ctrl_hs | dft_loop_flow1024 | return value |
|ap_rst                   |  in |    1| ap_ctrl_hs | dft_loop_flow1024 | return value |
|ap_done                  | out |    1| ap_ctrl_hs | dft_loop_flow1024 | return value |
|ap_start                 |  in |    1| ap_ctrl_hs | dft_loop_flow1024 | return value |
|ap_idle                  | out |    1| ap_ctrl_hs | dft_loop_flow1024 | return value |
|ap_ready                 | out |    1| ap_ctrl_hs | dft_loop_flow1024 | return value |
+-------------------------+-----+-----+------------+-------------------+--------------+

============================================================
+ Verbose Summary: Synthesis Manager
============================================================
InlineROM: 1
ExposeGlobal: 0
============================================================
+ Verbose Summary: CDFG Model
============================================================
IsTopModel: 0
ResetActiveHigh: 1
IsCombinational: 2
IsDatapathOnly: 2
HasWiredReturn: 1
HasMFsm: 0
HasVarLatency: 1
IsPipeline: 0
IsRtlPipelined: 0
IsInstanceOverlapped: 0
IsDontTouch: 0
HasImplIP: 0
IsGatedGlobalClock: 0


============================================================
+ Verbose Summary: Schedule
============================================================
* Number of FSM states: 2
* Pipeline: 0
* Dataflow Pipeline: 1
  DF-Pipeline-0: Size = 2, States = { 1 2 }

* FSM state transitions: 
1 --> 
	2  / true
2 --> 
* FSM state operations: 

 <State 1>: 1.28ns
ST_1: i_V_read_2 [1/1] 1.28ns
codeRepl:1  %i_V_read_2 = call i11 @_ssdm_op_Read.ap_auto.i11(i11 %i_V_read)

ST_1: stg_4 [2/2] 0.00ns
codeRepl:2  call fastcc void @dft_loop_flow1024_Loop_1_proc(i11 %i_V_read_2, [128 x float]* %real_i_5, [128 x float]* %real_i_7, [128 x float]* %real_i_1, [128 x float]* %real_i_3, [128 x float]* %real_i_4, [128 x float]* %real_i_6, [128 x float]* %real_i_0, [128 x float]* %real_i_2, [128 x float]* %imag_i_0, [128 x float]* %imag_i_2, [128 x float]* %imag_i_4, [128 x float]* %imag_i_6, [128 x float]* %imag_i_1, [128 x float]* %imag_i_3, [128 x float]* %imag_i_5, [128 x float]* %imag_i_7)


 <State 2>: 0.00ns
ST_2: stg_5 [1/1] 0.00ns
codeRepl:0  call void (...)* @_ssdm_op_SpecDataflowPipeline(i32 -1, [1 x i8]* @p_str) nounwind

ST_2: stg_6 [1/2] 0.00ns
codeRepl:2  call fastcc void @dft_loop_flow1024_Loop_1_proc(i11 %i_V_read_2, [128 x float]* %real_i_5, [128 x float]* %real_i_7, [128 x float]* %real_i_1, [128 x float]* %real_i_3, [128 x float]* %real_i_4, [128 x float]* %real_i_6, [128 x float]* %real_i_0, [128 x float]* %real_i_2, [128 x float]* %imag_i_0, [128 x float]* %imag_i_2, [128 x float]* %imag_i_4, [128 x float]* %imag_i_6, [128 x float]* %imag_i_1, [128 x float]* %imag_i_3, [128 x float]* %imag_i_5, [128 x float]* %imag_i_7)

ST_2: stg_7 [1/1] 0.00ns
codeRepl:3  ret void



============================================================
+ Verbose Summary: Binding
============================================================
STG Binding: 
---------------- STG Properties BEGIN ----------------
- Is combinational: 0
- Is one-state seq: 0
- Is datapath-only: 0
- Is clock enabled: 0
- Is pipelined: 0
- Is top level: 0
Port [ Return ] is wired: 1; IO mode=ap_ctrl_hs:ce=0
Port [ i_V_read]:  wired=1; compound=0; hidden=0; nouse=0; global=0; static=0; extern=0; dir=0; type=0; mode=0x1f898e4f070; pingpong=0; private_global=0; IO mode=ap_none:ce=0
Port [ real_i_0]:  wired=1; compound=1; hidden=0; nouse=0; global=0; static=0; extern=0; dir=0; type=1; mode=0x1f898e4f7c0; pingpong=0; private_global=0; MemPort=[11]; IO mode=ap_memory:ce=0
Port [ real_i_1]:  wired=1; compound=1; hidden=0; nouse=0; global=0; static=0; extern=0; dir=0; type=1; mode=0x1f898e50030; pingpong=0; private_global=0; MemPort=[11]; IO mode=ap_memory:ce=0
Port [ real_i_2]:  wired=1; compound=1; hidden=0; nouse=0; global=0; static=0; extern=0; dir=0; type=1; mode=0x1f898e50d20; pingpong=0; private_global=0; MemPort=[11]; IO mode=ap_memory:ce=0
Port [ real_i_3]:  wired=1; compound=1; hidden=0; nouse=0; global=0; static=0; extern=0; dir=0; type=1; mode=0x1f898e4ea40; pingpong=0; private_global=0; MemPort=[11]; IO mode=ap_memory:ce=0
Port [ real_i_4]:  wired=1; compound=1; hidden=0; nouse=0; global=0; static=0; extern=0; dir=0; type=1; mode=0x1f898e4fcd0; pingpong=0; private_global=0; MemPort=[11]; IO mode=ap_memory:ce=0
Port [ real_i_5]:  wired=1; compound=1; hidden=0; nouse=0; global=0; static=0; extern=0; dir=0; type=1; mode=0x1f898e501e0; pingpong=0; private_global=0; MemPort=[11]; IO mode=ap_memory:ce=0
Port [ real_i_6]:  wired=1; compound=1; hidden=0; nouse=0; global=0; static=0; extern=0; dir=0; type=1; mode=0x1f898e505d0; pingpong=0; private_global=0; MemPort=[11]; IO mode=ap_memory:ce=0
Port [ real_i_7]:  wired=1; compound=1; hidden=0; nouse=0; global=0; static=0; extern=0; dir=0; type=1; mode=0x1f898e4f3d0; pingpong=0; private_global=0; MemPort=[11]; IO mode=ap_memory:ce=0
Port [ imag_i_0]:  wired=1; compound=1; hidden=0; nouse=0; global=0; static=0; extern=0; dir=0; type=1; mode=0x1f898e4ead0; pingpong=0; private_global=0; MemPort=[11]; IO mode=ap_memory:ce=0
Port [ imag_i_1]:  wired=1; compound=1; hidden=0; nouse=0; global=0; static=0; extern=0; dir=0; type=1; mode=0x1f898e4f100; pingpong=0; private_global=0; MemPort=[11]; IO mode=ap_memory:ce=0
Port [ imag_i_2]:  wired=1; compound=1; hidden=0; nouse=0; global=0; static=0; extern=0; dir=0; type=1; mode=0x1f898e4fd60; pingpong=0; private_global=0; MemPort=[11]; IO mode=ap_memory:ce=0
Port [ imag_i_3]:  wired=1; compound=1; hidden=0; nouse=0; global=0; static=0; extern=0; dir=0; type=1; mode=0x1f898e4f340; pingpong=0; private_global=0; MemPort=[11]; IO mode=ap_memory:ce=0
Port [ imag_i_4]:  wired=1; compound=1; hidden=0; nouse=0; global=0; static=0; extern=0; dir=0; type=1; mode=0x1f898e4f460; pingpong=0; private_global=0; MemPort=[11]; IO mode=ap_memory:ce=0
Port [ imag_i_5]:  wired=1; compound=1; hidden=0; nouse=0; global=0; static=0; extern=0; dir=0; type=1; mode=0x1f898e4f580; pingpong=0; private_global=0; MemPort=[11]; IO mode=ap_memory:ce=0
Port [ imag_i_6]:  wired=1; compound=1; hidden=0; nouse=0; global=0; static=0; extern=0; dir=0; type=1; mode=0x1f898e500c0; pingpong=0; private_global=0; MemPort=[11]; IO mode=ap_memory:ce=0
Port [ imag_i_7]:  wired=1; compound=1; hidden=0; nouse=0; global=0; static=0; extern=0; dir=0; type=1; mode=0x1f898e50270; pingpong=0; private_global=0; MemPort=[11]; IO mode=ap_memory:ce=0
Port [ imag_arr1024_1]:  wired=1; compound=1; hidden=0; nouse=0; global=1; static=0; extern=0; dir=1; type=1; mode=0x1f8997dc310; pingpong=0; private_global=0; linkage=0; visibility=0; MemPort=[03]; IO mode=ap_memory:ce=0
Port [ real_arr1024_1]:  wired=1; compound=1; hidden=0; nouse=0; global=1; static=0; extern=0; dir=1; type=1; mode=0x1f8997dda20; pingpong=0; private_global=0; linkage=0; visibility=0; MemPort=[03]; IO mode=ap_memory:ce=0
Port [ cct_0]:  wired=0; compound=1; hidden=1; nouse=1; global=1; static=1; extern=0; dir=0; type=1; mode=0x1f8997dd510; pingpong=0; private_global=0; linkage=7; visibility=0; MemPort=[111]; IO mode=ap_memory:ce=0
Port [ cct_1]:  wired=0; compound=1; hidden=1; nouse=1; global=1; static=1; extern=0; dir=0; type=1; mode=0x1f8997dc3a0; pingpong=0; private_global=0; linkage=7; visibility=0; MemPort=[111]; IO mode=ap_memory:ce=0
Port [ cct_2]:  wired=0; compound=1; hidden=1; nouse=1; global=1; static=1; extern=0; dir=0; type=1; mode=0x1f8997ddbd0; pingpong=0; private_global=0; linkage=7; visibility=0; MemPort=[111]; IO mode=ap_memory:ce=0
Port [ cct_3]:  wired=0; compound=1; hidden=1; nouse=1; global=1; static=1; extern=0; dir=0; type=1; mode=0x1f8997de3b0; pingpong=0; private_global=0; linkage=7; visibility=0; MemPort=[111]; IO mode=ap_memory:ce=0
Port [ cct_4]:  wired=0; compound=1; hidden=1; nouse=1; global=1; static=1; extern=0; dir=0; type=1; mode=0x1f8997ddc60; pingpong=0; private_global=0; linkage=7; visibility=0; MemPort=[111]; IO mode=ap_memory:ce=0
Port [ cct_5]:  wired=0; compound=1; hidden=1; nouse=1; global=1; static=1; extern=0; dir=0; type=1; mode=0x1f8997ddea0; pingpong=0; private_global=0; linkage=7; visibility=0; MemPort=[111]; IO mode=ap_memory:ce=0
Port [ cct_6]:  wired=0; compound=1; hidden=1; nouse=1; global=1; static=1; extern=0; dir=0; type=1; mode=0x1f8997dc670; pingpong=0; private_global=0; linkage=7; visibility=0; MemPort=[111]; IO mode=ap_memory:ce=0
Port [ cct_7]:  wired=0; compound=1; hidden=1; nouse=1; global=1; static=1; extern=0; dir=0; type=1; mode=0x1f8997dd240; pingpong=0; private_global=0; linkage=7; visibility=0; MemPort=[111]; IO mode=ap_memory:ce=0
Port [ sct_0]:  wired=0; compound=1; hidden=1; nouse=1; global=1; static=1; extern=0; dir=0; type=1; mode=0x1f8997ddf30; pingpong=0; private_global=0; linkage=7; visibility=0; MemPort=[111]; IO mode=ap_memory:ce=0
Port [ sct_1]:  wired=0; compound=1; hidden=1; nouse=1; global=1; static=1; extern=0; dir=0; type=1; mode=0x1f8997dc790; pingpong=0; private_global=0; linkage=7; visibility=0; MemPort=[111]; IO mode=ap_memory:ce=0
Port [ sct_2]:  wired=0; compound=1; hidden=1; nouse=1; global=1; static=1; extern=0; dir=0; type=1; mode=0x1f8997dc8b0; pingpong=0; private_global=0; linkage=7; visibility=0; MemPort=[111]; IO mode=ap_memory:ce=0
Port [ sct_3]:  wired=0; compound=1; hidden=1; nouse=1; global=1; static=1; extern=0; dir=0; type=1; mode=0x1f8997dc940; pingpong=0; private_global=0; linkage=7; visibility=0; MemPort=[111]; IO mode=ap_memory:ce=0
Port [ sct_4]:  wired=0; compound=1; hidden=1; nouse=1; global=1; static=1; extern=0; dir=0; type=1; mode=0x1f8997dca60; pingpong=0; private_global=0; linkage=7; visibility=0; MemPort=[111]; IO mode=ap_memory:ce=0
Port [ sct_5]:  wired=0; compound=1; hidden=1; nouse=1; global=1; static=1; extern=0; dir=0; type=1; mode=0x1f8997ddfc0; pingpong=0; private_global=0; linkage=7; visibility=0; MemPort=[111]; IO mode=ap_memory:ce=0
Port [ sct_6]:  wired=0; compound=1; hidden=1; nouse=1; global=1; static=1; extern=0; dir=0; type=1; mode=0x1f8997de5f0; pingpong=0; private_global=0; linkage=7; visibility=0; MemPort=[111]; IO mode=ap_memory:ce=0
Port [ sct_7]:  wired=0; compound=1; hidden=1; nouse=1; global=1; static=1; extern=0; dir=0; type=1; mode=0x1f8997dcaf0; pingpong=0; private_global=0; linkage=7; visibility=0; MemPort=[111]; IO mode=ap_memory:ce=0
Port [ imag_arr1024_0]:  wired=1; compound=1; hidden=0; nouse=0; global=1; static=0; extern=0; dir=1; type=1; mode=0x1f8997dcd30; pingpong=0; private_global=0; linkage=0; visibility=0; MemPort=[03]; IO mode=ap_memory:ce=0
Port [ real_arr1024_0]:  wired=1; compound=1; hidden=0; nouse=0; global=1; static=0; extern=0; dir=1; type=1; mode=0x1f8997dd2d0; pingpong=0; private_global=0; linkage=0; visibility=0; MemPort=[03]; IO mode=ap_memory:ce=0
Port [ imag_arr1024_3]:  wired=1; compound=1; hidden=0; nouse=0; global=1; static=0; extern=0; dir=1; type=1; mode=0x1f8997dce50; pingpong=0; private_global=0; linkage=0; visibility=0; MemPort=[03]; IO mode=ap_memory:ce=0
Port [ real_arr1024_3]:  wired=1; compound=1; hidden=0; nouse=0; global=1; static=0; extern=0; dir=1; type=1; mode=0x1f8997dd870; pingpong=0; private_global=0; linkage=0; visibility=0; MemPort=[03]; IO mode=ap_memory:ce=0
Port [ imag_arr1024_2]:  wired=1; compound=1; hidden=0; nouse=0; global=1; static=0; extern=0; dir=1; type=1; mode=0x1f8997df250; pingpong=0; private_global=0; linkage=0; visibility=0; MemPort=[03]; IO mode=ap_memory:ce=0
Port [ real_arr1024_2]:  wired=1; compound=1; hidden=0; nouse=0; global=1; static=0; extern=0; dir=1; type=1; mode=0x1f8997df9a0; pingpong=0; private_global=0; linkage=0; visibility=0; MemPort=[03]; IO mode=ap_memory:ce=0
---------------- STG Properties END ------------------

---------------- Datapath Model BEGIN ----------------

<LifeTime>
<method=bitvector/>
i_V_read_2 (read                ) [ 001]
stg_5      (specdataflowpipeline) [ 000]
stg_6      (call                ) [ 000]
stg_7      (ret                 ) [ 000]
</LifeTime>

<model>

<comp_list>
<comp id="0" class="1000" name="i_V_read">
<pin_list>
<pin id="1" dir="1" index="0" bw="1" slack="0"/>
</pin_list>
<bind>
<StgValue><ssdm name="i_V_read"/></StgValue>
</bind>
</comp>

<comp id="2" class="1000" name="real_i_0">
<pin_list>
<pin id="3" dir="1" index="0" bw="1" slack="0"/>
</pin_list>
<bind>
<StgValue><ssdm name="real_i_0"/><MemPortTyVec>1 1 </MemPortTyVec>
</StgValue>
</bind>
</comp>

<comp id="4" class="1000" name="real_i_1">
<pin_list>
<pin id="5" dir="1" index="0" bw="1" slack="0"/>
</pin_list>
<bind>
<StgValue><ssdm name="real_i_1"/><MemPortTyVec>1 1 </MemPortTyVec>
</StgValue>
</bind>
</comp>

<comp id="6" class="1000" name="real_i_2">
<pin_list>
<pin id="7" dir="1" index="0" bw="1" slack="0"/>
</pin_list>
<bind>
<StgValue><ssdm name="real_i_2"/><MemPortTyVec>1 1 </MemPortTyVec>
</StgValue>
</bind>
</comp>

<comp id="8" class="1000" name="real_i_3">
<pin_list>
<pin id="9" dir="1" index="0" bw="1" slack="0"/>
</pin_list>
<bind>
<StgValue><ssdm name="real_i_3"/><MemPortTyVec>1 1 </MemPortTyVec>
</StgValue>
</bind>
</comp>

<comp id="10" class="1000" name="real_i_4">
<pin_list>
<pin id="11" dir="1" index="0" bw="1" slack="0"/>
</pin_list>
<bind>
<StgValue><ssdm name="real_i_4"/><MemPortTyVec>1 1 </MemPortTyVec>
</StgValue>
</bind>
</comp>

<comp id="12" class="1000" name="real_i_5">
<pin_list>
<pin id="13" dir="1" index="0" bw="1" slack="0"/>
</pin_list>
<bind>
<StgValue><ssdm name="real_i_5"/><MemPortTyVec>1 1 </MemPortTyVec>
</StgValue>
</bind>
</comp>

<comp id="14" class="1000" name="real_i_6">
<pin_list>
<pin id="15" dir="1" index="0" bw="1" slack="0"/>
</pin_list>
<bind>
<StgValue><ssdm name="real_i_6"/><MemPortTyVec>1 1 </MemPortTyVec>
</StgValue>
</bind>
</comp>

<comp id="16" class="1000" name="real_i_7">
<pin_list>
<pin id="17" dir="1" index="0" bw="1" slack="0"/>
</pin_list>
<bind>
<StgValue><ssdm name="real_i_7"/><MemPortTyVec>1 1 </MemPortTyVec>
</StgValue>
</bind>
</comp>

<comp id="18" class="1000" name="imag_i_0">
<pin_list>
<pin id="19" dir="1" index="0" bw="1" slack="0"/>
</pin_list>
<bind>
<StgValue><ssdm name="imag_i_0"/><MemPortTyVec>1 1 </MemPortTyVec>
</StgValue>
</bind>
</comp>

<comp id="20" class="1000" name="imag_i_1">
<pin_list>
<pin id="21" dir="1" index="0" bw="1" slack="0"/>
</pin_list>
<bind>
<StgValue><ssdm name="imag_i_1"/><MemPortTyVec>1 1 </MemPortTyVec>
</StgValue>
</bind>
</comp>

<comp id="22" class="1000" name="imag_i_2">
<pin_list>
<pin id="23" dir="1" index="0" bw="1" slack="0"/>
</pin_list>
<bind>
<StgValue><ssdm name="imag_i_2"/><MemPortTyVec>1 1 </MemPortTyVec>
</StgValue>
</bind>
</comp>

<comp id="24" class="1000" name="imag_i_3">
<pin_list>
<pin id="25" dir="1" index="0" bw="1" slack="0"/>
</pin_list>
<bind>
<StgValue><ssdm name="imag_i_3"/><MemPortTyVec>1 1 </MemPortTyVec>
</StgValue>
</bind>
</comp>

<comp id="26" class="1000" name="imag_i_4">
<pin_list>
<pin id="27" dir="1" index="0" bw="1" slack="0"/>
</pin_list>
<bind>
<StgValue><ssdm name="imag_i_4"/><MemPortTyVec>1 1 </MemPortTyVec>
</StgValue>
</bind>
</comp>

<comp id="28" class="1000" name="imag_i_5">
<pin_list>
<pin id="29" dir="1" index="0" bw="1" slack="0"/>
</pin_list>
<bind>
<StgValue><ssdm name="imag_i_5"/><MemPortTyVec>1 1 </MemPortTyVec>
</StgValue>
</bind>
</comp>

<comp id="30" class="1000" name="imag_i_6">
<pin_list>
<pin id="31" dir="1" index="0" bw="1" slack="0"/>
</pin_list>
<bind>
<StgValue><ssdm name="imag_i_6"/><MemPortTyVec>1 1 </MemPortTyVec>
</StgValue>
</bind>
</comp>

<comp id="32" class="1000" name="imag_i_7">
<pin_list>
<pin id="33" dir="1" index="0" bw="1" slack="0"/>
</pin_list>
<bind>
<StgValue><ssdm name="imag_i_7"/><MemPortTyVec>1 1 </MemPortTyVec>
</StgValue>
</bind>
</comp>

<comp id="34" class="1000" name="imag_arr1024_1">
<pin_list>
<pin id="35" dir="1" index="0" bw="1" slack="0"/>
</pin_list>
<bind>
<StgValue><ssdm name="imag_arr1024_1"/><MemPortTyVec>0 3 </MemPortTyVec>
</StgValue>
</bind>
</comp>

<comp id="36" class="1000" name="real_arr1024_1">
<pin_list>
<pin id="37" dir="1" index="0" bw="1" slack="0"/>
</pin_list>
<bind>
<StgValue><ssdm name="real_arr1024_1"/><MemPortTyVec>0 3 </MemPortTyVec>
</StgValue>
</bind>
</comp>

<comp id="38" class="1000" name="cct_0">
<pin_list>
<pin id="39" dir="1" index="0" bw="1" slack="0"/>
</pin_list>
<bind>
<StgValue><ssdm name="cct_0"/><MemPortTyVec>1 1 1 </MemPortTyVec>
</StgValue>
</bind>
</comp>

<comp id="40" class="1000" name="cct_1">
<pin_list>
<pin id="41" dir="1" index="0" bw="1" slack="0"/>
</pin_list>
<bind>
<StgValue><ssdm name="cct_1"/><MemPortTyVec>1 1 1 </MemPortTyVec>
</StgValue>
</bind>
</comp>

<comp id="42" class="1000" name="cct_2">
<pin_list>
<pin id="43" dir="1" index="0" bw="1" slack="0"/>
</pin_list>
<bind>
<StgValue><ssdm name="cct_2"/><MemPortTyVec>1 1 1 </MemPortTyVec>
</StgValue>
</bind>
</comp>

<comp id="44" class="1000" name="cct_3">
<pin_list>
<pin id="45" dir="1" index="0" bw="1" slack="0"/>
</pin_list>
<bind>
<StgValue><ssdm name="cct_3"/><MemPortTyVec>1 1 1 </MemPortTyVec>
</StgValue>
</bind>
</comp>

<comp id="46" class="1000" name="cct_4">
<pin_list>
<pin id="47" dir="1" index="0" bw="1" slack="0"/>
</pin_list>
<bind>
<StgValue><ssdm name="cct_4"/><MemPortTyVec>1 1 1 </MemPortTyVec>
</StgValue>
</bind>
</comp>

<comp id="48" class="1000" name="cct_5">
<pin_list>
<pin id="49" dir="1" index="0" bw="1" slack="0"/>
</pin_list>
<bind>
<StgValue><ssdm name="cct_5"/><MemPortTyVec>1 1 1 </MemPortTyVec>
</StgValue>
</bind>
</comp>

<comp id="50" class="1000" name="cct_6">
<pin_list>
<pin id="51" dir="1" index="0" bw="1" slack="0"/>
</pin_list>
<bind>
<StgValue><ssdm name="cct_6"/><MemPortTyVec>1 1 1 </MemPortTyVec>
</StgValue>
</bind>
</comp>

<comp id="52" class="1000" name="cct_7">
<pin_list>
<pin id="53" dir="1" index="0" bw="1" slack="0"/>
</pin_list>
<bind>
<StgValue><ssdm name="cct_7"/><MemPortTyVec>1 1 1 </MemPortTyVec>
</StgValue>
</bind>
</comp>

<comp id="54" class="1000" name="sct_0">
<pin_list>
<pin id="55" dir="1" index="0" bw="1" slack="0"/>
</pin_list>
<bind>
<StgValue><ssdm name="sct_0"/><MemPortTyVec>1 1 1 </MemPortTyVec>
</StgValue>
</bind>
</comp>

<comp id="56" class="1000" name="sct_1">
<pin_list>
<pin id="57" dir="1" index="0" bw="1" slack="0"/>
</pin_list>
<bind>
<StgValue><ssdm name="sct_1"/><MemPortTyVec>1 1 1 </MemPortTyVec>
</StgValue>
</bind>
</comp>

<comp id="58" class="1000" name="sct_2">
<pin_list>
<pin id="59" dir="1" index="0" bw="1" slack="0"/>
</pin_list>
<bind>
<StgValue><ssdm name="sct_2"/><MemPortTyVec>1 1 1 </MemPortTyVec>
</StgValue>
</bind>
</comp>

<comp id="60" class="1000" name="sct_3">
<pin_list>
<pin id="61" dir="1" index="0" bw="1" slack="0"/>
</pin_list>
<bind>
<StgValue><ssdm name="sct_3"/><MemPortTyVec>1 1 1 </MemPortTyVec>
</StgValue>
</bind>
</comp>

<comp id="62" class="1000" name="sct_4">
<pin_list>
<pin id="63" dir="1" index="0" bw="1" slack="0"/>
</pin_list>
<bind>
<StgValue><ssdm name="sct_4"/><MemPortTyVec>1 1 1 </MemPortTyVec>
</StgValue>
</bind>
</comp>

<comp id="64" class="1000" name="sct_5">
<pin_list>
<pin id="65" dir="1" index="0" bw="1" slack="0"/>
</pin_list>
<bind>
<StgValue><ssdm name="sct_5"/><MemPortTyVec>1 1 1 </MemPortTyVec>
</StgValue>
</bind>
</comp>

<comp id="66" class="1000" name="sct_6">
<pin_list>
<pin id="67" dir="1" index="0" bw="1" slack="0"/>
</pin_list>
<bind>
<StgValue><ssdm name="sct_6"/><MemPortTyVec>1 1 1 </MemPortTyVec>
</StgValue>
</bind>
</comp>

<comp id="68" class="1000" name="sct_7">
<pin_list>
<pin id="69" dir="1" index="0" bw="1" slack="0"/>
</pin_list>
<bind>
<StgValue><ssdm name="sct_7"/><MemPortTyVec>1 1 1 </MemPortTyVec>
</StgValue>
</bind>
</comp>

<comp id="70" class="1000" name="imag_arr1024_0">
<pin_list>
<pin id="71" dir="1" index="0" bw="1" slack="0"/>
</pin_list>
<bind>
<StgValue><ssdm name="imag_arr1024_0"/><MemPortTyVec>0 3 </MemPortTyVec>
</StgValue>
</bind>
</comp>

<comp id="72" class="1000" name="real_arr1024_0">
<pin_list>
<pin id="73" dir="1" index="0" bw="1" slack="0"/>
</pin_list>
<bind>
<StgValue><ssdm name="real_arr1024_0"/><MemPortTyVec>0 3 </MemPortTyVec>
</StgValue>
</bind>
</comp>

<comp id="74" class="1000" name="imag_arr1024_3">
<pin_list>
<pin id="75" dir="1" index="0" bw="1" slack="0"/>
</pin_list>
<bind>
<StgValue><ssdm name="imag_arr1024_3"/><MemPortTyVec>0 3 </MemPortTyVec>
</StgValue>
</bind>
</comp>

<comp id="76" class="1000" name="real_arr1024_3">
<pin_list>
<pin id="77" dir="1" index="0" bw="1" slack="0"/>
</pin_list>
<bind>
<StgValue><ssdm name="real_arr1024_3"/><MemPortTyVec>0 3 </MemPortTyVec>
</StgValue>
</bind>
</comp>

<comp id="78" class="1000" name="imag_arr1024_2">
<pin_list>
<pin id="79" dir="1" index="0" bw="1" slack="0"/>
</pin_list>
<bind>
<StgValue><ssdm name="imag_arr1024_2"/><MemPortTyVec>0 3 </MemPortTyVec>
</StgValue>
</bind>
</comp>

<comp id="80" class="1000" name="real_arr1024_2">
<pin_list>
<pin id="81" dir="1" index="0" bw="1" slack="0"/>
</pin_list>
<bind>
<StgValue><ssdm name="real_arr1024_2"/><MemPortTyVec>0 3 </MemPortTyVec>
</StgValue>
</bind>
</comp>

<comp id="82" class="1001" name="const_82">
<pin_list>
<pin id="83" dir="1" index="0" bw="1" slack="0"/>
</pin_list>
<bind>
<StgValue><ssdm name="_ssdm_op_Read.ap_auto.i11"/></StgValue>
</bind>
</comp>

<comp id="84" class="1001" name="const_84">
<pin_list>
<pin id="85" dir="1" index="0" bw="1" slack="0"/>
</pin_list>
<bind>
<StgValue><ssdm name="dft_loop_flow1024_Loop_1_proc"/></StgValue>
</bind>
</comp>

<comp id="86" class="1001" name="const_86">
<pin_list>
<pin id="87" dir="1" index="0" bw="1" slack="2147483647"/>
</pin_list>
<bind>
<StgValue><ssdm name="_ssdm_op_SpecDataflowPipeline"/></StgValue>
</bind>
</comp>

<comp id="88" class="1001" name="const_88">
<pin_list>
<pin id="89" dir="1" index="0" bw="1" slack="2147483647"/>
</pin_list>
<bind>
<StgValue><ssdm name=""/></StgValue>
</bind>
</comp>

<comp id="90" class="1001" name="const_90">
<pin_list>
<pin id="91" dir="1" index="0" bw="1" slack="2147483647"/>
</pin_list>
<bind>
<StgValue><ssdm name="p_str"/></StgValue>
</bind>
</comp>

<comp id="92" class="1004" name="i_V_read_2_read_fu_92">
<pin_list>
<pin id="93" dir="0" index="0" bw="11" slack="0"/>
<pin id="94" dir="0" index="1" bw="11" slack="0"/>
<pin id="95" dir="1" index="2" bw="11" slack="0"/>
</pin_list>
<bind>
<opcode="read(1150) " fcode="read"/>
<opset="i_V_read_2/1 "/>
</bind>
</comp>

<comp id="98" class="1004" name="grp_dft_loop_flow1024_Loop_1_proc_fu_98">
<pin_list>
<pin id="99" dir="0" index="0" bw="0" slack="0"/>
<pin id="100" dir="0" index="1" bw="11" slack="0"/>
<pin id="101" dir="0" index="2" bw="32" slack="0"/>
<pin id="102" dir="0" index="3" bw="32" slack="0"/>
<pin id="103" dir="0" index="4" bw="32" slack="0"/>
<pin id="104" dir="0" index="5" bw="32" slack="0"/>
<pin id="105" dir="0" index="6" bw="32" slack="0"/>
<pin id="106" dir="0" index="7" bw="32" slack="0"/>
<pin id="107" dir="0" index="8" bw="32" slack="0"/>
<pin id="108" dir="0" index="9" bw="32" slack="0"/>
<pin id="109" dir="0" index="10" bw="32" slack="0"/>
<pin id="110" dir="0" index="11" bw="32" slack="0"/>
<pin id="111" dir="0" index="12" bw="32" slack="0"/>
<pin id="112" dir="0" index="13" bw="32" slack="0"/>
<pin id="113" dir="0" index="14" bw="32" slack="0"/>
<pin id="114" dir="0" index="15" bw="32" slack="0"/>
<pin id="115" dir="0" index="16" bw="32" slack="0"/>
<pin id="116" dir="0" index="17" bw="32" slack="0"/>
<pin id="117" dir="0" index="18" bw="32" slack="0"/>
<pin id="118" dir="0" index="19" bw="32" slack="0"/>
<pin id="119" dir="0" index="20" bw="32" slack="0"/>
<pin id="120" dir="0" index="21" bw="32" slack="0"/>
<pin id="121" dir="0" index="22" bw="32" slack="0"/>
<pin id="122" dir="0" index="23" bw="32" slack="0"/>
<pin id="123" dir="0" index="24" bw="32" slack="0"/>
<pin id="124" dir="0" index="25" bw="32" slack="0"/>
<pin id="125" dir="0" index="26" bw="32" slack="0"/>
<pin id="126" dir="0" index="27" bw="32" slack="0"/>
<pin id="127" dir="0" index="28" bw="32" slack="0"/>
<pin id="128" dir="0" index="29" bw="32" slack="0"/>
<pin id="129" dir="0" index="30" bw="32" slack="0"/>
<pin id="130" dir="0" index="31" bw="32" slack="0"/>
<pin id="131" dir="0" index="32" bw="32" slack="0"/>
<pin id="132" dir="0" index="33" bw="32" slack="0"/>
<pin id="133" dir="0" index="34" bw="32" slack="0"/>
<pin id="134" dir="0" index="35" bw="32" slack="0"/>
<pin id="135" dir="0" index="36" bw="32" slack="0"/>
<pin id="136" dir="0" index="37" bw="32" slack="0"/>
<pin id="137" dir="0" index="38" bw="32" slack="0"/>
<pin id="138" dir="0" index="39" bw="32" slack="0"/>
<pin id="139" dir="0" index="40" bw="32" slack="0"/>
<pin id="140" dir="0" index="41" bw="32" slack="0"/>
<pin id="141" dir="1" index="42" bw="0" slack="2147483647"/>
</pin_list>
<bind>
<opcode="call(48) " fcode="call"/>
<opset="stg_4/1 "/>
</bind>
</comp>

<comp id="184" class="1005" name="i_V_read_2_reg_184">
<pin_list>
<pin id="185" dir="0" index="0" bw="11" slack="1"/>
<pin id="186" dir="1" index="1" bw="11" slack="1"/>
</pin_list>
<bind>
<opset="i_V_read_2 "/>
</bind>
</comp>

</comp_list>

<net_list>
<net id="96"><net_src comp="82" pin="0"/><net_sink comp="92" pin=0"/></net>

<net id="97"><net_src comp="0" pin="0"/><net_sink comp="92" pin=1"/></net>

<net id="142"><net_src comp="84" pin="0"/><net_sink comp="98" pin=0"/></net>

<net id="143"><net_src comp="92" pin="2"/><net_sink comp="98" pin=1"/></net>

<net id="144"><net_src comp="12" pin="0"/><net_sink comp="98" pin=2"/></net>

<net id="145"><net_src comp="16" pin="0"/><net_sink comp="98" pin=3"/></net>

<net id="146"><net_src comp="4" pin="0"/><net_sink comp="98" pin=4"/></net>

<net id="147"><net_src comp="8" pin="0"/><net_sink comp="98" pin=5"/></net>

<net id="148"><net_src comp="10" pin="0"/><net_sink comp="98" pin=6"/></net>

<net id="149"><net_src comp="14" pin="0"/><net_sink comp="98" pin=7"/></net>

<net id="150"><net_src comp="2" pin="0"/><net_sink comp="98" pin=8"/></net>

<net id="151"><net_src comp="6" pin="0"/><net_sink comp="98" pin=9"/></net>

<net id="152"><net_src comp="18" pin="0"/><net_sink comp="98" pin=10"/></net>

<net id="153"><net_src comp="22" pin="0"/><net_sink comp="98" pin=11"/></net>

<net id="154"><net_src comp="26" pin="0"/><net_sink comp="98" pin=12"/></net>

<net id="155"><net_src comp="30" pin="0"/><net_sink comp="98" pin=13"/></net>

<net id="156"><net_src comp="20" pin="0"/><net_sink comp="98" pin=14"/></net>

<net id="157"><net_src comp="24" pin="0"/><net_sink comp="98" pin=15"/></net>

<net id="158"><net_src comp="28" pin="0"/><net_sink comp="98" pin=16"/></net>

<net id="159"><net_src comp="32" pin="0"/><net_sink comp="98" pin=17"/></net>

<net id="160"><net_src comp="34" pin="0"/><net_sink comp="98" pin=18"/></net>

<net id="161"><net_src comp="36" pin="0"/><net_sink comp="98" pin=19"/></net>

<net id="162"><net_src comp="38" pin="0"/><net_sink comp="98" pin=20"/></net>

<net id="163"><net_src comp="40" pin="0"/><net_sink comp="98" pin=21"/></net>

<net id="164"><net_src comp="42" pin="0"/><net_sink comp="98" pin=22"/></net>

<net id="165"><net_src comp="44" pin="0"/><net_sink comp="98" pin=23"/></net>

<net id="166"><net_src comp="46" pin="0"/><net_sink comp="98" pin=24"/></net>

<net id="167"><net_src comp="48" pin="0"/><net_sink comp="98" pin=25"/></net>

<net id="168"><net_src comp="50" pin="0"/><net_sink comp="98" pin=26"/></net>

<net id="169"><net_src comp="52" pin="0"/><net_sink comp="98" pin=27"/></net>

<net id="170"><net_src comp="54" pin="0"/><net_sink comp="98" pin=28"/></net>

<net id="171"><net_src comp="56" pin="0"/><net_sink comp="98" pin=29"/></net>

<net id="172"><net_src comp="58" pin="0"/><net_sink comp="98" pin=30"/></net>

<net id="173"><net_src comp="60" pin="0"/><net_sink comp="98" pin=31"/></net>

<net id="174"><net_src comp="62" pin="0"/><net_sink comp="98" pin=32"/></net>

<net id="175"><net_src comp="64" pin="0"/><net_sink comp="98" pin=33"/></net>

<net id="176"><net_src comp="66" pin="0"/><net_sink comp="98" pin=34"/></net>

<net id="177"><net_src comp="68" pin="0"/><net_sink comp="98" pin=35"/></net>

<net id="178"><net_src comp="70" pin="0"/><net_sink comp="98" pin=36"/></net>

<net id="179"><net_src comp="72" pin="0"/><net_sink comp="98" pin=37"/></net>

<net id="180"><net_src comp="74" pin="0"/><net_sink comp="98" pin=38"/></net>

<net id="181"><net_src comp="76" pin="0"/><net_sink comp="98" pin=39"/></net>

<net id="182"><net_src comp="78" pin="0"/><net_sink comp="98" pin=40"/></net>

<net id="183"><net_src comp="80" pin="0"/><net_sink comp="98" pin=41"/></net>

<net id="187"><net_src comp="92" pin="2"/><net_sink comp="184" pin=0"/></net>

<net id="188"><net_src comp="184" pin="1"/><net_sink comp="98" pin=1"/></net>

</net_list>

</model> 
---------------- Datapath Model END ------------------

* FSMD analyzer results:
  - Output states:
	Port: real_i_0 | {}
	Port: real_i_1 | {}
	Port: real_i_2 | {}
	Port: real_i_3 | {}
	Port: real_i_4 | {}
	Port: real_i_5 | {}
	Port: real_i_6 | {}
	Port: real_i_7 | {}
	Port: imag_i_0 | {}
	Port: imag_i_1 | {}
	Port: imag_i_2 | {}
	Port: imag_i_3 | {}
	Port: imag_i_4 | {}
	Port: imag_i_5 | {}
	Port: imag_i_6 | {}
	Port: imag_i_7 | {}
	Port: imag_arr1024_1 | {}
	Port: real_arr1024_1 | {}
	Port: cct_0 | {}
	Port: cct_1 | {}
	Port: cct_2 | {}
	Port: cct_3 | {}
	Port: cct_4 | {}
	Port: cct_5 | {}
	Port: cct_6 | {}
	Port: cct_7 | {}
	Port: sct_0 | {}
	Port: sct_1 | {}
	Port: sct_2 | {}
	Port: sct_3 | {}
	Port: sct_4 | {}
	Port: sct_5 | {}
	Port: sct_6 | {}
	Port: sct_7 | {}
	Port: imag_arr1024_0 | {}
	Port: real_arr1024_0 | {}
	Port: imag_arr1024_3 | {}
	Port: real_arr1024_3 | {}
	Port: imag_arr1024_2 | {}
	Port: real_arr1024_2 | {}
  - Chain level:
	State 1
	State 2


============================================================
+ Verbose Summary: Datapath Resource usage 
============================================================

* Functional unit list:
|----------|-----------------------------------------|---------|---------|---------|---------|
| Operation|             Functional Unit             |  DSP48E |  Delay  |    FF   |   LUT   |
|----------|-----------------------------------------|---------|---------|---------|---------|
|   call   | grp_dft_loop_flow1024_Loop_1_proc_fu_98 |    54   | 208.943 |   5849  |  10232  |
|----------|-----------------------------------------|---------|---------|---------|---------|
|   read   |          i_V_read_2_read_fu_92          |    0    |    0    |    0    |    0    |
|----------|-----------------------------------------|---------|---------|---------|---------|
|   Total  |                                         |    54   | 208.943 |   5849  |  10232  |
|----------|-----------------------------------------|---------|---------|---------|---------|

Memories:
N/A

* Register list:
+------------------+--------+
|                  |   FF   |
+------------------+--------+
|i_V_read_2_reg_184|   11   |
+------------------+--------+
|       Total      |   11   |
+------------------+--------+

* Multiplexer (MUX) list: 
|-----------------------------------------|------|------|------|--------||---------||---------|
|                   Comp                  |  Pin | Size |  BW  | S x BW ||  Delay  ||   LUT   |
|-----------------------------------------|------|------|------|--------||---------||---------|
| grp_dft_loop_flow1024_Loop_1_proc_fu_98 |  p1  |   2  |  11  |   22   ||    11   |
|-----------------------------------------|------|------|------|--------||---------||---------|
|                  Total                  |      |      |      |   22   ||  1.571  ||    11   |
|-----------------------------------------|------|------|------|--------||---------||---------|



* Summary:
+-----------+--------+--------+--------+--------+
|           | DSP48E |  Delay |   FF   |   LUT  |
+-----------+--------+--------+--------+--------+
|  Function |   54   |   208  |  5849  |  10232 |
|   Memory  |    -   |    -   |    -   |    -   |
|Multiplexer|    -   |    1   |    -   |   11   |
|  Register |    -   |    -   |   11   |    -   |
+-----------+--------+--------+--------+--------+
|   Total   |   54   |   210  |  5860  |  10243 |
+-----------+--------+--------+--------+--------+
