

================================================================
== Vivado HLS Report for 'dft_loop_flow64_Loop_1_proc'
================================================================
* Date:           Thu Nov 03 00:36:00 2016

* Version:        2015.4 (Build 1412921 on Wed Nov 18 09:58:55 AM 2015)
* Project:        dft
* Solution:       solution3
* Product family: zynq
* Target device:  xc7z020clg484-1


================================================================
== Performance Estimates
================================================================
+ Timing (ns): 
    * Summary: 
    +--------+-------+----------+------------+
    |  Clock | Target| Estimated| Uncertainty|
    +--------+-------+----------+------------+
    |ap_clk  |  10.00|      7.26|        1.25|
    +--------+-------+----------+------------+

+ Latency (clock cycles): 
    * Summary: 
    +-----+-----+-----+-----+---------+
    |  Latency  |  Interval | Pipeline|
    | min | max | min | max |   Type  |
    +-----+-----+-----+-----+---------+
    |   24|   24|   24|   24|   none  |
    +-----+-----+-----+-----+---------+

    + Detail: 
        * Instance: 
        N/A

        * Loop: 
        +----------+-----+-----+----------+-----------+-----------+------+----------+
        |          |  Latency  | Iteration|  Initiation Interval  | Trip |          |
        | Loop Name| min | max |  Latency |  achieved |   target  | Count| Pipelined|
        +----------+-----+-----+----------+-----------+-----------+------+----------+
        |- Loop 1  |   22|   22|         9|          2|          1|     8|    yes   |
        +----------+-----+-----+----------+-----------+-----------+------+----------+

============================================================
+ Verbose Summary: Synthesis Manager
============================================================
InlineROM: 1
ExposeGlobal: 0
============================================================
+ Verbose Summary: CDFG Model
============================================================
IsTopModel: 0
ResetActiveHigh: 1
IsCombinational: 2
IsDatapathOnly: 0
HasWiredReturn: 1
HasMFsm: 0
HasVarLatency: 1
IsPipeline: 0
IsRtlPipelined: 0
IsInstanceOverlapped: 0
IsDontTouch: 0
HasImplIP: 0
IsGatedGlobalClock: 0

+ Individual pipeline summary: 
  * Pipeline-0: initiation interval (II) = 2, depth = 9


============================================================
+ Verbose Summary: Schedule
============================================================
* Number of FSM states: 11
* Pipeline: 1
  Pipeline-0: II = 2, D = 9, States = { 2 3 4 5 6 7 8 9 10 }
* Dataflow Pipeline: 0

* FSM state transitions: 
1 --> 
	2  / true
2 --> 
	11  / (exitcond_i_i)
	3  / (!exitcond_i_i)
3 --> 
	4  / true
4 --> 
	5  / true
5 --> 
	6  / true
6 --> 
	7  / true
7 --> 
	8  / true
8 --> 
	9  / true
9 --> 
	10  / true
10 --> 
	2  / true
11 --> 
* FSM state operations: 

 <State 1>: 1.57ns
ST_1: stg_12 [1/1] 1.57ns
newFuncRoot:0  br label %0


 <State 2>: 2.71ns
ST_2: p_078_0_i_i [1/1] 0.00ns
:0  %p_078_0_i_i = phi i8 [ 0, %newFuncRoot ], [ %j_V_i_7, %1 ]

ST_2: p_04_0_i_i [1/1] 0.00ns
:1  %p_04_0_i_i = phi i7 [ 0, %newFuncRoot ], [ %i_V_i_7, %1 ]

ST_2: exitcond_i_i [1/1] 1.97ns
:2  %exitcond_i_i = icmp eq i7 %p_04_0_i_i, -64

ST_2: stg_16 [1/1] 0.00ns
:3  br i1 %exitcond_i_i, label %loop_flow64_.exit2.exitStub, label %1

ST_2: newIndex [1/1] 0.00ns
:3  %newIndex = call i6 @_ssdm_op_PartSelect.i6.i8.i32.i32(i8 %p_078_0_i_i, i32 2, i32 7)

ST_2: newIndex6 [1/1] 0.00ns
:4  %newIndex6 = zext i6 %newIndex to i64

ST_2: real_arr128_0_addr [1/1] 0.00ns
:5  %real_arr128_0_addr = getelementptr [32 x float]* @real_arr128_0, i64 0, i64 %newIndex6

ST_2: real_arr128_0_load [2/2] 2.71ns
:6  %real_arr128_0_load = load float* %real_arr128_0_addr, align 16

ST_2: newIndex7 [1/1] 0.00ns
:7  %newIndex7 = call i5 @_ssdm_op_PartSelect.i5.i8.i32.i32(i8 %p_078_0_i_i, i32 2, i32 6)

ST_2: newIndex8 [1/1] 0.00ns
:8  %newIndex8 = zext i5 %newIndex7 to i64

ST_2: real_arr128_1_addr [1/1] 0.00ns
:9  %real_arr128_1_addr = getelementptr [32 x float]* @real_arr128_1, i64 0, i64 %newIndex8

ST_2: real_arr128_1_load [2/2] 2.71ns
:10  %real_arr128_1_load = load float* %real_arr128_1_addr, align 16

ST_2: imag_arr128_0_addr [1/1] 0.00ns
:16  %imag_arr128_0_addr = getelementptr [32 x float]* @imag_arr128_0, i64 0, i64 %newIndex6

ST_2: imag_arr128_0_load [2/2] 2.71ns
:17  %imag_arr128_0_load = load float* %imag_arr128_0_addr, align 16

ST_2: imag_arr128_1_addr [1/1] 0.00ns
:18  %imag_arr128_1_addr = getelementptr [32 x float]* @imag_arr128_1, i64 0, i64 %newIndex8

ST_2: imag_arr128_1_load [2/2] 2.71ns
:19  %imag_arr128_1_load = load float* %imag_arr128_1_addr, align 16

ST_2: real_arr128_2_addr [1/1] 0.00ns
:24  %real_arr128_2_addr = getelementptr [32 x float]* @real_arr128_2, i64 0, i64 %newIndex6

ST_2: real_arr128_2_load [2/2] 2.71ns
:25  %real_arr128_2_load = load float* %real_arr128_2_addr, align 16

ST_2: real_arr128_3_addr [1/1] 0.00ns
:26  %real_arr128_3_addr = getelementptr [32 x float]* @real_arr128_3, i64 0, i64 %newIndex8

ST_2: real_arr128_3_load [2/2] 2.71ns
:27  %real_arr128_3_load = load float* %real_arr128_3_addr, align 16

ST_2: imag_arr128_2_addr [1/1] 0.00ns
:31  %imag_arr128_2_addr = getelementptr [32 x float]* @imag_arr128_2, i64 0, i64 %newIndex6

ST_2: imag_arr128_2_load [2/2] 2.71ns
:32  %imag_arr128_2_load = load float* %imag_arr128_2_addr, align 16

ST_2: imag_arr128_3_addr [1/1] 0.00ns
:33  %imag_arr128_3_addr = getelementptr [32 x float]* @imag_arr128_3, i64 0, i64 %newIndex8

ST_2: imag_arr128_3_load [2/2] 2.71ns
:34  %imag_arr128_3_load = load float* %imag_arr128_3_addr, align 16

ST_2: newIndex2 [1/1] 0.00ns
:38  %newIndex2 = or i5 %newIndex7, 1

ST_2: newIndex3 [1/1] 0.00ns
:39  %newIndex3 = zext i5 %newIndex2 to i64

ST_2: real_arr128_0_addr_1 [1/1] 0.00ns
:40  %real_arr128_0_addr_1 = getelementptr [32 x float]* @real_arr128_0, i64 0, i64 %newIndex3

ST_2: real_arr128_0_load_1 [2/2] 2.71ns
:41  %real_arr128_0_load_1 = load float* %real_arr128_0_addr_1, align 16

ST_2: real_arr128_1_addr_1 [1/1] 0.00ns
:42  %real_arr128_1_addr_1 = getelementptr [32 x float]* @real_arr128_1, i64 0, i64 %newIndex3

ST_2: real_arr128_1_load_1 [2/2] 2.71ns
:43  %real_arr128_1_load_1 = load float* %real_arr128_1_addr_1, align 4

ST_2: imag_arr128_0_addr_1 [1/1] 0.00ns
:47  %imag_arr128_0_addr_1 = getelementptr [32 x float]* @imag_arr128_0, i64 0, i64 %newIndex3

ST_2: imag_arr128_0_load_1 [2/2] 2.71ns
:48  %imag_arr128_0_load_1 = load float* %imag_arr128_0_addr_1, align 16

ST_2: imag_arr128_1_addr_1 [1/1] 0.00ns
:49  %imag_arr128_1_addr_1 = getelementptr [32 x float]* @imag_arr128_1, i64 0, i64 %newIndex3

ST_2: imag_arr128_1_load_1 [2/2] 2.71ns
:50  %imag_arr128_1_load_1 = load float* %imag_arr128_1_addr_1, align 4

ST_2: real_arr128_2_addr_1 [1/1] 0.00ns
:54  %real_arr128_2_addr_1 = getelementptr [32 x float]* @real_arr128_2, i64 0, i64 %newIndex3

ST_2: real_arr128_2_load_1 [2/2] 2.71ns
:55  %real_arr128_2_load_1 = load float* %real_arr128_2_addr_1, align 8

ST_2: real_arr128_3_addr_1 [1/1] 0.00ns
:56  %real_arr128_3_addr_1 = getelementptr [32 x float]* @real_arr128_3, i64 0, i64 %newIndex3

ST_2: real_arr128_3_load_1 [2/2] 2.71ns
:57  %real_arr128_3_load_1 = load float* %real_arr128_3_addr_1, align 4

ST_2: imag_arr128_2_addr_1 [1/1] 0.00ns
:61  %imag_arr128_2_addr_1 = getelementptr [32 x float]* @imag_arr128_2, i64 0, i64 %newIndex3

ST_2: imag_arr128_2_load_1 [2/2] 2.71ns
:62  %imag_arr128_2_load_1 = load float* %imag_arr128_2_addr_1, align 8

ST_2: imag_arr128_3_addr_1 [1/1] 0.00ns
:63  %imag_arr128_3_addr_1 = getelementptr [32 x float]* @imag_arr128_3, i64 0, i64 %newIndex3

ST_2: imag_arr128_3_load_1 [2/2] 2.71ns
:64  %imag_arr128_3_load_1 = load float* %imag_arr128_3_addr_1, align 4

ST_2: j_V_i_7 [1/1] 1.72ns
:132  %j_V_i_7 = add i8 %p_078_0_i_i, 16


 <State 3>: 2.71ns
ST_3: real_arr128_0_load [1/2] 2.71ns
:6  %real_arr128_0_load = load float* %real_arr128_0_addr, align 16

ST_3: real_arr128_1_load [1/2] 2.71ns
:10  %real_arr128_1_load = load float* %real_arr128_1_addr, align 16

ST_3: newIndex9 [1/1] 0.00ns
:12  %newIndex9 = call i5 @_ssdm_op_PartSelect.i5.i7.i32.i32(i7 %p_04_0_i_i, i32 2, i32 6)

ST_3: imag_arr128_0_load [1/2] 2.71ns
:17  %imag_arr128_0_load = load float* %imag_arr128_0_addr, align 16

ST_3: imag_arr128_1_load [1/2] 2.71ns
:19  %imag_arr128_1_load = load float* %imag_arr128_1_addr, align 16

ST_3: real_arr128_2_load [1/2] 2.71ns
:25  %real_arr128_2_load = load float* %real_arr128_2_addr, align 16

ST_3: real_arr128_3_load [1/2] 2.71ns
:27  %real_arr128_3_load = load float* %real_arr128_3_addr, align 16

ST_3: imag_arr128_2_load [1/2] 2.71ns
:32  %imag_arr128_2_load = load float* %imag_arr128_2_addr, align 16

ST_3: imag_arr128_3_load [1/2] 2.71ns
:34  %imag_arr128_3_load = load float* %imag_arr128_3_addr, align 16

ST_3: real_arr128_0_load_1 [1/2] 2.71ns
:41  %real_arr128_0_load_1 = load float* %real_arr128_0_addr_1, align 16

ST_3: real_arr128_1_load_1 [1/2] 2.71ns
:43  %real_arr128_1_load_1 = load float* %real_arr128_1_addr_1, align 4

ST_3: imag_arr128_0_load_1 [1/2] 2.71ns
:48  %imag_arr128_0_load_1 = load float* %imag_arr128_0_addr_1, align 16

ST_3: imag_arr128_1_load_1 [1/2] 2.71ns
:50  %imag_arr128_1_load_1 = load float* %imag_arr128_1_addr_1, align 4

ST_3: real_arr128_2_load_1 [1/2] 2.71ns
:55  %real_arr128_2_load_1 = load float* %real_arr128_2_addr_1, align 8

ST_3: real_arr128_3_load_1 [1/2] 2.71ns
:57  %real_arr128_3_load_1 = load float* %real_arr128_3_addr_1, align 4

ST_3: imag_arr128_2_load_1 [1/2] 2.71ns
:62  %imag_arr128_2_load_1 = load float* %imag_arr128_2_addr_1, align 8

ST_3: imag_arr128_3_load_1 [1/2] 2.71ns
:64  %imag_arr128_3_load_1 = load float* %imag_arr128_3_addr_1, align 4

ST_3: newIndex4 [1/1] 0.00ns
:68  %newIndex4 = or i5 %newIndex7, 2

ST_3: newIndex5 [1/1] 0.00ns
:69  %newIndex5 = zext i5 %newIndex4 to i64

ST_3: real_arr128_0_addr_2 [1/1] 0.00ns
:70  %real_arr128_0_addr_2 = getelementptr [32 x float]* @real_arr128_0, i64 0, i64 %newIndex5

ST_3: real_arr128_0_load_2 [2/2] 2.71ns
:71  %real_arr128_0_load_2 = load float* %real_arr128_0_addr_2, align 16

ST_3: real_arr128_1_addr_2 [1/1] 0.00ns
:72  %real_arr128_1_addr_2 = getelementptr [32 x float]* @real_arr128_1, i64 0, i64 %newIndex5

ST_3: real_arr128_1_load_2 [2/2] 2.71ns
:73  %real_arr128_1_load_2 = load float* %real_arr128_1_addr_2, align 8

ST_3: i_V_i_cast [1/1] 0.00ns
:75  %i_V_i_cast = call i4 @_ssdm_op_PartSelect.i4.i7.i32.i32(i7 %p_04_0_i_i, i32 2, i32 5)

ST_3: imag_arr128_0_addr_2 [1/1] 0.00ns
:80  %imag_arr128_0_addr_2 = getelementptr [32 x float]* @imag_arr128_0, i64 0, i64 %newIndex5

ST_3: imag_arr128_0_load_2 [2/2] 2.71ns
:81  %imag_arr128_0_load_2 = load float* %imag_arr128_0_addr_2, align 16

ST_3: imag_arr128_1_addr_2 [1/1] 0.00ns
:82  %imag_arr128_1_addr_2 = getelementptr [32 x float]* @imag_arr128_1, i64 0, i64 %newIndex5

ST_3: imag_arr128_1_load_2 [2/2] 2.71ns
:83  %imag_arr128_1_load_2 = load float* %imag_arr128_1_addr_2, align 8

ST_3: real_arr128_2_addr_2 [1/1] 0.00ns
:87  %real_arr128_2_addr_2 = getelementptr [32 x float]* @real_arr128_2, i64 0, i64 %newIndex5

ST_3: real_arr128_2_load_2 [2/2] 2.71ns
:88  %real_arr128_2_load_2 = load float* %real_arr128_2_addr_2, align 8

ST_3: real_arr128_3_addr_2 [1/1] 0.00ns
:89  %real_arr128_3_addr_2 = getelementptr [32 x float]* @real_arr128_3, i64 0, i64 %newIndex5

ST_3: real_arr128_3_load_2 [2/2] 2.71ns
:90  %real_arr128_3_load_2 = load float* %real_arr128_3_addr_2, align 8

ST_3: imag_arr128_2_addr_2 [1/1] 0.00ns
:94  %imag_arr128_2_addr_2 = getelementptr [32 x float]* @imag_arr128_2, i64 0, i64 %newIndex5

ST_3: imag_arr128_2_load_2 [2/2] 2.71ns
:95  %imag_arr128_2_load_2 = load float* %imag_arr128_2_addr_2, align 8

ST_3: imag_arr128_3_addr_2 [1/1] 0.00ns
:96  %imag_arr128_3_addr_2 = getelementptr [32 x float]* @imag_arr128_3, i64 0, i64 %newIndex5

ST_3: imag_arr128_3_load_2 [2/2] 2.71ns
:97  %imag_arr128_3_load_2 = load float* %imag_arr128_3_addr_2, align 8

ST_3: newIndex12 [1/1] 0.00ns
:101  %newIndex12 = or i5 %newIndex7, 3

ST_3: newIndex13 [1/1] 0.00ns
:102  %newIndex13 = zext i5 %newIndex12 to i64

ST_3: real_arr128_0_addr_3 [1/1] 0.00ns
:103  %real_arr128_0_addr_3 = getelementptr [32 x float]* @real_arr128_0, i64 0, i64 %newIndex13

ST_3: real_arr128_0_load_3 [2/2] 2.71ns
:104  %real_arr128_0_load_3 = load float* %real_arr128_0_addr_3, align 16

ST_3: real_arr128_1_addr_3 [1/1] 0.00ns
:105  %real_arr128_1_addr_3 = getelementptr [32 x float]* @real_arr128_1, i64 0, i64 %newIndex13

ST_3: real_arr128_1_load_3 [2/2] 2.71ns
:106  %real_arr128_1_load_3 = load float* %real_arr128_1_addr_3, align 4

ST_3: imag_arr128_0_addr_3 [1/1] 0.00ns
:110  %imag_arr128_0_addr_3 = getelementptr [32 x float]* @imag_arr128_0, i64 0, i64 %newIndex13

ST_3: imag_arr128_0_load_3 [2/2] 2.71ns
:111  %imag_arr128_0_load_3 = load float* %imag_arr128_0_addr_3, align 16

ST_3: imag_arr128_1_addr_3 [1/1] 0.00ns
:112  %imag_arr128_1_addr_3 = getelementptr [32 x float]* @imag_arr128_1, i64 0, i64 %newIndex13

ST_3: imag_arr128_1_load_3 [2/2] 2.71ns
:113  %imag_arr128_1_load_3 = load float* %imag_arr128_1_addr_3, align 4

ST_3: real_arr128_2_addr_3 [1/1] 0.00ns
:117  %real_arr128_2_addr_3 = getelementptr [32 x float]* @real_arr128_2, i64 0, i64 %newIndex13

ST_3: real_arr128_2_load_3 [2/2] 2.71ns
:118  %real_arr128_2_load_3 = load float* %real_arr128_2_addr_3, align 8

ST_3: real_arr128_3_addr_3 [1/1] 0.00ns
:119  %real_arr128_3_addr_3 = getelementptr [32 x float]* @real_arr128_3, i64 0, i64 %newIndex13

ST_3: real_arr128_3_load_3 [2/2] 2.71ns
:120  %real_arr128_3_load_3 = load float* %real_arr128_3_addr_3, align 4

ST_3: imag_arr128_2_addr_3 [1/1] 0.00ns
:124  %imag_arr128_2_addr_3 = getelementptr [32 x float]* @imag_arr128_2, i64 0, i64 %newIndex13

ST_3: imag_arr128_2_load_3 [2/2] 2.71ns
:125  %imag_arr128_2_load_3 = load float* %imag_arr128_2_addr_3, align 8

ST_3: imag_arr128_3_addr_3 [1/1] 0.00ns
:126  %imag_arr128_3_addr_3 = getelementptr [32 x float]* @imag_arr128_3, i64 0, i64 %newIndex13

ST_3: imag_arr128_3_load_3 [2/2] 2.71ns
:127  %imag_arr128_3_load_3 = load float* %imag_arr128_3_addr_3, align 4

ST_3: i_V_i_7 [1/1] 1.72ns
:131  %i_V_i_7 = add i7 %p_04_0_i_i, 8


 <State 4>: 7.26ns
ST_4: tmp_1_i [5/5] 7.26ns
:11  %tmp_1_i = fadd float %real_arr128_0_load, %real_arr128_1_load

ST_4: tmp_3_i [5/5] 7.26ns
:20  %tmp_3_i = fadd float %imag_arr128_0_load, %imag_arr128_1_load

ST_4: tmp_1_i_1 [5/5] 7.26ns
:28  %tmp_1_i_1 = fadd float %real_arr128_2_load, %real_arr128_3_load

ST_4: tmp_3_i_1 [5/5] 7.26ns
:35  %tmp_3_i_1 = fadd float %imag_arr128_2_load, %imag_arr128_3_load

ST_4: tmp_1_i_2 [5/5] 7.26ns
:44  %tmp_1_i_2 = fadd float %real_arr128_0_load_1, %real_arr128_1_load_1

ST_4: tmp_3_i_2 [5/5] 7.26ns
:51  %tmp_3_i_2 = fadd float %imag_arr128_0_load_1, %imag_arr128_1_load_1

ST_4: tmp_1_i_3 [5/5] 7.26ns
:58  %tmp_1_i_3 = fadd float %real_arr128_2_load_1, %real_arr128_3_load_1

ST_4: tmp_3_i_3 [5/5] 7.26ns
:65  %tmp_3_i_3 = fadd float %imag_arr128_2_load_1, %imag_arr128_3_load_1

ST_4: real_arr128_0_load_2 [1/2] 2.71ns
:71  %real_arr128_0_load_2 = load float* %real_arr128_0_addr_2, align 16

ST_4: real_arr128_1_load_2 [1/2] 2.71ns
:73  %real_arr128_1_load_2 = load float* %real_arr128_1_addr_2, align 8

ST_4: imag_arr128_0_load_2 [1/2] 2.71ns
:81  %imag_arr128_0_load_2 = load float* %imag_arr128_0_addr_2, align 16

ST_4: imag_arr128_1_load_2 [1/2] 2.71ns
:83  %imag_arr128_1_load_2 = load float* %imag_arr128_1_addr_2, align 8

ST_4: real_arr128_2_load_2 [1/2] 2.71ns
:88  %real_arr128_2_load_2 = load float* %real_arr128_2_addr_2, align 8

ST_4: real_arr128_3_load_2 [1/2] 2.71ns
:90  %real_arr128_3_load_2 = load float* %real_arr128_3_addr_2, align 8

ST_4: imag_arr128_2_load_2 [1/2] 2.71ns
:95  %imag_arr128_2_load_2 = load float* %imag_arr128_2_addr_2, align 8

ST_4: imag_arr128_3_load_2 [1/2] 2.71ns
:97  %imag_arr128_3_load_2 = load float* %imag_arr128_3_addr_2, align 8

ST_4: real_arr128_0_load_3 [1/2] 2.71ns
:104  %real_arr128_0_load_3 = load float* %real_arr128_0_addr_3, align 16

ST_4: real_arr128_1_load_3 [1/2] 2.71ns
:106  %real_arr128_1_load_3 = load float* %real_arr128_1_addr_3, align 4

ST_4: imag_arr128_0_load_3 [1/2] 2.71ns
:111  %imag_arr128_0_load_3 = load float* %imag_arr128_0_addr_3, align 16

ST_4: imag_arr128_1_load_3 [1/2] 2.71ns
:113  %imag_arr128_1_load_3 = load float* %imag_arr128_1_addr_3, align 4

ST_4: real_arr128_2_load_3 [1/2] 2.71ns
:118  %real_arr128_2_load_3 = load float* %real_arr128_2_addr_3, align 8

ST_4: real_arr128_3_load_3 [1/2] 2.71ns
:120  %real_arr128_3_load_3 = load float* %real_arr128_3_addr_3, align 4

ST_4: imag_arr128_2_load_3 [1/2] 2.71ns
:125  %imag_arr128_2_load_3 = load float* %imag_arr128_2_addr_3, align 8

ST_4: imag_arr128_3_load_3 [1/2] 2.71ns
:127  %imag_arr128_3_load_3 = load float* %imag_arr128_3_addr_3, align 4


 <State 5>: 7.26ns
ST_5: tmp_1_i [4/5] 7.26ns
:11  %tmp_1_i = fadd float %real_arr128_0_load, %real_arr128_1_load

ST_5: tmp_3_i [4/5] 7.26ns
:20  %tmp_3_i = fadd float %imag_arr128_0_load, %imag_arr128_1_load

ST_5: tmp_1_i_1 [4/5] 7.26ns
:28  %tmp_1_i_1 = fadd float %real_arr128_2_load, %real_arr128_3_load

ST_5: tmp_3_i_1 [4/5] 7.26ns
:35  %tmp_3_i_1 = fadd float %imag_arr128_2_load, %imag_arr128_3_load

ST_5: tmp_1_i_2 [4/5] 7.26ns
:44  %tmp_1_i_2 = fadd float %real_arr128_0_load_1, %real_arr128_1_load_1

ST_5: tmp_3_i_2 [4/5] 7.26ns
:51  %tmp_3_i_2 = fadd float %imag_arr128_0_load_1, %imag_arr128_1_load_1

ST_5: tmp_1_i_3 [4/5] 7.26ns
:58  %tmp_1_i_3 = fadd float %real_arr128_2_load_1, %real_arr128_3_load_1

ST_5: tmp_3_i_3 [4/5] 7.26ns
:65  %tmp_3_i_3 = fadd float %imag_arr128_2_load_1, %imag_arr128_3_load_1

ST_5: tmp_1_i_4 [5/5] 7.26ns
:74  %tmp_1_i_4 = fadd float %real_arr128_0_load_2, %real_arr128_1_load_2

ST_5: tmp_3_i_4 [5/5] 7.26ns
:84  %tmp_3_i_4 = fadd float %imag_arr128_0_load_2, %imag_arr128_1_load_2

ST_5: tmp_1_i_5 [5/5] 7.26ns
:91  %tmp_1_i_5 = fadd float %real_arr128_2_load_2, %real_arr128_3_load_2

ST_5: tmp_3_i_5 [5/5] 7.26ns
:98  %tmp_3_i_5 = fadd float %imag_arr128_2_load_2, %imag_arr128_3_load_2

ST_5: tmp_1_i_6 [5/5] 7.26ns
:107  %tmp_1_i_6 = fadd float %real_arr128_0_load_3, %real_arr128_1_load_3

ST_5: tmp_3_i_6 [5/5] 7.26ns
:114  %tmp_3_i_6 = fadd float %imag_arr128_0_load_3, %imag_arr128_1_load_3

ST_5: tmp_1_i_7 [5/5] 7.26ns
:121  %tmp_1_i_7 = fadd float %real_arr128_2_load_3, %real_arr128_3_load_3

ST_5: tmp_3_i_7 [5/5] 7.26ns
:128  %tmp_3_i_7 = fadd float %imag_arr128_2_load_3, %imag_arr128_3_load_3


 <State 6>: 7.26ns
ST_6: tmp_1_i [3/5] 7.26ns
:11  %tmp_1_i = fadd float %real_arr128_0_load, %real_arr128_1_load

ST_6: tmp_3_i [3/5] 7.26ns
:20  %tmp_3_i = fadd float %imag_arr128_0_load, %imag_arr128_1_load

ST_6: tmp_1_i_1 [3/5] 7.26ns
:28  %tmp_1_i_1 = fadd float %real_arr128_2_load, %real_arr128_3_load

ST_6: tmp_3_i_1 [3/5] 7.26ns
:35  %tmp_3_i_1 = fadd float %imag_arr128_2_load, %imag_arr128_3_load

ST_6: tmp_1_i_2 [3/5] 7.26ns
:44  %tmp_1_i_2 = fadd float %real_arr128_0_load_1, %real_arr128_1_load_1

ST_6: tmp_3_i_2 [3/5] 7.26ns
:51  %tmp_3_i_2 = fadd float %imag_arr128_0_load_1, %imag_arr128_1_load_1

ST_6: tmp_1_i_3 [3/5] 7.26ns
:58  %tmp_1_i_3 = fadd float %real_arr128_2_load_1, %real_arr128_3_load_1

ST_6: tmp_3_i_3 [3/5] 7.26ns
:65  %tmp_3_i_3 = fadd float %imag_arr128_2_load_1, %imag_arr128_3_load_1

ST_6: tmp_1_i_4 [4/5] 7.26ns
:74  %tmp_1_i_4 = fadd float %real_arr128_0_load_2, %real_arr128_1_load_2

ST_6: tmp_3_i_4 [4/5] 7.26ns
:84  %tmp_3_i_4 = fadd float %imag_arr128_0_load_2, %imag_arr128_1_load_2

ST_6: tmp_1_i_5 [4/5] 7.26ns
:91  %tmp_1_i_5 = fadd float %real_arr128_2_load_2, %real_arr128_3_load_2

ST_6: tmp_3_i_5 [4/5] 7.26ns
:98  %tmp_3_i_5 = fadd float %imag_arr128_2_load_2, %imag_arr128_3_load_2

ST_6: tmp_1_i_6 [4/5] 7.26ns
:107  %tmp_1_i_6 = fadd float %real_arr128_0_load_3, %real_arr128_1_load_3

ST_6: tmp_3_i_6 [4/5] 7.26ns
:114  %tmp_3_i_6 = fadd float %imag_arr128_0_load_3, %imag_arr128_1_load_3

ST_6: tmp_1_i_7 [4/5] 7.26ns
:121  %tmp_1_i_7 = fadd float %real_arr128_2_load_3, %real_arr128_3_load_3

ST_6: tmp_3_i_7 [4/5] 7.26ns
:128  %tmp_3_i_7 = fadd float %imag_arr128_2_load_3, %imag_arr128_3_load_3


 <State 7>: 7.26ns
ST_7: tmp_1_i [2/5] 7.26ns
:11  %tmp_1_i = fadd float %real_arr128_0_load, %real_arr128_1_load

ST_7: tmp_3_i [2/5] 7.26ns
:20  %tmp_3_i = fadd float %imag_arr128_0_load, %imag_arr128_1_load

ST_7: tmp_1_i_1 [2/5] 7.26ns
:28  %tmp_1_i_1 = fadd float %real_arr128_2_load, %real_arr128_3_load

ST_7: tmp_3_i_1 [2/5] 7.26ns
:35  %tmp_3_i_1 = fadd float %imag_arr128_2_load, %imag_arr128_3_load

ST_7: tmp_1_i_2 [2/5] 7.26ns
:44  %tmp_1_i_2 = fadd float %real_arr128_0_load_1, %real_arr128_1_load_1

ST_7: tmp_3_i_2 [2/5] 7.26ns
:51  %tmp_3_i_2 = fadd float %imag_arr128_0_load_1, %imag_arr128_1_load_1

ST_7: tmp_1_i_3 [2/5] 7.26ns
:58  %tmp_1_i_3 = fadd float %real_arr128_2_load_1, %real_arr128_3_load_1

ST_7: tmp_3_i_3 [2/5] 7.26ns
:65  %tmp_3_i_3 = fadd float %imag_arr128_2_load_1, %imag_arr128_3_load_1

ST_7: tmp_1_i_4 [3/5] 7.26ns
:74  %tmp_1_i_4 = fadd float %real_arr128_0_load_2, %real_arr128_1_load_2

ST_7: tmp_3_i_4 [3/5] 7.26ns
:84  %tmp_3_i_4 = fadd float %imag_arr128_0_load_2, %imag_arr128_1_load_2

ST_7: tmp_1_i_5 [3/5] 7.26ns
:91  %tmp_1_i_5 = fadd float %real_arr128_2_load_2, %real_arr128_3_load_2

ST_7: tmp_3_i_5 [3/5] 7.26ns
:98  %tmp_3_i_5 = fadd float %imag_arr128_2_load_2, %imag_arr128_3_load_2

ST_7: tmp_1_i_6 [3/5] 7.26ns
:107  %tmp_1_i_6 = fadd float %real_arr128_0_load_3, %real_arr128_1_load_3

ST_7: tmp_3_i_6 [3/5] 7.26ns
:114  %tmp_3_i_6 = fadd float %imag_arr128_0_load_3, %imag_arr128_1_load_3

ST_7: tmp_1_i_7 [3/5] 7.26ns
:121  %tmp_1_i_7 = fadd float %real_arr128_2_load_3, %real_arr128_3_load_3

ST_7: tmp_3_i_7 [3/5] 7.26ns
:128  %tmp_3_i_7 = fadd float %imag_arr128_2_load_3, %imag_arr128_3_load_3


 <State 8>: 7.26ns
ST_8: tmp_1_i [1/5] 7.26ns
:11  %tmp_1_i = fadd float %real_arr128_0_load, %real_arr128_1_load

ST_8: tmp_3_i [1/5] 7.26ns
:20  %tmp_3_i = fadd float %imag_arr128_0_load, %imag_arr128_1_load

ST_8: tmp_1_i_1 [1/5] 7.26ns
:28  %tmp_1_i_1 = fadd float %real_arr128_2_load, %real_arr128_3_load

ST_8: tmp_3_i_1 [1/5] 7.26ns
:35  %tmp_3_i_1 = fadd float %imag_arr128_2_load, %imag_arr128_3_load

ST_8: tmp_1_i_2 [1/5] 7.26ns
:44  %tmp_1_i_2 = fadd float %real_arr128_0_load_1, %real_arr128_1_load_1

ST_8: tmp_3_i_2 [1/5] 7.26ns
:51  %tmp_3_i_2 = fadd float %imag_arr128_0_load_1, %imag_arr128_1_load_1

ST_8: tmp_1_i_3 [1/5] 7.26ns
:58  %tmp_1_i_3 = fadd float %real_arr128_2_load_1, %real_arr128_3_load_1

ST_8: tmp_3_i_3 [1/5] 7.26ns
:65  %tmp_3_i_3 = fadd float %imag_arr128_2_load_1, %imag_arr128_3_load_1

ST_8: tmp_1_i_4 [2/5] 7.26ns
:74  %tmp_1_i_4 = fadd float %real_arr128_0_load_2, %real_arr128_1_load_2

ST_8: tmp_3_i_4 [2/5] 7.26ns
:84  %tmp_3_i_4 = fadd float %imag_arr128_0_load_2, %imag_arr128_1_load_2

ST_8: tmp_1_i_5 [2/5] 7.26ns
:91  %tmp_1_i_5 = fadd float %real_arr128_2_load_2, %real_arr128_3_load_2

ST_8: tmp_3_i_5 [2/5] 7.26ns
:98  %tmp_3_i_5 = fadd float %imag_arr128_2_load_2, %imag_arr128_3_load_2

ST_8: tmp_1_i_6 [2/5] 7.26ns
:107  %tmp_1_i_6 = fadd float %real_arr128_0_load_3, %real_arr128_1_load_3

ST_8: tmp_3_i_6 [2/5] 7.26ns
:114  %tmp_3_i_6 = fadd float %imag_arr128_0_load_3, %imag_arr128_1_load_3

ST_8: tmp_1_i_7 [2/5] 7.26ns
:121  %tmp_1_i_7 = fadd float %real_arr128_2_load_3, %real_arr128_3_load_3

ST_8: tmp_3_i_7 [2/5] 7.26ns
:128  %tmp_3_i_7 = fadd float %imag_arr128_2_load_3, %imag_arr128_3_load_3


 <State 9>: 7.26ns
ST_9: newIndex1 [1/1] 0.00ns
:13  %newIndex1 = zext i5 %newIndex9 to i64

ST_9: real_arr64_0_addr [1/1] 0.00ns
:14  %real_arr64_0_addr = getelementptr [16 x float]* @real_arr64_0, i64 0, i64 %newIndex1

ST_9: stg_201 [1/1] 2.39ns
:15  store float %tmp_1_i, float* %real_arr64_0_addr, align 16

ST_9: imag_arr64_0_addr [1/1] 0.00ns
:21  %imag_arr64_0_addr = getelementptr [16 x float]* @imag_arr64_0, i64 0, i64 %newIndex1

ST_9: stg_203 [1/1] 2.39ns
:22  store float %tmp_3_i, float* %imag_arr64_0_addr, align 16

ST_9: real_arr64_1_addr [1/1] 0.00ns
:29  %real_arr64_1_addr = getelementptr [16 x float]* @real_arr64_1, i64 0, i64 %newIndex1

ST_9: stg_205 [1/1] 2.39ns
:30  store float %tmp_1_i_1, float* %real_arr64_1_addr, align 8

ST_9: imag_arr64_1_addr [1/1] 0.00ns
:36  %imag_arr64_1_addr = getelementptr [16 x float]* @imag_arr64_1, i64 0, i64 %newIndex1

ST_9: stg_207 [1/1] 2.39ns
:37  store float %tmp_3_i_1, float* %imag_arr64_1_addr, align 8

ST_9: real_arr64_2_addr [1/1] 0.00ns
:45  %real_arr64_2_addr = getelementptr [16 x float]* @real_arr64_2, i64 0, i64 %newIndex1

ST_9: stg_209 [1/1] 2.39ns
:46  store float %tmp_1_i_2, float* %real_arr64_2_addr, align 8

ST_9: imag_arr64_2_addr [1/1] 0.00ns
:52  %imag_arr64_2_addr = getelementptr [16 x float]* @imag_arr64_2, i64 0, i64 %newIndex1

ST_9: stg_211 [1/1] 2.39ns
:53  store float %tmp_3_i_2, float* %imag_arr64_2_addr, align 8

ST_9: real_arr64_3_addr [1/1] 0.00ns
:59  %real_arr64_3_addr = getelementptr [16 x float]* @real_arr64_3, i64 0, i64 %newIndex1

ST_9: stg_213 [1/1] 2.39ns
:60  store float %tmp_1_i_3, float* %real_arr64_3_addr, align 8

ST_9: imag_arr64_3_addr [1/1] 0.00ns
:66  %imag_arr64_3_addr = getelementptr [16 x float]* @imag_arr64_3, i64 0, i64 %newIndex1

ST_9: stg_215 [1/1] 2.39ns
:67  store float %tmp_3_i_3, float* %imag_arr64_3_addr, align 8

ST_9: tmp_1_i_4 [1/5] 7.26ns
:74  %tmp_1_i_4 = fadd float %real_arr128_0_load_2, %real_arr128_1_load_2

ST_9: tmp_3_i_4 [1/5] 7.26ns
:84  %tmp_3_i_4 = fadd float %imag_arr128_0_load_2, %imag_arr128_1_load_2

ST_9: tmp_1_i_5 [1/5] 7.26ns
:91  %tmp_1_i_5 = fadd float %real_arr128_2_load_2, %real_arr128_3_load_2

ST_9: tmp_3_i_5 [1/5] 7.26ns
:98  %tmp_3_i_5 = fadd float %imag_arr128_2_load_2, %imag_arr128_3_load_2

ST_9: tmp_1_i_6 [1/5] 7.26ns
:107  %tmp_1_i_6 = fadd float %real_arr128_0_load_3, %real_arr128_1_load_3

ST_9: tmp_3_i_6 [1/5] 7.26ns
:114  %tmp_3_i_6 = fadd float %imag_arr128_0_load_3, %imag_arr128_1_load_3

ST_9: tmp_1_i_7 [1/5] 7.26ns
:121  %tmp_1_i_7 = fadd float %real_arr128_2_load_3, %real_arr128_3_load_3

ST_9: tmp_3_i_7 [1/5] 7.26ns
:128  %tmp_3_i_7 = fadd float %imag_arr128_2_load_3, %imag_arr128_3_load_3


 <State 10>: 2.39ns
ST_10: empty [1/1] 0.00ns
:0  %empty = call i32 (...)* @_ssdm_op_SpecLoopTripCount(i64 8, i64 8, i64 8) nounwind

ST_10: tmp [1/1] 0.00ns
:1  %tmp = call i32 (...)* @_ssdm_op_SpecRegionBegin([12 x i8]* @p_str5) nounwind

ST_10: stg_226 [1/1] 0.00ns
:2  call void (...)* @_ssdm_op_SpecPipeline(i32 1, i32 1, i32 1, i32 0, [1 x i8]* @p_str) nounwind

ST_10: empty_17 [1/1] 0.00ns
:23  %empty_17 = call i32 (...)* @_ssdm_op_SpecRegionEnd([12 x i8]* @p_str5, i32 %tmp) nounwind

ST_10: newIndex10 [1/1] 0.00ns
:76  %newIndex10 = or i4 %i_V_i_cast, 1

ST_10: newIndex11 [1/1] 0.00ns
:77  %newIndex11 = zext i4 %newIndex10 to i64

ST_10: real_arr64_0_addr_1 [1/1] 0.00ns
:78  %real_arr64_0_addr_1 = getelementptr [16 x float]* @real_arr64_0, i64 0, i64 %newIndex11

ST_10: stg_231 [1/1] 2.39ns
:79  store float %tmp_1_i_4, float* %real_arr64_0_addr_1, align 16

ST_10: imag_arr64_0_addr_1 [1/1] 0.00ns
:85  %imag_arr64_0_addr_1 = getelementptr [16 x float]* @imag_arr64_0, i64 0, i64 %newIndex11

ST_10: stg_233 [1/1] 2.39ns
:86  store float %tmp_3_i_4, float* %imag_arr64_0_addr_1, align 16

ST_10: real_arr64_1_addr_1 [1/1] 0.00ns
:92  %real_arr64_1_addr_1 = getelementptr [16 x float]* @real_arr64_1, i64 0, i64 %newIndex11

ST_10: stg_235 [1/1] 2.39ns
:93  store float %tmp_1_i_5, float* %real_arr64_1_addr_1, align 4

ST_10: imag_arr64_1_addr_1 [1/1] 0.00ns
:99  %imag_arr64_1_addr_1 = getelementptr [16 x float]* @imag_arr64_1, i64 0, i64 %newIndex11

ST_10: stg_237 [1/1] 2.39ns
:100  store float %tmp_3_i_5, float* %imag_arr64_1_addr_1, align 4

ST_10: real_arr64_2_addr_1 [1/1] 0.00ns
:108  %real_arr64_2_addr_1 = getelementptr [16 x float]* @real_arr64_2, i64 0, i64 %newIndex11

ST_10: stg_239 [1/1] 2.39ns
:109  store float %tmp_1_i_6, float* %real_arr64_2_addr_1, align 8

ST_10: imag_arr64_2_addr_1 [1/1] 0.00ns
:115  %imag_arr64_2_addr_1 = getelementptr [16 x float]* @imag_arr64_2, i64 0, i64 %newIndex11

ST_10: stg_241 [1/1] 2.39ns
:116  store float %tmp_3_i_6, float* %imag_arr64_2_addr_1, align 8

ST_10: real_arr64_3_addr_1 [1/1] 0.00ns
:122  %real_arr64_3_addr_1 = getelementptr [16 x float]* @real_arr64_3, i64 0, i64 %newIndex11

ST_10: stg_243 [1/1] 2.39ns
:123  store float %tmp_1_i_7, float* %real_arr64_3_addr_1, align 4

ST_10: imag_arr64_3_addr_1 [1/1] 0.00ns
:129  %imag_arr64_3_addr_1 = getelementptr [16 x float]* @imag_arr64_3, i64 0, i64 %newIndex11

ST_10: stg_245 [1/1] 2.39ns
:130  store float %tmp_3_i_7, float* %imag_arr64_3_addr_1, align 4

ST_10: stg_246 [1/1] 0.00ns
:133  br label %0


 <State 11>: 0.00ns
ST_11: stg_247 [1/1] 0.00ns
loop_flow64_.exit2.exitStub:0  ret void



============================================================
+ Verbose Summary: Binding
============================================================
N/A
* FSMD analyzer results:
  - Output states:
  - Chain level:
	State 1
	State 2
	State 3
	State 4
	State 5
	State 6
	State 7
	State 8
	State 9
	State 10
	State 11


============================================================
+ Verbose Summary: Datapath Resource usage 
============================================================
N/A
