

================================================================
== Vivado HLS Report for 'dft_loop_flow512'
================================================================
* Date:           Thu Nov 03 00:37:26 2016

* Version:        2015.4 (Build 1412921 on Wed Nov 18 09:58:55 AM 2015)
* Project:        dft
* Solution:       solution3
* Product family: zynq
* Target device:  xc7z020clg484-1


================================================================
== Performance Estimates
================================================================
+ Timing (ns): 
    * Summary: 
    +--------+-------+----------+------------+
    |  Clock | Target| Estimated| Uncertainty|
    +--------+-------+----------+------------+
    |ap_clk  |  10.00|      7.26|        1.25|
    +--------+-------+----------+------------+

+ Latency (clock cycles): 
    * Summary: 
    +-----+-----+-----+-----+----------+
    |  Latency  |  Interval | Pipeline |
    | min | max | min | max |   Type   |
    +-----+-----+-----+-----+----------+
    |  136|  136|  137|  137| dataflow |
    +-----+-----+-----+-----+----------+

    + Detail: 
        * Instance: 
        +----------------------------------------+------------------------------+-----+-----+-----+-----+---------+
        |                                        |                              |  Latency  |  Interval | Pipeline|
        |                Instance                |            Module            | min | max | min | max |   Type  |
        +----------------------------------------+------------------------------+-----+-----+-----+-----+---------+
        |grp_dft_loop_flow512_Loop_1_proc_fu_40  |dft_loop_flow512_Loop_1_proc  |  136|  136|  136|  136|   none  |
        +----------------------------------------+------------------------------+-----+-----+-----+-----+---------+

        * Loop: 
        N/A



================================================================
== Utilization Estimates
================================================================
* Summary: 
+-----------------+---------+-------+--------+-------+
|       Name      | BRAM_18K| DSP48E|   FF   |  LUT  |
+-----------------+---------+-------+--------+-------+
|DSP              |        -|      -|       -|      -|
|Expression       |        -|      -|       -|      -|
|FIFO             |        -|      -|       -|      -|
|Instance         |        -|     16|    2996|   3934|
|Memory           |        -|      -|       -|      -|
|Multiplexer      |        -|      -|       -|      -|
|Register         |        -|      -|       2|      -|
+-----------------+---------+-------+--------+-------+
|Total            |        0|     16|    2998|   3934|
+-----------------+---------+-------+--------+-------+
|Available        |      280|    220|  106400|  53200|
+-----------------+---------+-------+--------+-------+
|Utilization (%)  |        0|      7|       2|      7|
+-----------------+---------+-------+--------+-------+

+ Detail: 
    * Instance: 
    +---------------------------------+------------------------------+---------+-------+------+------+
    |             Instance            |            Module            | BRAM_18K| DSP48E|  FF  |  LUT |
    +---------------------------------+------------------------------+---------+-------+------+------+
    |dft_loop_flow512_Loop_1_proc_U0  |dft_loop_flow512_Loop_1_proc  |        0|     16|  2996|  3934|
    +---------------------------------+------------------------------+---------+-------+------+------+
    |Total                            |                              |        0|     16|  2996|  3934|
    +---------------------------------+------------------------------+---------+-------+------+------+

    * DSP48: 
    N/A

    * Memory: 
    N/A

    * FIFO: 
    N/A

    * Expression: 
    N/A

    * Multiplexer: 
    N/A

    * Register: 
    +-------------------------------------------------+---+----+-----+-----------+
    |                       Name                      | FF| LUT| Bits| Const Bits|
    +-------------------------------------------------+---+----+-----+-----------+
    |ap_CS                                            |  1|   0|    1|          0|
    |ap_reg_procdone_dft_loop_flow512_Loop_1_proc_U0  |  1|   0|    1|          0|
    +-------------------------------------------------+---+----+-----+-----------+
    |Total                                            |  2|   0|    2|          0|
    +-------------------------------------------------+---+----+-----+-----------+



================================================================
== Interface
================================================================
* Summary: 
+-------------------------+-----+-----+------------+------------------+--------------+
|        RTL Ports        | Dir | Bits|  Protocol  |   Source Object  |    C Type    |
+-------------------------+-----+-----+------------+------------------+--------------+
|real_arr1024_0_address0  | out |    8|  ap_memory |  real_arr1024_0  |     array    |
|real_arr1024_0_ce0       | out |    1|  ap_memory |  real_arr1024_0  |     array    |
|real_arr1024_0_d0        | out |   32|  ap_memory |  real_arr1024_0  |     array    |
|real_arr1024_0_q0        |  in |   32|  ap_memory |  real_arr1024_0  |     array    |
|real_arr1024_0_we0       | out |    1|  ap_memory |  real_arr1024_0  |     array    |
|real_arr1024_0_address1  | out |    8|  ap_memory |  real_arr1024_0  |     array    |
|real_arr1024_0_ce1       | out |    1|  ap_memory |  real_arr1024_0  |     array    |
|real_arr1024_0_d1        | out |   32|  ap_memory |  real_arr1024_0  |     array    |
|real_arr1024_0_q1        |  in |   32|  ap_memory |  real_arr1024_0  |     array    |
|real_arr1024_0_we1       | out |    1|  ap_memory |  real_arr1024_0  |     array    |
|real_arr1024_1_address0  | out |    8|  ap_memory |  real_arr1024_1  |     array    |
|real_arr1024_1_ce0       | out |    1|  ap_memory |  real_arr1024_1  |     array    |
|real_arr1024_1_d0        | out |   32|  ap_memory |  real_arr1024_1  |     array    |
|real_arr1024_1_q0        |  in |   32|  ap_memory |  real_arr1024_1  |     array    |
|real_arr1024_1_we0       | out |    1|  ap_memory |  real_arr1024_1  |     array    |
|real_arr1024_1_address1  | out |    8|  ap_memory |  real_arr1024_1  |     array    |
|real_arr1024_1_ce1       | out |    1|  ap_memory |  real_arr1024_1  |     array    |
|real_arr1024_1_d1        | out |   32|  ap_memory |  real_arr1024_1  |     array    |
|real_arr1024_1_q1        |  in |   32|  ap_memory |  real_arr1024_1  |     array    |
|real_arr1024_1_we1       | out |    1|  ap_memory |  real_arr1024_1  |     array    |
|real_arr512_0_address0   | out |    7|  ap_memory |   real_arr512_0  |     array    |
|real_arr512_0_ce0        | out |    1|  ap_memory |   real_arr512_0  |     array    |
|real_arr512_0_d0         | out |   32|  ap_memory |   real_arr512_0  |     array    |
|real_arr512_0_q0         |  in |   32|  ap_memory |   real_arr512_0  |     array    |
|real_arr512_0_we0        | out |    1|  ap_memory |   real_arr512_0  |     array    |
|real_arr512_0_address1   | out |    7|  ap_memory |   real_arr512_0  |     array    |
|real_arr512_0_ce1        | out |    1|  ap_memory |   real_arr512_0  |     array    |
|real_arr512_0_d1         | out |   32|  ap_memory |   real_arr512_0  |     array    |
|real_arr512_0_q1         |  in |   32|  ap_memory |   real_arr512_0  |     array    |
|real_arr512_0_we1        | out |    1|  ap_memory |   real_arr512_0  |     array    |
|imag_arr1024_0_address0  | out |    8|  ap_memory |  imag_arr1024_0  |     array    |
|imag_arr1024_0_ce0       | out |    1|  ap_memory |  imag_arr1024_0  |     array    |
|imag_arr1024_0_d0        | out |   32|  ap_memory |  imag_arr1024_0  |     array    |
|imag_arr1024_0_q0        |  in |   32|  ap_memory |  imag_arr1024_0  |     array    |
|imag_arr1024_0_we0       | out |    1|  ap_memory |  imag_arr1024_0  |     array    |
|imag_arr1024_0_address1  | out |    8|  ap_memory |  imag_arr1024_0  |     array    |
|imag_arr1024_0_ce1       | out |    1|  ap_memory |  imag_arr1024_0  |     array    |
|imag_arr1024_0_d1        | out |   32|  ap_memory |  imag_arr1024_0  |     array    |
|imag_arr1024_0_q1        |  in |   32|  ap_memory |  imag_arr1024_0  |     array    |
|imag_arr1024_0_we1       | out |    1|  ap_memory |  imag_arr1024_0  |     array    |
|imag_arr1024_1_address0  | out |    8|  ap_memory |  imag_arr1024_1  |     array    |
|imag_arr1024_1_ce0       | out |    1|  ap_memory |  imag_arr1024_1  |     array    |
|imag_arr1024_1_d0        | out |   32|  ap_memory |  imag_arr1024_1  |     array    |
|imag_arr1024_1_q0        |  in |   32|  ap_memory |  imag_arr1024_1  |     array    |
|imag_arr1024_1_we0       | out |    1|  ap_memory |  imag_arr1024_1  |     array    |
|imag_arr1024_1_address1  | out |    8|  ap_memory |  imag_arr1024_1  |     array    |
|imag_arr1024_1_ce1       | out |    1|  ap_memory |  imag_arr1024_1  |     array    |
|imag_arr1024_1_d1        | out |   32|  ap_memory |  imag_arr1024_1  |     array    |
|imag_arr1024_1_q1        |  in |   32|  ap_memory |  imag_arr1024_1  |     array    |
|imag_arr1024_1_we1       | out |    1|  ap_memory |  imag_arr1024_1  |     array    |
|imag_arr512_0_address0   | out |    7|  ap_memory |   imag_arr512_0  |     array    |
|imag_arr512_0_ce0        | out |    1|  ap_memory |   imag_arr512_0  |     array    |
|imag_arr512_0_d0         | out |   32|  ap_memory |   imag_arr512_0  |     array    |
|imag_arr512_0_q0         |  in |   32|  ap_memory |   imag_arr512_0  |     array    |
|imag_arr512_0_we0        | out |    1|  ap_memory |   imag_arr512_0  |     array    |
|imag_arr512_0_address1   | out |    7|  ap_memory |   imag_arr512_0  |     array    |
|imag_arr512_0_ce1        | out |    1|  ap_memory |   imag_arr512_0  |     array    |
|imag_arr512_0_d1         | out |   32|  ap_memory |   imag_arr512_0  |     array    |
|imag_arr512_0_q1         |  in |   32|  ap_memory |   imag_arr512_0  |     array    |
|imag_arr512_0_we1        | out |    1|  ap_memory |   imag_arr512_0  |     array    |
|real_arr1024_2_address0  | out |    8|  ap_memory |  real_arr1024_2  |     array    |
|real_arr1024_2_ce0       | out |    1|  ap_memory |  real_arr1024_2  |     array    |
|real_arr1024_2_d0        | out |   32|  ap_memory |  real_arr1024_2  |     array    |
|real_arr1024_2_q0        |  in |   32|  ap_memory |  real_arr1024_2  |     array    |
|real_arr1024_2_we0       | out |    1|  ap_memory |  real_arr1024_2  |     array    |
|real_arr1024_2_address1  | out |    8|  ap_memory |  real_arr1024_2  |     array    |
|real_arr1024_2_ce1       | out |    1|  ap_memory |  real_arr1024_2  |     array    |
|real_arr1024_2_d1        | out |   32|  ap_memory |  real_arr1024_2  |     array    |
|real_arr1024_2_q1        |  in |   32|  ap_memory |  real_arr1024_2  |     array    |
|real_arr1024_2_we1       | out |    1|  ap_memory |  real_arr1024_2  |     array    |
|real_arr1024_3_address0  | out |    8|  ap_memory |  real_arr1024_3  |     array    |
|real_arr1024_3_ce0       | out |    1|  ap_memory |  real_arr1024_3  |     array    |
|real_arr1024_3_d0        | out |   32|  ap_memory |  real_arr1024_3  |     array    |
|real_arr1024_3_q0        |  in |   32|  ap_memory |  real_arr1024_3  |     array    |
|real_arr1024_3_we0       | out |    1|  ap_memory |  real_arr1024_3  |     array    |
|real_arr1024_3_address1  | out |    8|  ap_memory |  real_arr1024_3  |     array    |
|real_arr1024_3_ce1       | out |    1|  ap_memory |  real_arr1024_3  |     array    |
|real_arr1024_3_d1        | out |   32|  ap_memory |  real_arr1024_3  |     array    |
|real_arr1024_3_q1        |  in |   32|  ap_memory |  real_arr1024_3  |     array    |
|real_arr1024_3_we1       | out |    1|  ap_memory |  real_arr1024_3  |     array    |
|real_arr512_1_address0   | out |    7|  ap_memory |   real_arr512_1  |     array    |
|real_arr512_1_ce0        | out |    1|  ap_memory |   real_arr512_1  |     array    |
|real_arr512_1_d0         | out |   32|  ap_memory |   real_arr512_1  |     array    |
|real_arr512_1_q0         |  in |   32|  ap_memory |   real_arr512_1  |     array    |
|real_arr512_1_we0        | out |    1|  ap_memory |   real_arr512_1  |     array    |
|real_arr512_1_address1   | out |    7|  ap_memory |   real_arr512_1  |     array    |
|real_arr512_1_ce1        | out |    1|  ap_memory |   real_arr512_1  |     array    |
|real_arr512_1_d1         | out |   32|  ap_memory |   real_arr512_1  |     array    |
|real_arr512_1_q1         |  in |   32|  ap_memory |   real_arr512_1  |     array    |
|real_arr512_1_we1        | out |    1|  ap_memory |   real_arr512_1  |     array    |
|imag_arr1024_2_address0  | out |    8|  ap_memory |  imag_arr1024_2  |     array    |
|imag_arr1024_2_ce0       | out |    1|  ap_memory |  imag_arr1024_2  |     array    |
|imag_arr1024_2_d0        | out |   32|  ap_memory |  imag_arr1024_2  |     array    |
|imag_arr1024_2_q0        |  in |   32|  ap_memory |  imag_arr1024_2  |     array    |
|imag_arr1024_2_we0       | out |    1|  ap_memory |  imag_arr1024_2  |     array    |
|imag_arr1024_2_address1  | out |    8|  ap_memory |  imag_arr1024_2  |     array    |
|imag_arr1024_2_ce1       | out |    1|  ap_memory |  imag_arr1024_2  |     array    |
|imag_arr1024_2_d1        | out |   32|  ap_memory |  imag_arr1024_2  |     array    |
|imag_arr1024_2_q1        |  in |   32|  ap_memory |  imag_arr1024_2  |     array    |
|imag_arr1024_2_we1       | out |    1|  ap_memory |  imag_arr1024_2  |     array    |
|imag_arr1024_3_address0  | out |    8|  ap_memory |  imag_arr1024_3  |     array    |
|imag_arr1024_3_ce0       | out |    1|  ap_memory |  imag_arr1024_3  |     array    |
|imag_arr1024_3_d0        | out |   32|  ap_memory |  imag_arr1024_3  |     array    |
|imag_arr1024_3_q0        |  in |   32|  ap_memory |  imag_arr1024_3  |     array    |
|imag_arr1024_3_we0       | out |    1|  ap_memory |  imag_arr1024_3  |     array    |
|imag_arr1024_3_address1  | out |    8|  ap_memory |  imag_arr1024_3  |     array    |
|imag_arr1024_3_ce1       | out |    1|  ap_memory |  imag_arr1024_3  |     array    |
|imag_arr1024_3_d1        | out |   32|  ap_memory |  imag_arr1024_3  |     array    |
|imag_arr1024_3_q1        |  in |   32|  ap_memory |  imag_arr1024_3  |     array    |
|imag_arr1024_3_we1       | out |    1|  ap_memory |  imag_arr1024_3  |     array    |
|imag_arr512_1_address0   | out |    7|  ap_memory |   imag_arr512_1  |     array    |
|imag_arr512_1_ce0        | out |    1|  ap_memory |   imag_arr512_1  |     array    |
|imag_arr512_1_d0         | out |   32|  ap_memory |   imag_arr512_1  |     array    |
|imag_arr512_1_q0         |  in |   32|  ap_memory |   imag_arr512_1  |     array    |
|imag_arr512_1_we0        | out |    1|  ap_memory |   imag_arr512_1  |     array    |
|imag_arr512_1_address1   | out |    7|  ap_memory |   imag_arr512_1  |     array    |
|imag_arr512_1_ce1        | out |    1|  ap_memory |   imag_arr512_1  |     array    |
|imag_arr512_1_d1         | out |   32|  ap_memory |   imag_arr512_1  |     array    |
|imag_arr512_1_q1         |  in |   32|  ap_memory |   imag_arr512_1  |     array    |
|imag_arr512_1_we1        | out |    1|  ap_memory |   imag_arr512_1  |     array    |
|real_arr512_2_address0   | out |    7|  ap_memory |   real_arr512_2  |     array    |
|real_arr512_2_ce0        | out |    1|  ap_memory |   real_arr512_2  |     array    |
|real_arr512_2_d0         | out |   32|  ap_memory |   real_arr512_2  |     array    |
|real_arr512_2_q0         |  in |   32|  ap_memory |   real_arr512_2  |     array    |
|real_arr512_2_we0        | out |    1|  ap_memory |   real_arr512_2  |     array    |
|real_arr512_2_address1   | out |    7|  ap_memory |   real_arr512_2  |     array    |
|real_arr512_2_ce1        | out |    1|  ap_memory |   real_arr512_2  |     array    |
|real_arr512_2_d1         | out |   32|  ap_memory |   real_arr512_2  |     array    |
|real_arr512_2_q1         |  in |   32|  ap_memory |   real_arr512_2  |     array    |
|real_arr512_2_we1        | out |    1|  ap_memory |   real_arr512_2  |     array    |
|imag_arr512_2_address0   | out |    7|  ap_memory |   imag_arr512_2  |     array    |
|imag_arr512_2_ce0        | out |    1|  ap_memory |   imag_arr512_2  |     array    |
|imag_arr512_2_d0         | out |   32|  ap_memory |   imag_arr512_2  |     array    |
|imag_arr512_2_q0         |  in |   32|  ap_memory |   imag_arr512_2  |     array    |
|imag_arr512_2_we0        | out |    1|  ap_memory |   imag_arr512_2  |     array    |
|imag_arr512_2_address1   | out |    7|  ap_memory |   imag_arr512_2  |     array    |
|imag_arr512_2_ce1        | out |    1|  ap_memory |   imag_arr512_2  |     array    |
|imag_arr512_2_d1         | out |   32|  ap_memory |   imag_arr512_2  |     array    |
|imag_arr512_2_q1         |  in |   32|  ap_memory |   imag_arr512_2  |     array    |
|imag_arr512_2_we1        | out |    1|  ap_memory |   imag_arr512_2  |     array    |
|real_arr512_3_address0   | out |    7|  ap_memory |   real_arr512_3  |     array    |
|real_arr512_3_ce0        | out |    1|  ap_memory |   real_arr512_3  |     array    |
|real_arr512_3_d0         | out |   32|  ap_memory |   real_arr512_3  |     array    |
|real_arr512_3_q0         |  in |   32|  ap_memory |   real_arr512_3  |     array    |
|real_arr512_3_we0        | out |    1|  ap_memory |   real_arr512_3  |     array    |
|real_arr512_3_address1   | out |    7|  ap_memory |   real_arr512_3  |     array    |
|real_arr512_3_ce1        | out |    1|  ap_memory |   real_arr512_3  |     array    |
|real_arr512_3_d1         | out |   32|  ap_memory |   real_arr512_3  |     array    |
|real_arr512_3_q1         |  in |   32|  ap_memory |   real_arr512_3  |     array    |
|real_arr512_3_we1        | out |    1|  ap_memory |   real_arr512_3  |     array    |
|imag_arr512_3_address0   | out |    7|  ap_memory |   imag_arr512_3  |     array    |
|imag_arr512_3_ce0        | out |    1|  ap_memory |   imag_arr512_3  |     array    |
|imag_arr512_3_d0         | out |   32|  ap_memory |   imag_arr512_3  |     array    |
|imag_arr512_3_q0         |  in |   32|  ap_memory |   imag_arr512_3  |     array    |
|imag_arr512_3_we0        | out |    1|  ap_memory |   imag_arr512_3  |     array    |
|imag_arr512_3_address1   | out |    7|  ap_memory |   imag_arr512_3  |     array    |
|imag_arr512_3_ce1        | out |    1|  ap_memory |   imag_arr512_3  |     array    |
|imag_arr512_3_d1         | out |   32|  ap_memory |   imag_arr512_3  |     array    |
|imag_arr512_3_q1         |  in |   32|  ap_memory |   imag_arr512_3  |     array    |
|imag_arr512_3_we1        | out |    1|  ap_memory |   imag_arr512_3  |     array    |
|ap_clk                   |  in |    1| ap_ctrl_hs | dft_loop_flow512 | return value |
|ap_rst                   |  in |    1| ap_ctrl_hs | dft_loop_flow512 | return value |
|ap_done                  | out |    1| ap_ctrl_hs | dft_loop_flow512 | return value |
|ap_start                 |  in |    1| ap_ctrl_hs | dft_loop_flow512 | return value |
|ap_idle                  | out |    1| ap_ctrl_hs | dft_loop_flow512 | return value |
|ap_ready                 | out |    1| ap_ctrl_hs | dft_loop_flow512 | return value |
+-------------------------+-----+-----+------------+------------------+--------------+

============================================================
+ Verbose Summary: Synthesis Manager
============================================================
InlineROM: 1
ExposeGlobal: 0
============================================================
+ Verbose Summary: CDFG Model
============================================================
IsTopModel: 0
ResetActiveHigh: 1
IsCombinational: 2
IsDatapathOnly: 2
HasWiredReturn: 1
HasMFsm: 0
HasVarLatency: 1
IsPipeline: 0
IsRtlPipelined: 0
IsInstanceOverlapped: 0
IsDontTouch: 0
HasImplIP: 0
IsGatedGlobalClock: 0


============================================================
+ Verbose Summary: Schedule
============================================================
* Number of FSM states: 2
* Pipeline: 0
* Dataflow Pipeline: 1
  DF-Pipeline-0: Size = 2, States = { 1 2 }

* FSM state transitions: 
1 --> 
	2  / true
2 --> 
* FSM state operations: 

 <State 1>: 0.00ns
ST_1: stg_3 [2/2] 0.00ns
codeRepl:1  call fastcc void @dft_loop_flow512_Loop_1_proc()


 <State 2>: 0.00ns
ST_2: stg_4 [1/1] 0.00ns
codeRepl:0  call void (...)* @_ssdm_op_SpecDataflowPipeline(i32 -1, [1 x i8]* @p_str) nounwind

ST_2: stg_5 [1/2] 0.00ns
codeRepl:1  call fastcc void @dft_loop_flow512_Loop_1_proc()

ST_2: stg_6 [1/1] 0.00ns
codeRepl:2  ret void



============================================================
+ Verbose Summary: Binding
============================================================
STG Binding: 
---------------- STG Properties BEGIN ----------------
- Is combinational: 0
- Is one-state seq: 0
- Is datapath-only: 0
- Is clock enabled: 0
- Is pipelined: 0
- Is top level: 0
Port [ Return ] is wired: 1; IO mode=ap_ctrl_hs:ce=0
Port [ real_arr1024_0]:  wired=1; compound=1; hidden=0; nouse=0; global=1; static=0; extern=0; dir=0; type=1; mode=0x1f898e4cac0; pingpong=0; private_global=0; linkage=0; visibility=0; MemPort=[11]; IO mode=ap_memory:ce=0
Port [ real_arr1024_1]:  wired=1; compound=1; hidden=0; nouse=0; global=1; static=0; extern=0; dir=0; type=1; mode=0x1f898e4e890; pingpong=0; private_global=0; linkage=0; visibility=0; MemPort=[11]; IO mode=ap_memory:ce=0
Port [ real_arr512_0]:  wired=1; compound=1; hidden=0; nouse=0; global=1; static=0; extern=0; dir=1; type=1; mode=0x1f898e4dde0; pingpong=0; private_global=0; linkage=0; visibility=0; MemPort=[03]; IO mode=ap_memory:ce=0
Port [ imag_arr1024_0]:  wired=1; compound=1; hidden=0; nouse=0; global=1; static=0; extern=0; dir=0; type=1; mode=0x1f898e4c640; pingpong=0; private_global=0; linkage=0; visibility=0; MemPort=[11]; IO mode=ap_memory:ce=0
Port [ imag_arr1024_1]:  wired=1; compound=1; hidden=0; nouse=0; global=1; static=0; extern=0; dir=0; type=1; mode=0x1f898e4ca30; pingpong=0; private_global=0; linkage=0; visibility=0; MemPort=[11]; IO mode=ap_memory:ce=0
Port [ imag_arr512_0]:  wired=1; compound=1; hidden=0; nouse=0; global=1; static=0; extern=0; dir=1; type=1; mode=0x1f898e4d0f0; pingpong=0; private_global=0; linkage=0; visibility=0; MemPort=[03]; IO mode=ap_memory:ce=0
Port [ real_arr1024_2]:  wired=1; compound=1; hidden=0; nouse=0; global=1; static=0; extern=0; dir=0; type=1; mode=0x1f898e4e140; pingpong=0; private_global=0; linkage=0; visibility=0; MemPort=[11]; IO mode=ap_memory:ce=0
Port [ real_arr1024_3]:  wired=1; compound=1; hidden=0; nouse=0; global=1; static=0; extern=0; dir=0; type=1; mode=0x1f898e4cbe0; pingpong=0; private_global=0; linkage=0; visibility=0; MemPort=[11]; IO mode=ap_memory:ce=0
Port [ real_arr512_1]:  wired=1; compound=1; hidden=0; nouse=0; global=1; static=0; extern=0; dir=1; type=1; mode=0x1f898e4cc70; pingpong=0; private_global=0; linkage=0; visibility=0; MemPort=[03]; IO mode=ap_memory:ce=0
Port [ imag_arr1024_2]:  wired=1; compound=1; hidden=0; nouse=0; global=1; static=0; extern=0; dir=0; type=1; mode=0x1f898e50810; pingpong=0; private_global=0; linkage=0; visibility=0; MemPort=[11]; IO mode=ap_memory:ce=0
Port [ imag_arr1024_3]:  wired=1; compound=1; hidden=0; nouse=0; global=1; static=0; extern=0; dir=0; type=1; mode=0x1f898e508a0; pingpong=0; private_global=0; linkage=0; visibility=0; MemPort=[11]; IO mode=ap_memory:ce=0
Port [ imag_arr512_1]:  wired=1; compound=1; hidden=0; nouse=0; global=1; static=0; extern=0; dir=1; type=1; mode=0x1f898e50a50; pingpong=0; private_global=0; linkage=0; visibility=0; MemPort=[03]; IO mode=ap_memory:ce=0
Port [ real_arr512_2]:  wired=1; compound=1; hidden=0; nouse=0; global=1; static=0; extern=0; dir=1; type=1; mode=0x1f898e4f850; pingpong=0; private_global=0; linkage=0; visibility=0; MemPort=[03]; IO mode=ap_memory:ce=0
Port [ imag_arr512_2]:  wired=1; compound=1; hidden=0; nouse=0; global=1; static=0; extern=0; dir=1; type=1; mode=0x1f898e4f220; pingpong=0; private_global=0; linkage=0; visibility=0; MemPort=[03]; IO mode=ap_memory:ce=0
Port [ real_arr512_3]:  wired=1; compound=1; hidden=0; nouse=0; global=1; static=0; extern=0; dir=1; type=1; mode=0x1f898e4ed10; pingpong=0; private_global=0; linkage=0; visibility=0; MemPort=[03]; IO mode=ap_memory:ce=0
Port [ imag_arr512_3]:  wired=1; compound=1; hidden=0; nouse=0; global=1; static=0; extern=0; dir=1; type=1; mode=0x1f898e4ee30; pingpong=0; private_global=0; linkage=0; visibility=0; MemPort=[03]; IO mode=ap_memory:ce=0
---------------- STG Properties END ------------------

---------------- Datapath Model BEGIN ----------------

<LifeTime>
<method=bitvector/>
stg_4 (specdataflowpipeline) [ 000]
stg_5 (call                ) [ 000]
stg_6 (ret                 ) [ 000]
</LifeTime>

<model>

<comp_list>
<comp id="0" class="1000" name="real_arr1024_0">
<pin_list>
<pin id="1" dir="1" index="0" bw="1" slack="0"/>
</pin_list>
<bind>
<StgValue><ssdm name="real_arr1024_0"/><MemPortTyVec>1 1 </MemPortTyVec>
</StgValue>
</bind>
</comp>

<comp id="2" class="1000" name="real_arr1024_1">
<pin_list>
<pin id="3" dir="1" index="0" bw="1" slack="0"/>
</pin_list>
<bind>
<StgValue><ssdm name="real_arr1024_1"/><MemPortTyVec>1 1 </MemPortTyVec>
</StgValue>
</bind>
</comp>

<comp id="4" class="1000" name="real_arr512_0">
<pin_list>
<pin id="5" dir="1" index="0" bw="1" slack="0"/>
</pin_list>
<bind>
<StgValue><ssdm name="real_arr512_0"/><MemPortTyVec>0 3 </MemPortTyVec>
</StgValue>
</bind>
</comp>

<comp id="6" class="1000" name="imag_arr1024_0">
<pin_list>
<pin id="7" dir="1" index="0" bw="1" slack="0"/>
</pin_list>
<bind>
<StgValue><ssdm name="imag_arr1024_0"/><MemPortTyVec>1 1 </MemPortTyVec>
</StgValue>
</bind>
</comp>

<comp id="8" class="1000" name="imag_arr1024_1">
<pin_list>
<pin id="9" dir="1" index="0" bw="1" slack="0"/>
</pin_list>
<bind>
<StgValue><ssdm name="imag_arr1024_1"/><MemPortTyVec>1 1 </MemPortTyVec>
</StgValue>
</bind>
</comp>

<comp id="10" class="1000" name="imag_arr512_0">
<pin_list>
<pin id="11" dir="1" index="0" bw="1" slack="0"/>
</pin_list>
<bind>
<StgValue><ssdm name="imag_arr512_0"/><MemPortTyVec>0 3 </MemPortTyVec>
</StgValue>
</bind>
</comp>

<comp id="12" class="1000" name="real_arr1024_2">
<pin_list>
<pin id="13" dir="1" index="0" bw="1" slack="0"/>
</pin_list>
<bind>
<StgValue><ssdm name="real_arr1024_2"/><MemPortTyVec>1 1 </MemPortTyVec>
</StgValue>
</bind>
</comp>

<comp id="14" class="1000" name="real_arr1024_3">
<pin_list>
<pin id="15" dir="1" index="0" bw="1" slack="0"/>
</pin_list>
<bind>
<StgValue><ssdm name="real_arr1024_3"/><MemPortTyVec>1 1 </MemPortTyVec>
</StgValue>
</bind>
</comp>

<comp id="16" class="1000" name="real_arr512_1">
<pin_list>
<pin id="17" dir="1" index="0" bw="1" slack="0"/>
</pin_list>
<bind>
<StgValue><ssdm name="real_arr512_1"/><MemPortTyVec>0 3 </MemPortTyVec>
</StgValue>
</bind>
</comp>

<comp id="18" class="1000" name="imag_arr1024_2">
<pin_list>
<pin id="19" dir="1" index="0" bw="1" slack="0"/>
</pin_list>
<bind>
<StgValue><ssdm name="imag_arr1024_2"/><MemPortTyVec>1 1 </MemPortTyVec>
</StgValue>
</bind>
</comp>

<comp id="20" class="1000" name="imag_arr1024_3">
<pin_list>
<pin id="21" dir="1" index="0" bw="1" slack="0"/>
</pin_list>
<bind>
<StgValue><ssdm name="imag_arr1024_3"/><MemPortTyVec>1 1 </MemPortTyVec>
</StgValue>
</bind>
</comp>

<comp id="22" class="1000" name="imag_arr512_1">
<pin_list>
<pin id="23" dir="1" index="0" bw="1" slack="0"/>
</pin_list>
<bind>
<StgValue><ssdm name="imag_arr512_1"/><MemPortTyVec>0 3 </MemPortTyVec>
</StgValue>
</bind>
</comp>

<comp id="24" class="1000" name="real_arr512_2">
<pin_list>
<pin id="25" dir="1" index="0" bw="1" slack="0"/>
</pin_list>
<bind>
<StgValue><ssdm name="real_arr512_2"/><MemPortTyVec>0 3 </MemPortTyVec>
</StgValue>
</bind>
</comp>

<comp id="26" class="1000" name="imag_arr512_2">
<pin_list>
<pin id="27" dir="1" index="0" bw="1" slack="0"/>
</pin_list>
<bind>
<StgValue><ssdm name="imag_arr512_2"/><MemPortTyVec>0 3 </MemPortTyVec>
</StgValue>
</bind>
</comp>

<comp id="28" class="1000" name="real_arr512_3">
<pin_list>
<pin id="29" dir="1" index="0" bw="1" slack="0"/>
</pin_list>
<bind>
<StgValue><ssdm name="real_arr512_3"/><MemPortTyVec>0 3 </MemPortTyVec>
</StgValue>
</bind>
</comp>

<comp id="30" class="1000" name="imag_arr512_3">
<pin_list>
<pin id="31" dir="1" index="0" bw="1" slack="0"/>
</pin_list>
<bind>
<StgValue><ssdm name="imag_arr512_3"/><MemPortTyVec>0 3 </MemPortTyVec>
</StgValue>
</bind>
</comp>

<comp id="32" class="1001" name="const_32">
<pin_list>
<pin id="33" dir="1" index="0" bw="1" slack="0"/>
</pin_list>
<bind>
<StgValue><ssdm name="dft_loop_flow512_Loop_1_proc"/></StgValue>
</bind>
</comp>

<comp id="34" class="1001" name="const_34">
<pin_list>
<pin id="35" dir="1" index="0" bw="1" slack="2147483647"/>
</pin_list>
<bind>
<StgValue><ssdm name="_ssdm_op_SpecDataflowPipeline"/></StgValue>
</bind>
</comp>

<comp id="36" class="1001" name="const_36">
<pin_list>
<pin id="37" dir="1" index="0" bw="1" slack="2147483647"/>
</pin_list>
<bind>
<StgValue><ssdm name=""/></StgValue>
</bind>
</comp>

<comp id="38" class="1001" name="const_38">
<pin_list>
<pin id="39" dir="1" index="0" bw="1" slack="2147483647"/>
</pin_list>
<bind>
<StgValue><ssdm name="p_str"/></StgValue>
</bind>
</comp>

<comp id="40" class="1004" name="grp_dft_loop_flow512_Loop_1_proc_fu_40">
<pin_list>
<pin id="41" dir="0" index="0" bw="0" slack="0"/>
<pin id="42" dir="0" index="1" bw="32" slack="0"/>
<pin id="43" dir="0" index="2" bw="32" slack="0"/>
<pin id="44" dir="0" index="3" bw="32" slack="0"/>
<pin id="45" dir="0" index="4" bw="32" slack="0"/>
<pin id="46" dir="0" index="5" bw="32" slack="0"/>
<pin id="47" dir="0" index="6" bw="32" slack="0"/>
<pin id="48" dir="0" index="7" bw="32" slack="0"/>
<pin id="49" dir="0" index="8" bw="32" slack="0"/>
<pin id="50" dir="0" index="9" bw="32" slack="0"/>
<pin id="51" dir="0" index="10" bw="32" slack="0"/>
<pin id="52" dir="0" index="11" bw="32" slack="0"/>
<pin id="53" dir="0" index="12" bw="32" slack="0"/>
<pin id="54" dir="0" index="13" bw="32" slack="0"/>
<pin id="55" dir="0" index="14" bw="32" slack="0"/>
<pin id="56" dir="0" index="15" bw="32" slack="0"/>
<pin id="57" dir="0" index="16" bw="32" slack="0"/>
<pin id="58" dir="1" index="17" bw="0" slack="2147483647"/>
</pin_list>
<bind>
<opcode="call(48) " fcode="call"/>
<opset="stg_3/1 "/>
</bind>
</comp>

</comp_list>

<net_list>
<net id="59"><net_src comp="32" pin="0"/><net_sink comp="40" pin=0"/></net>

<net id="60"><net_src comp="0" pin="0"/><net_sink comp="40" pin=1"/></net>

<net id="61"><net_src comp="2" pin="0"/><net_sink comp="40" pin=2"/></net>

<net id="62"><net_src comp="4" pin="0"/><net_sink comp="40" pin=3"/></net>

<net id="63"><net_src comp="6" pin="0"/><net_sink comp="40" pin=4"/></net>

<net id="64"><net_src comp="8" pin="0"/><net_sink comp="40" pin=5"/></net>

<net id="65"><net_src comp="10" pin="0"/><net_sink comp="40" pin=6"/></net>

<net id="66"><net_src comp="12" pin="0"/><net_sink comp="40" pin=7"/></net>

<net id="67"><net_src comp="14" pin="0"/><net_sink comp="40" pin=8"/></net>

<net id="68"><net_src comp="16" pin="0"/><net_sink comp="40" pin=9"/></net>

<net id="69"><net_src comp="18" pin="0"/><net_sink comp="40" pin=10"/></net>

<net id="70"><net_src comp="20" pin="0"/><net_sink comp="40" pin=11"/></net>

<net id="71"><net_src comp="22" pin="0"/><net_sink comp="40" pin=12"/></net>

<net id="72"><net_src comp="24" pin="0"/><net_sink comp="40" pin=13"/></net>

<net id="73"><net_src comp="26" pin="0"/><net_sink comp="40" pin=14"/></net>

<net id="74"><net_src comp="28" pin="0"/><net_sink comp="40" pin=15"/></net>

<net id="75"><net_src comp="30" pin="0"/><net_sink comp="40" pin=16"/></net>

</net_list>

</model> 
---------------- Datapath Model END ------------------

* FSMD analyzer results:
  - Output states:
	Port: real_arr1024_0 | {}
	Port: real_arr1024_1 | {}
	Port: real_arr512_0 | {}
	Port: imag_arr1024_0 | {}
	Port: imag_arr1024_1 | {}
	Port: imag_arr512_0 | {}
	Port: real_arr1024_2 | {}
	Port: real_arr1024_3 | {}
	Port: real_arr512_1 | {}
	Port: imag_arr1024_2 | {}
	Port: imag_arr1024_3 | {}
	Port: imag_arr512_1 | {}
	Port: real_arr512_2 | {}
	Port: imag_arr512_2 | {}
	Port: real_arr512_3 | {}
	Port: imag_arr512_3 | {}
  - Chain level:
	State 1
	State 2


============================================================
+ Verbose Summary: Datapath Resource usage 
============================================================

* Functional unit list:
|----------|----------------------------------------|---------|---------|---------|---------|
| Operation|             Functional Unit            |  DSP48E |  Delay  |    FF   |   LUT   |
|----------|----------------------------------------|---------|---------|---------|---------|
|   call   | grp_dft_loop_flow512_Loop_1_proc_fu_40 |    16   |  64.411 |   3242  |   3851  |
|----------|----------------------------------------|---------|---------|---------|---------|
|   Total  |                                        |    16   |  64.411 |   3242  |   3851  |
|----------|----------------------------------------|---------|---------|---------|---------|

Memories:
N/A

* Register list:
N/A

* Multiplexer (MUX) list: 
|--------|------|------|------|--------|
|  Comp  |  Pin | Size |  BW  | S x BW |
|--------|------|------|------|--------|
|  Total |      |      |      |    0   |
|--------|------|------|------|--------|



* Summary:
+-----------+--------+--------+--------+--------+
|           | DSP48E |  Delay |   FF   |   LUT  |
+-----------+--------+--------+--------+--------+
|  Function |   16   |   64   |  3242  |  3851  |
|   Memory  |    -   |    -   |    -   |    -   |
|Multiplexer|    -   |    -   |    -   |    -   |
|  Register |    -   |    -   |    -   |    -   |
+-----------+--------+--------+--------+--------+
|   Total   |   16   |   64   |  3242  |  3851  |
+-----------+--------+--------+--------+--------+
