

================================================================
== Vivado HLS Report for 'dft_loop_flow256_Loop_1_proc'
================================================================
* Date:           Thu Nov 03 00:35:50 2016

* Version:        2015.4 (Build 1412921 on Wed Nov 18 09:58:55 AM 2015)
* Project:        dft
* Solution:       solution3
* Product family: zynq
* Target device:  xc7z020clg484-1


================================================================
== Performance Estimates
================================================================
+ Timing (ns): 
    * Summary: 
    +--------+-------+----------+------------+
    |  Clock | Target| Estimated| Uncertainty|
    +--------+-------+----------+------------+
    |ap_clk  |  10.00|      7.26|        1.25|
    +--------+-------+----------+------------+

+ Latency (clock cycles): 
    * Summary: 
    +-----+-----+-----+-----+---------+
    |  Latency  |  Interval | Pipeline|
    | min | max | min | max |   Type  |
    +-----+-----+-----+-----+---------+
    |   72|   72|   72|   72|   none  |
    +-----+-----+-----+-----+---------+

    + Detail: 
        * Instance: 
        N/A

        * Loop: 
        +----------+-----+-----+----------+-----------+-----------+------+----------+
        |          |  Latency  | Iteration|  Initiation Interval  | Trip |          |
        | Loop Name| min | max |  Latency |  achieved |   target  | Count| Pipelined|
        +----------+-----+-----+----------+-----------+-----------+------+----------+
        |- Loop 1  |   70|   70|         9|          2|          1|    32|    yes   |
        +----------+-----+-----+----------+-----------+-----------+------+----------+

============================================================
+ Verbose Summary: Synthesis Manager
============================================================
InlineROM: 1
ExposeGlobal: 0
============================================================
+ Verbose Summary: CDFG Model
============================================================
IsTopModel: 0
ResetActiveHigh: 1
IsCombinational: 2
IsDatapathOnly: 0
HasWiredReturn: 1
HasMFsm: 0
HasVarLatency: 1
IsPipeline: 0
IsRtlPipelined: 0
IsInstanceOverlapped: 0
IsDontTouch: 0
HasImplIP: 0
IsGatedGlobalClock: 0

+ Individual pipeline summary: 
  * Pipeline-0: initiation interval (II) = 2, depth = 9


============================================================
+ Verbose Summary: Schedule
============================================================
* Number of FSM states: 11
* Pipeline: 1
  Pipeline-0: II = 2, D = 9, States = { 2 3 4 5 6 7 8 9 10 }
* Dataflow Pipeline: 0

* FSM state transitions: 
1 --> 
	2  / true
2 --> 
	11  / (exitcond_i_i)
	3  / (!exitcond_i_i)
3 --> 
	4  / true
4 --> 
	5  / true
5 --> 
	6  / true
6 --> 
	7  / true
7 --> 
	8  / true
8 --> 
	9  / true
9 --> 
	10  / true
10 --> 
	2  / true
11 --> 
* FSM state operations: 

 <State 1>: 1.57ns
ST_1: stg_12 [1/1] 1.57ns
newFuncRoot:0  br label %0


 <State 2>: 2.71ns
ST_2: p_078_0_i_i [1/1] 0.00ns
:0  %p_078_0_i_i = phi i10 [ 0, %newFuncRoot ], [ %j_V_i_7, %1 ]

ST_2: p_04_0_i_i [1/1] 0.00ns
:1  %p_04_0_i_i = phi i9 [ 0, %newFuncRoot ], [ %i_V_i_7, %1 ]

ST_2: exitcond_i_i [1/1] 2.03ns
:2  %exitcond_i_i = icmp eq i9 %p_04_0_i_i, -256

ST_2: stg_16 [1/1] 0.00ns
:3  br i1 %exitcond_i_i, label %loop_flow256_.exit2.exitStub, label %1

ST_2: newIndex [1/1] 0.00ns
:3  %newIndex = call i8 @_ssdm_op_PartSelect.i8.i10.i32.i32(i10 %p_078_0_i_i, i32 2, i32 9)

ST_2: newIndex40 [1/1] 0.00ns
:4  %newIndex40 = zext i8 %newIndex to i64

ST_2: real_arr512_0_addr [1/1] 0.00ns
:5  %real_arr512_0_addr = getelementptr [128 x float]* @real_arr512_0, i64 0, i64 %newIndex40

ST_2: real_arr512_0_load [2/2] 2.71ns
:6  %real_arr512_0_load = load float* %real_arr512_0_addr, align 16

ST_2: newIndex41 [1/1] 0.00ns
:7  %newIndex41 = call i7 @_ssdm_op_PartSelect.i7.i10.i32.i32(i10 %p_078_0_i_i, i32 2, i32 8)

ST_2: newIndex42 [1/1] 0.00ns
:8  %newIndex42 = zext i7 %newIndex41 to i64

ST_2: real_arr512_1_addr [1/1] 0.00ns
:9  %real_arr512_1_addr = getelementptr [128 x float]* @real_arr512_1, i64 0, i64 %newIndex42

ST_2: real_arr512_1_load [2/2] 2.71ns
:10  %real_arr512_1_load = load float* %real_arr512_1_addr, align 16

ST_2: imag_arr512_0_addr [1/1] 0.00ns
:16  %imag_arr512_0_addr = getelementptr [128 x float]* @imag_arr512_0, i64 0, i64 %newIndex40

ST_2: imag_arr512_0_load [2/2] 2.71ns
:17  %imag_arr512_0_load = load float* %imag_arr512_0_addr, align 16

ST_2: imag_arr512_1_addr [1/1] 0.00ns
:18  %imag_arr512_1_addr = getelementptr [128 x float]* @imag_arr512_1, i64 0, i64 %newIndex42

ST_2: imag_arr512_1_load [2/2] 2.71ns
:19  %imag_arr512_1_load = load float* %imag_arr512_1_addr, align 16

ST_2: real_arr512_2_addr [1/1] 0.00ns
:24  %real_arr512_2_addr = getelementptr [128 x float]* @real_arr512_2, i64 0, i64 %newIndex40

ST_2: real_arr512_2_load [2/2] 2.71ns
:25  %real_arr512_2_load = load float* %real_arr512_2_addr, align 16

ST_2: real_arr512_3_addr [1/1] 0.00ns
:26  %real_arr512_3_addr = getelementptr [128 x float]* @real_arr512_3, i64 0, i64 %newIndex42

ST_2: real_arr512_3_load [2/2] 2.71ns
:27  %real_arr512_3_load = load float* %real_arr512_3_addr, align 16

ST_2: imag_arr512_2_addr [1/1] 0.00ns
:31  %imag_arr512_2_addr = getelementptr [128 x float]* @imag_arr512_2, i64 0, i64 %newIndex40

ST_2: imag_arr512_2_load [2/2] 2.71ns
:32  %imag_arr512_2_load = load float* %imag_arr512_2_addr, align 16

ST_2: imag_arr512_3_addr [1/1] 0.00ns
:33  %imag_arr512_3_addr = getelementptr [128 x float]* @imag_arr512_3, i64 0, i64 %newIndex42

ST_2: imag_arr512_3_load [2/2] 2.71ns
:34  %imag_arr512_3_load = load float* %imag_arr512_3_addr, align 16

ST_2: newIndex45 [1/1] 0.00ns
:38  %newIndex45 = or i7 %newIndex41, 1

ST_2: newIndex46 [1/1] 0.00ns
:39  %newIndex46 = zext i7 %newIndex45 to i64

ST_2: real_arr512_0_addr_2 [1/1] 0.00ns
:40  %real_arr512_0_addr_2 = getelementptr [128 x float]* @real_arr512_0, i64 0, i64 %newIndex46

ST_2: real_arr512_0_load_1 [2/2] 2.71ns
:41  %real_arr512_0_load_1 = load float* %real_arr512_0_addr_2, align 16

ST_2: real_arr512_1_addr_2 [1/1] 0.00ns
:42  %real_arr512_1_addr_2 = getelementptr [128 x float]* @real_arr512_1, i64 0, i64 %newIndex46

ST_2: real_arr512_1_load_1 [2/2] 2.71ns
:43  %real_arr512_1_load_1 = load float* %real_arr512_1_addr_2, align 4

ST_2: imag_arr512_0_addr_2 [1/1] 0.00ns
:47  %imag_arr512_0_addr_2 = getelementptr [128 x float]* @imag_arr512_0, i64 0, i64 %newIndex46

ST_2: imag_arr512_0_load_1 [2/2] 2.71ns
:48  %imag_arr512_0_load_1 = load float* %imag_arr512_0_addr_2, align 16

ST_2: imag_arr512_1_addr_2 [1/1] 0.00ns
:49  %imag_arr512_1_addr_2 = getelementptr [128 x float]* @imag_arr512_1, i64 0, i64 %newIndex46

ST_2: imag_arr512_1_load_1 [2/2] 2.71ns
:50  %imag_arr512_1_load_1 = load float* %imag_arr512_1_addr_2, align 4

ST_2: real_arr512_2_addr_2 [1/1] 0.00ns
:54  %real_arr512_2_addr_2 = getelementptr [128 x float]* @real_arr512_2, i64 0, i64 %newIndex46

ST_2: real_arr512_2_load_1 [2/2] 2.71ns
:55  %real_arr512_2_load_1 = load float* %real_arr512_2_addr_2, align 8

ST_2: real_arr512_3_addr_2 [1/1] 0.00ns
:56  %real_arr512_3_addr_2 = getelementptr [128 x float]* @real_arr512_3, i64 0, i64 %newIndex46

ST_2: real_arr512_3_load_1 [2/2] 2.71ns
:57  %real_arr512_3_load_1 = load float* %real_arr512_3_addr_2, align 4

ST_2: imag_arr512_2_addr_2 [1/1] 0.00ns
:61  %imag_arr512_2_addr_2 = getelementptr [128 x float]* @imag_arr512_2, i64 0, i64 %newIndex46

ST_2: imag_arr512_2_load_1 [2/2] 2.71ns
:62  %imag_arr512_2_load_1 = load float* %imag_arr512_2_addr_2, align 8

ST_2: imag_arr512_3_addr_2 [1/1] 0.00ns
:63  %imag_arr512_3_addr_2 = getelementptr [128 x float]* @imag_arr512_3, i64 0, i64 %newIndex46

ST_2: imag_arr512_3_load_1 [2/2] 2.71ns
:64  %imag_arr512_3_load_1 = load float* %imag_arr512_3_addr_2, align 4

ST_2: j_V_i_7 [1/1] 1.84ns
:132  %j_V_i_7 = add i10 %p_078_0_i_i, 16


 <State 3>: 2.71ns
ST_3: real_arr512_0_load [1/2] 2.71ns
:6  %real_arr512_0_load = load float* %real_arr512_0_addr, align 16

ST_3: real_arr512_1_load [1/2] 2.71ns
:10  %real_arr512_1_load = load float* %real_arr512_1_addr, align 16

ST_3: newIndex43 [1/1] 0.00ns
:12  %newIndex43 = call i7 @_ssdm_op_PartSelect.i7.i9.i32.i32(i9 %p_04_0_i_i, i32 2, i32 8)

ST_3: imag_arr512_0_load [1/2] 2.71ns
:17  %imag_arr512_0_load = load float* %imag_arr512_0_addr, align 16

ST_3: imag_arr512_1_load [1/2] 2.71ns
:19  %imag_arr512_1_load = load float* %imag_arr512_1_addr, align 16

ST_3: real_arr512_2_load [1/2] 2.71ns
:25  %real_arr512_2_load = load float* %real_arr512_2_addr, align 16

ST_3: real_arr512_3_load [1/2] 2.71ns
:27  %real_arr512_3_load = load float* %real_arr512_3_addr, align 16

ST_3: imag_arr512_2_load [1/2] 2.71ns
:32  %imag_arr512_2_load = load float* %imag_arr512_2_addr, align 16

ST_3: imag_arr512_3_load [1/2] 2.71ns
:34  %imag_arr512_3_load = load float* %imag_arr512_3_addr, align 16

ST_3: real_arr512_0_load_1 [1/2] 2.71ns
:41  %real_arr512_0_load_1 = load float* %real_arr512_0_addr_2, align 16

ST_3: real_arr512_1_load_1 [1/2] 2.71ns
:43  %real_arr512_1_load_1 = load float* %real_arr512_1_addr_2, align 4

ST_3: imag_arr512_0_load_1 [1/2] 2.71ns
:48  %imag_arr512_0_load_1 = load float* %imag_arr512_0_addr_2, align 16

ST_3: imag_arr512_1_load_1 [1/2] 2.71ns
:50  %imag_arr512_1_load_1 = load float* %imag_arr512_1_addr_2, align 4

ST_3: real_arr512_2_load_1 [1/2] 2.71ns
:55  %real_arr512_2_load_1 = load float* %real_arr512_2_addr_2, align 8

ST_3: real_arr512_3_load_1 [1/2] 2.71ns
:57  %real_arr512_3_load_1 = load float* %real_arr512_3_addr_2, align 4

ST_3: imag_arr512_2_load_1 [1/2] 2.71ns
:62  %imag_arr512_2_load_1 = load float* %imag_arr512_2_addr_2, align 8

ST_3: imag_arr512_3_load_1 [1/2] 2.71ns
:64  %imag_arr512_3_load_1 = load float* %imag_arr512_3_addr_2, align 4

ST_3: newIndex47 [1/1] 0.00ns
:68  %newIndex47 = or i7 %newIndex41, 2

ST_3: newIndex48 [1/1] 0.00ns
:69  %newIndex48 = zext i7 %newIndex47 to i64

ST_3: real_arr512_0_addr_3 [1/1] 0.00ns
:70  %real_arr512_0_addr_3 = getelementptr [128 x float]* @real_arr512_0, i64 0, i64 %newIndex48

ST_3: real_arr512_0_load_2 [2/2] 2.71ns
:71  %real_arr512_0_load_2 = load float* %real_arr512_0_addr_3, align 16

ST_3: real_arr512_1_addr_3 [1/1] 0.00ns
:72  %real_arr512_1_addr_3 = getelementptr [128 x float]* @real_arr512_1, i64 0, i64 %newIndex48

ST_3: real_arr512_1_load_2 [2/2] 2.71ns
:73  %real_arr512_1_load_2 = load float* %real_arr512_1_addr_3, align 8

ST_3: i_V_i_cast [1/1] 0.00ns
:75  %i_V_i_cast = call i6 @_ssdm_op_PartSelect.i6.i9.i32.i32(i9 %p_04_0_i_i, i32 2, i32 7)

ST_3: imag_arr512_0_addr_3 [1/1] 0.00ns
:80  %imag_arr512_0_addr_3 = getelementptr [128 x float]* @imag_arr512_0, i64 0, i64 %newIndex48

ST_3: imag_arr512_0_load_2 [2/2] 2.71ns
:81  %imag_arr512_0_load_2 = load float* %imag_arr512_0_addr_3, align 16

ST_3: imag_arr512_1_addr_3 [1/1] 0.00ns
:82  %imag_arr512_1_addr_3 = getelementptr [128 x float]* @imag_arr512_1, i64 0, i64 %newIndex48

ST_3: imag_arr512_1_load_2 [2/2] 2.71ns
:83  %imag_arr512_1_load_2 = load float* %imag_arr512_1_addr_3, align 8

ST_3: real_arr512_2_addr_3 [1/1] 0.00ns
:87  %real_arr512_2_addr_3 = getelementptr [128 x float]* @real_arr512_2, i64 0, i64 %newIndex48

ST_3: real_arr512_2_load_2 [2/2] 2.71ns
:88  %real_arr512_2_load_2 = load float* %real_arr512_2_addr_3, align 8

ST_3: real_arr512_3_addr_3 [1/1] 0.00ns
:89  %real_arr512_3_addr_3 = getelementptr [128 x float]* @real_arr512_3, i64 0, i64 %newIndex48

ST_3: real_arr512_3_load_2 [2/2] 2.71ns
:90  %real_arr512_3_load_2 = load float* %real_arr512_3_addr_3, align 8

ST_3: imag_arr512_2_addr_3 [1/1] 0.00ns
:94  %imag_arr512_2_addr_3 = getelementptr [128 x float]* @imag_arr512_2, i64 0, i64 %newIndex48

ST_3: imag_arr512_2_load_2 [2/2] 2.71ns
:95  %imag_arr512_2_load_2 = load float* %imag_arr512_2_addr_3, align 8

ST_3: imag_arr512_3_addr_3 [1/1] 0.00ns
:96  %imag_arr512_3_addr_3 = getelementptr [128 x float]* @imag_arr512_3, i64 0, i64 %newIndex48

ST_3: imag_arr512_3_load_2 [2/2] 2.71ns
:97  %imag_arr512_3_load_2 = load float* %imag_arr512_3_addr_3, align 8

ST_3: newIndex51 [1/1] 0.00ns
:101  %newIndex51 = or i7 %newIndex41, 3

ST_3: newIndex52 [1/1] 0.00ns
:102  %newIndex52 = zext i7 %newIndex51 to i64

ST_3: real_arr512_0_addr_4 [1/1] 0.00ns
:103  %real_arr512_0_addr_4 = getelementptr [128 x float]* @real_arr512_0, i64 0, i64 %newIndex52

ST_3: real_arr512_0_load_3 [2/2] 2.71ns
:104  %real_arr512_0_load_3 = load float* %real_arr512_0_addr_4, align 16

ST_3: real_arr512_1_addr_4 [1/1] 0.00ns
:105  %real_arr512_1_addr_4 = getelementptr [128 x float]* @real_arr512_1, i64 0, i64 %newIndex52

ST_3: real_arr512_1_load_3 [2/2] 2.71ns
:106  %real_arr512_1_load_3 = load float* %real_arr512_1_addr_4, align 4

ST_3: imag_arr512_0_addr_4 [1/1] 0.00ns
:110  %imag_arr512_0_addr_4 = getelementptr [128 x float]* @imag_arr512_0, i64 0, i64 %newIndex52

ST_3: imag_arr512_0_load_3 [2/2] 2.71ns
:111  %imag_arr512_0_load_3 = load float* %imag_arr512_0_addr_4, align 16

ST_3: imag_arr512_1_addr_4 [1/1] 0.00ns
:112  %imag_arr512_1_addr_4 = getelementptr [128 x float]* @imag_arr512_1, i64 0, i64 %newIndex52

ST_3: imag_arr512_1_load_3 [2/2] 2.71ns
:113  %imag_arr512_1_load_3 = load float* %imag_arr512_1_addr_4, align 4

ST_3: real_arr512_2_addr_4 [1/1] 0.00ns
:117  %real_arr512_2_addr_4 = getelementptr [128 x float]* @real_arr512_2, i64 0, i64 %newIndex52

ST_3: real_arr512_2_load_3 [2/2] 2.71ns
:118  %real_arr512_2_load_3 = load float* %real_arr512_2_addr_4, align 8

ST_3: real_arr512_3_addr_4 [1/1] 0.00ns
:119  %real_arr512_3_addr_4 = getelementptr [128 x float]* @real_arr512_3, i64 0, i64 %newIndex52

ST_3: real_arr512_3_load_3 [2/2] 2.71ns
:120  %real_arr512_3_load_3 = load float* %real_arr512_3_addr_4, align 4

ST_3: imag_arr512_2_addr_4 [1/1] 0.00ns
:124  %imag_arr512_2_addr_4 = getelementptr [128 x float]* @imag_arr512_2, i64 0, i64 %newIndex52

ST_3: imag_arr512_2_load_3 [2/2] 2.71ns
:125  %imag_arr512_2_load_3 = load float* %imag_arr512_2_addr_4, align 8

ST_3: imag_arr512_3_addr_4 [1/1] 0.00ns
:126  %imag_arr512_3_addr_4 = getelementptr [128 x float]* @imag_arr512_3, i64 0, i64 %newIndex52

ST_3: imag_arr512_3_load_3 [2/2] 2.71ns
:127  %imag_arr512_3_load_3 = load float* %imag_arr512_3_addr_4, align 4

ST_3: i_V_i_7 [1/1] 1.84ns
:131  %i_V_i_7 = add i9 %p_04_0_i_i, 8


 <State 4>: 7.26ns
ST_4: tmp_13_i [5/5] 7.26ns
:11  %tmp_13_i = fadd float %real_arr512_0_load, %real_arr512_1_load

ST_4: tmp_15_i [5/5] 7.26ns
:20  %tmp_15_i = fadd float %imag_arr512_0_load, %imag_arr512_1_load

ST_4: tmp_13_i_1 [5/5] 7.26ns
:28  %tmp_13_i_1 = fadd float %real_arr512_2_load, %real_arr512_3_load

ST_4: tmp_15_i_1 [5/5] 7.26ns
:35  %tmp_15_i_1 = fadd float %imag_arr512_2_load, %imag_arr512_3_load

ST_4: tmp_13_i_2 [5/5] 7.26ns
:44  %tmp_13_i_2 = fadd float %real_arr512_0_load_1, %real_arr512_1_load_1

ST_4: tmp_15_i_2 [5/5] 7.26ns
:51  %tmp_15_i_2 = fadd float %imag_arr512_0_load_1, %imag_arr512_1_load_1

ST_4: tmp_13_i_3 [5/5] 7.26ns
:58  %tmp_13_i_3 = fadd float %real_arr512_2_load_1, %real_arr512_3_load_1

ST_4: tmp_15_i_3 [5/5] 7.26ns
:65  %tmp_15_i_3 = fadd float %imag_arr512_2_load_1, %imag_arr512_3_load_1

ST_4: real_arr512_0_load_2 [1/2] 2.71ns
:71  %real_arr512_0_load_2 = load float* %real_arr512_0_addr_3, align 16

ST_4: real_arr512_1_load_2 [1/2] 2.71ns
:73  %real_arr512_1_load_2 = load float* %real_arr512_1_addr_3, align 8

ST_4: imag_arr512_0_load_2 [1/2] 2.71ns
:81  %imag_arr512_0_load_2 = load float* %imag_arr512_0_addr_3, align 16

ST_4: imag_arr512_1_load_2 [1/2] 2.71ns
:83  %imag_arr512_1_load_2 = load float* %imag_arr512_1_addr_3, align 8

ST_4: real_arr512_2_load_2 [1/2] 2.71ns
:88  %real_arr512_2_load_2 = load float* %real_arr512_2_addr_3, align 8

ST_4: real_arr512_3_load_2 [1/2] 2.71ns
:90  %real_arr512_3_load_2 = load float* %real_arr512_3_addr_3, align 8

ST_4: imag_arr512_2_load_2 [1/2] 2.71ns
:95  %imag_arr512_2_load_2 = load float* %imag_arr512_2_addr_3, align 8

ST_4: imag_arr512_3_load_2 [1/2] 2.71ns
:97  %imag_arr512_3_load_2 = load float* %imag_arr512_3_addr_3, align 8

ST_4: real_arr512_0_load_3 [1/2] 2.71ns
:104  %real_arr512_0_load_3 = load float* %real_arr512_0_addr_4, align 16

ST_4: real_arr512_1_load_3 [1/2] 2.71ns
:106  %real_arr512_1_load_3 = load float* %real_arr512_1_addr_4, align 4

ST_4: imag_arr512_0_load_3 [1/2] 2.71ns
:111  %imag_arr512_0_load_3 = load float* %imag_arr512_0_addr_4, align 16

ST_4: imag_arr512_1_load_3 [1/2] 2.71ns
:113  %imag_arr512_1_load_3 = load float* %imag_arr512_1_addr_4, align 4

ST_4: real_arr512_2_load_3 [1/2] 2.71ns
:118  %real_arr512_2_load_3 = load float* %real_arr512_2_addr_4, align 8

ST_4: real_arr512_3_load_3 [1/2] 2.71ns
:120  %real_arr512_3_load_3 = load float* %real_arr512_3_addr_4, align 4

ST_4: imag_arr512_2_load_3 [1/2] 2.71ns
:125  %imag_arr512_2_load_3 = load float* %imag_arr512_2_addr_4, align 8

ST_4: imag_arr512_3_load_3 [1/2] 2.71ns
:127  %imag_arr512_3_load_3 = load float* %imag_arr512_3_addr_4, align 4


 <State 5>: 7.26ns
ST_5: tmp_13_i [4/5] 7.26ns
:11  %tmp_13_i = fadd float %real_arr512_0_load, %real_arr512_1_load

ST_5: tmp_15_i [4/5] 7.26ns
:20  %tmp_15_i = fadd float %imag_arr512_0_load, %imag_arr512_1_load

ST_5: tmp_13_i_1 [4/5] 7.26ns
:28  %tmp_13_i_1 = fadd float %real_arr512_2_load, %real_arr512_3_load

ST_5: tmp_15_i_1 [4/5] 7.26ns
:35  %tmp_15_i_1 = fadd float %imag_arr512_2_load, %imag_arr512_3_load

ST_5: tmp_13_i_2 [4/5] 7.26ns
:44  %tmp_13_i_2 = fadd float %real_arr512_0_load_1, %real_arr512_1_load_1

ST_5: tmp_15_i_2 [4/5] 7.26ns
:51  %tmp_15_i_2 = fadd float %imag_arr512_0_load_1, %imag_arr512_1_load_1

ST_5: tmp_13_i_3 [4/5] 7.26ns
:58  %tmp_13_i_3 = fadd float %real_arr512_2_load_1, %real_arr512_3_load_1

ST_5: tmp_15_i_3 [4/5] 7.26ns
:65  %tmp_15_i_3 = fadd float %imag_arr512_2_load_1, %imag_arr512_3_load_1

ST_5: tmp_13_i_4 [5/5] 7.26ns
:74  %tmp_13_i_4 = fadd float %real_arr512_0_load_2, %real_arr512_1_load_2

ST_5: tmp_15_i_4 [5/5] 7.26ns
:84  %tmp_15_i_4 = fadd float %imag_arr512_0_load_2, %imag_arr512_1_load_2

ST_5: tmp_13_i_5 [5/5] 7.26ns
:91  %tmp_13_i_5 = fadd float %real_arr512_2_load_2, %real_arr512_3_load_2

ST_5: tmp_15_i_5 [5/5] 7.26ns
:98  %tmp_15_i_5 = fadd float %imag_arr512_2_load_2, %imag_arr512_3_load_2

ST_5: tmp_13_i_6 [5/5] 7.26ns
:107  %tmp_13_i_6 = fadd float %real_arr512_0_load_3, %real_arr512_1_load_3

ST_5: tmp_15_i_6 [5/5] 7.26ns
:114  %tmp_15_i_6 = fadd float %imag_arr512_0_load_3, %imag_arr512_1_load_3

ST_5: tmp_13_i_7 [5/5] 7.26ns
:121  %tmp_13_i_7 = fadd float %real_arr512_2_load_3, %real_arr512_3_load_3

ST_5: tmp_15_i_7 [5/5] 7.26ns
:128  %tmp_15_i_7 = fadd float %imag_arr512_2_load_3, %imag_arr512_3_load_3


 <State 6>: 7.26ns
ST_6: tmp_13_i [3/5] 7.26ns
:11  %tmp_13_i = fadd float %real_arr512_0_load, %real_arr512_1_load

ST_6: tmp_15_i [3/5] 7.26ns
:20  %tmp_15_i = fadd float %imag_arr512_0_load, %imag_arr512_1_load

ST_6: tmp_13_i_1 [3/5] 7.26ns
:28  %tmp_13_i_1 = fadd float %real_arr512_2_load, %real_arr512_3_load

ST_6: tmp_15_i_1 [3/5] 7.26ns
:35  %tmp_15_i_1 = fadd float %imag_arr512_2_load, %imag_arr512_3_load

ST_6: tmp_13_i_2 [3/5] 7.26ns
:44  %tmp_13_i_2 = fadd float %real_arr512_0_load_1, %real_arr512_1_load_1

ST_6: tmp_15_i_2 [3/5] 7.26ns
:51  %tmp_15_i_2 = fadd float %imag_arr512_0_load_1, %imag_arr512_1_load_1

ST_6: tmp_13_i_3 [3/5] 7.26ns
:58  %tmp_13_i_3 = fadd float %real_arr512_2_load_1, %real_arr512_3_load_1

ST_6: tmp_15_i_3 [3/5] 7.26ns
:65  %tmp_15_i_3 = fadd float %imag_arr512_2_load_1, %imag_arr512_3_load_1

ST_6: tmp_13_i_4 [4/5] 7.26ns
:74  %tmp_13_i_4 = fadd float %real_arr512_0_load_2, %real_arr512_1_load_2

ST_6: tmp_15_i_4 [4/5] 7.26ns
:84  %tmp_15_i_4 = fadd float %imag_arr512_0_load_2, %imag_arr512_1_load_2

ST_6: tmp_13_i_5 [4/5] 7.26ns
:91  %tmp_13_i_5 = fadd float %real_arr512_2_load_2, %real_arr512_3_load_2

ST_6: tmp_15_i_5 [4/5] 7.26ns
:98  %tmp_15_i_5 = fadd float %imag_arr512_2_load_2, %imag_arr512_3_load_2

ST_6: tmp_13_i_6 [4/5] 7.26ns
:107  %tmp_13_i_6 = fadd float %real_arr512_0_load_3, %real_arr512_1_load_3

ST_6: tmp_15_i_6 [4/5] 7.26ns
:114  %tmp_15_i_6 = fadd float %imag_arr512_0_load_3, %imag_arr512_1_load_3

ST_6: tmp_13_i_7 [4/5] 7.26ns
:121  %tmp_13_i_7 = fadd float %real_arr512_2_load_3, %real_arr512_3_load_3

ST_6: tmp_15_i_7 [4/5] 7.26ns
:128  %tmp_15_i_7 = fadd float %imag_arr512_2_load_3, %imag_arr512_3_load_3


 <State 7>: 7.26ns
ST_7: tmp_13_i [2/5] 7.26ns
:11  %tmp_13_i = fadd float %real_arr512_0_load, %real_arr512_1_load

ST_7: tmp_15_i [2/5] 7.26ns
:20  %tmp_15_i = fadd float %imag_arr512_0_load, %imag_arr512_1_load

ST_7: tmp_13_i_1 [2/5] 7.26ns
:28  %tmp_13_i_1 = fadd float %real_arr512_2_load, %real_arr512_3_load

ST_7: tmp_15_i_1 [2/5] 7.26ns
:35  %tmp_15_i_1 = fadd float %imag_arr512_2_load, %imag_arr512_3_load

ST_7: tmp_13_i_2 [2/5] 7.26ns
:44  %tmp_13_i_2 = fadd float %real_arr512_0_load_1, %real_arr512_1_load_1

ST_7: tmp_15_i_2 [2/5] 7.26ns
:51  %tmp_15_i_2 = fadd float %imag_arr512_0_load_1, %imag_arr512_1_load_1

ST_7: tmp_13_i_3 [2/5] 7.26ns
:58  %tmp_13_i_3 = fadd float %real_arr512_2_load_1, %real_arr512_3_load_1

ST_7: tmp_15_i_3 [2/5] 7.26ns
:65  %tmp_15_i_3 = fadd float %imag_arr512_2_load_1, %imag_arr512_3_load_1

ST_7: tmp_13_i_4 [3/5] 7.26ns
:74  %tmp_13_i_4 = fadd float %real_arr512_0_load_2, %real_arr512_1_load_2

ST_7: tmp_15_i_4 [3/5] 7.26ns
:84  %tmp_15_i_4 = fadd float %imag_arr512_0_load_2, %imag_arr512_1_load_2

ST_7: tmp_13_i_5 [3/5] 7.26ns
:91  %tmp_13_i_5 = fadd float %real_arr512_2_load_2, %real_arr512_3_load_2

ST_7: tmp_15_i_5 [3/5] 7.26ns
:98  %tmp_15_i_5 = fadd float %imag_arr512_2_load_2, %imag_arr512_3_load_2

ST_7: tmp_13_i_6 [3/5] 7.26ns
:107  %tmp_13_i_6 = fadd float %real_arr512_0_load_3, %real_arr512_1_load_3

ST_7: tmp_15_i_6 [3/5] 7.26ns
:114  %tmp_15_i_6 = fadd float %imag_arr512_0_load_3, %imag_arr512_1_load_3

ST_7: tmp_13_i_7 [3/5] 7.26ns
:121  %tmp_13_i_7 = fadd float %real_arr512_2_load_3, %real_arr512_3_load_3

ST_7: tmp_15_i_7 [3/5] 7.26ns
:128  %tmp_15_i_7 = fadd float %imag_arr512_2_load_3, %imag_arr512_3_load_3


 <State 8>: 7.26ns
ST_8: tmp_13_i [1/5] 7.26ns
:11  %tmp_13_i = fadd float %real_arr512_0_load, %real_arr512_1_load

ST_8: tmp_15_i [1/5] 7.26ns
:20  %tmp_15_i = fadd float %imag_arr512_0_load, %imag_arr512_1_load

ST_8: tmp_13_i_1 [1/5] 7.26ns
:28  %tmp_13_i_1 = fadd float %real_arr512_2_load, %real_arr512_3_load

ST_8: tmp_15_i_1 [1/5] 7.26ns
:35  %tmp_15_i_1 = fadd float %imag_arr512_2_load, %imag_arr512_3_load

ST_8: tmp_13_i_2 [1/5] 7.26ns
:44  %tmp_13_i_2 = fadd float %real_arr512_0_load_1, %real_arr512_1_load_1

ST_8: tmp_15_i_2 [1/5] 7.26ns
:51  %tmp_15_i_2 = fadd float %imag_arr512_0_load_1, %imag_arr512_1_load_1

ST_8: tmp_13_i_3 [1/5] 7.26ns
:58  %tmp_13_i_3 = fadd float %real_arr512_2_load_1, %real_arr512_3_load_1

ST_8: tmp_15_i_3 [1/5] 7.26ns
:65  %tmp_15_i_3 = fadd float %imag_arr512_2_load_1, %imag_arr512_3_load_1

ST_8: tmp_13_i_4 [2/5] 7.26ns
:74  %tmp_13_i_4 = fadd float %real_arr512_0_load_2, %real_arr512_1_load_2

ST_8: tmp_15_i_4 [2/5] 7.26ns
:84  %tmp_15_i_4 = fadd float %imag_arr512_0_load_2, %imag_arr512_1_load_2

ST_8: tmp_13_i_5 [2/5] 7.26ns
:91  %tmp_13_i_5 = fadd float %real_arr512_2_load_2, %real_arr512_3_load_2

ST_8: tmp_15_i_5 [2/5] 7.26ns
:98  %tmp_15_i_5 = fadd float %imag_arr512_2_load_2, %imag_arr512_3_load_2

ST_8: tmp_13_i_6 [2/5] 7.26ns
:107  %tmp_13_i_6 = fadd float %real_arr512_0_load_3, %real_arr512_1_load_3

ST_8: tmp_15_i_6 [2/5] 7.26ns
:114  %tmp_15_i_6 = fadd float %imag_arr512_0_load_3, %imag_arr512_1_load_3

ST_8: tmp_13_i_7 [2/5] 7.26ns
:121  %tmp_13_i_7 = fadd float %real_arr512_2_load_3, %real_arr512_3_load_3

ST_8: tmp_15_i_7 [2/5] 7.26ns
:128  %tmp_15_i_7 = fadd float %imag_arr512_2_load_3, %imag_arr512_3_load_3


 <State 9>: 7.26ns
ST_9: newIndex44 [1/1] 0.00ns
:13  %newIndex44 = zext i7 %newIndex43 to i64

ST_9: real_arr256_0_addr [1/1] 0.00ns
:14  %real_arr256_0_addr = getelementptr [64 x float]* @real_arr256_0, i64 0, i64 %newIndex44

ST_9: stg_201 [1/1] 2.71ns
:15  store float %tmp_13_i, float* %real_arr256_0_addr, align 16

ST_9: imag_arr256_0_addr [1/1] 0.00ns
:21  %imag_arr256_0_addr = getelementptr [64 x float]* @imag_arr256_0, i64 0, i64 %newIndex44

ST_9: stg_203 [1/1] 2.71ns
:22  store float %tmp_15_i, float* %imag_arr256_0_addr, align 16

ST_9: real_arr256_1_addr [1/1] 0.00ns
:29  %real_arr256_1_addr = getelementptr [64 x float]* @real_arr256_1, i64 0, i64 %newIndex44

ST_9: stg_205 [1/1] 2.71ns
:30  store float %tmp_13_i_1, float* %real_arr256_1_addr, align 8

ST_9: imag_arr256_1_addr [1/1] 0.00ns
:36  %imag_arr256_1_addr = getelementptr [64 x float]* @imag_arr256_1, i64 0, i64 %newIndex44

ST_9: stg_207 [1/1] 2.71ns
:37  store float %tmp_15_i_1, float* %imag_arr256_1_addr, align 8

ST_9: real_arr256_2_addr [1/1] 0.00ns
:45  %real_arr256_2_addr = getelementptr [64 x float]* @real_arr256_2, i64 0, i64 %newIndex44

ST_9: stg_209 [1/1] 2.71ns
:46  store float %tmp_13_i_2, float* %real_arr256_2_addr, align 8

ST_9: imag_arr256_2_addr [1/1] 0.00ns
:52  %imag_arr256_2_addr = getelementptr [64 x float]* @imag_arr256_2, i64 0, i64 %newIndex44

ST_9: stg_211 [1/1] 2.71ns
:53  store float %tmp_15_i_2, float* %imag_arr256_2_addr, align 8

ST_9: real_arr256_3_addr [1/1] 0.00ns
:59  %real_arr256_3_addr = getelementptr [64 x float]* @real_arr256_3, i64 0, i64 %newIndex44

ST_9: stg_213 [1/1] 2.71ns
:60  store float %tmp_13_i_3, float* %real_arr256_3_addr, align 8

ST_9: imag_arr256_3_addr [1/1] 0.00ns
:66  %imag_arr256_3_addr = getelementptr [64 x float]* @imag_arr256_3, i64 0, i64 %newIndex44

ST_9: stg_215 [1/1] 2.71ns
:67  store float %tmp_15_i_3, float* %imag_arr256_3_addr, align 8

ST_9: tmp_13_i_4 [1/5] 7.26ns
:74  %tmp_13_i_4 = fadd float %real_arr512_0_load_2, %real_arr512_1_load_2

ST_9: tmp_15_i_4 [1/5] 7.26ns
:84  %tmp_15_i_4 = fadd float %imag_arr512_0_load_2, %imag_arr512_1_load_2

ST_9: tmp_13_i_5 [1/5] 7.26ns
:91  %tmp_13_i_5 = fadd float %real_arr512_2_load_2, %real_arr512_3_load_2

ST_9: tmp_15_i_5 [1/5] 7.26ns
:98  %tmp_15_i_5 = fadd float %imag_arr512_2_load_2, %imag_arr512_3_load_2

ST_9: tmp_13_i_6 [1/5] 7.26ns
:107  %tmp_13_i_6 = fadd float %real_arr512_0_load_3, %real_arr512_1_load_3

ST_9: tmp_15_i_6 [1/5] 7.26ns
:114  %tmp_15_i_6 = fadd float %imag_arr512_0_load_3, %imag_arr512_1_load_3

ST_9: tmp_13_i_7 [1/5] 7.26ns
:121  %tmp_13_i_7 = fadd float %real_arr512_2_load_3, %real_arr512_3_load_3

ST_9: tmp_15_i_7 [1/5] 7.26ns
:128  %tmp_15_i_7 = fadd float %imag_arr512_2_load_3, %imag_arr512_3_load_3


 <State 10>: 2.71ns
ST_10: empty [1/1] 0.00ns
:0  %empty = call i32 (...)* @_ssdm_op_SpecLoopTripCount(i64 32, i64 32, i64 32) nounwind

ST_10: tmp [1/1] 0.00ns
:1  %tmp = call i32 (...)* @_ssdm_op_SpecRegionBegin([12 x i8]* @p_str3) nounwind

ST_10: stg_226 [1/1] 0.00ns
:2  call void (...)* @_ssdm_op_SpecPipeline(i32 1, i32 1, i32 1, i32 0, [1 x i8]* @p_str) nounwind

ST_10: empty_21 [1/1] 0.00ns
:23  %empty_21 = call i32 (...)* @_ssdm_op_SpecRegionEnd([12 x i8]* @p_str3, i32 %tmp) nounwind

ST_10: newIndex49 [1/1] 0.00ns
:76  %newIndex49 = or i6 %i_V_i_cast, 1

ST_10: newIndex50 [1/1] 0.00ns
:77  %newIndex50 = zext i6 %newIndex49 to i64

ST_10: real_arr256_0_addr_1 [1/1] 0.00ns
:78  %real_arr256_0_addr_1 = getelementptr [64 x float]* @real_arr256_0, i64 0, i64 %newIndex50

ST_10: stg_231 [1/1] 2.71ns
:79  store float %tmp_13_i_4, float* %real_arr256_0_addr_1, align 16

ST_10: imag_arr256_0_addr_1 [1/1] 0.00ns
:85  %imag_arr256_0_addr_1 = getelementptr [64 x float]* @imag_arr256_0, i64 0, i64 %newIndex50

ST_10: stg_233 [1/1] 2.71ns
:86  store float %tmp_15_i_4, float* %imag_arr256_0_addr_1, align 16

ST_10: real_arr256_1_addr_1 [1/1] 0.00ns
:92  %real_arr256_1_addr_1 = getelementptr [64 x float]* @real_arr256_1, i64 0, i64 %newIndex50

ST_10: stg_235 [1/1] 2.71ns
:93  store float %tmp_13_i_5, float* %real_arr256_1_addr_1, align 4

ST_10: imag_arr256_1_addr_1 [1/1] 0.00ns
:99  %imag_arr256_1_addr_1 = getelementptr [64 x float]* @imag_arr256_1, i64 0, i64 %newIndex50

ST_10: stg_237 [1/1] 2.71ns
:100  store float %tmp_15_i_5, float* %imag_arr256_1_addr_1, align 4

ST_10: real_arr256_2_addr_1 [1/1] 0.00ns
:108  %real_arr256_2_addr_1 = getelementptr [64 x float]* @real_arr256_2, i64 0, i64 %newIndex50

ST_10: stg_239 [1/1] 2.71ns
:109  store float %tmp_13_i_6, float* %real_arr256_2_addr_1, align 8

ST_10: imag_arr256_2_addr_1 [1/1] 0.00ns
:115  %imag_arr256_2_addr_1 = getelementptr [64 x float]* @imag_arr256_2, i64 0, i64 %newIndex50

ST_10: stg_241 [1/1] 2.71ns
:116  store float %tmp_15_i_6, float* %imag_arr256_2_addr_1, align 8

ST_10: real_arr256_3_addr_1 [1/1] 0.00ns
:122  %real_arr256_3_addr_1 = getelementptr [64 x float]* @real_arr256_3, i64 0, i64 %newIndex50

ST_10: stg_243 [1/1] 2.71ns
:123  store float %tmp_13_i_7, float* %real_arr256_3_addr_1, align 4

ST_10: imag_arr256_3_addr_1 [1/1] 0.00ns
:129  %imag_arr256_3_addr_1 = getelementptr [64 x float]* @imag_arr256_3, i64 0, i64 %newIndex50

ST_10: stg_245 [1/1] 2.71ns
:130  store float %tmp_15_i_7, float* %imag_arr256_3_addr_1, align 4

ST_10: stg_246 [1/1] 0.00ns
:133  br label %0


 <State 11>: 0.00ns
ST_11: stg_247 [1/1] 0.00ns
loop_flow256_.exit2.exitStub:0  ret void



============================================================
+ Verbose Summary: Binding
============================================================
N/A
* FSMD analyzer results:
  - Output states:
  - Chain level:
	State 1
	State 2
	State 3
	State 4
	State 5
	State 6
	State 7
	State 8
	State 9
	State 10
	State 11


============================================================
+ Verbose Summary: Datapath Resource usage 
============================================================
N/A
