

================================================================
== Vivado HLS Report for 'phasedetector_cordiccart2pol'
================================================================
* Date:           Wed Oct 19 23:59:31 2016

* Version:        2015.4 (Build 1412921 on Wed Nov 18 09:58:55 AM 2015)
* Project:        phasedetector
* Solution:       phasedectector_optimized1
* Product family: zynq
* Target device:  xc7z020clg484-1


================================================================
== Performance Estimates
================================================================
+ Timing (ns): 
    * Summary: 
    +--------+-------+----------+------------+
    |  Clock | Target| Estimated| Uncertainty|
    +--------+-------+----------+------------+
    |ap_clk  |  10.00|      8.75|        1.25|
    +--------+-------+----------+------------+

+ Latency (clock cycles): 
    * Summary: 
    +-----+-----+-----+-----+----------+
    |  Latency  |  Interval | Pipeline |
    | min | max | min | max |   Type   |
    +-----+-----+-----+-----+----------+
    |    7|    7|    1|    1| function |
    +-----+-----+-----+-----+----------+

    + Detail: 
        * Instance: 
        N/A

        * Loop: 
        N/A



================================================================
== Utilization Estimates
================================================================
* Summary: 
+-----------------+---------+-------+--------+-------+
|       Name      | BRAM_18K| DSP48E|   FF   |  LUT  |
+-----------------+---------+-------+--------+-------+
|DSP              |        -|      -|       -|      -|
|Expression       |        -|      1|       0|   2190|
|FIFO             |        -|      -|       -|      -|
|Instance         |        -|      -|       -|      -|
|Memory           |        -|      -|       -|      -|
|Multiplexer      |        -|      -|       -|      -|
|Register         |        -|      -|     548|     12|
+-----------------+---------+-------+--------+-------+
|Total            |        0|      1|     548|   2202|
+-----------------+---------+-------+--------+-------+
|Available        |      280|    220|  106400|  53200|
+-----------------+---------+-------+--------+-------+
|Utilization (%)  |        0|   ~0  |   ~0   |      4|
+-----------------+---------+-------+--------+-------+

+ Detail: 
    * Instance: 
    N/A

    * DSP48: 
    N/A

    * Memory: 
    N/A

    * FIFO: 
    N/A

    * Expression: 
    +--------------------------------------+----------+-------+---+----+------------+------------+
    |             Variable Name            | Operation| DSP48E| FF| LUT| Bitwidth P0| Bitwidth P1|
    +--------------------------------------+----------+-------+---+----+------------+------------+
    |p_Val2_s_fu_1362_p2                   |     *    |      1|  0|   1|          25|          17|
    |p_Val2_40_s_fu_1349_p2                |     +    |      0|  0|  10|          20|          20|
    |tmp10_fu_1313_p2                      |     +    |      0|  0|  10|          11|          11|
    |tmp11_fu_1319_p2                      |     +    |      0|  0|   9|           9|           9|
    |tmp1_fu_1292_p2                       |     +    |      0|  0|  10|          20|          20|
    |tmp2_fu_1188_p2                       |     +    |      0|  0|  20|          20|          20|
    |tmp3_fu_1178_p2                       |     +    |      0|  0|  19|          19|          19|
    |tmp4_fu_1282_p2                       |     +    |      0|  0|  17|          17|          17|
    |tmp5_fu_1194_p2                       |     +    |      0|  0|  16|          16|          16|
    |tmp6_fu_1339_p2                       |     +    |      0|  0|  10|          14|          14|
    |tmp7_fu_1307_p2                       |     +    |      0|  0|  10|          14|          14|
    |tmp8_fu_1297_p2                       |     +    |      0|  0|  13|          13|          13|
    |tmp9_fu_1329_p2                       |     +    |      0|  0|  10|          11|          11|
    |tmp_104_10_fu_1211_p2                 |     +    |      0|  0|  25|          25|          25|
    |tmp_104_1_fu_302_p2                   |     +    |      0|  0|  25|          25|          25|
    |tmp_104_2_fu_390_p2                   |     +    |      0|  0|  25|          25|          25|
    |tmp_104_3_fu_485_p2                   |     +    |      0|  0|  25|          25|          25|
    |tmp_104_4_fu_557_p2                   |     +    |      0|  0|  25|          25|          25|
    |tmp_104_5_fu_652_p2                   |     +    |      0|  0|  25|          25|          25|
    |tmp_104_6_fu_724_p2                   |     +    |      0|  0|  25|          25|          25|
    |tmp_104_7_fu_819_p2                   |     +    |      0|  0|  25|          25|          25|
    |tmp_104_8_fu_891_p2                   |     +    |      0|  0|  25|          25|          25|
    |tmp_104_9_fu_986_p2                   |     +    |      0|  0|  25|          25|          25|
    |tmp_104_s_fu_1058_p2                  |     +    |      0|  0|  25|          25|          25|
    |tmp_110_1_fu_330_p2                   |     +    |      0|  0|  25|          25|          25|
    |tmp_110_2_fu_418_p2                   |     +    |      0|  0|  25|          25|          25|
    |tmp_110_3_fu_500_p2                   |     +    |      0|  0|  25|          25|          25|
    |tmp_110_4_fu_585_p2                   |     +    |      0|  0|  25|          25|          25|
    |tmp_110_5_fu_667_p2                   |     +    |      0|  0|  25|          25|          25|
    |tmp_110_6_fu_752_p2                   |     +    |      0|  0|  25|          25|          25|
    |tmp_110_7_fu_834_p2                   |     +    |      0|  0|  25|          25|          25|
    |tmp_110_8_fu_919_p2                   |     +    |      0|  0|  25|          25|          25|
    |tmp_110_9_fu_1001_p2                  |     +    |      0|  0|  25|          25|          25|
    |tmp_110_s_fu_1086_p2                  |     +    |      0|  0|  25|          25|          25|
    |tmp_s_fu_234_p2                       |     +    |      0|  0|  25|          25|          25|
    |p_Val2_2_i_fu_176_p2                  |     -    |      0|  0|  25|           1|          25|
    |p_Val2_i_fu_162_p2                    |     -    |      0|  0|  24|           1|          24|
    |tmp_115_1_fu_336_p2                   |     -    |      0|  0|  25|          25|          25|
    |tmp_115_2_fu_424_p2                   |     -    |      0|  0|  25|          25|          25|
    |tmp_115_3_fu_505_p2                   |     -    |      0|  0|  25|          25|          25|
    |tmp_115_4_fu_591_p2                   |     -    |      0|  0|  25|          25|          25|
    |tmp_115_5_fu_672_p2                   |     -    |      0|  0|  25|          25|          25|
    |tmp_115_6_fu_758_p2                   |     -    |      0|  0|  25|          25|          25|
    |tmp_115_7_fu_839_p2                   |     -    |      0|  0|  25|          25|          25|
    |tmp_115_8_fu_925_p2                   |     -    |      0|  0|  25|          25|          25|
    |tmp_115_9_fu_1006_p2                  |     -    |      0|  0|  25|          25|          25|
    |tmp_115_s_fu_1092_p2                  |     -    |      0|  0|  25|          25|          25|
    |tmp_33_fu_240_p2                      |     -    |      0|  0|  25|          25|          25|
    |tmp_34_fu_246_p2                      |     -    |      0|  0|  25|          25|          25|
    |tmp_99_10_fu_1206_p2                  |     -    |      0|  0|  25|          25|          25|
    |tmp_99_1_fu_296_p2                    |     -    |      0|  0|  25|          25|          25|
    |tmp_99_2_fu_384_p2                    |     -    |      0|  0|  25|          25|          25|
    |tmp_99_3_fu_480_p2                    |     -    |      0|  0|  25|          25|          25|
    |tmp_99_4_fu_551_p2                    |     -    |      0|  0|  25|          25|          25|
    |tmp_99_5_fu_647_p2                    |     -    |      0|  0|  25|          25|          25|
    |tmp_99_6_fu_718_p2                    |     -    |      0|  0|  25|          25|          25|
    |tmp_99_7_fu_814_p2                    |     -    |      0|  0|  25|          25|          25|
    |tmp_99_8_fu_885_p2                    |     -    |      0|  0|  25|          25|          25|
    |tmp_99_9_fu_981_p2                    |     -    |      0|  0|  25|          25|          25|
    |tmp_99_s_fu_1052_p2                   |     -    |      0|  0|  25|          25|          25|
    |p_Val2_1_fu_252_p3                    |  Select  |      0|  0|  25|           1|          25|
    |p_Val2_2_fu_257_p3                    |  Select  |      0|  0|  25|           1|          25|
    |p_Val2_45_10_fu_1216_p3               |  Select  |      0|  0|  25|           1|          25|
    |p_Val2_45_1_fu_308_p3                 |  Select  |      0|  0|  25|           1|          25|
    |p_Val2_45_2_fu_396_p3                 |  Select  |      0|  0|  25|           1|          25|
    |p_Val2_45_3_fu_490_p3                 |  Select  |      0|  0|  25|           1|          25|
    |p_Val2_45_4_fu_563_p3                 |  Select  |      0|  0|  25|           1|          25|
    |p_Val2_45_5_fu_657_p3                 |  Select  |      0|  0|  25|           1|          25|
    |p_Val2_45_6_fu_730_p3                 |  Select  |      0|  0|  25|           1|          25|
    |p_Val2_45_7_fu_824_p3                 |  Select  |      0|  0|  25|           1|          25|
    |p_Val2_45_8_fu_897_p3                 |  Select  |      0|  0|  25|           1|          25|
    |p_Val2_45_9_fu_991_p3                 |  Select  |      0|  0|  25|           1|          25|
    |p_Val2_45_s_fu_1064_p3                |  Select  |      0|  0|  25|           1|          25|
    |p_Val2_49_1_fu_342_p3                 |  Select  |      0|  0|  25|           1|          25|
    |p_Val2_49_2_fu_430_p3                 |  Select  |      0|  0|  25|           1|          25|
    |p_Val2_49_3_fu_510_p3                 |  Select  |      0|  0|  25|           1|          25|
    |p_Val2_49_4_fu_597_p3                 |  Select  |      0|  0|  25|           1|          25|
    |p_Val2_49_5_fu_677_p3                 |  Select  |      0|  0|  25|           1|          25|
    |p_Val2_49_6_fu_764_p3                 |  Select  |      0|  0|  25|           1|          25|
    |p_Val2_49_7_fu_844_p3                 |  Select  |      0|  0|  25|           1|          25|
    |p_Val2_49_8_fu_931_p3                 |  Select  |      0|  0|  25|           1|          25|
    |p_Val2_49_9_fu_1011_p3                |  Select  |      0|  0|  25|           1|          25|
    |p_Val2_49_s_fu_1098_p3                |  Select  |      0|  0|  25|           1|          25|
    |ssdm_int_V_read_assign_1_fu_182_p3    |  Select  |      0|  0|  25|           1|          25|
    |ssdm_int_V_read_assign_fu_168_p3      |  Select  |      0|  0|  24|           1|          24|
    |ssdm_int_V_write_assign_2_fu_210_p3   |  Select  |      0|  0|  25|           1|          25|
    |ssdm_int_V_write_assign_3_fu_1139_p3  |  Select  |      0|  0|  19|           1|          19|
    |ssdm_int_V_write_assign_fu_198_p3     |  Select  |      0|  0|  24|           1|          24|
    |theta_V_i_fu_1132_p3                  |  Select  |      0|  0|  19|           1|          19|
    |tmp_103_cast_cast_fu_1244_p3          |  Select  |      0|  0|  11|           1|          11|
    |tmp_115_cast_cast_fu_1251_p3          |  Select  |      0|  0|  10|           1|          10|
    |tmp_124_cast_cast_fu_1258_p3          |  Select  |      0|  0|   9|           1|           9|
    |tmp_133_cast_cast_fu_1265_p3          |  Select  |      0|  0|   8|           1|           8|
    |tmp_142_cast_cast_fu_1272_p3          |  Select  |      0|  0|   7|           1|           7|
    |tmp_43_cast_cast_fu_1150_p3           |  Select  |      0|  0|  18|           1|          18|
    |tmp_49_cast_cast_fu_1157_p3           |  Select  |      0|  0|  17|           1|          17|
    |tmp_58_cast_cast_fu_1223_p3           |  Select  |      0|  0|  16|           1|          16|
    |tmp_67_cast_cast_fu_1164_p3           |  Select  |      0|  0|  15|           1|          15|
    |tmp_76_cast_cast_fu_1171_p3           |  Select  |      0|  0|  14|           1|          14|
    |tmp_85_cast_cast_fu_1230_p3           |  Select  |      0|  0|  13|           1|          13|
    |tmp_94_cast_cast_fu_1237_p3           |  Select  |      0|  0|  12|           1|          12|
    +--------------------------------------+----------+-------+---+----+------------+------------+
    |Total                                 |          |      1|  0|2190|        1377|        2236|
    +--------------------------------------+----------+-------+---+----+------------+------------+

    * Multiplexer: 
    N/A

    * Register: 
    +--------------------------------------+----+----+-----+-----------+
    |                 Name                 | FF | LUT| Bits| Const Bits|
    +--------------------------------------+----+----+-----+-----------+
    |ap_reg_ppstg_tmp_89_reg_1588_pp0_it6  |   1|   0|    1|          0|
    |ap_reg_ppstg_tmp_91_reg_1604_pp0_it6  |   1|   0|    1|          0|
    |p_Val2_45_10_reg_1625                 |  25|   0|   25|          0|
    |p_Val2_45_2_reg_1437                  |  25|   0|   25|          0|
    |p_Val2_45_4_reg_1476                  |  25|   0|   25|          0|
    |p_Val2_45_6_reg_1515                  |  25|   0|   25|          0|
    |p_Val2_45_8_reg_1554                  |  25|   0|   25|          0|
    |p_Val2_45_s_reg_1593                  |  25|   0|   25|          0|
    |p_Val2_49_2_reg_1443                  |  25|   0|   25|          0|
    |p_Val2_49_4_reg_1482                  |  25|   0|   25|          0|
    |p_Val2_49_6_reg_1521                  |  25|   0|   25|          0|
    |p_Val2_49_8_reg_1560                  |  25|   0|   25|          0|
    |tmp2_reg_1615                         |  20|   0|   20|          0|
    |tmp5_reg_1620                         |  15|   0|   16|          1|
    |tmp_33_reg_1417                       |  25|   0|   25|          0|
    |tmp_34_reg_1422                       |  25|   0|   25|          0|
    |tmp_39_reg_1390                       |   1|   0|    1|          0|
    |tmp_40_reg_1460                       |  22|   0|   22|          0|
    |tmp_42_reg_1466                       |  22|   0|   22|          0|
    |tmp_43_reg_1395                       |   1|   0|    1|          0|
    |tmp_45_reg_1400                       |   1|   0|    1|          0|
    |tmp_47_reg_1406                       |   1|   0|    1|          0|
    |tmp_48_reg_1499                       |  20|   0|   20|          0|
    |tmp_50_reg_1505                       |  20|   0|   20|          0|
    |tmp_51_reg_1427                       |   1|   0|    1|          0|
    |tmp_55_reg_1432                       |   1|   0|    1|          0|
    |tmp_56_reg_1538                       |  18|   0|   18|          0|
    |tmp_57_reg_1449                       |   1|   0|    1|          0|
    |tmp_59_reg_1455                       |   1|   0|    1|          0|
    |tmp_60_reg_1544                       |  18|   0|   18|          0|
    |tmp_63_reg_1471                       |   1|   0|    1|          0|
    |tmp_67_reg_1488                       |   1|   0|    1|          0|
    |tmp_68_reg_1577                       |  16|   0|   16|          0|
    |tmp_70_reg_1494                       |   1|   0|    1|          0|
    |tmp_71_reg_1583                       |  16|   0|   16|          0|
    |tmp_75_reg_1510                       |   1|   0|    1|          0|
    |tmp_77_reg_1527                       |   1|   0|    1|          0|
    |tmp_78_reg_1609                       |  14|   0|   14|          0|
    |tmp_80_reg_1533                       |   1|   0|    1|          0|
    |tmp_85_reg_1549                       |   1|   0|    1|          0|
    |tmp_86_reg_1566                       |   1|   0|    1|          0|
    |tmp_87_reg_1572                       |   1|   0|    1|          0|
    |tmp_89_reg_1588                       |   1|   0|    1|          0|
    |tmp_90_reg_1599                       |   1|   0|    1|          0|
    |tmp_91_reg_1604                       |   1|   0|    1|          0|
    |tmp_s_reg_1411                        |  25|   0|   25|          0|
    |tmp_39_reg_1390                       |   0|   1|    1|          0|
    |tmp_43_reg_1395                       |   0|   1|    1|          0|
    |tmp_47_reg_1406                       |   0|   1|    1|          0|
    |tmp_51_reg_1427                       |   0|   1|    1|          0|
    |tmp_55_reg_1432                       |   0|   1|    1|          0|
    |tmp_59_reg_1455                       |   0|   1|    1|          0|
    |tmp_63_reg_1471                       |   0|   1|    1|          0|
    |tmp_70_reg_1494                       |   0|   1|    1|          0|
    |tmp_75_reg_1510                       |   0|   1|    1|          0|
    |tmp_80_reg_1533                       |   0|   1|    1|          0|
    |tmp_85_reg_1549                       |   0|   1|    1|          0|
    |tmp_87_reg_1572                       |   0|   1|    1|          0|
    +--------------------------------------+----+----+-----+-----------+
    |Total                                 | 548|  12|  561|          1|
    +--------------------------------------+----+----+-----+-----------+



================================================================
== Interface
================================================================
* Summary: 
+-------------+-----+-----+------------+------------------------------+--------------+
|  RTL Ports  | Dir | Bits|  Protocol  |         Source Object        |    C Type    |
+-------------+-----+-----+------------+------------------------------+--------------+
|ap_clk       |  in |    1| ap_ctrl_hs | phasedetector_cordiccart2pol | return value |
|ap_rst       |  in |    1| ap_ctrl_hs | phasedetector_cordiccart2pol | return value |
|ap_return_0  | out |   25| ap_ctrl_hs | phasedetector_cordiccart2pol | return value |
|ap_return_1  | out |   25| ap_ctrl_hs | phasedetector_cordiccart2pol | return value |
|x_V          |  in |   24|   ap_none  |              x_V             |    scalar    |
|y_V          |  in |   24|   ap_none  |              y_V             |    scalar    |
+-------------+-----+-----+------------+------------------------------+--------------+

