

================================================================
== Vivado HLS Report for 'dft_loop_flow4_Loop_1_proc'
================================================================
* Date:           Wed Nov 02 20:47:58 2016

* Version:        2015.4 (Build 1412921 on Wed Nov 18 09:58:55 AM 2015)
* Project:        dft
* Solution:       dft_best5
* Product family: zynq
* Target device:  xc7z020clg484-1


================================================================
== Performance Estimates
================================================================
+ Timing (ns): 
    * Summary: 
    +--------+-------+----------+------------+
    |  Clock | Target| Estimated| Uncertainty|
    +--------+-------+----------+------------+
    |ap_clk  |  10.00|      7.26|        1.25|
    +--------+-------+----------+------------+

+ Latency (clock cycles): 
    * Summary: 
    +-----+-----+-----+-----+---------+
    |  Latency  |  Interval | Pipeline|
    | min | max | min | max |   Type  |
    +-----+-----+-----+-----+---------+
    |   10|   10|   10|   10|   none  |
    +-----+-----+-----+-----+---------+

    + Detail: 
        * Instance: 
        N/A

        * Loop: 
        +----------+-----+-----+----------+-----------+-----------+------+----------+
        |          |  Latency  | Iteration|  Initiation Interval  | Trip |          |
        | Loop Name| min | max |  Latency |  achieved |   target  | Count| Pipelined|
        +----------+-----+-----+----------+-----------+-----------+------+----------+
        |- Loop 1  |    8|    8|         6|          1|          1|     4|    yes   |
        +----------+-----+-----+----------+-----------+-----------+------+----------+



================================================================
== Utilization Estimates
================================================================
* Summary: 
+-----------------+---------+-------+--------+-------+
|       Name      | BRAM_18K| DSP48E|   FF   |  LUT  |
+-----------------+---------+-------+--------+-------+
|DSP              |        -|      -|       -|      -|
|Expression       |        -|      -|       0|    411|
|FIFO             |        -|      -|       -|      -|
|Instance         |        -|      4|     410|    780|
|Memory           |        -|      -|       -|      -|
|Multiplexer      |        -|      -|       -|      9|
|Register         |        -|      -|     147|      2|
+-----------------+---------+-------+--------+-------+
|Total            |        0|      4|     557|   1202|
+-----------------+---------+-------+--------+-------+
|Available        |      280|    220|  106400|  53200|
+-----------------+---------+-------+--------+-------+
|Utilization (%)  |        0|      1|   ~0   |      2|
+-----------------+---------+-------+--------+-------+

+ Detail: 
    * Instance: 
    +---------------------------------------+----------------------------------+---------+-------+-----+-----+
    |                Instance               |              Module              | BRAM_18K| DSP48E|  FF | LUT |
    +---------------------------------------+----------------------------------+---------+-------+-----+-----+
    |dft_fadd_32ns_32ns_32_5_full_dsp_U482  |dft_fadd_32ns_32ns_32_5_full_dsp  |        0|      2|  205|  390|
    |dft_fadd_32ns_32ns_32_5_full_dsp_U483  |dft_fadd_32ns_32ns_32_5_full_dsp  |        0|      2|  205|  390|
    +---------------------------------------+----------------------------------+---------+-------+-----+-----+
    |Total                                  |                                  |        0|      4|  410|  780|
    +---------------------------------------+----------------------------------+---------+-------+-----+-----+

    * DSP48: 
    N/A

    * Memory: 
    N/A

    * FIFO: 
    N/A

    * Expression: 
    +----------------------------------+----------+-------+---+----+------------+------------+
    |           Variable Name          | Operation| DSP48E| FF| LUT| Bitwidth P0| Bitwidth P1|
    +----------------------------------+----------+-------+---+----+------------+------------+
    |i_V_fu_188_p2                     |     +    |      0|  0|   3|           3|           1|
    |j_V_fu_324_p2                     |     +    |      0|  0|   4|           4|           2|
    |imag_arr8_load_1_i_phi_fu_317_p3  |  Select  |      0|  0|  32|           1|          32|
    |imag_arr8_load_i_phi_fu_297_p3    |  Select  |      0|  0|  32|           1|          32|
    |real_arr8_load_1_i_phi_fu_273_p3  |  Select  |      0|  0|  32|           1|          32|
    |real_arr8_load_i_phi_fu_229_p3    |  Select  |      0|  0|  32|           1|          32|
    |sel_tmp10_fu_284_p3               |  Select  |      0|  0|  32|           1|          32|
    |sel_tmp11_fu_290_p3               |  Select  |      0|  0|  32|           1|          32|
    |sel_tmp12_fu_304_p3               |  Select  |      0|  0|  32|           1|          32|
    |sel_tmp13_fu_310_p3               |  Select  |      0|  0|  32|           1|          32|
    |sel_tmp1_fu_204_p3                |  Select  |      0|  0|  32|           1|          32|
    |sel_tmp3_fu_216_p3                |  Select  |      0|  0|  32|           1|          32|
    |sel_tmp7_fu_248_p3                |  Select  |      0|  0|  32|           1|          32|
    |sel_tmp9_fu_260_p3                |  Select  |      0|  0|  32|           1|          32|
    |exitcond_i_i_fu_182_p2            |   icmp   |      0|  0|   2|           3|           4|
    |sel_tmp2_fu_210_p2                |   icmp   |      0|  0|   2|           3|           4|
    |sel_tmp4_fu_223_p2                |   icmp   |      0|  0|   2|           3|           1|
    |sel_tmp5_fu_267_p2                |   icmp   |      0|  0|   2|           3|           1|
    |sel_tmp6_fu_242_p2                |   icmp   |      0|  0|   2|           3|           2|
    |sel_tmp8_fu_254_p2                |   icmp   |      0|  0|   2|           3|           3|
    |sel_tmp_fu_198_p2                 |   icmp   |      0|  0|   2|           3|           2|
    |ap_sig_bdd_70                     |    or    |      0|  0|   1|           1|           1|
    |r_V_fu_236_p2                     |    or    |      0|  0|   5|           3|           1|
    +----------------------------------+----------+-------+---+----+------------+------------+
    |Total                             |          |      0|  0| 411|          44|         406|
    +----------------------------------+----------+-------+---+----+------------+------------+

    * Multiplexer: 
    +-----------------------+----+-----------+-----+-----------+
    |          Name         | LUT| Input Size| Bits| Total Bits|
    +-----------------------+----+-----------+-----+-----------+
    |ap_NS_fsm              |   1|          4|    1|          4|
    |ap_reg_ppiten_pp0_it5  |   1|          2|    1|          2|
    |p_04_0_i_i_reg_99      |   3|          2|    3|          6|
    |p_078_0_i_i_reg_88     |   4|          2|    4|          8|
    +-----------------------+----+-----------+-----+-----------+
    |Total                  |   9|         10|    9|         20|
    +-----------------------+----+-----------+-----+-----------+

    * Register: 
    +--------------------------------+----+----+-----+-----------+
    |              Name              | FF | LUT| Bits| Const Bits|
    +--------------------------------+----+----+-----+-----------+
    |ap_CS_fsm                       |   3|   0|    3|          0|
    |ap_done_reg                     |   1|   0|    1|          0|
    |ap_reg_ppiten_pp0_it0           |   1|   0|    1|          0|
    |ap_reg_ppiten_pp0_it1           |   1|   0|    1|          0|
    |ap_reg_ppiten_pp0_it2           |   1|   0|    1|          0|
    |ap_reg_ppiten_pp0_it3           |   1|   0|    1|          0|
    |ap_reg_ppiten_pp0_it4           |   1|   0|    1|          0|
    |ap_reg_ppiten_pp0_it5           |   1|   0|    1|          0|
    |imag_arr8_load_1_i_phi_reg_486  |  32|   0|   32|          0|
    |imag_arr8_load_i_phi_reg_481    |  32|   0|   32|          0|
    |p_04_0_i_i_reg_99               |   3|   0|    3|          0|
    |p_078_0_i_i_reg_88              |   4|   0|    4|          0|
    |real_arr8_load_1_i_phi_reg_472  |  32|   0|   32|          0|
    |real_arr8_load_i_phi_reg_467    |  32|   0|   32|          0|
    |tmp_3_reg_477                   |   2|   0|    2|          0|
    |tmp_3_reg_477                   |   0|   2|    2|          0|
    +--------------------------------+----+----+-----+-----------+
    |Total                           | 147|   2|  149|          0|
    +--------------------------------+----+----+-----+-----------+



================================================================
== Interface
================================================================
* Summary: 
+--------------------+-----+-----+------------+----------------------------+--------------+
|      RTL Ports     | Dir | Bits|  Protocol  |        Source Object       |    C Type    |
+--------------------+-----+-----+------------+----------------------------+--------------+
|ap_clk              |  in |    1| ap_ctrl_hs | dft_loop_flow4_Loop_1_proc | return value |
|ap_rst              |  in |    1| ap_ctrl_hs | dft_loop_flow4_Loop_1_proc | return value |
|ap_start            |  in |    1| ap_ctrl_hs | dft_loop_flow4_Loop_1_proc | return value |
|ap_done             | out |    1| ap_ctrl_hs | dft_loop_flow4_Loop_1_proc | return value |
|ap_continue         |  in |    1| ap_ctrl_hs | dft_loop_flow4_Loop_1_proc | return value |
|ap_idle             | out |    1| ap_ctrl_hs | dft_loop_flow4_Loop_1_proc | return value |
|ap_ready            | out |    1| ap_ctrl_hs | dft_loop_flow4_Loop_1_proc | return value |
|real_arr8_6         |  in |   32|   ap_none  |         real_arr8_6        |    pointer   |
|real_arr8_7         |  in |   32|   ap_none  |         real_arr8_7        |    pointer   |
|imag_arr8_6         |  in |   32|   ap_none  |         imag_arr8_6        |    pointer   |
|imag_arr8_7         |  in |   32|   ap_none  |         imag_arr8_7        |    pointer   |
|imag_arr8_1         |  in |   32|   ap_none  |         imag_arr8_1        |    pointer   |
|imag_arr8_3         |  in |   32|   ap_none  |         imag_arr8_3        |    pointer   |
|imag_arr8_5         |  in |   32|   ap_none  |         imag_arr8_5        |    pointer   |
|imag_arr8_0         |  in |   32|   ap_none  |         imag_arr8_0        |    pointer   |
|imag_arr8_2         |  in |   32|   ap_none  |         imag_arr8_2        |    pointer   |
|imag_arr8_4         |  in |   32|   ap_none  |         imag_arr8_4        |    pointer   |
|real_arr8_1         |  in |   32|   ap_none  |         real_arr8_1        |    pointer   |
|real_arr8_3         |  in |   32|   ap_none  |         real_arr8_3        |    pointer   |
|real_arr8_5         |  in |   32|   ap_none  |         real_arr8_5        |    pointer   |
|real_arr8_0         |  in |   32|   ap_none  |         real_arr8_0        |    pointer   |
|real_arr8_2         |  in |   32|   ap_none  |         real_arr8_2        |    pointer   |
|real_arr8_4         |  in |   32|   ap_none  |         real_arr8_4        |    pointer   |
|imag_arr4_0         | out |   32|   ap_vld   |         imag_arr4_0        |    pointer   |
|imag_arr4_0_ap_vld  | out |    1|   ap_vld   |         imag_arr4_0        |    pointer   |
|real_arr4_0         | out |   32|   ap_vld   |         real_arr4_0        |    pointer   |
|real_arr4_0_ap_vld  | out |    1|   ap_vld   |         real_arr4_0        |    pointer   |
|real_arr4_1         | out |   32|   ap_vld   |         real_arr4_1        |    pointer   |
|real_arr4_1_ap_vld  | out |    1|   ap_vld   |         real_arr4_1        |    pointer   |
|real_arr4_2         | out |   32|   ap_vld   |         real_arr4_2        |    pointer   |
|real_arr4_2_ap_vld  | out |    1|   ap_vld   |         real_arr4_2        |    pointer   |
|real_arr4_3         | out |   32|   ap_vld   |         real_arr4_3        |    pointer   |
|real_arr4_3_ap_vld  | out |    1|   ap_vld   |         real_arr4_3        |    pointer   |
|imag_arr4_1         | out |   32|   ap_vld   |         imag_arr4_1        |    pointer   |
|imag_arr4_1_ap_vld  | out |    1|   ap_vld   |         imag_arr4_1        |    pointer   |
|imag_arr4_2         | out |   32|   ap_vld   |         imag_arr4_2        |    pointer   |
|imag_arr4_2_ap_vld  | out |    1|   ap_vld   |         imag_arr4_2        |    pointer   |
|imag_arr4_3         | out |   32|   ap_vld   |         imag_arr4_3        |    pointer   |
|imag_arr4_3_ap_vld  | out |    1|   ap_vld   |         imag_arr4_3        |    pointer   |
+--------------------+-----+-----+------------+----------------------------+--------------+

