

================================================================
== Vivado HLS Report for 'dft_loop_flow2'
================================================================
* Date:           Wed Nov 02 20:48:01 2016

* Version:        2015.4 (Build 1412921 on Wed Nov 18 09:58:55 AM 2015)
* Project:        dft
* Solution:       dft_best5
* Product family: zynq
* Target device:  xc7z020clg484-1


================================================================
== Performance Estimates
================================================================
+ Timing (ns): 
    * Summary: 
    +--------+-------+----------+------------+
    |  Clock | Target| Estimated| Uncertainty|
    +--------+-------+----------+------------+
    |ap_clk  |  10.00|      7.26|        1.25|
    +--------+-------+----------+------------+

+ Latency (clock cycles): 
    * Summary: 
    +-----+-----+-----+-----+----------+
    |  Latency  |  Interval | Pipeline |
    | min | max | min | max |   Type   |
    +-----+-----+-----+-----+----------+
    |    4|    4|    1|    1| function |
    +-----+-----+-----+-----+----------+

    + Detail: 
        * Instance: 
        N/A

        * Loop: 
        N/A



================================================================
== Utilization Estimates
================================================================
* Summary: 
+-----------------+---------+-------+--------+-------+
|       Name      | BRAM_18K| DSP48E|   FF   |  LUT  |
+-----------------+---------+-------+--------+-------+
|DSP              |        -|      -|       -|      -|
|Expression       |        -|      -|       -|      -|
|FIFO             |        -|      -|       -|      -|
|Instance         |        -|      8|     820|   1560|
|Memory           |        -|      -|       -|      -|
|Multiplexer      |        -|      -|       -|      -|
|Register         |        -|      -|       5|      -|
+-----------------+---------+-------+--------+-------+
|Total            |        0|      8|     825|   1560|
+-----------------+---------+-------+--------+-------+
|Available        |      280|    220|  106400|  53200|
+-----------------+---------+-------+--------+-------+
|Utilization (%)  |        0|      3|   ~0   |      2|
+-----------------+---------+-------+--------+-------+

+ Detail: 
    * Instance: 
    +---------------------------------------+----------------------------------+---------+-------+-----+-----+
    |                Instance               |              Module              | BRAM_18K| DSP48E|  FF | LUT |
    +---------------------------------------+----------------------------------+---------+-------+-----+-----+
    |dft_fadd_32ns_32ns_32_5_full_dsp_U532  |dft_fadd_32ns_32ns_32_5_full_dsp  |        0|      2|  205|  390|
    |dft_fadd_32ns_32ns_32_5_full_dsp_U533  |dft_fadd_32ns_32ns_32_5_full_dsp  |        0|      2|  205|  390|
    |dft_fadd_32ns_32ns_32_5_full_dsp_U534  |dft_fadd_32ns_32ns_32_5_full_dsp  |        0|      2|  205|  390|
    |dft_fadd_32ns_32ns_32_5_full_dsp_U535  |dft_fadd_32ns_32ns_32_5_full_dsp  |        0|      2|  205|  390|
    +---------------------------------------+----------------------------------+---------+-------+-----+-----+
    |Total                                  |                                  |        0|      8|  820| 1560|
    +---------------------------------------+----------------------------------+---------+-------+-----+-----+

    * DSP48: 
    N/A

    * Memory: 
    N/A

    * FIFO: 
    N/A

    * Expression: 
    N/A

    * Multiplexer: 
    N/A

    * Register: 
    +-----------------------+---+----+-----+-----------+
    |          Name         | FF| LUT| Bits| Const Bits|
    +-----------------------+---+----+-----+-----------+
    |ap_CS_fsm              |  1|   0|    1|          0|
    |ap_reg_ppiten_pp0_it1  |  1|   0|    1|          0|
    |ap_reg_ppiten_pp0_it2  |  1|   0|    1|          0|
    |ap_reg_ppiten_pp0_it3  |  1|   0|    1|          0|
    |ap_reg_ppiten_pp0_it4  |  1|   0|    1|          0|
    +-----------------------+---+----+-----+-----------+
    |Total                  |  5|   0|    5|          0|
    +-----------------------+---+----+-----+-----------+



================================================================
== Interface
================================================================
* Summary: 
+--------------------+-----+-----+------------+----------------+--------------+
|      RTL Ports     | Dir | Bits|  Protocol  |  Source Object |    C Type    |
+--------------------+-----+-----+------------+----------------+--------------+
|ap_clk              |  in |    1| ap_ctrl_hs | dft_loop_flow2 | return value |
|ap_rst              |  in |    1| ap_ctrl_hs | dft_loop_flow2 | return value |
|ap_start            |  in |    1| ap_ctrl_hs | dft_loop_flow2 | return value |
|ap_done             | out |    1| ap_ctrl_hs | dft_loop_flow2 | return value |
|ap_idle             | out |    1| ap_ctrl_hs | dft_loop_flow2 | return value |
|ap_ready            | out |    1| ap_ctrl_hs | dft_loop_flow2 | return value |
|ap_ce               |  in |    1| ap_ctrl_hs | dft_loop_flow2 | return value |
|real_arr4_0         |  in |   32|   ap_none  |   real_arr4_0  |    pointer   |
|real_arr4_1         |  in |   32|   ap_none  |   real_arr4_1  |    pointer   |
|real_arr2_0         | out |   32|   ap_vld   |   real_arr2_0  |    pointer   |
|real_arr2_0_ap_vld  | out |    1|   ap_vld   |   real_arr2_0  |    pointer   |
|imag_arr4_0         |  in |   32|   ap_none  |   imag_arr4_0  |    pointer   |
|imag_arr4_1         |  in |   32|   ap_none  |   imag_arr4_1  |    pointer   |
|imag_arr2_0         | out |   32|   ap_vld   |   imag_arr2_0  |    pointer   |
|imag_arr2_0_ap_vld  | out |    1|   ap_vld   |   imag_arr2_0  |    pointer   |
|real_arr4_2         |  in |   32|   ap_none  |   real_arr4_2  |    pointer   |
|real_arr4_3         |  in |   32|   ap_none  |   real_arr4_3  |    pointer   |
|real_arr2_1         | out |   32|   ap_vld   |   real_arr2_1  |    pointer   |
|real_arr2_1_ap_vld  | out |    1|   ap_vld   |   real_arr2_1  |    pointer   |
|imag_arr4_2         |  in |   32|   ap_none  |   imag_arr4_2  |    pointer   |
|imag_arr4_3         |  in |   32|   ap_none  |   imag_arr4_3  |    pointer   |
|imag_arr2_1         | out |   32|   ap_vld   |   imag_arr2_1  |    pointer   |
|imag_arr2_1_ap_vld  | out |    1|   ap_vld   |   imag_arr2_1  |    pointer   |
+--------------------+-----+-----+------------+----------------+--------------+

