

================================================================
== Vivado HLS Report for 'dft_loop_flow32'
================================================================
* Date:           Tue Nov 01 18:57:44 2016

* Version:        2015.4 (Build 1412921 on Wed Nov 18 09:58:55 AM 2015)
* Project:        dft
* Solution:       dft_best
* Product family: zynq
* Target device:  xc7z020clg484-1


================================================================
== Performance Estimates
================================================================
+ Timing (ns): 
    * Summary: 
    +--------+-------+----------+------------+
    |  Clock | Target| Estimated| Uncertainty|
    +--------+-------+----------+------------+
    |ap_clk  |  10.00|      7.26|        1.25|
    +--------+-------+----------+------------+

+ Latency (clock cycles): 
    * Summary: 
    +-----+-----+-----+-----+---------+
    |  Latency  |  Interval | Pipeline|
    | min | max | min | max |   Type  |
    +-----+-----+-----+-----+---------+
    |   18|   18|   18|   18|   none  |
    +-----+-----+-----+-----+---------+

    + Detail: 
        * Instance: 
        N/A

        * Loop: 
        +----------+-----+-----+----------+-----------+-----------+------+----------+
        |          |  Latency  | Iteration|  Initiation Interval  | Trip |          |
        | Loop Name| min | max |  Latency |  achieved |   target  | Count| Pipelined|
        +----------+-----+-----+----------+-----------+-----------+------+----------+
        |- Loop 1  |   16|   16|         8|          1|          1|     9|    yes   |
        +----------+-----+-----+----------+-----------+-----------+------+----------+



================================================================
== Utilization Estimates
================================================================
* Summary: 
+-----------------+---------+-------+--------+-------+
|       Name      | BRAM_18K| DSP48E|   FF   |  LUT  |
+-----------------+---------+-------+--------+-------+
|DSP              |        -|      -|       -|      -|
|Expression       |        -|      -|       0|     41|
|FIFO             |        -|      -|       -|      -|
|Instance         |        -|     16|    1640|   3120|
|Memory           |        -|      -|       -|      -|
|Multiplexer      |        -|      -|       -|     21|
|Register         |        -|      -|     806|      9|
+-----------------+---------+-------+--------+-------+
|Total            |        0|     16|    2446|   3191|
+-----------------+---------+-------+--------+-------+
|Available        |      280|    220|  106400|  53200|
+-----------------+---------+-------+--------+-------+
|Utilization (%)  |        0|      7|       2|      5|
+-----------------+---------+-------+--------+-------+

+ Detail: 
    * Instance: 
    +---------------------------------------+----------------------------------+---------+-------+-----+-----+
    |                Instance               |              Module              | BRAM_18K| DSP48E|  FF | LUT |
    +---------------------------------------+----------------------------------+---------+-------+-----+-----+
    |dft_fadd_32ns_32ns_32_5_full_dsp_U217  |dft_fadd_32ns_32ns_32_5_full_dsp  |        0|      2|  205|  390|
    |dft_fadd_32ns_32ns_32_5_full_dsp_U218  |dft_fadd_32ns_32ns_32_5_full_dsp  |        0|      2|  205|  390|
    |dft_fadd_32ns_32ns_32_5_full_dsp_U219  |dft_fadd_32ns_32ns_32_5_full_dsp  |        0|      2|  205|  390|
    |dft_fadd_32ns_32ns_32_5_full_dsp_U220  |dft_fadd_32ns_32ns_32_5_full_dsp  |        0|      2|  205|  390|
    |dft_fadd_32ns_32ns_32_5_full_dsp_U221  |dft_fadd_32ns_32ns_32_5_full_dsp  |        0|      2|  205|  390|
    |dft_fadd_32ns_32ns_32_5_full_dsp_U222  |dft_fadd_32ns_32ns_32_5_full_dsp  |        0|      2|  205|  390|
    |dft_fadd_32ns_32ns_32_5_full_dsp_U223  |dft_fadd_32ns_32ns_32_5_full_dsp  |        0|      2|  205|  390|
    |dft_fadd_32ns_32ns_32_5_full_dsp_U224  |dft_fadd_32ns_32ns_32_5_full_dsp  |        0|      2|  205|  390|
    +---------------------------------------+----------------------------------+---------+-------+-----+-----+
    |Total                                  |                                  |        0|     16| 1640| 3120|
    +---------------------------------------+----------------------------------+---------+-------+-----+-----+

    * DSP48: 
    N/A

    * Memory: 
    N/A

    * FIFO: 
    N/A

    * Expression: 
    +----------------------+----------+-------+---+----+------------+------------+
    |     Variable Name    | Operation| DSP48E| FF| LUT| Bitwidth P0| Bitwidth P1|
    +----------------------+----------+-------+---+----+------------+------------+
    |i_V_3_fu_472_p2       |     +    |      0|  0|   9|           9|           3|
    |j_V_3_fu_478_p2       |     +    |      0|  0|   9|           9|           4|
    |exitcond_1_fu_448_p2  |   icmp   |      0|  0|   3|           9|           6|
    |exitcond_fu_404_p2    |   icmp   |      0|  0|   3|           9|           6|
    |i_V_s_fu_442_p2       |    or    |      0|  0|   9|           9|           1|
    |newIndex9_fu_454_p2   |    or    |      0|  0|   8|           7|           1|
    +----------------------+----------+-------+---+----+------------+------------+
    |Total                 |          |      0|  0|  41|          52|          21|
    +----------------------+----------+-------+---+----+------------+------------+

    * Multiplexer: 
    +-----------------------+----+-----------+-----+-----------+
    |          Name         | LUT| Input Size| Bits| Total Bits|
    +-----------------------+----+-----------+-----+-----------+
    |ap_NS_fsm              |   1|          4|    1|          4|
    |ap_reg_ppiten_pp0_it1  |   1|          2|    1|          2|
    |ap_reg_ppiten_pp0_it7  |   1|          2|    1|          2|
    |p_4_reg_361            |   9|          2|    9|         18|
    |p_s_reg_350            |   9|          2|    9|         18|
    +-----------------------+----+-----------+-----+-----------+
    |Total                  |  21|         12|   21|         44|
    +-----------------------+----+-----------+-----+-----------+

    * Register: 
    +-----------------------------+----+----+-----+-----------+
    |             Name            | FF | LUT| Bits| Const Bits|
    +-----------------------------+----+----+-----+-----------+
    |ap_CS_fsm                    |   3|   0|    3|          0|
    |ap_reg_ppiten_pp0_it0        |   1|   0|    1|          0|
    |ap_reg_ppiten_pp0_it1        |   1|   0|    1|          0|
    |ap_reg_ppiten_pp0_it2        |   1|   0|    1|          0|
    |ap_reg_ppiten_pp0_it3        |   1|   0|    1|          0|
    |ap_reg_ppiten_pp0_it4        |   1|   0|    1|          0|
    |ap_reg_ppiten_pp0_it5        |   1|   0|    1|          0|
    |ap_reg_ppiten_pp0_it6        |   1|   0|    1|          0|
    |ap_reg_ppiten_pp0_it7        |   1|   0|    1|          0|
    |exitcond_1_reg_524           |   1|   0|    1|          0|
    |exitcond_reg_495             |   1|   0|    1|          0|
    |imag_arr64_0_load_1_reg_648  |  32|   0|   32|          0|
    |imag_arr64_0_load_reg_608    |  32|   0|   32|          0|
    |imag_arr64_1_load_1_reg_653  |  32|   0|   32|          0|
    |imag_arr64_1_load_reg_613    |  32|   0|   32|          0|
    |imag_arr64_2_load_1_reg_668  |  32|   0|   32|          0|
    |imag_arr64_2_load_reg_628    |  32|   0|   32|          0|
    |imag_arr64_3_load_1_reg_673  |  32|   0|   32|          0|
    |imag_arr64_3_load_reg_633    |  32|   0|   32|          0|
    |newIndex7_reg_509            |   7|   0|    7|          0|
    |p_4_reg_361                  |   9|   0|    9|          0|
    |p_s_reg_350                  |   9|   0|    9|          0|
    |real_arr64_0_load_1_reg_638  |  32|   0|   32|          0|
    |real_arr64_0_load_reg_598    |  32|   0|   32|          0|
    |real_arr64_1_load_1_reg_643  |  32|   0|   32|          0|
    |real_arr64_1_load_reg_603    |  32|   0|   32|          0|
    |real_arr64_2_load_1_reg_658  |  32|   0|   32|          0|
    |real_arr64_2_load_reg_618    |  32|   0|   32|          0|
    |real_arr64_3_load_1_reg_663  |  32|   0|   32|          0|
    |real_arr64_3_load_reg_623    |  32|   0|   32|          0|
    |tmp_7_1_reg_688              |  32|   0|   32|          0|
    |tmp_7_2_reg_698              |  32|   0|   32|          0|
    |tmp_7_3_reg_708              |  32|   0|   32|          0|
    |tmp_7_reg_678                |  32|   0|   32|          0|
    |tmp_9_1_reg_693              |  32|   0|   32|          0|
    |tmp_9_2_reg_703              |  32|   0|   32|          0|
    |tmp_9_3_reg_713              |  32|   0|   32|          0|
    |tmp_9_reg_683                |  32|   0|   32|          0|
    |exitcond_1_reg_524           |   0|   1|    1|          0|
    |exitcond_reg_495             |   0|   1|    1|          0|
    |newIndex7_reg_509            |   0|   7|    7|          0|
    +-----------------------------+----+----+-----+-----------+
    |Total                        | 806|   9|  815|          0|
    +-----------------------------+----+----+-----+-----------+



================================================================
== Interface
================================================================
* Summary: 
+-----------------------+-----+-----+------------+-----------------+--------------+
|       RTL Ports       | Dir | Bits|  Protocol  |  Source Object  |    C Type    |
+-----------------------+-----+-----+------------+-----------------+--------------+
|ap_clk                 |  in |    1| ap_ctrl_hs | dft_loop_flow32 | return value |
|ap_rst                 |  in |    1| ap_ctrl_hs | dft_loop_flow32 | return value |
|ap_start               |  in |    1| ap_ctrl_hs | dft_loop_flow32 | return value |
|ap_done                | out |    1| ap_ctrl_hs | dft_loop_flow32 | return value |
|ap_idle                | out |    1| ap_ctrl_hs | dft_loop_flow32 | return value |
|ap_ready               | out |    1| ap_ctrl_hs | dft_loop_flow32 | return value |
|real_arr64_0_address0  | out |    4|  ap_memory |   real_arr64_0  |     array    |
|real_arr64_0_ce0       | out |    1|  ap_memory |   real_arr64_0  |     array    |
|real_arr64_0_q0        |  in |   32|  ap_memory |   real_arr64_0  |     array    |
|real_arr64_0_address1  | out |    4|  ap_memory |   real_arr64_0  |     array    |
|real_arr64_0_ce1       | out |    1|  ap_memory |   real_arr64_0  |     array    |
|real_arr64_0_q1        |  in |   32|  ap_memory |   real_arr64_0  |     array    |
|real_arr64_1_address0  | out |    4|  ap_memory |   real_arr64_1  |     array    |
|real_arr64_1_ce0       | out |    1|  ap_memory |   real_arr64_1  |     array    |
|real_arr64_1_q0        |  in |   32|  ap_memory |   real_arr64_1  |     array    |
|real_arr64_1_address1  | out |    4|  ap_memory |   real_arr64_1  |     array    |
|real_arr64_1_ce1       | out |    1|  ap_memory |   real_arr64_1  |     array    |
|real_arr64_1_q1        |  in |   32|  ap_memory |   real_arr64_1  |     array    |
|real_arr32_0_address0  | out |    3|  ap_memory |   real_arr32_0  |     array    |
|real_arr32_0_ce0       | out |    1|  ap_memory |   real_arr32_0  |     array    |
|real_arr32_0_we0       | out |    1|  ap_memory |   real_arr32_0  |     array    |
|real_arr32_0_d0        | out |   32|  ap_memory |   real_arr32_0  |     array    |
|imag_arr64_0_address0  | out |    4|  ap_memory |   imag_arr64_0  |     array    |
|imag_arr64_0_ce0       | out |    1|  ap_memory |   imag_arr64_0  |     array    |
|imag_arr64_0_q0        |  in |   32|  ap_memory |   imag_arr64_0  |     array    |
|imag_arr64_0_address1  | out |    4|  ap_memory |   imag_arr64_0  |     array    |
|imag_arr64_0_ce1       | out |    1|  ap_memory |   imag_arr64_0  |     array    |
|imag_arr64_0_q1        |  in |   32|  ap_memory |   imag_arr64_0  |     array    |
|imag_arr64_1_address0  | out |    4|  ap_memory |   imag_arr64_1  |     array    |
|imag_arr64_1_ce0       | out |    1|  ap_memory |   imag_arr64_1  |     array    |
|imag_arr64_1_q0        |  in |   32|  ap_memory |   imag_arr64_1  |     array    |
|imag_arr64_1_address1  | out |    4|  ap_memory |   imag_arr64_1  |     array    |
|imag_arr64_1_ce1       | out |    1|  ap_memory |   imag_arr64_1  |     array    |
|imag_arr64_1_q1        |  in |   32|  ap_memory |   imag_arr64_1  |     array    |
|imag_arr32_0_address0  | out |    3|  ap_memory |   imag_arr32_0  |     array    |
|imag_arr32_0_ce0       | out |    1|  ap_memory |   imag_arr32_0  |     array    |
|imag_arr32_0_we0       | out |    1|  ap_memory |   imag_arr32_0  |     array    |
|imag_arr32_0_d0        | out |   32|  ap_memory |   imag_arr32_0  |     array    |
|real_arr64_2_address0  | out |    4|  ap_memory |   real_arr64_2  |     array    |
|real_arr64_2_ce0       | out |    1|  ap_memory |   real_arr64_2  |     array    |
|real_arr64_2_q0        |  in |   32|  ap_memory |   real_arr64_2  |     array    |
|real_arr64_2_address1  | out |    4|  ap_memory |   real_arr64_2  |     array    |
|real_arr64_2_ce1       | out |    1|  ap_memory |   real_arr64_2  |     array    |
|real_arr64_2_q1        |  in |   32|  ap_memory |   real_arr64_2  |     array    |
|real_arr64_3_address0  | out |    4|  ap_memory |   real_arr64_3  |     array    |
|real_arr64_3_ce0       | out |    1|  ap_memory |   real_arr64_3  |     array    |
|real_arr64_3_q0        |  in |   32|  ap_memory |   real_arr64_3  |     array    |
|real_arr64_3_address1  | out |    4|  ap_memory |   real_arr64_3  |     array    |
|real_arr64_3_ce1       | out |    1|  ap_memory |   real_arr64_3  |     array    |
|real_arr64_3_q1        |  in |   32|  ap_memory |   real_arr64_3  |     array    |
|real_arr32_1_address0  | out |    3|  ap_memory |   real_arr32_1  |     array    |
|real_arr32_1_ce0       | out |    1|  ap_memory |   real_arr32_1  |     array    |
|real_arr32_1_we0       | out |    1|  ap_memory |   real_arr32_1  |     array    |
|real_arr32_1_d0        | out |   32|  ap_memory |   real_arr32_1  |     array    |
|imag_arr64_2_address0  | out |    4|  ap_memory |   imag_arr64_2  |     array    |
|imag_arr64_2_ce0       | out |    1|  ap_memory |   imag_arr64_2  |     array    |
|imag_arr64_2_q0        |  in |   32|  ap_memory |   imag_arr64_2  |     array    |
|imag_arr64_2_address1  | out |    4|  ap_memory |   imag_arr64_2  |     array    |
|imag_arr64_2_ce1       | out |    1|  ap_memory |   imag_arr64_2  |     array    |
|imag_arr64_2_q1        |  in |   32|  ap_memory |   imag_arr64_2  |     array    |
|imag_arr64_3_address0  | out |    4|  ap_memory |   imag_arr64_3  |     array    |
|imag_arr64_3_ce0       | out |    1|  ap_memory |   imag_arr64_3  |     array    |
|imag_arr64_3_q0        |  in |   32|  ap_memory |   imag_arr64_3  |     array    |
|imag_arr64_3_address1  | out |    4|  ap_memory |   imag_arr64_3  |     array    |
|imag_arr64_3_ce1       | out |    1|  ap_memory |   imag_arr64_3  |     array    |
|imag_arr64_3_q1        |  in |   32|  ap_memory |   imag_arr64_3  |     array    |
|imag_arr32_1_address0  | out |    3|  ap_memory |   imag_arr32_1  |     array    |
|imag_arr32_1_ce0       | out |    1|  ap_memory |   imag_arr32_1  |     array    |
|imag_arr32_1_we0       | out |    1|  ap_memory |   imag_arr32_1  |     array    |
|imag_arr32_1_d0        | out |   32|  ap_memory |   imag_arr32_1  |     array    |
|real_arr32_2_address0  | out |    3|  ap_memory |   real_arr32_2  |     array    |
|real_arr32_2_ce0       | out |    1|  ap_memory |   real_arr32_2  |     array    |
|real_arr32_2_we0       | out |    1|  ap_memory |   real_arr32_2  |     array    |
|real_arr32_2_d0        | out |   32|  ap_memory |   real_arr32_2  |     array    |
|imag_arr32_2_address0  | out |    3|  ap_memory |   imag_arr32_2  |     array    |
|imag_arr32_2_ce0       | out |    1|  ap_memory |   imag_arr32_2  |     array    |
|imag_arr32_2_we0       | out |    1|  ap_memory |   imag_arr32_2  |     array    |
|imag_arr32_2_d0        | out |   32|  ap_memory |   imag_arr32_2  |     array    |
|real_arr32_3_address0  | out |    3|  ap_memory |   real_arr32_3  |     array    |
|real_arr32_3_ce0       | out |    1|  ap_memory |   real_arr32_3  |     array    |
|real_arr32_3_we0       | out |    1|  ap_memory |   real_arr32_3  |     array    |
|real_arr32_3_d0        | out |   32|  ap_memory |   real_arr32_3  |     array    |
|imag_arr32_3_address0  | out |    3|  ap_memory |   imag_arr32_3  |     array    |
|imag_arr32_3_ce0       | out |    1|  ap_memory |   imag_arr32_3  |     array    |
|imag_arr32_3_we0       | out |    1|  ap_memory |   imag_arr32_3  |     array    |
|imag_arr32_3_d0        | out |   32|  ap_memory |   imag_arr32_3  |     array    |
+-----------------------+-----+-----+------------+-----------------+--------------+

