

================================================================
== Vivado HLS Report for 'dft'
================================================================
* Date:           Sat Oct 29 16:33:30 2016

* Version:        2015.4 (Build 1412921 on Wed Nov 18 09:58:55 AM 2015)
* Project:        dft
* Solution:       baseline
* Product family: zynq
* Target device:  xc7z020clg484-1


================================================================
== Performance Estimates
================================================================
+ Timing (ns): 
    * Summary: 
    +--------+-------+----------+------------+
    |  Clock | Target| Estimated| Uncertainty|
    +--------+-------+----------+------------+
    |ap_clk  |  10.00|      8.69|        1.25|
    +--------+-------+----------+------------+

+ Latency (clock cycles): 
    * Summary: 
    +----------+----------+----------+----------+---------+
    |       Latency       |       Interval      | Pipeline|
    |    min   |    max   |    min   |    max   |   Type  |
    +----------+----------+----------+----------+---------+
    |  17635074|  56170242|  17635075|  56170243|   none  |
    +----------+----------+----------+----------+---------+

    + Detail: 
        * Instance: 
        +-------------------------------------------+--------------------------------+-----+-----+-----+-----+---------+
        |                                           |                                |  Latency  |  Interval | Pipeline|
        |                  Instance                 |             Module             | min | max | min | max |   Type  |
        +-------------------------------------------+--------------------------------+-----+-----+-----+-----+---------+
        |grp_dft_sin_cos_range_redux_cordic_fu_185  |dft_sin_cos_range_redux_cordic  |  240|  828|  240|  828|   none  |
        +-------------------------------------------+--------------------------------+-----+-----+-----+-----+---------+

        * Loop: 
        +-------------+----------+----------+----------------+-----------+-----------+------+----------+
        |             |       Latency       |    Iteration   |  Initiation Interval  | Trip |          |
        |  Loop Name  |    min   |    max   |     Latency    |  achieved |   target  | Count| Pipelined|
        +-------------+----------+----------+----------------+-----------+-----------+------+----------+
        |- Loop 1     |  17634560|  56169728| 68885 ~ 219413 |          -|          -|   256|    no    |
        | + Loop 1.1  |     68864|    219392|    269 ~ 857   |          -|          -|   256|    no    |
        |- Loop 2     |       512|       512|               2|          -|          -|   256|    no    |
        +-------------+----------+----------+----------------+-----------+-----------+------+----------+



================================================================
== Utilization Estimates
================================================================
* Summary: 
+-----------------+---------+-------+--------+-------+
|       Name      | BRAM_18K| DSP48E|   FF   |  LUT  |
+-----------------+---------+-------+--------+-------+
|DSP              |        -|      -|       -|      -|
|Expression       |        -|      -|       0|    128|
|FIFO             |        -|      -|       -|      -|
|Instance         |        5|     31|    5707|  19741|
|Memory           |        2|      -|       0|      0|
|Multiplexer      |        -|      -|       -|    733|
|Register         |        -|      -|     772|      -|
+-----------------+---------+-------+--------+-------+
|Total            |        7|     31|    6479|  20602|
+-----------------+---------+-------+--------+-------+
|Available        |      280|    220|  106400|  53200|
+-----------------+---------+-------+--------+-------+
|Utilization (%)  |        2|     14|       6|     38|
+-----------------+---------+-------+--------+-------+

+ Detail: 
    * Instance: 
    +-------------------------------------------+--------------------------------------+---------+-------+------+-------+
    |                  Instance                 |                Module                | BRAM_18K| DSP48E|  FF  |  LUT  |
    +-------------------------------------------+--------------------------------------+---------+-------+------+-------+
    |dft_dmul_64ns_64ns_64_6_max_dsp_U18        |dft_dmul_64ns_64ns_64_6_max_dsp       |        0|     11|   317|    578|
    |dft_fadd_32ns_32ns_32_5_full_dsp_U9        |dft_fadd_32ns_32ns_32_5_full_dsp      |        0|      2|   205|    390|
    |dft_faddfsub_32ns_32ns_32_5_full_dsp_U8    |dft_faddfsub_32ns_32ns_32_5_full_dsp  |        0|      2|   205|    390|
    |dft_fmul_32ns_32ns_32_4_max_dsp_U10        |dft_fmul_32ns_32ns_32_4_max_dsp       |        0|      3|   143|    321|
    |dft_fmul_32ns_32ns_32_4_max_dsp_U11        |dft_fmul_32ns_32ns_32_4_max_dsp       |        0|      3|   143|    321|
    |dft_fmul_32ns_32ns_32_4_max_dsp_U12        |dft_fmul_32ns_32ns_32_4_max_dsp       |        0|      3|   143|    321|
    |dft_fmul_32ns_32ns_32_4_max_dsp_U13        |dft_fmul_32ns_32ns_32_4_max_dsp       |        0|      3|   143|    321|
    |dft_fpext_32ns_64_1_U17                    |dft_fpext_32ns_64_1                   |        0|      0|   100|    138|
    |dft_fptrunc_64ns_32_1_U15                  |dft_fptrunc_64ns_32_1                 |        0|      0|   128|    277|
    |dft_fptrunc_64ns_32_1_U16                  |dft_fptrunc_64ns_32_1                 |        0|      0|   128|    277|
    |grp_dft_sin_cos_range_redux_cordic_fu_185  |dft_sin_cos_range_redux_cordic        |        5|      4|  3712|  15853|
    |dft_sitofp_32ns_32_6_U14                   |dft_sitofp_32ns_32_6                  |        0|      0|   340|    554|
    +-------------------------------------------+--------------------------------------+---------+-------+------+-------+
    |Total                                      |                                      |        5|     31|  5707|  19741|
    +-------------------------------------------+--------------------------------------+---------+-------+------+-------+

    * DSP48: 
    N/A

    * Memory: 
    +------------+--------------+---------+---+----+------+-----+------+-------------+
    |   Memory   |    Module    | BRAM_18K| FF| LUT| Words| Bits| Banks| W*Bits*Banks|
    +------------+--------------+---------+---+----+------+-----+------+-------------+
    |tmp_real_U  |dft_tmp_real  |        1|  0|   0|   256|   32|     1|         8192|
    |tmp_imag_U  |dft_tmp_real  |        1|  0|   0|   256|   32|     1|         8192|
    +------------+--------------+---------+---+----+------+-----+------+-------------+
    |Total       |              |        2|  0|   0|   512|   64|     2|        16384|
    +------------+--------------+---------+---+----+------+-----+------+-------------+

    * FIFO: 
    N/A

    * Expression: 
    +-----------------------+----------+-------+---+----+------------+------------+
    |     Variable Name     | Operation| DSP48E| FF| LUT| Bitwidth P0| Bitwidth P1|
    +-----------------------+----------+-------+---+----+------------+------------+
    |i_1_fu_354_p2          |     +    |      0|  0|   9|           9|           1|
    |i_2_fu_291_p2          |     +    |      0|  0|   9|           9|           1|
    |j_1_fu_314_p2          |     +    |      0|  0|   9|           9|           1|
    |exitcond1_fu_308_p2    |   icmp   |      0|  0|   4|           9|          10|
    |exitcond2_fu_285_p2    |   icmp   |      0|  0|   4|           9|          10|
    |exitcond_fu_348_p2     |   icmp   |      0|  0|   4|           9|          10|
    |tmp_108_neg_fu_331_p2  |    xor   |      0|  0|  89|          64|          65|
    +-----------------------+----------+-------+---+----+------------+------------+
    |Total                  |          |      0|  0| 128|         118|          98|
    +-----------------------+----------+-------+---+----+------------+------------+

    * Multiplexer: 
    +----------------------+----+-----------+-----+-----------+
    |         Name         | LUT| Input Size| Bits| Total Bits|
    +----------------------+----+-----------+-----+-----------+
    |ap_NS_fsm             |  96|         53|    1|         53|
    |grp_fu_194_opcode     |   2|          3|    2|          6|
    |grp_fu_194_p0         |  32|          3|   32|         96|
    |grp_fu_194_p1         |  32|          3|   32|         96|
    |grp_fu_198_p0         |  32|          3|   32|         96|
    |grp_fu_198_p1         |  32|          3|   32|         96|
    |grp_fu_204_p0         |  32|          3|   32|         96|
    |grp_fu_204_p1         |  32|          3|   32|         96|
    |grp_fu_224_p0         |  32|          3|   32|         96|
    |grp_fu_227_p0         |  64|          3|   64|        192|
    |grp_fu_233_p0         |  32|          3|   32|         96|
    |grp_fu_236_p0         |  64|          3|   64|        192|
    |grp_fu_236_p1         |  64|          3|   64|        192|
    |i1_reg_174            |   9|          2|    9|         18|
    |i_reg_126             |   9|          2|    9|         18|
    |j_reg_162             |   9|          2|    9|         18|
    |sample_imag_address0  |   8|          3|    8|         24|
    |sample_real_address0  |   8|          3|    8|         24|
    |tmp_17_reg_138        |  32|          2|   32|         64|
    |tmp_18_reg_150        |  32|          2|   32|         64|
    |tmp_imag_address0     |   8|          4|    8|         32|
    |tmp_imag_d0           |  32|          3|   32|         96|
    |tmp_real_address0     |   8|          4|    8|         32|
    |tmp_real_d0           |  32|          3|   32|         96|
    +----------------------+----+-----------+-----+-----------+
    |Total                 | 733|        119|  638|       1889|
    +----------------------+----+-----------+-----+-----------+

    * Register: 
    +-----------------------------------------------------------------+----+----+-----+-----------+
    |                               Name                              | FF | LUT| Bits| Const Bits|
    +-----------------------------------------------------------------+----+----+-----+-----------+
    |ap_CS_fsm                                                        |  52|   0|   52|          0|
    |c_out_reg_407                                                    |  64|   0|   64|          0|
    |c_reg_417                                                        |  32|   0|   32|          0|
    |grp_dft_sin_cos_range_redux_cordic_fu_185_ap_start_ap_start_reg  |   1|   0|    1|          0|
    |i1_reg_174                                                       |   9|   0|    9|          0|
    |i_1_reg_469                                                      |   9|   0|    9|          0|
    |i_2_reg_374                                                      |   9|   0|    9|          0|
    |i_reg_126                                                        |   9|   0|    9|          0|
    |j_1_reg_402                                                      |   9|   0|    9|          0|
    |j_reg_162                                                        |   9|   0|    9|          0|
    |reg_242                                                          |  32|   0|   32|          0|
    |reg_248                                                          |  64|   0|   64|          0|
    |reg_254                                                          |  64|   0|   64|          0|
    |reg_260                                                          |  32|   0|   32|          0|
    |reg_266                                                          |  32|   0|   32|          0|
    |reg_273                                                          |  32|   0|   32|          0|
    |s_out_reg_412                                                    |  64|   0|   64|          0|
    |s_reg_423                                                        |  32|   0|   32|          0|
    |tmp_17_reg_138                                                   |  32|   0|   32|          0|
    |tmp_18_reg_150                                                   |  32|   0|   32|          0|
    |tmp_19_reg_474                                                   |   9|   0|   64|         55|
    |tmp_25_reg_451                                                   |  32|   0|   32|          0|
    |tmp_28_reg_456                                                   |  32|   0|   32|          0|
    |tmp_29_reg_461                                                   |  32|   0|   32|          0|
    |tmp_imag_addr_reg_384                                            |   8|   0|    8|          0|
    |tmp_real_addr_reg_379                                            |   8|   0|    8|          0|
    |w_reg_389                                                        |  32|   0|   32|          0|
    +-----------------------------------------------------------------+----+----+-----+-----------+
    |Total                                                            | 772|   0|  827|         55|
    +-----------------------------------------------------------------+----+----+-----+-----------+



================================================================
== Interface
================================================================
* Summary: 
+----------------------+-----+-----+------------+--------------+--------------+
|       RTL Ports      | Dir | Bits|  Protocol  | Source Object|    C Type    |
+----------------------+-----+-----+------------+--------------+--------------+
|ap_clk                |  in |    1| ap_ctrl_hs |      dft     | return value |
|ap_rst                |  in |    1| ap_ctrl_hs |      dft     | return value |
|ap_start              |  in |    1| ap_ctrl_hs |      dft     | return value |
|ap_done               | out |    1| ap_ctrl_hs |      dft     | return value |
|ap_idle               | out |    1| ap_ctrl_hs |      dft     | return value |
|ap_ready              | out |    1| ap_ctrl_hs |      dft     | return value |
|sample_real_address0  | out |    8|  ap_memory |  sample_real |     array    |
|sample_real_ce0       | out |    1|  ap_memory |  sample_real |     array    |
|sample_real_we0       | out |    1|  ap_memory |  sample_real |     array    |
|sample_real_d0        | out |   32|  ap_memory |  sample_real |     array    |
|sample_real_q0        |  in |   32|  ap_memory |  sample_real |     array    |
|sample_imag_address0  | out |    8|  ap_memory |  sample_imag |     array    |
|sample_imag_ce0       | out |    1|  ap_memory |  sample_imag |     array    |
|sample_imag_we0       | out |    1|  ap_memory |  sample_imag |     array    |
|sample_imag_d0        | out |   32|  ap_memory |  sample_imag |     array    |
|sample_imag_q0        |  in |   32|  ap_memory |  sample_imag |     array    |
+----------------------+-----+-----+------------+--------------+--------------+

