

================================================================
== Vivado HLS Report for 'dft_big_mult_v3small_125_53_17_s'
================================================================
* Date:           Sat Oct 29 16:33:17 2016

* Version:        2015.4 (Build 1412921 on Wed Nov 18 09:58:55 AM 2015)
* Project:        dft
* Solution:       baseline
* Product family: zynq
* Target device:  xc7z020clg484-1


================================================================
== Performance Estimates
================================================================
+ Timing (ns): 
    * Summary: 
    +--------+-------+----------+------------+
    |  Clock | Target| Estimated| Uncertainty|
    +--------+-------+----------+------------+
    |ap_clk  |  10.00|      8.42|        1.25|
    +--------+-------+----------+------------+

+ Latency (clock cycles): 
    * Summary: 
    +-----+-----+-----+-----+---------+
    |  Latency  |  Interval | Pipeline|
    | min | max | min | max |   Type  |
    +-----+-----+-----+-----+---------+
    |   46|   46|   46|   46|   none  |
    +-----+-----+-----+-----+---------+

    + Detail: 
        * Instance: 
        N/A

        * Loop: 
        +----------+-----+-----+----------+-----------+-----------+------+----------+
        |          |  Latency  | Iteration|  Initiation Interval  | Trip |          |
        | Loop Name| min | max |  Latency |  achieved |   target  | Count| Pipelined|
        +----------+-----+-----+----------+-----------+-----------+------+----------+
        |- Loop 1  |    7|    7|         1|          -|          -|     8|    no    |
        |- Loop 2  |   14|   14|         2|          -|          -|     7|    no    |
        |- Loop 3  |   21|   21|         3|          -|          -|     7|    no    |
        +----------+-----+-----+----------+-----------+-----------+------+----------+



================================================================
== Utilization Estimates
================================================================
* Summary: 
+-----------------+---------+-------+--------+-------+
|       Name      | BRAM_18K| DSP48E|   FF   |  LUT  |
+-----------------+---------+-------+--------+-------+
|DSP              |        -|      -|       -|      -|
|Expression       |        -|      -|       0|   3355|
|FIFO             |        -|      -|       -|      -|
|Instance         |        -|      -|       -|      -|
|Memory           |        0|      -|     210|     18|
|Multiplexer      |        -|      -|       -|    266|
|Register         |        -|      -|     426|      -|
+-----------------+---------+-------+--------+-------+
|Total            |        0|      0|     636|   3639|
+-----------------+---------+-------+--------+-------+
|Available        |      280|    220|  106400|  53200|
+-----------------+---------+-------+--------+-------+
|Utilization (%)  |        0|      0|   ~0   |      6|
+-----------------+---------+-------+--------+-------+

+ Detail: 
    * Instance: 
    N/A

    * DSP48: 
    N/A

    * Memory: 
    +---------+----------------------------------------+---------+-----+----+------+-----+------+-------------+
    |  Memory |                 Module                 | BRAM_18K|  FF | LUT| Words| Bits| Banks| W*Bits*Banks|
    +---------+----------------------------------------+---------+-----+----+------+-----+------+-------------+
    |pp_V_U   |dft_big_mult_v3small_125_53_17_s_pp_V   |        0|   70|   9|     8|   70|     1|          560|
    |pps_V_U  |dft_big_mult_v3small_125_53_17_s_pps_V  |        0|  140|   9|     8|   70|     1|          560|
    +---------+----------------------------------------+---------+-----+----+------+-----+------+-------------+
    |Total    |                                        |        0|  210|  18|    16|  140|     2|         1120|
    +---------+----------------------------------------+---------+-----+----+------+-----+------+-------------+

    * FIFO: 
    N/A

    * Expression: 
    +-----------------------+----------+-------+---+-----+------------+------------+
    |     Variable Name     | Operation| DSP48E| FF| LUT | Bitwidth P0| Bitwidth P1|
    +-----------------------+----------+-------+---+-----+------------+------------+
    |Ui_fu_250_p2           |     +    |      0|  0|    7|           5|           7|
    |i_3_fu_196_p2          |     +    |      0|  0|    4|           4|           1|
    |i_4_fu_168_p2          |     +    |      0|  0|    4|           4|           1|
    |tmp_21_fu_185_p2       |     +    |      0|  0|    4|           4|           2|
    |tmp_23_fu_216_p2       |     +    |      0|  0|   70|          70|          70|
    |tmp_25_fu_229_p2       |     +    |      0|  0|    3|           3|           1|
    |tmp_41_fu_274_p2       |     -    |      0|  0|    8|           8|           8|
    |tmp_45_fu_307_p2       |     -    |      0|  0|    8|           8|           8|
    |tmp_42_fu_280_p3       |  Select  |      0|  0|    8|           1|           8|
    |tmp_43_fu_288_p3       |  Select  |      0|  0|    8|           1|           8|
    |tmp_44_fu_296_p3       |  Select  |      0|  0|    8|           1|           8|
    |tmp_51_fu_338_p3       |  Select  |      0|  0|  178|           1|         178|
    |p_demorgan_fu_357_p2   |    and   |      0|  0|  267|         178|         178|
    |tmp_55_fu_369_p2       |    and   |      0|  0|  267|         178|         178|
    |tmp_56_fu_375_p2       |    and   |      0|  0|  267|         178|         178|
    |exitcond1_fu_162_p2    |   icmp   |      0|  0|    2|           4|           5|
    |exitcond2_fu_174_p2    |   icmp   |      0|  0|    2|           4|           5|
    |exitcond_fu_223_p2     |   icmp   |      0|  0|    2|           3|           2|
    |tmp_38_fu_260_p2       |   icmp   |      0|  0|    3|           7|           6|
    |tmp_53_fu_351_p2       |   lshr   |      0|  0|  567|           2|         178|
    |p_Result_12_fu_381_p2  |    or    |      0|  0|  267|         178|         178|
    |tmp_49_fu_322_p2       |    shl   |      0|  0|  567|         178|         178|
    |tmp_52_fu_345_p2       |    shl   |      0|  0|  567|           2|         178|
    |tmp_54_fu_363_p2       |    xor   |      0|  0|  267|         178|           2|
    +-----------------------+----------+-------+---+-----+------------+------------+
    |Total                  |          |      0|  0| 3355|        1200|        1566|
    +-----------------------+----------+-------+---+-----+------------+------------+

    * Multiplexer: 
    +----------------+-----+-----------+-----+-----------+
    |      Name      | LUT | Input Size| Bits| Total Bits|
    +----------------+-----+-----------+-----+-----------+
    |ap_NS_fsm       |    4|          9|    1|          9|
    |ap_return       |  178|          2|  178|        356|
    |i_1_reg_127     |    4|          2|    4|          8|
    |i_2_reg_150     |    3|          2|    3|          6|
    |i_reg_116       |    4|          2|    4|          8|
    |pps_V_address0  |    3|          6|    3|         18|
    |pps_V_d0        |   70|          3|   70|        210|
    +----------------+-----+-----------+-----+-----------+
    |Total           |  266|         26|  263|        615|
    +----------------+-----+-----------+-----+-----------+

    * Register: 
    +------------------+-----+----+-----+-----------+
    |       Name       |  FF | LUT| Bits| Const Bits|
    +------------------+-----+----+-----+-----------+
    |ap_CS_fsm         |    8|   0|    8|          0|
    |ap_return_preg    |  178|   0|  178|          0|
    |i_1_reg_127       |    4|   0|    4|          0|
    |i_2_reg_150       |    3|   0|    3|          0|
    |i_3_reg_429       |    4|   0|    4|          0|
    |i_reg_116         |    4|   0|    4|          0|
    |p_Val2_s_reg_138  |  178|   0|  178|          0|
    |tmp_20_reg_414    |    4|   0|   64|         60|
    |tmp_25_reg_437    |    3|   0|    3|          0|
    |tmp_37_reg_452    |   17|   0|   17|          0|
    |tmp_38_reg_457    |    1|   0|    1|          0|
    |tmp_42_reg_462    |    7|   0|    8|          1|
    |tmp_43_reg_467    |    7|   0|    8|          1|
    |tmp_44_reg_472    |    8|   0|    8|          0|
    +------------------+-----+----+-----+-----------+
    |Total             |  426|   0|  488|         62|
    +------------------+-----+----+-----+-----------+



================================================================
== Interface
================================================================
* Summary: 
+-----------+-----+-----+------------+-----------------------------------+--------------+
| RTL Ports | Dir | Bits|  Protocol  |           Source Object           |    C Type    |
+-----------+-----+-----+------------+-----------------------------------+--------------+
|ap_clk     |  in |    1| ap_ctrl_hs | dft_big_mult_v3small<125, 53, 17> | return value |
|ap_rst     |  in |    1| ap_ctrl_hs | dft_big_mult_v3small<125, 53, 17> | return value |
|ap_start   |  in |    1| ap_ctrl_hs | dft_big_mult_v3small<125, 53, 17> | return value |
|ap_done    | out |    1| ap_ctrl_hs | dft_big_mult_v3small<125, 53, 17> | return value |
|ap_idle    | out |    1| ap_ctrl_hs | dft_big_mult_v3small<125, 53, 17> | return value |
|ap_ready   | out |    1| ap_ctrl_hs | dft_big_mult_v3small<125, 53, 17> | return value |
|ap_return  | out |  178| ap_ctrl_hs | dft_big_mult_v3small<125, 53, 17> | return value |
+-----------+-----+-----+------------+-----------------------------------+--------------+

