; ModuleID = 'D:/Projects/vivado/project_3/dft_1024_precomputed/dft/solution1/.autopilot/db/a.g.1.bc'
target datalayout = "e-p:64:64:64-i1:8:8-i8:8:8-i16:16:16-i32:32:32-i64:64:64-f32:32:32-f64:64:64-v64:64:64-v128:128:128-a0:0:64-s0:64:64-f80:128:128-n8:16:32:64-S128"
target triple = "x86_64-w64-mingw32"

@sct = internal unnamed_addr constant [1024 x float] [float 0.000000e+00, float 0xBF79221000000000, float 0xBF89221000000000, float 0xBF92D948E0000000, float 0xBF992146A0000000, float 0xBF9F694460000000, float 0xBFA2D85E00000000, float 0xBFA5FBF840000000, float 0xBFA91F70E0000000, float 0xBFAC4284E0000000, float 0xBFAF657760000000, float 0xBFB1440280000000, float 0xBFB2D527E0000000, float 0xBFB4660A20000000, float 0xBFB5F6CAC0000000, float 0xBFB7875920000000, float 0xBFB917A460000000, float 0xBFBAA7BD40000000, float 0xBFBC378240000000, float 0xBFBDC71500000000, float 0xBFBF5653C0000000, float 0xBFC0729F60000000, float 0xBFC139F340000000, float 0xBFC20114E0000000, float 0xBFC2C80C80000000, float 0xBFC38EDA20000000, float 0xBFC4557580000000, float 0xBFC51BDE80000000, float 0xBFC5E21540000000, float 0xBFC6A81120000000, float 0xBFC76DDAC0000000, float 0xBFC83369C0000000, float 0xBFC8F8B580000000, float 0xBFC9BDCF00000000, float 0xBFCA829D00000000, float 0xBFCB473040000000, float 0xBFCC0B8060000000, float 0xBFCCCF8D80000000, float 0xBFCD934F00000000, float 0xBFCE56CD60000000, float 0xBFCF19F800000000, float 0xBFCFDCDF60000000, float 0xBFD04FB980000000, float 0xBFD0B0D960000000, float 0xBFD111D360000000, float 0xBFD1729F60000000, float 0xBFD1D34580000000, float 0xBFD233BDA0000000, float 0xBFD2940780000000, float 0xBFD2F42360000000, float 0xBFD3541100000000, float 0xBFD3B3D080000000, float 0xBFD4135DA0000000, float 0xBFD472B880000000, float 0xBFD4D1E100000000, float 0xBFD530D740000000, float 0xBFD58F9B20000000, float 0xBFD5EE2860000000, float 0xBFD64C7F40000000, float 0xBFD6AA9F80000000, float 0xBFD7088500000000, float 0xBFD7663420000000, float 0xBFD7C3A860000000, float 0xBFD820E200000000, float 0xBFD87DE0E0000000, float 0xBFD8DAA500000000, float 0xBFD9372A40000000, float 0xBFD9937080000000, float 0xBFD9EF7800000000, float 0xBFDA4B4080000000, float 0xBFDAA6CA00000000, float 0xBFDB020C40000000, float 0xBFDB5D0FA0000000, float 0xBFDBB7CFE0000000, float 0xBFDC1248E0000000, float 0xBFDC6C7EA0000000, float 0xBFDCC66D40000000, float 0xBFDD2018A0000000, float 0xBFDD7978A0000000, float 0xBFDDD28D00000000, float 0xBFDE2B5E60000000, float 0xBFDE83E000000000, float 0xBFDEDC1A40000000, float 0xBFDF3404E0000000, float 0xBFDF8BA400000000, float 0xBFDFE2F7C0000000, float 0xBFE01CFBC0000000, float 0xBFE04855E0000000, float 0xBFE0738820000000, float 0xBFE09E9080000000, float 0xBFE0C97100000000, float 0xBFE0F42780000000, float 0xBFE11EB420000000, float 0xBFE14914C0000000, float 0xBFE1734D60000000, float 0xBFE19D5A20000000, float 0xBFE1C73AC0000000, float 0xBFE1F0F160000000, float 0xBFE21A7A00000000, float 0xBFE243D680000000, float 0xBFE26D04E0000000, float 0xBFE2960740000000, float 0xBFE2BEDB80000000, float 0xBFE2E78180000000, float 0xBFE30FF760000000, float 0xBFE3383F00000000, float 0xBFE36058A0000000, float 0xBFE38841E0000000, float 0xBFE3AFFB00000000, float 0xBFE3D781C0000000, float 0xBFE3FED840000000, float 0xBFE425FEA0000000, float 0xBFE44CF280000000, float 0xBFE473B420000000, float 0xBFE49A45A0000000, float 0xBFE4C0A060000000, float 0xBFE4E6CB20000000, float 0xBFE50CC140000000, float 0xBFE5328300000000, float 0xBFE5581060000000, float 0xBFE57D6940000000, float 0xBFE5A28DC0000000, float 0xBFE5C77BC0000000, float 0xBFE5EC3540000000, float 0xBFE610B840000000, float 0xBFE63502A0000000, float 0xBFE65918A0000000, float 0xBFE67CF800000000, float 0xBFE6A09EE0000000, float 0xBFE6C40D00000000, float 0xBFE6E744C0000000, float 0xBFE70A43C0000000, float 0xBFE72D0800000000, float 0xBFE74F93C0000000, float 0xBFE771E6C0000000, float 0xBFE7940140000000, float 0xBFE7B5DEE0000000, float 0xBFE7D783E0000000, float 0xBFE7F8EC00000000, float 0xBFE81A1BA0000000, float 0xBFE83B0E60000000, float 0xBFE85BC440000000, float 0xBFE87C3F80000000, float 0xBFE89C7DE0000000, float 0xBFE8BC7F80000000, float 0xBFE8DC4440000000, float 0xBFE8FBCC20000000, float 0xBFE91B1740000000, float 0xBFE93A2160000000, float 0xBFE958F0C0000000, float 0xBFE9777F20000000, float 0xBFE995CEA0000000, float 0xBFE9B3E140000000, float 0xBFE9D1B2E0000000, float 0xBFE9EF4380000000, float 0xBFEA0C9540000000, float 0xBFEA29A800000000, float 0xBFEA4679C0000000, float 0xBFEA630880000000, float 0xBFEA7F5840000000, float 0xBFEA9B6700000000, float 0xBFEAB732A0000000, float 0xBFEAD2BD40000000, float 0xBFEAEE04C0000000, float 0xBFEB090B40000000, float 0xBFEB23CC80000000, float 0xBFEB3E4CE0000000, float 0xBFEB588A00000000, float 0xBFEB728420000000, float 0xBFEB8C3900000000, float 0xBFEBA5AAC0000000, float 0xBFEBBED740000000, float 0xBFEBD7C0C0000000, float 0xBFEBF064E0000000, float 0xBFEC08C400000000, float 0xBFEC20DDC0000000, float 0xBFEC38B260000000, float 0xBFEC5041C0000000, float 0xBFEC678C00000000, float 0xBFEC7E8EE0000000, float 0xBFEC954A80000000, float 0xBFECABC0E0000000, float 0xBFECC1F000000000, float 0xBFECD7D9E0000000, float 0xBFECED7A60000000, float 0xBFED02D5A0000000, float 0xBFED17E780000000, float 0xBFED2CB200000000, float 0xBFED413560000000, float 0xBFED556F40000000, float 0xBFED6961C0000000, float 0xBFED7D0AE0000000, float 0xBFED906CC0000000, float 0xBFEDA38320000000, float 0xBFEDB65240000000, float 0xBFEDC8D7E0000000, float 0xBFEDDB1420000000, float 0xBFEDED0700000000, float 0xBFEDFEAE60000000, float 0xBFEE100C60000000, float 0xBFEE2120E0000000, float 0xBFEE31EA00000000, float 0xBFEE4269A0000000, float 0xBFEE529FE0000000, float 0xBFEE628880000000, float 0xBFEE7227E0000000, float 0xBFEE817BA0000000, float 0xBFEE9083E0000000, float 0xBFEE9F40A0000000, float 0xBFEEADB1E0000000, float 0xBFEEBBD9C0000000, float 0xBFEEC9B200000000, float 0xBFEED740C0000000, float 0xBFEEE48200000000, float 0xBFEEF177A0000000, float 0xBFEEFE21E0000000, float 0xBFEF0A7E80000000, float 0xBFEF168F80000000, float 0xBFEF225320000000, float 0xBFEF2DC900000000, float 0xBFEF38F360000000, float 0xBFEF43D040000000, float 0xBFEF4E5F80000000, float 0xBFEF58A320000000, float 0xBFEF629740000000, float 0xBFEF6C3FC0000000, float 0xBFEF7598A0000000, float 0xBFEF7EA600000000, float 0xBFEF8765C0000000, float 0xBFEF8FD5C0000000, float 0xBFEF97F840000000, float 0xBFEF9FCF40000000, float 0xBFEFA75680000000, float 0xBFEFAE8E20000000, float 0xBFEFB57A40000000, float 0xBFEFBC16A0000000, float 0xBFEFC26560000000, float 0xBFEFC86480000000, float 0xBFEFCE1600000000, float 0xBFEFD37A00000000, float 0xBFEFD88E40000000, float 0xBFEFDD52C0000000, float 0xBFEFE1CBC0000000, float 0xBFEFE5F300000000, float 0xBFEFE9CCC0000000, float 0xBFEFED58C0000000, float 0xBFEFF09520000000, float 0xBFEFF38400000000, float 0xBFEFF620E0000000, float 0xBFEFF87260000000, float 0xBFEFFA7220000000, float 0xBFEFFC2440000000, float 0xBFEFFD88C0000000, float 0xBFEFFE9DA0000000, float 0xBFEFFF62C0000000, float 0xBFEFFFD820000000, float -1.000000e+00, float 0xBFEFFFD820000000, float 0xBFEFFF62C0000000, float 0xBFEFFE9DA0000000, float 0xBFEFFD88C0000000, float 0xBFEFFC2440000000, float 0xBFEFFA7220000000, float 0xBFEFF87260000000, float 0xBFEFF620E0000000, float 0xBFEFF38400000000, float 0xBFEFF09520000000, float 0xBFEFED58C0000000, float 0xBFEFE9CCC0000000, float 0xBFEFE5F300000000, float 0xBFEFE1CBC0000000, float 0xBFEFDD52C0000000, float 0xBFEFD88E40000000, float 0xBFEFD37A00000000, float 0xBFEFCE1600000000, float 0xBFEFC86480000000, float 0xBFEFC26560000000, float 0xBFEFBC16A0000000, float 0xBFEFB57A40000000, float 0xBFEFAE8E20000000, float 0xBFEFA75680000000, float 0xBFEF9FCF40000000, float 0xBFEF97F840000000, float 0xBFEF8FD5C0000000, float 0xBFEF8765C0000000, float 0xBFEF7EA600000000, float 0xBFEF7598A0000000, float 0xBFEF6C3FC0000000, float 0xBFEF629740000000, float 0xBFEF58A320000000, float 0xBFEF4E5F80000000, float 0xBFEF43D040000000, float 0xBFEF38F360000000, float 0xBFEF2DC900000000, float 0xBFEF225320000000, float 0xBFEF168F80000000, float 0xBFEF0A7E80000000, float 0xBFEEFE21E0000000, float 0xBFEEF177A0000000, float 0xBFEEE48200000000, float 0xBFEED740C0000000, float 0xBFEEC9B200000000, float 0xBFEEBBD9C0000000, float 0xBFEEADB1E0000000, float 0xBFEE9F40A0000000, float 0xBFEE9083E0000000, float 0xBFEE817BA0000000, float 0xBFEE7227E0000000, float 0xBFEE628880000000, float 0xBFEE529FE0000000, float 0xBFEE4269A0000000, float 0xBFEE31EA00000000, float 0xBFEE2120E0000000, float 0xBFEE100C60000000, float 0xBFEDFEAE60000000, float 0xBFEDED0700000000, float 0xBFEDDB1420000000, float 0xBFEDC8D7E0000000, float 0xBFEDB65240000000, float 0xBFEDA38320000000, float 0xBFED906CC0000000, float 0xBFED7D0AE0000000, float 0xBFED6961C0000000, float 0xBFED556F40000000, float 0xBFED413560000000, float 0xBFED2CB200000000, float 0xBFED17E780000000, float 0xBFED02D5A0000000, float 0xBFECED7A60000000, float 0xBFECD7D9E0000000, float 0xBFECC1F000000000, float 0xBFECABC0E0000000, float 0xBFEC954A80000000, float 0xBFEC7E8EE0000000, float 0xBFEC678C00000000, float 0xBFEC5041C0000000, float 0xBFEC38B260000000, float 0xBFEC20DDC0000000, float 0xBFEC08C400000000, float 0xBFEBF064E0000000, float 0xBFEBD7C0C0000000, float 0xBFEBBED740000000, float 0xBFEBA5AAC0000000, float 0xBFEB8C3900000000, float 0xBFEB728420000000, float 0xBFEB588A00000000, float 0xBFEB3E4CE0000000, float 0xBFEB23CC80000000, float 0xBFEB090B40000000, float 0xBFEAEE04C0000000, float 0xBFEAD2BD40000000, float 0xBFEAB732A0000000, float 0xBFEA9B6700000000, float 0xBFEA7F5840000000, float 0xBFEA630880000000, float 0xBFEA4679C0000000, float 0xBFEA29A800000000, float 0xBFEA0C9540000000, float 0xBFE9EF4380000000, float 0xBFE9D1B2E0000000, float 0xBFE9B3E140000000, float 0xBFE995CEA0000000, float 0xBFE9777F20000000, float 0xBFE958F0C0000000, float 0xBFE93A2160000000, float 0xBFE91B1740000000, float 0xBFE8FBCC20000000, float 0xBFE8DC4440000000, float 0xBFE8BC7F80000000, float 0xBFE89C7DE0000000, float 0xBFE87C3F80000000, float 0xBFE85BC440000000, float 0xBFE83B0E60000000, float 0xBFE81A1BA0000000, float 0xBFE7F8EC00000000, float 0xBFE7D783E0000000, float 0xBFE7B5DEE0000000, float 0xBFE7940140000000, float 0xBFE771E6C0000000, float 0xBFE74F93C0000000, float 0xBFE72D0800000000, float 0xBFE70A43C0000000, float 0xBFE6E744C0000000, float 0xBFE6C40D00000000, float 0xBFE6A09EE0000000, float 0xBFE67CF800000000, float 0xBFE65918A0000000, float 0xBFE63502A0000000, float 0xBFE610B840000000, float 0xBFE5EC3540000000, float 0xBFE5C77BC0000000, float 0xBFE5A28DC0000000, float 0xBFE57D6940000000, float 0xBFE5581060000000, float 0xBFE5328300000000, float 0xBFE50CC140000000, float 0xBFE4E6CB20000000, float 0xBFE4C0A060000000, float 0xBFE49A45A0000000, float 0xBFE473B420000000, float 0xBFE44CF280000000, float 0xBFE425FEA0000000, float 0xBFE3FED840000000, float 0xBFE3D781C0000000, float 0xBFE3AFFB00000000, float 0xBFE38841E0000000, float 0xBFE36058A0000000, float 0xBFE3383F00000000, float 0xBFE30FF760000000, float 0xBFE2E78180000000, float 0xBFE2BEDB80000000, float 0xBFE2960740000000, float 0xBFE26D04E0000000, float 0xBFE243D680000000, float 0xBFE21A7A00000000, float 0xBFE1F0F160000000, float 0xBFE1C73AC0000000, float 0xBFE19D5A20000000, float 0xBFE1734D60000000, float 0xBFE14914C0000000, float 0xBFE11EB420000000, float 0xBFE0F42780000000, float 0xBFE0C97100000000, float 0xBFE09E9080000000, float 0xBFE0738820000000, float 0xBFE04855E0000000, float 0xBFE01CFBC0000000, float 0xBFDFE2F7C0000000, float 0xBFDF8BA400000000, float 0xBFDF3404E0000000, float 0xBFDEDC1A40000000, float 0xBFDE83E000000000, float 0xBFDE2B5E60000000, float 0xBFDDD28D00000000, float 0xBFDD7978A0000000, float 0xBFDD2018A0000000, float 0xBFDCC66D40000000, float 0xBFDC6C7EA0000000, float 0xBFDC1248E0000000, float 0xBFDBB7CFE0000000, float 0xBFDB5D0FA0000000, float 0xBFDB020C40000000, float 0xBFDAA6CA00000000, float 0xBFDA4B4080000000, float 0xBFD9EF7800000000, float 0xBFD9937080000000, float 0xBFD9372A40000000, float 0xBFD8DAA500000000, float 0xBFD87DE0E0000000, float 0xBFD820E200000000, float 0xBFD7C3A860000000, float 0xBFD7663420000000, float 0xBFD7088500000000, float 0xBFD6AA9F80000000, float 0xBFD64C7F40000000, float 0xBFD5EE2860000000, float 0xBFD58F9B20000000, float 0xBFD530D740000000, float 0xBFD4D1E100000000, float 0xBFD472B880000000, float 0xBFD4135DA0000000, float 0xBFD3B3D080000000, float 0xBFD3541100000000, float 0xBFD2F42360000000, float 0xBFD2940780000000, float 0xBFD233BDA0000000, float 0xBFD1D34580000000, float 0xBFD1729F60000000, float 0xBFD111D360000000, float 0xBFD0B0D960000000, float 0xBFD04FB980000000, float 0xBFCFDCDF60000000, float 0xBFCF19F800000000, float 0xBFCE56CD60000000, float 0xBFCD934F00000000, float 0xBFCCCF8D80000000, float 0xBFCC0B8060000000, float 0xBFCB473040000000, float 0xBFCA829D00000000, float 0xBFC9BDCF00000000, float 0xBFC8F8B580000000, float 0xBFC83369C0000000, float 0xBFC76DDAC0000000, float 0xBFC6A81120000000, float 0xBFC5E21540000000, float 0xBFC51BDE80000000, float 0xBFC4557580000000, float 0xBFC38EDA20000000, float 0xBFC2C80C80000000, float 0xBFC20114E0000000, float 0xBFC139F340000000, float 0xBFC0729F60000000, float 0xBFBF5653C0000000, float 0xBFBDC71500000000, float 0xBFBC378240000000, float 0xBFBAA7BD40000000, float 0xBFB917A460000000, float 0xBFB7875920000000, float 0xBFB5F6CAC0000000, float 0xBFB4660A20000000, float 0xBFB2D527E0000000, float 0xBFB1440280000000, float 0xBFAF657760000000, float 0xBFAC4284E0000000, float 0xBFA91F70E0000000, float 0xBFA5FBF840000000, float 0xBFA2D85E00000000, float 0xBF9F694460000000, float 0xBF992146A0000000, float 0xBF92D948E0000000, float 0xBF89221000000000, float 0xBF79221000000000, float -0.000000e+00, float 0x3F79221000000000, float 0x3F89221000000000, float 0x3F92D948E0000000, float 0x3F992146A0000000, float 0x3F9F694460000000, float 0x3FA2D85E00000000, float 0x3FA5FBF840000000, float 0x3FA91F70E0000000, float 0x3FAC4284E0000000, float 0x3FAF657760000000, float 0x3FB1440280000000, float 0x3FB2D527E0000000, float 0x3FB4660A20000000, float 0x3FB5F6CAC0000000, float 0x3FB7875920000000, float 0x3FB917A460000000, float 0x3FBAA7BD40000000, float 0x3FBC378240000000, float 0x3FBDC71500000000, float 0x3FBF5653C0000000, float 0x3FC0729F60000000, float 0x3FC139F340000000, float 0x3FC20114E0000000, float 0x3FC2C80C80000000, float 0x3FC38EDA20000000, float 0x3FC4557580000000, float 0x3FC51BDE80000000, float 0x3FC5E21540000000, float 0x3FC6A81120000000, float 0x3FC76DDAC0000000, float 0x3FC83369C0000000, float 0x3FC8F8B580000000, float 0x3FC9BDCF00000000, float 0x3FCA829D00000000, float 0x3FCB473040000000, float 0x3FCC0B8060000000, float 0x3FCCCF8D80000000, float 0x3FCD934F00000000, float 0x3FCE56CD60000000, float 0x3FCF19F800000000, float 0x3FCFDCDF60000000, float 0x3FD04FB980000000, float 0x3FD0B0D960000000, float 0x3FD111D360000000, float 0x3FD1729F60000000, float 0x3FD1D34580000000, float 0x3FD233BDA0000000, float 0x3FD2940780000000, float 0x3FD2F42360000000, float 0x3FD3541100000000, float 0x3FD3B3D080000000, float 0x3FD4135DA0000000, float 0x3FD472B880000000, float 0x3FD4D1E100000000, float 0x3FD530D740000000, float 0x3FD58F9B20000000, float 0x3FD5EE2860000000, float 0x3FD64C7F40000000, float 0x3FD6AA9F80000000, float 0x3FD7088500000000, float 0x3FD7663420000000, float 0x3FD7C3A860000000, float 0x3FD820E200000000, float 0x3FD87DE0E0000000, float 0x3FD8DAA500000000, float 0x3FD9372A40000000, float 0x3FD9937080000000, float 0x3FD9EF7800000000, float 0x3FDA4B4080000000, float 0x3FDAA6CA00000000, float 0x3FDB020C40000000, float 0x3FDB5D0FA0000000, float 0x3FDBB7CFE0000000, float 0x3FDC1248E0000000, float 0x3FDC6C7EA0000000, float 0x3FDCC66D40000000, float 0x3FDD2018A0000000, float 0x3FDD7978A0000000, float 0x3FDDD28D00000000, float 0x3FDE2B5E60000000, float 0x3FDE83E000000000, float 0x3FDEDC1A40000000, float 0x3FDF3404E0000000, float 0x3FDF8BA400000000, float 0x3FDFE2F7C0000000, float 0x3FE01CFBC0000000, float 0x3FE04855E0000000, float 0x3FE0738820000000, float 0x3FE09E9080000000, float 0x3FE0C97100000000, float 0x3FE0F42780000000, float 0x3FE11EB420000000, float 0x3FE14914C0000000, float 0x3FE1734D60000000, float 0x3FE19D5A20000000, float 0x3FE1C73AC0000000, float 0x3FE1F0F160000000, float 0x3FE21A7A00000000, float 0x3FE243D680000000, float 0x3FE26D04E0000000, float 0x3FE2960740000000, float 0x3FE2BEDB80000000, float 0x3FE2E78180000000, float 0x3FE30FF760000000, float 0x3FE3383F00000000, float 0x3FE36058A0000000, float 0x3FE38841E0000000, float 0x3FE3AFFB00000000, float 0x3FE3D781C0000000, float 0x3FE3FED840000000, float 0x3FE425FEA0000000, float 0x3FE44CF280000000, float 0x3FE473B420000000, float 0x3FE49A45A0000000, float 0x3FE4C0A060000000, float 0x3FE4E6CB20000000, float 0x3FE50CC140000000, float 0x3FE5328300000000, float 0x3FE5581060000000, float 0x3FE57D6940000000, float 0x3FE5A28DC0000000, float 0x3FE5C77BC0000000, float 0x3FE5EC3540000000, float 0x3FE610B840000000, float 0x3FE63502A0000000, float 0x3FE65918A0000000, float 0x3FE67CF800000000, float 0x3FE6A09EE0000000, float 0x3FE6C40D00000000, float 0x3FE6E744C0000000, float 0x3FE70A43C0000000, float 0x3FE72D0800000000, float 0x3FE74F93C0000000, float 0x3FE771E6C0000000, float 0x3FE7940140000000, float 0x3FE7B5DEE0000000, float 0x3FE7D783E0000000, float 0x3FE7F8EC00000000, float 0x3FE81A1BA0000000, float 0x3FE83B0E60000000, float 0x3FE85BC440000000, float 0x3FE87C3F80000000, float 0x3FE89C7DE0000000, float 0x3FE8BC7F80000000, float 0x3FE8DC4440000000, float 0x3FE8FBCC20000000, float 0x3FE91B1740000000, float 0x3FE93A2160000000, float 0x3FE958F0C0000000, float 0x3FE9777F20000000, float 0x3FE995CEA0000000, float 0x3FE9B3E140000000, float 0x3FE9D1B2E0000000, float 0x3FE9EF4380000000, float 0x3FEA0C9540000000, float 0x3FEA29A800000000, float 0x3FEA4679C0000000, float 0x3FEA630880000000, float 0x3FEA7F5840000000, float 0x3FEA9B6700000000, float 0x3FEAB732A0000000, float 0x3FEAD2BD40000000, float 0x3FEAEE04C0000000, float 0x3FEB090B40000000, float 0x3FEB23CC80000000, float 0x3FEB3E4CE0000000, float 0x3FEB588A00000000, float 0x3FEB728420000000, float 0x3FEB8C3900000000, float 0x3FEBA5AAC0000000, float 0x3FEBBED740000000, float 0x3FEBD7C0C0000000, float 0x3FEBF064E0000000, float 0x3FEC08C400000000, float 0x3FEC20DDC0000000, float 0x3FEC38B260000000, float 0x3FEC5041C0000000, float 0x3FEC678C00000000, float 0x3FEC7E8EE0000000, float 0x3FEC954A80000000, float 0x3FECABC0E0000000, float 0x3FECC1F000000000, float 0x3FECD7D9E0000000, float 0x3FECED7A60000000, float 0x3FED02D5A0000000, float 0x3FED17E780000000, float 0x3FED2CB200000000, float 0x3FED413560000000, float 0x3FED556F40000000, float 0x3FED6961C0000000, float 0x3FED7D0AE0000000, float 0x3FED906CC0000000, float 0x3FEDA38320000000, float 0x3FEDB65240000000, float 0x3FEDC8D7E0000000, float 0x3FEDDB1420000000, float 0x3FEDED0700000000, float 0x3FEDFEAE60000000, float 0x3FEE100C60000000, float 0x3FEE2120E0000000, float 0x3FEE31EA00000000, float 0x3FEE4269A0000000, float 0x3FEE529FE0000000, float 0x3FEE628880000000, float 0x3FEE7227E0000000, float 0x3FEE817BA0000000, float 0x3FEE9083E0000000, float 0x3FEE9F40A0000000, float 0x3FEEADB1E0000000, float 0x3FEEBBD9C0000000, float 0x3FEEC9B200000000, float 0x3FEED740C0000000, float 0x3FEEE48200000000, float 0x3FEEF177A0000000, float 0x3FEEFE21E0000000, float 0x3FEF0A7E80000000, float 0x3FEF168F80000000, float 0x3FEF225320000000, float 0x3FEF2DC900000000, float 0x3FEF38F360000000, float 0x3FEF43D040000000, float 0x3FEF4E5F80000000, float 0x3FEF58A320000000, float 0x3FEF629740000000, float 0x3FEF6C3FC0000000, float 0x3FEF7598A0000000, float 0x3FEF7EA600000000, float 0x3FEF8765C0000000, float 0x3FEF8FD5C0000000, float 0x3FEF97F840000000, float 0x3FEF9FCF40000000, float 0x3FEFA75680000000, float 0x3FEFAE8E20000000, float 0x3FEFB57A40000000, float 0x3FEFBC16A0000000, float 0x3FEFC26560000000, float 0x3FEFC86480000000, float 0x3FEFCE1600000000, float 0x3FEFD37A00000000, float 0x3FEFD88E40000000, float 0x3FEFDD52C0000000, float 0x3FEFE1CBC0000000, float 0x3FEFE5F300000000, float 0x3FEFE9CCC0000000, float 0x3FEFED58C0000000, float 0x3FEFF09520000000, float 0x3FEFF38400000000, float 0x3FEFF620E0000000, float 0x3FEFF87260000000, float 0x3FEFFA7220000000, float 0x3FEFFC2440000000, float 0x3FEFFD88C0000000, float 0x3FEFFE9DA0000000, float 0x3FEFFF62C0000000, float 0x3FEFFFD820000000, float 1.000000e+00, float 0x3FEFFFD820000000, float 0x3FEFFF62C0000000, float 0x3FEFFE9DA0000000, float 0x3FEFFD88C0000000, float 0x3FEFFC2440000000, float 0x3FEFFA7220000000, float 0x3FEFF87260000000, float 0x3FEFF620E0000000, float 0x3FEFF38400000000, float 0x3FEFF09520000000, float 0x3FEFED58C0000000, float 0x3FEFE9CCC0000000, float 0x3FEFE5F300000000, float 0x3FEFE1CBC0000000, float 0x3FEFDD52C0000000, float 0x3FEFD88E40000000, float 0x3FEFD37A00000000, float 0x3FEFCE1600000000, float 0x3FEFC86480000000, float 0x3FEFC26560000000, float 0x3FEFBC16A0000000, float 0x3FEFB57A40000000, float 0x3FEFAE8E20000000, float 0x3FEFA75680000000, float 0x3FEF9FCF40000000, float 0x3FEF97F840000000, float 0x3FEF8FD5C0000000, float 0x3FEF8765C0000000, float 0x3FEF7EA600000000, float 0x3FEF7598A0000000, float 0x3FEF6C3FC0000000, float 0x3FEF629740000000, float 0x3FEF58A320000000, float 0x3FEF4E5F80000000, float 0x3FEF43D040000000, float 0x3FEF38F360000000, float 0x3FEF2DC900000000, float 0x3FEF225320000000, float 0x3FEF168F80000000, float 0x3FEF0A7E80000000, float 0x3FEEFE21E0000000, float 0x3FEEF177A0000000, float 0x3FEEE48200000000, float 0x3FEED740C0000000, float 0x3FEEC9B200000000, float 0x3FEEBBD9C0000000, float 0x3FEEADB1E0000000, float 0x3FEE9F40A0000000, float 0x3FEE9083E0000000, float 0x3FEE817BA0000000, float 0x3FEE7227E0000000, float 0x3FEE628880000000, float 0x3FEE529FE0000000, float 0x3FEE4269A0000000, float 0x3FEE31EA00000000, float 0x3FEE2120E0000000, float 0x3FEE100C60000000, float 0x3FEDFEAE60000000, float 0x3FEDED0700000000, float 0x3FEDDB1420000000, float 0x3FEDC8D7E0000000, float 0x3FEDB65240000000, float 0x3FEDA38320000000, float 0x3FED906CC0000000, float 0x3FED7D0AE0000000, float 0x3FED6961C0000000, float 0x3FED556F40000000, float 0x3FED413560000000, float 0x3FED2CB200000000, float 0x3FED17E780000000, float 0x3FED02D5A0000000, float 0x3FECED7A60000000, float 0x3FECD7D9E0000000, float 0x3FECC1F000000000, float 0x3FECABC0E0000000, float 0x3FEC954A80000000, float 0x3FEC7E8EE0000000, float 0x3FEC678C00000000, float 0x3FEC5041C0000000, float 0x3FEC38B260000000, float 0x3FEC20DDC0000000, float 0x3FEC08C400000000, float 0x3FEBF064E0000000, float 0x3FEBD7C0C0000000, float 0x3FEBBED740000000, float 0x3FEBA5AAC0000000, float 0x3FEB8C3900000000, float 0x3FEB728420000000, float 0x3FEB588A00000000, float 0x3FEB3E4CE0000000, float 0x3FEB23CC80000000, float 0x3FEB090B40000000, float 0x3FEAEE04C0000000, float 0x3FEAD2BD40000000, float 0x3FEAB732A0000000, float 0x3FEA9B6700000000, float 0x3FEA7F5840000000, float 0x3FEA630880000000, float 0x3FEA4679C0000000, float 0x3FEA29A800000000, float 0x3FEA0C9540000000, float 0x3FE9EF4380000000, float 0x3FE9D1B2E0000000, float 0x3FE9B3E140000000, float 0x3FE995CEA0000000, float 0x3FE9777F20000000, float 0x3FE958F0C0000000, float 0x3FE93A2160000000, float 0x3FE91B1740000000, float 0x3FE8FBCC20000000, float 0x3FE8DC4440000000, float 0x3FE8BC7F80000000, float 0x3FE89C7DE0000000, float 0x3FE87C3F80000000, float 0x3FE85BC440000000, float 0x3FE83B0E60000000, float 0x3FE81A1BA0000000, float 0x3FE7F8EC00000000, float 0x3FE7D783E0000000, float 0x3FE7B5DEE0000000, float 0x3FE7940140000000, float 0x3FE771E6C0000000, float 0x3FE74F93C0000000, float 0x3FE72D0800000000, float 0x3FE70A43C0000000, float 0x3FE6E744C0000000, float 0x3FE6C40D00000000, float 0x3FE6A09EE0000000, float 0x3FE67CF800000000, float 0x3FE65918A0000000, float 0x3FE63502A0000000, float 0x3FE610B840000000, float 0x3FE5EC3540000000, float 0x3FE5C77BC0000000, float 0x3FE5A28DC0000000, float 0x3FE57D6940000000, float 0x3FE5581060000000, float 0x3FE5328300000000, float 0x3FE50CC140000000, float 0x3FE4E6CB20000000, float 0x3FE4C0A060000000, float 0x3FE49A45A0000000, float 0x3FE473B420000000, float 0x3FE44CF280000000, float 0x3FE425FEA0000000, float 0x3FE3FED840000000, float 0x3FE3D781C0000000, float 0x3FE3AFFB00000000, float 0x3FE38841E0000000, float 0x3FE36058A0000000, float 0x3FE3383F00000000, float 0x3FE30FF760000000, float 0x3FE2E78180000000, float 0x3FE2BEDB80000000, float 0x3FE2960740000000, float 0x3FE26D04E0000000, float 0x3FE243D680000000, float 0x3FE21A7A00000000, float 0x3FE1F0F160000000, float 0x3FE1C73AC0000000, float 0x3FE19D5A20000000, float 0x3FE1734D60000000, float 0x3FE14914C0000000, float 0x3FE11EB420000000, float 0x3FE0F42780000000, float 0x3FE0C97100000000, float 0x3FE09E9080000000, float 0x3FE0738820000000, float 0x3FE04855E0000000, float 0x3FE01CFBC0000000, float 0x3FDFE2F7C0000000, float 0x3FDF8BA400000000, float 0x3FDF3404E0000000, float 0x3FDEDC1A40000000, float 0x3FDE83E000000000, float 0x3FDE2B5E60000000, float 0x3FDDD28D00000000, float 0x3FDD7978A0000000, float 0x3FDD2018A0000000, float 0x3FDCC66D40000000, float 0x3FDC6C7EA0000000, float 0x3FDC1248E0000000, float 0x3FDBB7CFE0000000, float 0x3FDB5D0FA0000000, float 0x3FDB020C40000000, float 0x3FDAA6CA00000000, float 0x3FDA4B4080000000, float 0x3FD9EF7800000000, float 0x3FD9937080000000, float 0x3FD9372A40000000, float 0x3FD8DAA500000000, float 0x3FD87DE0E0000000, float 0x3FD820E200000000, float 0x3FD7C3A860000000, float 0x3FD7663420000000, float 0x3FD7088500000000, float 0x3FD6AA9F80000000, float 0x3FD64C7F40000000, float 0x3FD5EE2860000000, float 0x3FD58F9B20000000, float 0x3FD530D740000000, float 0x3FD4D1E100000000, float 0x3FD472B880000000, float 0x3FD4135DA0000000, float 0x3FD3B3D080000000, float 0x3FD3541100000000, float 0x3FD2F42360000000, float 0x3FD2940780000000, float 0x3FD233BDA0000000, float 0x3FD1D34580000000, float 0x3FD1729F60000000, float 0x3FD111D360000000, float 0x3FD0B0D960000000, float 0x3FD04FB980000000, float 0x3FCFDCDF60000000, float 0x3FCF19F800000000, float 0x3FCE56CD60000000, float 0x3FCD934F00000000, float 0x3FCCCF8D80000000, float 0x3FCC0B8060000000, float 0x3FCB473040000000, float 0x3FCA829D00000000, float 0x3FC9BDCF00000000, float 0x3FC8F8B580000000, float 0x3FC83369C0000000, float 0x3FC76DDAC0000000, float 0x3FC6A81120000000, float 0x3FC5E21540000000, float 0x3FC51BDE80000000, float 0x3FC4557580000000, float 0x3FC38EDA20000000, float 0x3FC2C80C80000000, float 0x3FC20114E0000000, float 0x3FC139F340000000, float 0x3FC0729F60000000, float 0x3FBF5653C0000000, float 0x3FBDC71500000000, float 0x3FBC378240000000, float 0x3FBAA7BD40000000, float 0x3FB917A460000000, float 0x3FB7875920000000, float 0x3FB5F6CAC0000000, float 0x3FB4660A20000000, float 0x3FB2D527E0000000, float 0x3FB1440280000000, float 0x3FAF657760000000, float 0x3FAC4284E0000000, float 0x3FA91F70E0000000, float 0x3FA5FBF840000000, float 0x3FA2D85E00000000, float 0x3F9F694460000000, float 0x3F992146A0000000, float 0x3F92D948E0000000, float 0x3F89221000000000, float 0x3F79221000000000], align 16 ; [#uses=1 type=[1024 x float]*]
@llvm.global_ctors = appending global [1 x { i32, void ()* }] [{ i32, void ()* } { i32 65535, void ()* @_GLOBAL__I_a }] ; [#uses=0 type=[1 x { i32, void ()* }]*]
@dft.str = internal unnamed_addr constant [4 x i8] c"dft\00" ; [#uses=1 type=[4 x i8]*]
@cct = internal unnamed_addr constant [1024 x float] [float 1.000000e+00, float 0x3FEFFFD820000000, float 0x3FEFFF62C0000000, float 0x3FEFFE9DA0000000, float 0x3FEFFD88C0000000, float 0x3FEFFC2440000000, float 0x3FEFFA7220000000, float 0x3FEFF87260000000, float 0x3FEFF620E0000000, float 0x3FEFF38400000000, float 0x3FEFF09520000000, float 0x3FEFED58C0000000, float 0x3FEFE9CCC0000000, float 0x3FEFE5F300000000, float 0x3FEFE1CBC0000000, float 0x3FEFDD52C0000000, float 0x3FEFD88E40000000, float 0x3FEFD37A00000000, float 0x3FEFCE1600000000, float 0x3FEFC86480000000, float 0x3FEFC26560000000, float 0x3FEFBC16A0000000, float 0x3FEFB57A40000000, float 0x3FEFAE8E20000000, float 0x3FEFA75680000000, float 0x3FEF9FCF40000000, float 0x3FEF97F840000000, float 0x3FEF8FD5C0000000, float 0x3FEF8765C0000000, float 0x3FEF7EA600000000, float 0x3FEF7598A0000000, float 0x3FEF6C3FC0000000, float 0x3FEF629740000000, float 0x3FEF58A320000000, float 0x3FEF4E5F80000000, float 0x3FEF43D040000000, float 0x3FEF38F360000000, float 0x3FEF2DC900000000, float 0x3FEF225320000000, float 0x3FEF168F80000000, float 0x3FEF0A7E80000000, float 0x3FEEFE21E0000000, float 0x3FEEF177A0000000, float 0x3FEEE48200000000, float 0x3FEED740C0000000, float 0x3FEEC9B200000000, float 0x3FEEBBD9C0000000, float 0x3FEEADB1E0000000, float 0x3FEE9F40A0000000, float 0x3FEE9083E0000000, float 0x3FEE817BA0000000, float 0x3FEE7227E0000000, float 0x3FEE628880000000, float 0x3FEE529FE0000000, float 0x3FEE4269A0000000, float 0x3FEE31EA00000000, float 0x3FEE2120E0000000, float 0x3FEE100C60000000, float 0x3FEDFEAE60000000, float 0x3FEDED0700000000, float 0x3FEDDB1420000000, float 0x3FEDC8D7E0000000, float 0x3FEDB65240000000, float 0x3FEDA38320000000, float 0x3FED906CC0000000, float 0x3FED7D0AE0000000, float 0x3FED6961C0000000, float 0x3FED556F40000000, float 0x3FED413560000000, float 0x3FED2CB200000000, float 0x3FED17E780000000, float 0x3FED02D5A0000000, float 0x3FECED7A60000000, float 0x3FECD7D9E0000000, float 0x3FECC1F000000000, float 0x3FECABC0E0000000, float 0x3FEC954A80000000, float 0x3FEC7E8EE0000000, float 0x3FEC678C00000000, float 0x3FEC5041C0000000, float 0x3FEC38B260000000, float 0x3FEC20DDC0000000, float 0x3FEC08C400000000, float 0x3FEBF064E0000000, float 0x3FEBD7C0C0000000, float 0x3FEBBED740000000, float 0x3FEBA5AAC0000000, float 0x3FEB8C3900000000, float 0x3FEB728420000000, float 0x3FEB588A00000000, float 0x3FEB3E4CE0000000, float 0x3FEB23CC80000000, float 0x3FEB090B40000000, float 0x3FEAEE04C0000000, float 0x3FEAD2BD40000000, float 0x3FEAB732A0000000, float 0x3FEA9B6700000000, float 0x3FEA7F5840000000, float 0x3FEA630880000000, float 0x3FEA4679C0000000, float 0x3FEA29A800000000, float 0x3FEA0C9540000000, float 0x3FE9EF4380000000, float 0x3FE9D1B2E0000000, float 0x3FE9B3E140000000, float 0x3FE995CEA0000000, float 0x3FE9777F20000000, float 0x3FE958F0C0000000, float 0x3FE93A2160000000, float 0x3FE91B1740000000, float 0x3FE8FBCC20000000, float 0x3FE8DC4440000000, float 0x3FE8BC7F80000000, float 0x3FE89C7DE0000000, float 0x3FE87C3F80000000, float 0x3FE85BC440000000, float 0x3FE83B0E60000000, float 0x3FE81A1BA0000000, float 0x3FE7F8EC00000000, float 0x3FE7D783E0000000, float 0x3FE7B5DEE0000000, float 0x3FE7940140000000, float 0x3FE771E6C0000000, float 0x3FE74F93C0000000, float 0x3FE72D0800000000, float 0x3FE70A43C0000000, float 0x3FE6E744C0000000, float 0x3FE6C40D00000000, float 0x3FE6A09EE0000000, float 0x3FE67CF800000000, float 0x3FE65918A0000000, float 0x3FE63502A0000000, float 0x3FE610B840000000, float 0x3FE5EC3540000000, float 0x3FE5C77BC0000000, float 0x3FE5A28DC0000000, float 0x3FE57D6940000000, float 0x3FE5581060000000, float 0x3FE5328300000000, float 0x3FE50CC140000000, float 0x3FE4E6CB20000000, float 0x3FE4C0A060000000, float 0x3FE49A45A0000000, float 0x3FE473B420000000, float 0x3FE44CF280000000, float 0x3FE425FEA0000000, float 0x3FE3FED840000000, float 0x3FE3D781C0000000, float 0x3FE3AFFB00000000, float 0x3FE38841E0000000, float 0x3FE36058A0000000, float 0x3FE3383F00000000, float 0x3FE30FF760000000, float 0x3FE2E78180000000, float 0x3FE2BEDB80000000, float 0x3FE2960740000000, float 0x3FE26D04E0000000, float 0x3FE243D680000000, float 0x3FE21A7A00000000, float 0x3FE1F0F160000000, float 0x3FE1C73AC0000000, float 0x3FE19D5A20000000, float 0x3FE1734D60000000, float 0x3FE14914C0000000, float 0x3FE11EB420000000, float 0x3FE0F42780000000, float 0x3FE0C97100000000, float 0x3FE09E9080000000, float 0x3FE0738820000000, float 0x3FE04855E0000000, float 0x3FE01CFBC0000000, float 0x3FDFE2F7C0000000, float 0x3FDF8BA400000000, float 0x3FDF3404E0000000, float 0x3FDEDC1A40000000, float 0x3FDE83E000000000, float 0x3FDE2B5E60000000, float 0x3FDDD28D00000000, float 0x3FDD7978A0000000, float 0x3FDD2018A0000000, float 0x3FDCC66D40000000, float 0x3FDC6C7EA0000000, float 0x3FDC1248E0000000, float 0x3FDBB7CFE0000000, float 0x3FDB5D0FA0000000, float 0x3FDB020C40000000, float 0x3FDAA6CA00000000, float 0x3FDA4B4080000000, float 0x3FD9EF7800000000, float 0x3FD9937080000000, float 0x3FD9372A40000000, float 0x3FD8DAA500000000, float 0x3FD87DE0E0000000, float 0x3FD820E200000000, float 0x3FD7C3A860000000, float 0x3FD7663420000000, float 0x3FD7088500000000, float 0x3FD6AA9F80000000, float 0x3FD64C7F40000000, float 0x3FD5EE2860000000, float 0x3FD58F9B20000000, float 0x3FD530D740000000, float 0x3FD4D1E100000000, float 0x3FD472B880000000, float 0x3FD4135DA0000000, float 0x3FD3B3D080000000, float 0x3FD3541100000000, float 0x3FD2F42360000000, float 0x3FD2940780000000, float 0x3FD233BDA0000000, float 0x3FD1D34580000000, float 0x3FD1729F60000000, float 0x3FD111D360000000, float 0x3FD0B0D960000000, float 0x3FD04FB980000000, float 0x3FCFDCDF60000000, float 0x3FCF19F800000000, float 0x3FCE56CD60000000, float 0x3FCD934F00000000, float 0x3FCCCF8D80000000, float 0x3FCC0B8060000000, float 0x3FCB473040000000, float 0x3FCA829D00000000, float 0x3FC9BDCF00000000, float 0x3FC8F8B580000000, float 0x3FC83369C0000000, float 0x3FC76DDAC0000000, float 0x3FC6A81120000000, float 0x3FC5E21540000000, float 0x3FC51BDE80000000, float 0x3FC4557580000000, float 0x3FC38EDA20000000, float 0x3FC2C80C80000000, float 0x3FC20114E0000000, float 0x3FC139F340000000, float 0x3FC0729F60000000, float 0x3FBF5653C0000000, float 0x3FBDC71500000000, float 0x3FBC378240000000, float 0x3FBAA7BD40000000, float 0x3FB917A460000000, float 0x3FB7875920000000, float 0x3FB5F6CAC0000000, float 0x3FB4660A20000000, float 0x3FB2D527E0000000, float 0x3FB1440280000000, float 0x3FAF657760000000, float 0x3FAC4284E0000000, float 0x3FA91F70E0000000, float 0x3FA5FBF840000000, float 0x3FA2D85E00000000, float 0x3F9F694460000000, float 0x3F992146A0000000, float 0x3F92D948E0000000, float 0x3F89221000000000, float 0x3F79221000000000, float 0.000000e+00, float 0xBF79221000000000, float 0xBF89221000000000, float 0xBF92D948E0000000, float 0xBF992146A0000000, float 0xBF9F694460000000, float 0xBFA2D85E00000000, float 0xBFA5FBF840000000, float 0xBFA91F70E0000000, float 0xBFAC4284E0000000, float 0xBFAF657760000000, float 0xBFB1440280000000, float 0xBFB2D527E0000000, float 0xBFB4660A20000000, float 0xBFB5F6CAC0000000, float 0xBFB7875920000000, float 0xBFB917A460000000, float 0xBFBAA7BD40000000, float 0xBFBC378240000000, float 0xBFBDC71500000000, float 0xBFBF5653C0000000, float 0xBFC0729F60000000, float 0xBFC139F340000000, float 0xBFC20114E0000000, float 0xBFC2C80C80000000, float 0xBFC38EDA20000000, float 0xBFC4557580000000, float 0xBFC51BDE80000000, float 0xBFC5E21540000000, float 0xBFC6A81120000000, float 0xBFC76DDAC0000000, float 0xBFC83369C0000000, float 0xBFC8F8B580000000, float 0xBFC9BDCF00000000, float 0xBFCA829D00000000, float 0xBFCB473040000000, float 0xBFCC0B8060000000, float 0xBFCCCF8D80000000, float 0xBFCD934F00000000, float 0xBFCE56CD60000000, float 0xBFCF19F800000000, float 0xBFCFDCDF60000000, float 0xBFD04FB980000000, float 0xBFD0B0D960000000, float 0xBFD111D360000000, float 0xBFD1729F60000000, float 0xBFD1D34580000000, float 0xBFD233BDA0000000, float 0xBFD2940780000000, float 0xBFD2F42360000000, float 0xBFD3541100000000, float 0xBFD3B3D080000000, float 0xBFD4135DA0000000, float 0xBFD472B880000000, float 0xBFD4D1E100000000, float 0xBFD530D740000000, float 0xBFD58F9B20000000, float 0xBFD5EE2860000000, float 0xBFD64C7F40000000, float 0xBFD6AA9F80000000, float 0xBFD7088500000000, float 0xBFD7663420000000, float 0xBFD7C3A860000000, float 0xBFD820E200000000, float 0xBFD87DE0E0000000, float 0xBFD8DAA500000000, float 0xBFD9372A40000000, float 0xBFD9937080000000, float 0xBFD9EF7800000000, float 0xBFDA4B4080000000, float 0xBFDAA6CA00000000, float 0xBFDB020C40000000, float 0xBFDB5D0FA0000000, float 0xBFDBB7CFE0000000, float 0xBFDC1248E0000000, float 0xBFDC6C7EA0000000, float 0xBFDCC66D40000000, float 0xBFDD2018A0000000, float 0xBFDD7978A0000000, float 0xBFDDD28D00000000, float 0xBFDE2B5E60000000, float 0xBFDE83E000000000, float 0xBFDEDC1A40000000, float 0xBFDF3404E0000000, float 0xBFDF8BA400000000, float 0xBFDFE2F7C0000000, float 0xBFE01CFBC0000000, float 0xBFE04855E0000000, float 0xBFE0738820000000, float 0xBFE09E9080000000, float 0xBFE0C97100000000, float 0xBFE0F42780000000, float 0xBFE11EB420000000, float 0xBFE14914C0000000, float 0xBFE1734D60000000, float 0xBFE19D5A20000000, float 0xBFE1C73AC0000000, float 0xBFE1F0F160000000, float 0xBFE21A7A00000000, float 0xBFE243D680000000, float 0xBFE26D04E0000000, float 0xBFE2960740000000, float 0xBFE2BEDB80000000, float 0xBFE2E78180000000, float 0xBFE30FF760000000, float 0xBFE3383F00000000, float 0xBFE36058A0000000, float 0xBFE38841E0000000, float 0xBFE3AFFB00000000, float 0xBFE3D781C0000000, float 0xBFE3FED840000000, float 0xBFE425FEA0000000, float 0xBFE44CF280000000, float 0xBFE473B420000000, float 0xBFE49A45A0000000, float 0xBFE4C0A060000000, float 0xBFE4E6CB20000000, float 0xBFE50CC140000000, float 0xBFE5328300000000, float 0xBFE5581060000000, float 0xBFE57D6940000000, float 0xBFE5A28DC0000000, float 0xBFE5C77BC0000000, float 0xBFE5EC3540000000, float 0xBFE610B840000000, float 0xBFE63502A0000000, float 0xBFE65918A0000000, float 0xBFE67CF800000000, float 0xBFE6A09EE0000000, float 0xBFE6C40D00000000, float 0xBFE6E744C0000000, float 0xBFE70A43C0000000, float 0xBFE72D0800000000, float 0xBFE74F93C0000000, float 0xBFE771E6C0000000, float 0xBFE7940140000000, float 0xBFE7B5DEE0000000, float 0xBFE7D783E0000000, float 0xBFE7F8EC00000000, float 0xBFE81A1BA0000000, float 0xBFE83B0E60000000, float 0xBFE85BC440000000, float 0xBFE87C3F80000000, float 0xBFE89C7DE0000000, float 0xBFE8BC7F80000000, float 0xBFE8DC4440000000, float 0xBFE8FBCC20000000, float 0xBFE91B1740000000, float 0xBFE93A2160000000, float 0xBFE958F0C0000000, float 0xBFE9777F20000000, float 0xBFE995CEA0000000, float 0xBFE9B3E140000000, float 0xBFE9D1B2E0000000, float 0xBFE9EF4380000000, float 0xBFEA0C9540000000, float 0xBFEA29A800000000, float 0xBFEA4679C0000000, float 0xBFEA630880000000, float 0xBFEA7F5840000000, float 0xBFEA9B6700000000, float 0xBFEAB732A0000000, float 0xBFEAD2BD40000000, float 0xBFEAEE04C0000000, float 0xBFEB090B40000000, float 0xBFEB23CC80000000, float 0xBFEB3E4CE0000000, float 0xBFEB588A00000000, float 0xBFEB728420000000, float 0xBFEB8C3900000000, float 0xBFEBA5AAC0000000, float 0xBFEBBED740000000, float 0xBFEBD7C0C0000000, float 0xBFEBF064E0000000, float 0xBFEC08C400000000, float 0xBFEC20DDC0000000, float 0xBFEC38B260000000, float 0xBFEC5041C0000000, float 0xBFEC678C00000000, float 0xBFEC7E8EE0000000, float 0xBFEC954A80000000, float 0xBFECABC0E0000000, float 0xBFECC1F000000000, float 0xBFECD7D9E0000000, float 0xBFECED7A60000000, float 0xBFED02D5A0000000, float 0xBFED17E780000000, float 0xBFED2CB200000000, float 0xBFED413560000000, float 0xBFED556F40000000, float 0xBFED6961C0000000, float 0xBFED7D0AE0000000, float 0xBFED906CC0000000, float 0xBFEDA38320000000, float 0xBFEDB65240000000, float 0xBFEDC8D7E0000000, float 0xBFEDDB1420000000, float 0xBFEDED0700000000, float 0xBFEDFEAE60000000, float 0xBFEE100C60000000, float 0xBFEE2120E0000000, float 0xBFEE31EA00000000, float 0xBFEE4269A0000000, float 0xBFEE529FE0000000, float 0xBFEE628880000000, float 0xBFEE7227E0000000, float 0xBFEE817BA0000000, float 0xBFEE9083E0000000, float 0xBFEE9F40A0000000, float 0xBFEEADB1E0000000, float 0xBFEEBBD9C0000000, float 0xBFEEC9B200000000, float 0xBFEED740C0000000, float 0xBFEEE48200000000, float 0xBFEEF177A0000000, float 0xBFEEFE21E0000000, float 0xBFEF0A7E80000000, float 0xBFEF168F80000000, float 0xBFEF225320000000, float 0xBFEF2DC900000000, float 0xBFEF38F360000000, float 0xBFEF43D040000000, float 0xBFEF4E5F80000000, float 0xBFEF58A320000000, float 0xBFEF629740000000, float 0xBFEF6C3FC0000000, float 0xBFEF7598A0000000, float 0xBFEF7EA600000000, float 0xBFEF8765C0000000, float 0xBFEF8FD5C0000000, float 0xBFEF97F840000000, float 0xBFEF9FCF40000000, float 0xBFEFA75680000000, float 0xBFEFAE8E20000000, float 0xBFEFB57A40000000, float 0xBFEFBC16A0000000, float 0xBFEFC26560000000, float 0xBFEFC86480000000, float 0xBFEFCE1600000000, float 0xBFEFD37A00000000, float 0xBFEFD88E40000000, float 0xBFEFDD52C0000000, float 0xBFEFE1CBC0000000, float 0xBFEFE5F300000000, float 0xBFEFE9CCC0000000, float 0xBFEFED58C0000000, float 0xBFEFF09520000000, float 0xBFEFF38400000000, float 0xBFEFF620E0000000, float 0xBFEFF87260000000, float 0xBFEFFA7220000000, float 0xBFEFFC2440000000, float 0xBFEFFD88C0000000, float 0xBFEFFE9DA0000000, float 0xBFEFFF62C0000000, float 0xBFEFFFD820000000, float -1.000000e+00, float 0xBFEFFFD820000000, float 0xBFEFFF62C0000000, float 0xBFEFFE9DA0000000, float 0xBFEFFD88C0000000, float 0xBFEFFC2440000000, float 0xBFEFFA7220000000, float 0xBFEFF87260000000, float 0xBFEFF620E0000000, float 0xBFEFF38400000000, float 0xBFEFF09520000000, float 0xBFEFED58C0000000, float 0xBFEFE9CCC0000000, float 0xBFEFE5F300000000, float 0xBFEFE1CBC0000000, float 0xBFEFDD52C0000000, float 0xBFEFD88E40000000, float 0xBFEFD37A00000000, float 0xBFEFCE1600000000, float 0xBFEFC86480000000, float 0xBFEFC26560000000, float 0xBFEFBC16A0000000, float 0xBFEFB57A40000000, float 0xBFEFAE8E20000000, float 0xBFEFA75680000000, float 0xBFEF9FCF40000000, float 0xBFEF97F840000000, float 0xBFEF8FD5C0000000, float 0xBFEF8765C0000000, float 0xBFEF7EA600000000, float 0xBFEF7598A0000000, float 0xBFEF6C3FC0000000, float 0xBFEF629740000000, float 0xBFEF58A320000000, float 0xBFEF4E5F80000000, float 0xBFEF43D040000000, float 0xBFEF38F360000000, float 0xBFEF2DC900000000, float 0xBFEF225320000000, float 0xBFEF168F80000000, float 0xBFEF0A7E80000000, float 0xBFEEFE21E0000000, float 0xBFEEF177A0000000, float 0xBFEEE48200000000, float 0xBFEED740C0000000, float 0xBFEEC9B200000000, float 0xBFEEBBD9C0000000, float 0xBFEEADB1E0000000, float 0xBFEE9F40A0000000, float 0xBFEE9083E0000000, float 0xBFEE817BA0000000, float 0xBFEE7227E0000000, float 0xBFEE628880000000, float 0xBFEE529FE0000000, float 0xBFEE4269A0000000, float 0xBFEE31EA00000000, float 0xBFEE2120E0000000, float 0xBFEE100C60000000, float 0xBFEDFEAE60000000, float 0xBFEDED0700000000, float 0xBFEDDB1420000000, float 0xBFEDC8D7E0000000, float 0xBFEDB65240000000, float 0xBFEDA38320000000, float 0xBFED906CC0000000, float 0xBFED7D0AE0000000, float 0xBFED6961C0000000, float 0xBFED556F40000000, float 0xBFED413560000000, float 0xBFED2CB200000000, float 0xBFED17E780000000, float 0xBFED02D5A0000000, float 0xBFECED7A60000000, float 0xBFECD7D9E0000000, float 0xBFECC1F000000000, float 0xBFECABC0E0000000, float 0xBFEC954A80000000, float 0xBFEC7E8EE0000000, float 0xBFEC678C00000000, float 0xBFEC5041C0000000, float 0xBFEC38B260000000, float 0xBFEC20DDC0000000, float 0xBFEC08C400000000, float 0xBFEBF064E0000000, float 0xBFEBD7C0C0000000, float 0xBFEBBED740000000, float 0xBFEBA5AAC0000000, float 0xBFEB8C3900000000, float 0xBFEB728420000000, float 0xBFEB588A00000000, float 0xBFEB3E4CE0000000, float 0xBFEB23CC80000000, float 0xBFEB090B40000000, float 0xBFEAEE04C0000000, float 0xBFEAD2BD40000000, float 0xBFEAB732A0000000, float 0xBFEA9B6700000000, float 0xBFEA7F5840000000, float 0xBFEA630880000000, float 0xBFEA4679C0000000, float 0xBFEA29A800000000, float 0xBFEA0C9540000000, float 0xBFE9EF4380000000, float 0xBFE9D1B2E0000000, float 0xBFE9B3E140000000, float 0xBFE995CEA0000000, float 0xBFE9777F20000000, float 0xBFE958F0C0000000, float 0xBFE93A2160000000, float 0xBFE91B1740000000, float 0xBFE8FBCC20000000, float 0xBFE8DC4440000000, float 0xBFE8BC7F80000000, float 0xBFE89C7DE0000000, float 0xBFE87C3F80000000, float 0xBFE85BC440000000, float 0xBFE83B0E60000000, float 0xBFE81A1BA0000000, float 0xBFE7F8EC00000000, float 0xBFE7D783E0000000, float 0xBFE7B5DEE0000000, float 0xBFE7940140000000, float 0xBFE771E6C0000000, float 0xBFE74F93C0000000, float 0xBFE72D0800000000, float 0xBFE70A43C0000000, float 0xBFE6E744C0000000, float 0xBFE6C40D00000000, float 0xBFE6A09EE0000000, float 0xBFE67CF800000000, float 0xBFE65918A0000000, float 0xBFE63502A0000000, float 0xBFE610B840000000, float 0xBFE5EC3540000000, float 0xBFE5C77BC0000000, float 0xBFE5A28DC0000000, float 0xBFE57D6940000000, float 0xBFE5581060000000, float 0xBFE5328300000000, float 0xBFE50CC140000000, float 0xBFE4E6CB20000000, float 0xBFE4C0A060000000, float 0xBFE49A45A0000000, float 0xBFE473B420000000, float 0xBFE44CF280000000, float 0xBFE425FEA0000000, float 0xBFE3FED840000000, float 0xBFE3D781C0000000, float 0xBFE3AFFB00000000, float 0xBFE38841E0000000, float 0xBFE36058A0000000, float 0xBFE3383F00000000, float 0xBFE30FF760000000, float 0xBFE2E78180000000, float 0xBFE2BEDB80000000, float 0xBFE2960740000000, float 0xBFE26D04E0000000, float 0xBFE243D680000000, float 0xBFE21A7A00000000, float 0xBFE1F0F160000000, float 0xBFE1C73AC0000000, float 0xBFE19D5A20000000, float 0xBFE1734D60000000, float 0xBFE14914C0000000, float 0xBFE11EB420000000, float 0xBFE0F42780000000, float 0xBFE0C97100000000, float 0xBFE09E9080000000, float 0xBFE0738820000000, float 0xBFE04855E0000000, float 0xBFE01CFBC0000000, float 0xBFDFE2F7C0000000, float 0xBFDF8BA400000000, float 0xBFDF3404E0000000, float 0xBFDEDC1A40000000, float 0xBFDE83E000000000, float 0xBFDE2B5E60000000, float 0xBFDDD28D00000000, float 0xBFDD7978A0000000, float 0xBFDD2018A0000000, float 0xBFDCC66D40000000, float 0xBFDC6C7EA0000000, float 0xBFDC1248E0000000, float 0xBFDBB7CFE0000000, float 0xBFDB5D0FA0000000, float 0xBFDB020C40000000, float 0xBFDAA6CA00000000, float 0xBFDA4B4080000000, float 0xBFD9EF7800000000, float 0xBFD9937080000000, float 0xBFD9372A40000000, float 0xBFD8DAA500000000, float 0xBFD87DE0E0000000, float 0xBFD820E200000000, float 0xBFD7C3A860000000, float 0xBFD7663420000000, float 0xBFD7088500000000, float 0xBFD6AA9F80000000, float 0xBFD64C7F40000000, float 0xBFD5EE2860000000, float 0xBFD58F9B20000000, float 0xBFD530D740000000, float 0xBFD4D1E100000000, float 0xBFD472B880000000, float 0xBFD4135DA0000000, float 0xBFD3B3D080000000, float 0xBFD3541100000000, float 0xBFD2F42360000000, float 0xBFD2940780000000, float 0xBFD233BDA0000000, float 0xBFD1D34580000000, float 0xBFD1729F60000000, float 0xBFD111D360000000, float 0xBFD0B0D960000000, float 0xBFD04FB980000000, float 0xBFCFDCDF60000000, float 0xBFCF19F800000000, float 0xBFCE56CD60000000, float 0xBFCD934F00000000, float 0xBFCCCF8D80000000, float 0xBFCC0B8060000000, float 0xBFCB473040000000, float 0xBFCA829D00000000, float 0xBFC9BDCF00000000, float 0xBFC8F8B580000000, float 0xBFC83369C0000000, float 0xBFC76DDAC0000000, float 0xBFC6A81120000000, float 0xBFC5E21540000000, float 0xBFC51BDE80000000, float 0xBFC4557580000000, float 0xBFC38EDA20000000, float 0xBFC2C80C80000000, float 0xBFC20114E0000000, float 0xBFC139F340000000, float 0xBFC0729F60000000, float 0xBFBF5653C0000000, float 0xBFBDC71500000000, float 0xBFBC378240000000, float 0xBFBAA7BD40000000, float 0xBFB917A460000000, float 0xBFB7875920000000, float 0xBFB5F6CAC0000000, float 0xBFB4660A20000000, float 0xBFB2D527E0000000, float 0xBFB1440280000000, float 0xBFAF657760000000, float 0xBFAC4284E0000000, float 0xBFA91F70E0000000, float 0xBFA5FBF840000000, float 0xBFA2D85E00000000, float 0xBF9F694460000000, float 0xBF992146A0000000, float 0xBF92D948E0000000, float 0xBF89221000000000, float 0xBF79221000000000, float -0.000000e+00, float 0x3F79221000000000, float 0x3F89221000000000, float 0x3F92D948E0000000, float 0x3F992146A0000000, float 0x3F9F694460000000, float 0x3FA2D85E00000000, float 0x3FA5FBF840000000, float 0x3FA91F70E0000000, float 0x3FAC4284E0000000, float 0x3FAF657760000000, float 0x3FB1440280000000, float 0x3FB2D527E0000000, float 0x3FB4660A20000000, float 0x3FB5F6CAC0000000, float 0x3FB7875920000000, float 0x3FB917A460000000, float 0x3FBAA7BD40000000, float 0x3FBC378240000000, float 0x3FBDC71500000000, float 0x3FBF5653C0000000, float 0x3FC0729F60000000, float 0x3FC139F340000000, float 0x3FC20114E0000000, float 0x3FC2C80C80000000, float 0x3FC38EDA20000000, float 0x3FC4557580000000, float 0x3FC51BDE80000000, float 0x3FC5E21540000000, float 0x3FC6A81120000000, float 0x3FC76DDAC0000000, float 0x3FC83369C0000000, float 0x3FC8F8B580000000, float 0x3FC9BDCF00000000, float 0x3FCA829D00000000, float 0x3FCB473040000000, float 0x3FCC0B8060000000, float 0x3FCCCF8D80000000, float 0x3FCD934F00000000, float 0x3FCE56CD60000000, float 0x3FCF19F800000000, float 0x3FCFDCDF60000000, float 0x3FD04FB980000000, float 0x3FD0B0D960000000, float 0x3FD111D360000000, float 0x3FD1729F60000000, float 0x3FD1D34580000000, float 0x3FD233BDA0000000, float 0x3FD2940780000000, float 0x3FD2F42360000000, float 0x3FD3541100000000, float 0x3FD3B3D080000000, float 0x3FD4135DA0000000, float 0x3FD472B880000000, float 0x3FD4D1E100000000, float 0x3FD530D740000000, float 0x3FD58F9B20000000, float 0x3FD5EE2860000000, float 0x3FD64C7F40000000, float 0x3FD6AA9F80000000, float 0x3FD7088500000000, float 0x3FD7663420000000, float 0x3FD7C3A860000000, float 0x3FD820E200000000, float 0x3FD87DE0E0000000, float 0x3FD8DAA500000000, float 0x3FD9372A40000000, float 0x3FD9937080000000, float 0x3FD9EF7800000000, float 0x3FDA4B4080000000, float 0x3FDAA6CA00000000, float 0x3FDB020C40000000, float 0x3FDB5D0FA0000000, float 0x3FDBB7CFE0000000, float 0x3FDC1248E0000000, float 0x3FDC6C7EA0000000, float 0x3FDCC66D40000000, float 0x3FDD2018A0000000, float 0x3FDD7978A0000000, float 0x3FDDD28D00000000, float 0x3FDE2B5E60000000, float 0x3FDE83E000000000, float 0x3FDEDC1A40000000, float 0x3FDF3404E0000000, float 0x3FDF8BA400000000, float 0x3FDFE2F7C0000000, float 0x3FE01CFBC0000000, float 0x3FE04855E0000000, float 0x3FE0738820000000, float 0x3FE09E9080000000, float 0x3FE0C97100000000, float 0x3FE0F42780000000, float 0x3FE11EB420000000, float 0x3FE14914C0000000, float 0x3FE1734D60000000, float 0x3FE19D5A20000000, float 0x3FE1C73AC0000000, float 0x3FE1F0F160000000, float 0x3FE21A7A00000000, float 0x3FE243D680000000, float 0x3FE26D04E0000000, float 0x3FE2960740000000, float 0x3FE2BEDB80000000, float 0x3FE2E78180000000, float 0x3FE30FF760000000, float 0x3FE3383F00000000, float 0x3FE36058A0000000, float 0x3FE38841E0000000, float 0x3FE3AFFB00000000, float 0x3FE3D781C0000000, float 0x3FE3FED840000000, float 0x3FE425FEA0000000, float 0x3FE44CF280000000, float 0x3FE473B420000000, float 0x3FE49A45A0000000, float 0x3FE4C0A060000000, float 0x3FE4E6CB20000000, float 0x3FE50CC140000000, float 0x3FE5328300000000, float 0x3FE5581060000000, float 0x3FE57D6940000000, float 0x3FE5A28DC0000000, float 0x3FE5C77BC0000000, float 0x3FE5EC3540000000, float 0x3FE610B840000000, float 0x3FE63502A0000000, float 0x3FE65918A0000000, float 0x3FE67CF800000000, float 0x3FE6A09EE0000000, float 0x3FE6C40D00000000, float 0x3FE6E744C0000000, float 0x3FE70A43C0000000, float 0x3FE72D0800000000, float 0x3FE74F93C0000000, float 0x3FE771E6C0000000, float 0x3FE7940140000000, float 0x3FE7B5DEE0000000, float 0x3FE7D783E0000000, float 0x3FE7F8EC00000000, float 0x3FE81A1BA0000000, float 0x3FE83B0E60000000, float 0x3FE85BC440000000, float 0x3FE87C3F80000000, float 0x3FE89C7DE0000000, float 0x3FE8BC7F80000000, float 0x3FE8DC4440000000, float 0x3FE8FBCC20000000, float 0x3FE91B1740000000, float 0x3FE93A2160000000, float 0x3FE958F0C0000000, float 0x3FE9777F20000000, float 0x3FE995CEA0000000, float 0x3FE9B3E140000000, float 0x3FE9D1B2E0000000, float 0x3FE9EF4380000000, float 0x3FEA0C9540000000, float 0x3FEA29A800000000, float 0x3FEA4679C0000000, float 0x3FEA630880000000, float 0x3FEA7F5840000000, float 0x3FEA9B6700000000, float 0x3FEAB732A0000000, float 0x3FEAD2BD40000000, float 0x3FEAEE04C0000000, float 0x3FEB090B40000000, float 0x3FEB23CC80000000, float 0x3FEB3E4CE0000000, float 0x3FEB588A00000000, float 0x3FEB728420000000, float 0x3FEB8C3900000000, float 0x3FEBA5AAC0000000, float 0x3FEBBED740000000, float 0x3FEBD7C0C0000000, float 0x3FEBF064E0000000, float 0x3FEC08C400000000, float 0x3FEC20DDC0000000, float 0x3FEC38B260000000, float 0x3FEC5041C0000000, float 0x3FEC678C00000000, float 0x3FEC7E8EE0000000, float 0x3FEC954A80000000, float 0x3FECABC0E0000000, float 0x3FECC1F000000000, float 0x3FECD7D9E0000000, float 0x3FECED7A60000000, float 0x3FED02D5A0000000, float 0x3FED17E780000000, float 0x3FED2CB200000000, float 0x3FED413560000000, float 0x3FED556F40000000, float 0x3FED6961C0000000, float 0x3FED7D0AE0000000, float 0x3FED906CC0000000, float 0x3FEDA38320000000, float 0x3FEDB65240000000, float 0x3FEDC8D7E0000000, float 0x3FEDDB1420000000, float 0x3FEDED0700000000, float 0x3FEDFEAE60000000, float 0x3FEE100C60000000, float 0x3FEE2120E0000000, float 0x3FEE31EA00000000, float 0x3FEE4269A0000000, float 0x3FEE529FE0000000, float 0x3FEE628880000000, float 0x3FEE7227E0000000, float 0x3FEE817BA0000000, float 0x3FEE9083E0000000, float 0x3FEE9F40A0000000, float 0x3FEEADB1E0000000, float 0x3FEEBBD9C0000000, float 0x3FEEC9B200000000, float 0x3FEED740C0000000, float 0x3FEEE48200000000, float 0x3FEEF177A0000000, float 0x3FEEFE21E0000000, float 0x3FEF0A7E80000000, float 0x3FEF168F80000000, float 0x3FEF225320000000, float 0x3FEF2DC900000000, float 0x3FEF38F360000000, float 0x3FEF43D040000000, float 0x3FEF4E5F80000000, float 0x3FEF58A320000000, float 0x3FEF629740000000, float 0x3FEF6C3FC0000000, float 0x3FEF7598A0000000, float 0x3FEF7EA600000000, float 0x3FEF8765C0000000, float 0x3FEF8FD5C0000000, float 0x3FEF97F840000000, float 0x3FEF9FCF40000000, float 0x3FEFA75680000000, float 0x3FEFAE8E20000000, float 0x3FEFB57A40000000, float 0x3FEFBC16A0000000, float 0x3FEFC26560000000, float 0x3FEFC86480000000, float 0x3FEFCE1600000000, float 0x3FEFD37A00000000, float 0x3FEFD88E40000000, float 0x3FEFDD52C0000000, float 0x3FEFE1CBC0000000, float 0x3FEFE5F300000000, float 0x3FEFE9CCC0000000, float 0x3FEFED58C0000000, float 0x3FEFF09520000000, float 0x3FEFF38400000000, float 0x3FEFF620E0000000, float 0x3FEFF87260000000, float 0x3FEFFA7220000000, float 0x3FEFFC2440000000, float 0x3FEFFD88C0000000, float 0x3FEFFE9DA0000000, float 0x3FEFFF62C0000000, float 0x3FEFFFD820000000], align 16 ; [#uses=1 type=[1024 x float]*]

; [#uses=6]
declare void @llvm.dbg.value(metadata, i64, metadata) nounwind readnone

; [#uses=2]
declare void @llvm.dbg.declare(metadata, metadata) nounwind readnone

; [#uses=0]
define void @dft(float* %real_i, float* %imag_i) nounwind uwtable {
  call void (...)* @_ssdm_op_SpecTopModule([4 x i8]* @dft.str) nounwind
  %tmp_real = alloca [1024 x float], align 16     ; [#uses=2 type=[1024 x float]*]
  %tmp_imag = alloca [1024 x float], align 16     ; [#uses=2 type=[1024 x float]*]
  call void @llvm.dbg.value(metadata !{float* %real_i}, i64 0, metadata !32), !dbg !33 ; [debug line = 4:16] [debug variable = real_i]
  call void @llvm.dbg.value(metadata !{float* %imag_i}, i64 0, metadata !34), !dbg !35 ; [debug line = 4:54] [debug variable = imag_i]
  call void (...)* @_ssdm_SpecArrayDimSize(float* %real_i, i32 1024) nounwind, !dbg !36 ; [debug line = 5:2]
  call void (...)* @_ssdm_SpecArrayDimSize(float* %imag_i, i32 1024) nounwind, !dbg !38 ; [debug line = 5:38]
  call void @llvm.dbg.declare(metadata !{[1024 x float]* %tmp_real}, metadata !39), !dbg !41 ; [debug line = 7:8] [debug variable = tmp_real]
  call void @llvm.dbg.declare(metadata !{[1024 x float]* %tmp_imag}, metadata !42), !dbg !43 ; [debug line = 8:8] [debug variable = tmp_imag]
  br label %1, !dbg !44                           ; [debug line = 10:15]

; <label>:1                                       ; preds = %5, %0
  %i = phi i32 [ 0, %0 ], [ %i.2, %5 ]            ; [#uses=4 type=i32]
  %exitcond2 = icmp eq i32 %i, 1024, !dbg !44     ; [#uses=1 type=i1] [debug line = 10:15]
  br i1 %exitcond2, label %.preheader.preheader, label %2, !dbg !44 ; [debug line = 10:15]

.preheader.preheader:                             ; preds = %1
  br label %.preheader, !dbg !46                  ; [debug line = 21:15]

; <label>:2                                       ; preds = %1
  %tmp = sext i32 %i to i64, !dbg !48             ; [#uses=2 type=i64] [debug line = 11:3]
  %tmp_real.addr = getelementptr inbounds [1024 x float]* %tmp_real, i64 0, i64 %tmp, !dbg !48 ; [#uses=2 type=float*] [debug line = 11:3]
  store float 0.000000e+00, float* %tmp_real.addr, align 4, !dbg !48 ; [debug line = 11:3]
  %tmp_imag.addr = getelementptr inbounds [1024 x float]* %tmp_imag, i64 0, i64 %tmp, !dbg !50 ; [#uses=2 type=float*] [debug line = 12:3]
  store float 0.000000e+00, float* %tmp_imag.addr, align 4, !dbg !50 ; [debug line = 12:3]
  br label %3, !dbg !51                           ; [debug line = 14:16]

; <label>:3                                       ; preds = %4, %2
  %tmp.1 = phi float [ 0.000000e+00, %2 ], [ %tmp.16, %4 ] ; [#uses=2 type=float]
  %tmp.2 = phi float [ 0.000000e+00, %2 ], [ %tmp.12, %4 ] ; [#uses=2 type=float]
  %j = phi i32 [ 0, %2 ], [ %j.1, %4 ]            ; [#uses=4 type=i32]
  %exitcond1 = icmp eq i32 %j, 1024, !dbg !51     ; [#uses=1 type=i1] [debug line = 14:16]
  br i1 %exitcond1, label %5, label %4, !dbg !51  ; [debug line = 14:16]

; <label>:4                                       ; preds = %3
  %tmp.6 = mul nsw i32 %j, %i, !dbg !53           ; [#uses=1 type=i32] [debug line = 15:44]
  %index = srem i32 %tmp.6, 1024, !dbg !53        ; [#uses=1 type=i32] [debug line = 15:44]
  call void @llvm.dbg.value(metadata !{i32 %index}, i64 0, metadata !55), !dbg !53 ; [debug line = 15:44] [debug variable = index]
  %tmp.7 = sext i32 %j to i64, !dbg !57           ; [#uses=2 type=i64] [debug line = 16:4]
  %real_i.addr.1 = getelementptr inbounds float* %real_i, i64 %tmp.7, !dbg !57 ; [#uses=1 type=float*] [debug line = 16:4]
  %real_i.load = load float* %real_i.addr.1, align 4, !dbg !57 ; [#uses=4 type=float] [debug line = 16:4]
  call void (...)* @_ssdm_SpecKeepArrayLoad(float %real_i.load) nounwind
  %tmp.8 = sext i32 %index to i64, !dbg !57       ; [#uses=2 type=i64] [debug line = 16:4]
  %cct.addr = getelementptr inbounds [1024 x float]* @cct, i64 0, i64 %tmp.8, !dbg !57 ; [#uses=1 type=float*] [debug line = 16:4]
  %cct.load = load float* %cct.addr, align 4, !dbg !57 ; [#uses=4 type=float] [debug line = 16:4]
  call void (...)* @_ssdm_SpecKeepArrayLoad(float %cct.load) nounwind
  %tmp.9 = fmul float %real_i.load, %cct.load, !dbg !57 ; [#uses=1 type=float] [debug line = 16:4]
  %imag_i.addr.1 = getelementptr inbounds float* %imag_i, i64 %tmp.7, !dbg !57 ; [#uses=1 type=float*] [debug line = 16:4]
  %imag_i.load = load float* %imag_i.addr.1, align 4, !dbg !57 ; [#uses=4 type=float] [debug line = 16:4]
  call void (...)* @_ssdm_SpecKeepArrayLoad(float %imag_i.load) nounwind
  %sct.addr = getelementptr inbounds [1024 x float]* @sct, i64 0, i64 %tmp.8, !dbg !57 ; [#uses=1 type=float*] [debug line = 16:4]
  %sct.load = load float* %sct.addr, align 4, !dbg !57 ; [#uses=4 type=float] [debug line = 16:4]
  call void (...)* @_ssdm_SpecKeepArrayLoad(float %sct.load) nounwind
  %tmp.10 = fmul float %imag_i.load, %sct.load, !dbg !57 ; [#uses=1 type=float] [debug line = 16:4]
  %tmp.11 = fsub float %tmp.9, %tmp.10, !dbg !57  ; [#uses=1 type=float] [debug line = 16:4]
  call void (...)* @_ssdm_SpecKeepArrayLoad(float %tmp.2) nounwind
  %tmp.12 = fadd float %tmp.2, %tmp.11, !dbg !57  ; [#uses=2 type=float] [debug line = 16:4]
  store float %tmp.12, float* %tmp_real.addr, align 4, !dbg !57 ; [debug line = 16:4]
  call void (...)* @_ssdm_SpecKeepArrayLoad(float %real_i.load) nounwind
  call void (...)* @_ssdm_SpecKeepArrayLoad(float %sct.load) nounwind
  %tmp.13 = fmul float %real_i.load, %sct.load, !dbg !58 ; [#uses=1 type=float] [debug line = 17:4]
  call void (...)* @_ssdm_SpecKeepArrayLoad(float %imag_i.load) nounwind
  call void (...)* @_ssdm_SpecKeepArrayLoad(float %cct.load) nounwind
  %tmp.14 = fmul float %imag_i.load, %cct.load, !dbg !58 ; [#uses=1 type=float] [debug line = 17:4]
  %tmp.15 = fadd float %tmp.13, %tmp.14, !dbg !58 ; [#uses=1 type=float] [debug line = 17:4]
  call void (...)* @_ssdm_SpecKeepArrayLoad(float %tmp.1) nounwind
  %tmp.16 = fadd float %tmp.1, %tmp.15, !dbg !58  ; [#uses=2 type=float] [debug line = 17:4]
  store float %tmp.16, float* %tmp_imag.addr, align 4, !dbg !58 ; [debug line = 17:4]
  %j.1 = add nsw i32 %j, 1, !dbg !59              ; [#uses=1 type=i32] [debug line = 14:46]
  call void @llvm.dbg.value(metadata !{i32 %j.1}, i64 0, metadata !60), !dbg !59 ; [debug line = 14:46] [debug variable = j]
  br label %3, !dbg !59                           ; [debug line = 14:46]

; <label>:5                                       ; preds = %3
  %i.2 = add nsw i32 %i, 1, !dbg !61              ; [#uses=1 type=i32] [debug line = 10:45]
  call void @llvm.dbg.value(metadata !{i32 %i.2}, i64 0, metadata !62), !dbg !61 ; [debug line = 10:45] [debug variable = i]
  br label %1, !dbg !61                           ; [debug line = 10:45]

.preheader:                                       ; preds = %6, %.preheader.preheader
  %i1 = phi i32 [ %i.1, %6 ], [ 0, %.preheader.preheader ] ; [#uses=3 type=i32]
  %exitcond = icmp eq i32 %i1, 1024, !dbg !46     ; [#uses=1 type=i1] [debug line = 21:15]
  br i1 %exitcond, label %7, label %6, !dbg !46   ; [debug line = 21:15]

; <label>:6                                       ; preds = %.preheader
  %tmp.3 = sext i32 %i1 to i64, !dbg !63          ; [#uses=4 type=i64] [debug line = 22:3]
  %tmp_real.addr.1 = getelementptr inbounds [1024 x float]* %tmp_real, i64 0, i64 %tmp.3, !dbg !63 ; [#uses=1 type=float*] [debug line = 22:3]
  %tmp_real.load = load float* %tmp_real.addr.1, align 4, !dbg !63 ; [#uses=2 type=float] [debug line = 22:3]
  call void (...)* @_ssdm_SpecKeepArrayLoad(float %tmp_real.load) nounwind
  %real_i.addr = getelementptr inbounds float* %real_i, i64 %tmp.3, !dbg !63 ; [#uses=1 type=float*] [debug line = 22:3]
  store float %tmp_real.load, float* %real_i.addr, align 4, !dbg !63 ; [debug line = 22:3]
  %tmp_imag.addr.1 = getelementptr inbounds [1024 x float]* %tmp_imag, i64 0, i64 %tmp.3, !dbg !65 ; [#uses=1 type=float*] [debug line = 23:3]
  %tmp_imag.load = load float* %tmp_imag.addr.1, align 4, !dbg !65 ; [#uses=2 type=float] [debug line = 23:3]
  call void (...)* @_ssdm_SpecKeepArrayLoad(float %tmp_imag.load) nounwind
  %imag_i.addr = getelementptr inbounds float* %imag_i, i64 %tmp.3, !dbg !65 ; [#uses=1 type=float*] [debug line = 23:3]
  store float %tmp_imag.load, float* %imag_i.addr, align 4, !dbg !65 ; [debug line = 23:3]
  %i.1 = add nsw i32 %i1, 1, !dbg !66             ; [#uses=1 type=i32] [debug line = 21:45]
  call void @llvm.dbg.value(metadata !{i32 %i.1}, i64 0, metadata !67), !dbg !66 ; [debug line = 21:45] [debug variable = i]
  br label %.preheader, !dbg !66                  ; [debug line = 21:45]

; <label>:7                                       ; preds = %.preheader
  ret void, !dbg !68                              ; [debug line = 26:1]
}

; [#uses=1]
declare void @_ssdm_op_SpecTopModule(...)

; [#uses=12]
declare void @_ssdm_SpecKeepArrayLoad(...)

; [#uses=2]
declare void @_ssdm_SpecArrayDimSize(...) nounwind

; [#uses=1]
declare void @_GLOBAL__I_a() nounwind

!llvm.dbg.cu = !{!0}
!hls.encrypted.func = !{}

!0 = metadata !{i32 786449, i32 0, i32 4, metadata !"D:/Projects/vivado/project_3/dft_1024_precomputed/dft/solution1/.autopilot/db/dft.pragma.2.cpp", metadata !"d:/Projects/vivado/project_3/dft_1024_precomputed", metadata !"clang version 3.1 ", i1 true, i1 false, metadata !"", i32 0, metadata !1, metadata !1, metadata !3, metadata !22} ; [ DW_TAG_compile_unit ]
!1 = metadata !{metadata !2}
!2 = metadata !{i32 0}
!3 = metadata !{metadata !4}
!4 = metadata !{metadata !5, metadata !14, metadata !21}
!5 = metadata !{i32 786478, i32 0, metadata !6, metadata !"dft", metadata !"dft", metadata !"_Z3dftPfS_", metadata !6, i32 4, metadata !7, i1 false, i1 true, i32 0, i32 0, null, i32 256, i1 false, void (float*, float*)* @dft, null, null, metadata !12, i32 5} ; [ DW_TAG_subprogram ]
!6 = metadata !{i32 786473, metadata !"dft.cpp", metadata !"d:/Projects/vivado/project_3/dft_1024_precomputed", null} ; [ DW_TAG_file_type ]
!7 = metadata !{i32 786453, i32 0, metadata !"", i32 0, i32 0, i64 0, i64 0, i64 0, i32 0, null, metadata !8, i32 0, i32 0} ; [ DW_TAG_subroutine_type ]
!8 = metadata !{null, metadata !9, metadata !9}
!9 = metadata !{i32 786447, null, metadata !"", null, i32 0, i64 64, i64 64, i64 0, i32 0, metadata !10} ; [ DW_TAG_pointer_type ]
!10 = metadata !{i32 786454, null, metadata !"DTYPE", metadata !6, i32 2, i64 0, i64 0, i64 0, i32 0, metadata !11} ; [ DW_TAG_typedef ]
!11 = metadata !{i32 786468, null, metadata !"float", null, i32 0, i64 32, i64 32, i64 0, i32 0, i32 4} ; [ DW_TAG_base_type ]
!12 = metadata !{metadata !13}
!13 = metadata !{i32 786468}                      ; [ DW_TAG_base_type ]
!14 = metadata !{i32 786478, i32 0, null, metadata !"ssdm_global_array_dftpp0cppaplinecpp", metadata !"ssdm_global_array_dftpp0cppaplinecpp", metadata !"_ZN36ssdm_global_array_dftpp0cppaplinecppC1Ev", metadata !6, i32 30, metadata !15, i1 false, i1 true, i32 0, i32 0, null, i32 256, i1 false, null, null, metadata !20, metadata !12, i32 30} ; [ DW_TAG_subprogram ]
!15 = metadata !{i32 786453, i32 0, metadata !"", i32 0, i32 0, i64 0, i64 0, i64 0, i32 0, null, metadata !16, i32 0, i32 0} ; [ DW_TAG_subroutine_type ]
!16 = metadata !{null, metadata !17}
!17 = metadata !{i32 786447, i32 0, metadata !"", i32 0, i32 0, i64 64, i64 64, i64 0, i32 64, metadata !18} ; [ DW_TAG_pointer_type ]
!18 = metadata !{i32 786434, null, metadata !"ssdm_global_array_dftpp0cppaplinecpp", metadata !6, i32 28, i64 8, i64 8, i32 0, i32 0, null, metadata !19, i32 0, null, null} ; [ DW_TAG_class_type ]
!19 = metadata !{metadata !20}
!20 = metadata !{i32 786478, i32 0, metadata !18, metadata !"ssdm_global_array_dftpp0cppaplinecpp", metadata !"ssdm_global_array_dftpp0cppaplinecpp", metadata !"", metadata !6, i32 30, metadata !15, i1 false, i1 false, i32 0, i32 0, null, i32 256, i1 false, null, null, i32 0, metadata !12, i32 30} ; [ DW_TAG_subprogram ]
!21 = metadata !{i32 786478, i32 0, null, metadata !"ssdm_global_array_dftpp0cppaplinecpp", metadata !"ssdm_global_array_dftpp0cppaplinecpp", metadata !"_ZN36ssdm_global_array_dftpp0cppaplinecppC2Ev", metadata !6, i32 30, metadata !15, i1 false, i1 true, i32 0, i32 0, null, i32 256, i1 false, null, null, metadata !20, metadata !12, i32 30} ; [ DW_TAG_subprogram ]
!22 = metadata !{metadata !23}
!23 = metadata !{metadata !24, metadata !25, metadata !31}
!24 = metadata !{i32 786484, i32 0, null, metadata !"ssdm_global_array_ins", metadata !"ssdm_global_array_ins", metadata !"_ZL21ssdm_global_array_ins", metadata !6, i32 35, metadata !18, i32 1, i32 1, null} ; [ DW_TAG_variable ]
!25 = metadata !{i32 786484, i32 0, null, metadata !"sct", metadata !"sct", metadata !"_ZL3sct", metadata !26, i32 3, metadata !27, i32 1, i32 1, [1024 x float]* @sct} ; [ DW_TAG_variable ]
!26 = metadata !{i32 786473, metadata !"./coefficients1024.h", metadata !"d:/Projects/vivado/project_3/dft_1024_precomputed", null} ; [ DW_TAG_file_type ]
!27 = metadata !{i32 786433, null, metadata !"", null, i32 0, i64 32768, i64 32, i32 0, i32 0, metadata !28, metadata !29, i32 0, i32 0} ; [ DW_TAG_array_type ]
!28 = metadata !{i32 786470, null, metadata !"", null, i32 0, i64 0, i64 0, i64 0, i32 0, metadata !10} ; [ DW_TAG_const_type ]
!29 = metadata !{metadata !30}
!30 = metadata !{i32 786465, i64 0, i64 1023}     ; [ DW_TAG_subrange_type ]
!31 = metadata !{i32 786484, i32 0, null, metadata !"cct", metadata !"cct", metadata !"_ZL3cct", metadata !26, i32 1, metadata !27, i32 1, i32 1, [1024 x float]* @cct} ; [ DW_TAG_variable ]
!32 = metadata !{i32 786689, metadata !5, metadata !"real_i", metadata !6, i32 16777220, metadata !9, i32 0, i32 0} ; [ DW_TAG_arg_variable ]
!33 = metadata !{i32 4, i32 16, metadata !5, null}
!34 = metadata !{i32 786689, metadata !5, metadata !"imag_i", metadata !6, i32 33554436, metadata !9, i32 0, i32 0} ; [ DW_TAG_arg_variable ]
!35 = metadata !{i32 4, i32 54, metadata !5, null}
!36 = metadata !{i32 5, i32 2, metadata !37, null}
!37 = metadata !{i32 786443, metadata !5, i32 5, i32 1, metadata !6, i32 0} ; [ DW_TAG_lexical_block ]
!38 = metadata !{i32 5, i32 38, metadata !37, null}
!39 = metadata !{i32 786688, metadata !37, metadata !"tmp_real", metadata !6, i32 7, metadata !40, i32 0, i32 0} ; [ DW_TAG_auto_variable ]
!40 = metadata !{i32 786433, null, metadata !"", null, i32 0, i64 32768, i64 32, i32 0, i32 0, metadata !10, metadata !29, i32 0, i32 0} ; [ DW_TAG_array_type ]
!41 = metadata !{i32 7, i32 8, metadata !37, null}
!42 = metadata !{i32 786688, metadata !37, metadata !"tmp_imag", metadata !6, i32 8, metadata !40, i32 0, i32 0} ; [ DW_TAG_auto_variable ]
!43 = metadata !{i32 8, i32 8, metadata !37, null}
!44 = metadata !{i32 10, i32 15, metadata !45, null}
!45 = metadata !{i32 786443, metadata !37, i32 10, i32 2, metadata !6, i32 1} ; [ DW_TAG_lexical_block ]
!46 = metadata !{i32 21, i32 15, metadata !47, null}
!47 = metadata !{i32 786443, metadata !37, i32 21, i32 2, metadata !6, i32 5} ; [ DW_TAG_lexical_block ]
!48 = metadata !{i32 11, i32 3, metadata !49, null}
!49 = metadata !{i32 786443, metadata !45, i32 10, i32 50, metadata !6, i32 2} ; [ DW_TAG_lexical_block ]
!50 = metadata !{i32 12, i32 3, metadata !49, null}
!51 = metadata !{i32 14, i32 16, metadata !52, null}
!52 = metadata !{i32 786443, metadata !49, i32 14, i32 3, metadata !6, i32 3} ; [ DW_TAG_lexical_block ]
!53 = metadata !{i32 15, i32 44, metadata !54, null}
!54 = metadata !{i32 786443, metadata !52, i32 14, i32 51, metadata !6, i32 4} ; [ DW_TAG_lexical_block ]
!55 = metadata !{i32 786688, metadata !54, metadata !"index", metadata !6, i32 15, metadata !56, i32 0, i32 0} ; [ DW_TAG_auto_variable ]
!56 = metadata !{i32 786468, null, metadata !"int", null, i32 0, i64 32, i64 32, i64 0, i32 0, i32 5} ; [ DW_TAG_base_type ]
!57 = metadata !{i32 16, i32 4, metadata !54, null}
!58 = metadata !{i32 17, i32 4, metadata !54, null}
!59 = metadata !{i32 14, i32 46, metadata !52, null}
!60 = metadata !{i32 786688, metadata !52, metadata !"j", metadata !6, i32 14, metadata !56, i32 0, i32 0} ; [ DW_TAG_auto_variable ]
!61 = metadata !{i32 10, i32 45, metadata !45, null}
!62 = metadata !{i32 786688, metadata !45, metadata !"i", metadata !6, i32 10, metadata !56, i32 0, i32 0} ; [ DW_TAG_auto_variable ]
!63 = metadata !{i32 22, i32 3, metadata !64, null}
!64 = metadata !{i32 786443, metadata !47, i32 21, i32 50, metadata !6, i32 6} ; [ DW_TAG_lexical_block ]
!65 = metadata !{i32 23, i32 3, metadata !64, null}
!66 = metadata !{i32 21, i32 45, metadata !47, null}
!67 = metadata !{i32 786688, metadata !47, metadata !"i", metadata !6, i32 21, metadata !56, i32 0, i32 0} ; [ DW_TAG_auto_variable ]
!68 = metadata !{i32 26, i32 1, metadata !37, null}
