; ModuleID = 'D:/Projects/vivado/project_3/dft_256_precomputed/dft/dft_opt6/.autopilot/db/a.o.3.bc'
target datalayout = "e-p:64:64:64-i1:8:8-i8:8:8-i16:16:16-i32:32:32-i64:64:64-f32:32:32-f64:64:64-v64:64:64-v128:128:128-a0:0:64-s0:64:64-f80:128:128-n8:16:32:64-S128"
target triple = "x86_64-w64-mingw32"

@sct_7 = internal unnamed_addr constant [32 x float] [float 0xBFC5E21540000000, float 0xBFD7088500000000, float 0xBFE11EB420000000, float 0xBFE610B840000000, float 0xBFEA29A800000000, float 0xBFED413560000000, float 0xBFEF38F360000000, float 0xBFEFFD88C0000000, float 0xBFEF8765C0000000, float 0xBFEDDB1420000000, float 0xBFEB090B40000000, float 0xBFE72D0800000000, float 0xBFE26D04E0000000, float 0xBFD9EF7800000000, float 0xBFCC0B8060000000, float 0xBF992146A0000000, float 0x3FC5E21540000000, float 0x3FD7088500000000, float 0x3FE11EB420000000, float 0x3FE610B840000000, float 0x3FEA29A800000000, float 0x3FED413560000000, float 0x3FEF38F360000000, float 0x3FEFFD88C0000000, float 0x3FEF8765C0000000, float 0x3FEDDB1420000000, float 0x3FEB090B40000000, float 0x3FE72D0800000000, float 0x3FE26D04E0000000, float 0x3FD9EF7800000000, float 0x3FCC0B8060000000, float 0x3F992146A0000000] ; [#uses=7 type=[32 x float]*]
@sct_6 = internal unnamed_addr constant [32 x float] [float 0xBFC2C80C80000000, float 0xBFD58F9B20000000, float 0xBFE0738820000000, float 0xBFE57D6940000000, float 0xBFE9B3E140000000, float 0xBFECED7A60000000, float 0xBFEF0A7E80000000, float 0xBFEFF620E0000000, float 0xBFEFA75680000000, float 0xBFEE2120E0000000, float 0xBFEB728420000000, float 0xBFE7B5DEE0000000, float 0xBFE30FF760000000, float 0xBFDB5D0FA0000000, float 0xBFCF19F800000000, float 0xBFA91F70E0000000, float 0x3FC2C80C80000000, float 0x3FD58F9B20000000, float 0x3FE0738820000000, float 0x3FE57D6940000000, float 0x3FE9B3E140000000, float 0x3FECED7A60000000, float 0x3FEF0A7E80000000, float 0x3FEFF620E0000000, float 0x3FEFA75680000000, float 0x3FEE2120E0000000, float 0x3FEB728420000000, float 0x3FE7B5DEE0000000, float 0x3FE30FF760000000, float 0x3FDB5D0FA0000000, float 0x3FCF19F800000000, float 0x3FA91F70E0000000] ; [#uses=7 type=[32 x float]*]
@sct_5 = internal unnamed_addr constant [32 x float] [float 0xBFBF5653C0000000, float 0xBFD4135DA0000000, float 0xBFDF8BA400000000, float 0xBFE4E6CB20000000, float 0xBFE93A2160000000, float 0xBFEC954A80000000, float 0xBFEED740C0000000, float 0xBFEFE9CCC0000000, float 0xBFEFC26560000000, float 0xBFEE628880000000, float 0xBFEBD7C0C0000000, float 0xBFE83B0E60000000, float 0xBFE3AFFB00000000, float 0xBFDCC66D40000000, float 0xBFD111D360000000, float 0xBFB2D527E0000000, float 0x3FBF5653C0000000, float 0x3FD4135DA0000000, float 0x3FDF8BA400000000, float 0x3FE4E6CB20000000, float 0x3FE93A2160000000, float 0x3FEC954A80000000, float 0x3FEED740C0000000, float 0x3FEFE9CCC0000000, float 0x3FEFC26560000000, float 0x3FEE628880000000, float 0x3FEBD7C0C0000000, float 0x3FE83B0E60000000, float 0x3FE3AFFB00000000, float 0x3FDCC66D40000000, float 0x3FD111D360000000, float 0x3FB2D527E0000000] ; [#uses=7 type=[32 x float]*]
@sct_4 = internal unnamed_addr constant [32 x float] [float 0xBFB917A460000000, float 0xBFD2940780000000, float 0xBFDE2B5E60000000, float 0xBFE44CF280000000, float 0xBFE8BC7F80000000, float 0xBFEC38B260000000, float 0xBFEE9F40A0000000, float 0xBFEFD88E40000000, float 0xBFEFD88E40000000, float 0xBFEE9F40A0000000, float 0xBFEC38B260000000, float 0xBFE8BC7F80000000, float 0xBFE44CF280000000, float 0xBFDE2B5E60000000, float 0xBFD2940780000000, float 0xBFB917A460000000, float 0x3FB917A460000000, float 0x3FD2940780000000, float 0x3FDE2B5E60000000, float 0x3FE44CF280000000, float 0x3FE8BC7F80000000, float 0x3FEC38B260000000, float 0x3FEE9F40A0000000, float 0x3FEFD88E40000000, float 0x3FEFD88E40000000, float 0x3FEE9F40A0000000, float 0x3FEC38B260000000, float 0x3FE8BC7F80000000, float 0x3FE44CF280000000, float 0x3FDE2B5E60000000, float 0x3FD2940780000000, float 0x3FB917A460000000] ; [#uses=7 type=[32 x float]*]
@sct_3 = internal unnamed_addr constant [32 x float] [float 0xBFB2D527E0000000, float 0xBFD111D360000000, float 0xBFDCC66D40000000, float 0xBFE3AFFB00000000, float 0xBFE83B0E60000000, float 0xBFEBD7C0C0000000, float 0xBFEE628880000000, float 0xBFEFC26560000000, float 0xBFEFE9CCC0000000, float 0xBFEED740C0000000, float 0xBFEC954A80000000, float 0xBFE93A2160000000, float 0xBFE4E6CB20000000, float 0xBFDF8BA400000000, float 0xBFD4135DA0000000, float 0xBFBF5653C0000000, float 0x3FB2D527E0000000, float 0x3FD111D360000000, float 0x3FDCC66D40000000, float 0x3FE3AFFB00000000, float 0x3FE83B0E60000000, float 0x3FEBD7C0C0000000, float 0x3FEE628880000000, float 0x3FEFC26560000000, float 0x3FEFE9CCC0000000, float 0x3FEED740C0000000, float 0x3FEC954A80000000, float 0x3FE93A2160000000, float 0x3FE4E6CB20000000, float 0x3FDF8BA400000000, float 0x3FD4135DA0000000, float 0x3FBF5653C0000000] ; [#uses=7 type=[32 x float]*]
@sct_2 = internal unnamed_addr constant [32 x float] [float 0xBFA91F70E0000000, float 0xBFCF19F800000000, float 0xBFDB5D0FA0000000, float 0xBFE30FF760000000, float 0xBFE7B5DEE0000000, float 0xBFEB728420000000, float 0xBFEE2120E0000000, float 0xBFEFA75680000000, float 0xBFEFF620E0000000, float 0xBFEF0A7E80000000, float 0xBFECED7A60000000, float 0xBFE9B3E140000000, float 0xBFE57D6940000000, float 0xBFE0738820000000, float 0xBFD58F9B20000000, float 0xBFC2C80C80000000, float 0x3FA91F70E0000000, float 0x3FCF19F800000000, float 0x3FDB5D0FA0000000, float 0x3FE30FF760000000, float 0x3FE7B5DEE0000000, float 0x3FEB728420000000, float 0x3FEE2120E0000000, float 0x3FEFA75680000000, float 0x3FEFF620E0000000, float 0x3FEF0A7E80000000, float 0x3FECED7A60000000, float 0x3FE9B3E140000000, float 0x3FE57D6940000000, float 0x3FE0738820000000, float 0x3FD58F9B20000000, float 0x3FC2C80C80000000] ; [#uses=7 type=[32 x float]*]
@sct_1 = internal unnamed_addr constant [32 x float] [float 0xBF992146A0000000, float 0xBFCC0B8060000000, float 0xBFD9EF7800000000, float 0xBFE26D04E0000000, float 0xBFE72D0800000000, float 0xBFEB090B40000000, float 0xBFEDDB1420000000, float 0xBFEF8765C0000000, float 0xBFEFFD88C0000000, float 0xBFEF38F360000000, float 0xBFED413560000000, float 0xBFEA29A800000000, float 0xBFE610B840000000, float 0xBFE11EB420000000, float 0xBFD7088500000000, float 0xBFC5E21540000000, float 0x3F992146A0000000, float 0x3FCC0B8060000000, float 0x3FD9EF7800000000, float 0x3FE26D04E0000000, float 0x3FE72D0800000000, float 0x3FEB090B40000000, float 0x3FEDDB1420000000, float 0x3FEF8765C0000000, float 0x3FEFFD88C0000000, float 0x3FEF38F360000000, float 0x3FED413560000000, float 0x3FEA29A800000000, float 0x3FE610B840000000, float 0x3FE11EB420000000, float 0x3FD7088500000000, float 0x3FC5E21540000000] ; [#uses=7 type=[32 x float]*]
@sct_0 = internal unnamed_addr constant [32 x float] [float 0.000000e+00, float 0xBFC8F8B580000000, float 0xBFD87DE0E0000000, float 0xBFE1C73AC0000000, float 0xBFE6A09EE0000000, float 0xBFEA9B6700000000, float 0xBFED906CC0000000, float 0xBFEF629740000000, float -1.000000e+00, float 0xBFEF629740000000, float 0xBFED906CC0000000, float 0xBFEA9B6700000000, float 0xBFE6A09EE0000000, float 0xBFE1C73AC0000000, float 0xBFD87DE0E0000000, float 0xBFC8F8B580000000, float -0.000000e+00, float 0x3FC8F8B580000000, float 0x3FD87DE0E0000000, float 0x3FE1C73AC0000000, float 0x3FE6A09EE0000000, float 0x3FEA9B6700000000, float 0x3FED906CC0000000, float 0x3FEF629740000000, float 1.000000e+00, float 0x3FEF629740000000, float 0x3FED906CC0000000, float 0x3FEA9B6700000000, float 0x3FE6A09EE0000000, float 0x3FE1C73AC0000000, float 0x3FD87DE0E0000000, float 0x3FC8F8B580000000] ; [#uses=8 type=[32 x float]*]
@llvm_global_ctors_1 = appending global [1 x void ()*] [void ()* @_GLOBAL__I_a] ; [#uses=0 type=[1 x void ()*]*]
@llvm_global_ctors_0 = appending global [1 x i32] [i32 65535] ; [#uses=0 type=[1 x i32]*]
@dft_str = internal unnamed_addr constant [4 x i8] c"dft\00" ; [#uses=1 type=[4 x i8]*]
@cct_7 = internal unnamed_addr constant [32 x float] [float 0x3FEF8765C0000000, float 0x3FEDDB1420000000, float 0x3FEB090B40000000, float 0x3FE72D0800000000, float 0x3FE26D04E0000000, float 0x3FD9EF7800000000, float 0x3FCC0B8060000000, float 0x3F992146A0000000, float 0xBFC5E21540000000, float 0xBFD7088500000000, float 0xBFE11EB420000000, float 0xBFE610B840000000, float 0xBFEA29A800000000, float 0xBFED413560000000, float 0xBFEF38F360000000, float 0xBFEFFD88C0000000, float 0xBFEF8765C0000000, float 0xBFEDDB1420000000, float 0xBFEB090B40000000, float 0xBFE72D0800000000, float 0xBFE26D04E0000000, float 0xBFD9EF7800000000, float 0xBFCC0B8060000000, float 0xBF992146A0000000, float 0x3FC5E21540000000, float 0x3FD7088500000000, float 0x3FE11EB420000000, float 0x3FE610B840000000, float 0x3FEA29A800000000, float 0x3FED413560000000, float 0x3FEF38F360000000, float 0x3FEFFD88C0000000] ; [#uses=7 type=[32 x float]*]
@cct_6 = internal unnamed_addr constant [32 x float] [float 0x3FEFA75680000000, float 0x3FEE2120E0000000, float 0x3FEB728420000000, float 0x3FE7B5DEE0000000, float 0x3FE30FF760000000, float 0x3FDB5D0FA0000000, float 0x3FCF19F800000000, float 0x3FA91F70E0000000, float 0xBFC2C80C80000000, float 0xBFD58F9B20000000, float 0xBFE0738820000000, float 0xBFE57D6940000000, float 0xBFE9B3E140000000, float 0xBFECED7A60000000, float 0xBFEF0A7E80000000, float 0xBFEFF620E0000000, float 0xBFEFA75680000000, float 0xBFEE2120E0000000, float 0xBFEB728420000000, float 0xBFE7B5DEE0000000, float 0xBFE30FF760000000, float 0xBFDB5D0FA0000000, float 0xBFCF19F800000000, float 0xBFA91F70E0000000, float 0x3FC2C80C80000000, float 0x3FD58F9B20000000, float 0x3FE0738820000000, float 0x3FE57D6940000000, float 0x3FE9B3E140000000, float 0x3FECED7A60000000, float 0x3FEF0A7E80000000, float 0x3FEFF620E0000000] ; [#uses=7 type=[32 x float]*]
@cct_5 = internal unnamed_addr constant [32 x float] [float 0x3FEFC26560000000, float 0x3FEE628880000000, float 0x3FEBD7C0C0000000, float 0x3FE83B0E60000000, float 0x3FE3AFFB00000000, float 0x3FDCC66D40000000, float 0x3FD111D360000000, float 0x3FB2D527E0000000, float 0xBFBF5653C0000000, float 0xBFD4135DA0000000, float 0xBFDF8BA400000000, float 0xBFE4E6CB20000000, float 0xBFE93A2160000000, float 0xBFEC954A80000000, float 0xBFEED740C0000000, float 0xBFEFE9CCC0000000, float 0xBFEFC26560000000, float 0xBFEE628880000000, float 0xBFEBD7C0C0000000, float 0xBFE83B0E60000000, float 0xBFE3AFFB00000000, float 0xBFDCC66D40000000, float 0xBFD111D360000000, float 0xBFB2D527E0000000, float 0x3FBF5653C0000000, float 0x3FD4135DA0000000, float 0x3FDF8BA400000000, float 0x3FE4E6CB20000000, float 0x3FE93A2160000000, float 0x3FEC954A80000000, float 0x3FEED740C0000000, float 0x3FEFE9CCC0000000] ; [#uses=7 type=[32 x float]*]
@cct_4 = internal unnamed_addr constant [32 x float] [float 0x3FEFD88E40000000, float 0x3FEE9F40A0000000, float 0x3FEC38B260000000, float 0x3FE8BC7F80000000, float 0x3FE44CF280000000, float 0x3FDE2B5E60000000, float 0x3FD2940780000000, float 0x3FB917A460000000, float 0xBFB917A460000000, float 0xBFD2940780000000, float 0xBFDE2B5E60000000, float 0xBFE44CF280000000, float 0xBFE8BC7F80000000, float 0xBFEC38B260000000, float 0xBFEE9F40A0000000, float 0xBFEFD88E40000000, float 0xBFEFD88E40000000, float 0xBFEE9F40A0000000, float 0xBFEC38B260000000, float 0xBFE8BC7F80000000, float 0xBFE44CF280000000, float 0xBFDE2B5E60000000, float 0xBFD2940780000000, float 0xBFB917A460000000, float 0x3FB917A460000000, float 0x3FD2940780000000, float 0x3FDE2B5E60000000, float 0x3FE44CF280000000, float 0x3FE8BC7F80000000, float 0x3FEC38B260000000, float 0x3FEE9F40A0000000, float 0x3FEFD88E40000000] ; [#uses=7 type=[32 x float]*]
@cct_3 = internal unnamed_addr constant [32 x float] [float 0x3FEFE9CCC0000000, float 0x3FEED740C0000000, float 0x3FEC954A80000000, float 0x3FE93A2160000000, float 0x3FE4E6CB20000000, float 0x3FDF8BA400000000, float 0x3FD4135DA0000000, float 0x3FBF5653C0000000, float 0xBFB2D527E0000000, float 0xBFD111D360000000, float 0xBFDCC66D40000000, float 0xBFE3AFFB00000000, float 0xBFE83B0E60000000, float 0xBFEBD7C0C0000000, float 0xBFEE628880000000, float 0xBFEFC26560000000, float 0xBFEFE9CCC0000000, float 0xBFEED740C0000000, float 0xBFEC954A80000000, float 0xBFE93A2160000000, float 0xBFE4E6CB20000000, float 0xBFDF8BA400000000, float 0xBFD4135DA0000000, float 0xBFBF5653C0000000, float 0x3FB2D527E0000000, float 0x3FD111D360000000, float 0x3FDCC66D40000000, float 0x3FE3AFFB00000000, float 0x3FE83B0E60000000, float 0x3FEBD7C0C0000000, float 0x3FEE628880000000, float 0x3FEFC26560000000] ; [#uses=7 type=[32 x float]*]
@cct_2 = internal unnamed_addr constant [32 x float] [float 0x3FEFF620E0000000, float 0x3FEF0A7E80000000, float 0x3FECED7A60000000, float 0x3FE9B3E140000000, float 0x3FE57D6940000000, float 0x3FE0738820000000, float 0x3FD58F9B20000000, float 0x3FC2C80C80000000, float 0xBFA91F70E0000000, float 0xBFCF19F800000000, float 0xBFDB5D0FA0000000, float 0xBFE30FF760000000, float 0xBFE7B5DEE0000000, float 0xBFEB728420000000, float 0xBFEE2120E0000000, float 0xBFEFA75680000000, float 0xBFEFF620E0000000, float 0xBFEF0A7E80000000, float 0xBFECED7A60000000, float 0xBFE9B3E140000000, float 0xBFE57D6940000000, float 0xBFE0738820000000, float 0xBFD58F9B20000000, float 0xBFC2C80C80000000, float 0x3FA91F70E0000000, float 0x3FCF19F800000000, float 0x3FDB5D0FA0000000, float 0x3FE30FF760000000, float 0x3FE7B5DEE0000000, float 0x3FEB728420000000, float 0x3FEE2120E0000000, float 0x3FEFA75680000000] ; [#uses=7 type=[32 x float]*]
@cct_1 = internal unnamed_addr constant [32 x float] [float 0x3FEFFD88C0000000, float 0x3FEF38F360000000, float 0x3FED413560000000, float 0x3FEA29A800000000, float 0x3FE610B840000000, float 0x3FE11EB420000000, float 0x3FD7088500000000, float 0x3FC5E21540000000, float 0xBF992146A0000000, float 0xBFCC0B8060000000, float 0xBFD9EF7800000000, float 0xBFE26D04E0000000, float 0xBFE72D0800000000, float 0xBFEB090B40000000, float 0xBFEDDB1420000000, float 0xBFEF8765C0000000, float 0xBFEFFD88C0000000, float 0xBFEF38F360000000, float 0xBFED413560000000, float 0xBFEA29A800000000, float 0xBFE610B840000000, float 0xBFE11EB420000000, float 0xBFD7088500000000, float 0xBFC5E21540000000, float 0x3F992146A0000000, float 0x3FCC0B8060000000, float 0x3FD9EF7800000000, float 0x3FE26D04E0000000, float 0x3FE72D0800000000, float 0x3FEB090B40000000, float 0x3FEDDB1420000000, float 0x3FEF8765C0000000] ; [#uses=7 type=[32 x float]*]
@cct_0 = internal unnamed_addr constant [32 x float] [float 1.000000e+00, float 0x3FEF629740000000, float 0x3FED906CC0000000, float 0x3FEA9B6700000000, float 0x3FE6A09EE0000000, float 0x3FE1C73AC0000000, float 0x3FD87DE0E0000000, float 0x3FC8F8B580000000, float 0.000000e+00, float 0xBFC8F8B580000000, float 0xBFD87DE0E0000000, float 0xBFE1C73AC0000000, float 0xBFE6A09EE0000000, float 0xBFEA9B6700000000, float 0xBFED906CC0000000, float 0xBFEF629740000000, float -1.000000e+00, float 0xBFEF629740000000, float 0xBFED906CC0000000, float 0xBFEA9B6700000000, float 0xBFE6A09EE0000000, float 0xBFE1C73AC0000000, float 0xBFD87DE0E0000000, float 0xBFC8F8B580000000, float -0.000000e+00, float 0x3FC8F8B580000000, float 0x3FD87DE0E0000000, float 0x3FE1C73AC0000000, float 0x3FE6A09EE0000000, float 0x3FEA9B6700000000, float 0x3FED906CC0000000, float 0x3FEF629740000000] ; [#uses=8 type=[32 x float]*]
@p_str3 = private unnamed_addr constant [9 x i8] c"Loop_Col\00", align 1 ; [#uses=1 type=[9 x i8]*]
@p_str2 = private unnamed_addr constant [9 x i8] c"Loop_Row\00", align 1 ; [#uses=3 type=[9 x i8]*]

; [#uses=1]
declare i9 @llvm.part.select.i9(i9, i32, i32) nounwind readnone

; [#uses=1]
declare i8 @llvm.part.select.i8(i8, i32, i32) nounwind readnone

; [#uses=1]
declare i17 @llvm.part.select.i17(i17, i32, i32) nounwind readnone

; [#uses=33]
declare void @llvm.dbg.value(metadata, i64, metadata) nounwind readnone

; [#uses=0]
define void @dft([32 x float]* %real_i_0, [32 x float]* %real_i_1, [32 x float]* %real_i_2, [32 x float]* %real_i_3, [32 x float]* %real_i_4, [32 x float]* %real_i_5, [32 x float]* %real_i_6, [32 x float]* %real_i_7, [32 x float]* %imag_i_0, [32 x float]* %imag_i_1, [32 x float]* %imag_i_2, [32 x float]* %imag_i_3, [32 x float]* %imag_i_4, [32 x float]* %imag_i_5, [32 x float]* %imag_i_6, [32 x float]* %imag_i_7, [32 x float]* %real_o_0, [32 x float]* %real_o_1, [32 x float]* %real_o_2, [32 x float]* %real_o_3, [32 x float]* %real_o_4, [32 x float]* %real_o_5, [32 x float]* %real_o_6, [32 x float]* %real_o_7, [32 x float]* %imag_o_0, [32 x float]* %imag_o_1, [32 x float]* %imag_o_2, [32 x float]* %imag_o_3, [32 x float]* %imag_o_4, [32 x float]* %imag_o_5, [32 x float]* %imag_o_6, [32 x float]* %imag_o_7) {
  call void (...)* @_ssdm_op_SpecBitsMap([32 x float]* %real_i_7), !map !7
  call void (...)* @_ssdm_op_SpecBitsMap([32 x float]* %real_i_6), !map !13
  call void (...)* @_ssdm_op_SpecBitsMap([32 x float]* %real_i_5), !map !19
  call void (...)* @_ssdm_op_SpecBitsMap([32 x float]* %real_i_4), !map !25
  call void (...)* @_ssdm_op_SpecBitsMap([32 x float]* %real_i_3), !map !31
  call void (...)* @_ssdm_op_SpecBitsMap([32 x float]* %real_i_2), !map !37
  call void (...)* @_ssdm_op_SpecBitsMap([32 x float]* %real_i_1), !map !43
  call void (...)* @_ssdm_op_SpecBitsMap([32 x float]* %real_i_0), !map !49
  call void (...)* @_ssdm_op_SpecBitsMap([32 x float]* %imag_i_7), !map !55
  call void (...)* @_ssdm_op_SpecBitsMap([32 x float]* %imag_i_6), !map !59
  call void (...)* @_ssdm_op_SpecBitsMap([32 x float]* %imag_i_5), !map !63
  call void (...)* @_ssdm_op_SpecBitsMap([32 x float]* %imag_i_4), !map !67
  call void (...)* @_ssdm_op_SpecBitsMap([32 x float]* %imag_i_3), !map !71
  call void (...)* @_ssdm_op_SpecBitsMap([32 x float]* %imag_i_2), !map !75
  call void (...)* @_ssdm_op_SpecBitsMap([32 x float]* %imag_i_1), !map !79
  call void (...)* @_ssdm_op_SpecBitsMap([32 x float]* %imag_i_0), !map !83
  call void (...)* @_ssdm_op_SpecBitsMap([32 x float]* %real_o_7), !map !87
  call void (...)* @_ssdm_op_SpecBitsMap([32 x float]* %real_o_6), !map !91
  call void (...)* @_ssdm_op_SpecBitsMap([32 x float]* %real_o_5), !map !95
  call void (...)* @_ssdm_op_SpecBitsMap([32 x float]* %real_o_4), !map !99
  call void (...)* @_ssdm_op_SpecBitsMap([32 x float]* %real_o_3), !map !103
  call void (...)* @_ssdm_op_SpecBitsMap([32 x float]* %real_o_2), !map !107
  call void (...)* @_ssdm_op_SpecBitsMap([32 x float]* %real_o_1), !map !111
  call void (...)* @_ssdm_op_SpecBitsMap([32 x float]* %real_o_0), !map !115
  call void (...)* @_ssdm_op_SpecBitsMap([32 x float]* %imag_o_7), !map !119
  call void (...)* @_ssdm_op_SpecBitsMap([32 x float]* %imag_o_6), !map !123
  call void (...)* @_ssdm_op_SpecBitsMap([32 x float]* %imag_o_5), !map !127
  call void (...)* @_ssdm_op_SpecBitsMap([32 x float]* %imag_o_4), !map !131
  call void (...)* @_ssdm_op_SpecBitsMap([32 x float]* %imag_o_3), !map !135
  call void (...)* @_ssdm_op_SpecBitsMap([32 x float]* %imag_o_2), !map !139
  call void (...)* @_ssdm_op_SpecBitsMap([32 x float]* %imag_o_1), !map !143
  call void (...)* @_ssdm_op_SpecBitsMap([32 x float]* %imag_o_0), !map !147
  call void (...)* @_ssdm_op_SpecTopModule([4 x i8]* @dft_str) nounwind
  call void @llvm.dbg.value(metadata !{[32 x float]* %real_i_0}, i64 0, metadata !151), !dbg !165 ; [debug line = 12:16] [debug variable = real_i[0]]
  call void @llvm.dbg.value(metadata !{[32 x float]* %real_i_1}, i64 0, metadata !166), !dbg !165 ; [debug line = 12:16] [debug variable = real_i[1]]
  call void @llvm.dbg.value(metadata !{[32 x float]* %real_i_2}, i64 0, metadata !167), !dbg !165 ; [debug line = 12:16] [debug variable = real_i[2]]
  call void @llvm.dbg.value(metadata !{[32 x float]* %real_i_3}, i64 0, metadata !168), !dbg !165 ; [debug line = 12:16] [debug variable = real_i[3]]
  call void @llvm.dbg.value(metadata !{[32 x float]* %real_i_4}, i64 0, metadata !169), !dbg !165 ; [debug line = 12:16] [debug variable = real_i[4]]
  call void @llvm.dbg.value(metadata !{[32 x float]* %real_i_5}, i64 0, metadata !170), !dbg !165 ; [debug line = 12:16] [debug variable = real_i[5]]
  call void @llvm.dbg.value(metadata !{[32 x float]* %real_i_6}, i64 0, metadata !171), !dbg !165 ; [debug line = 12:16] [debug variable = real_i[6]]
  call void @llvm.dbg.value(metadata !{[32 x float]* %real_i_7}, i64 0, metadata !172), !dbg !165 ; [debug line = 12:16] [debug variable = real_i[7]]
  call void @llvm.dbg.value(metadata !{[32 x float]* %imag_i_0}, i64 0, metadata !173), !dbg !175 ; [debug line = 12:53] [debug variable = imag_i[0]]
  call void @llvm.dbg.value(metadata !{[32 x float]* %imag_i_1}, i64 0, metadata !176), !dbg !175 ; [debug line = 12:53] [debug variable = imag_i[1]]
  call void @llvm.dbg.value(metadata !{[32 x float]* %imag_i_2}, i64 0, metadata !177), !dbg !175 ; [debug line = 12:53] [debug variable = imag_i[2]]
  call void @llvm.dbg.value(metadata !{[32 x float]* %imag_i_3}, i64 0, metadata !178), !dbg !175 ; [debug line = 12:53] [debug variable = imag_i[3]]
  call void @llvm.dbg.value(metadata !{[32 x float]* %imag_i_4}, i64 0, metadata !179), !dbg !175 ; [debug line = 12:53] [debug variable = imag_i[4]]
  call void @llvm.dbg.value(metadata !{[32 x float]* %imag_i_5}, i64 0, metadata !180), !dbg !175 ; [debug line = 12:53] [debug variable = imag_i[5]]
  call void @llvm.dbg.value(metadata !{[32 x float]* %imag_i_6}, i64 0, metadata !181), !dbg !175 ; [debug line = 12:53] [debug variable = imag_i[6]]
  call void @llvm.dbg.value(metadata !{[32 x float]* %imag_i_7}, i64 0, metadata !182), !dbg !175 ; [debug line = 12:53] [debug variable = imag_i[7]]
  call void @llvm.dbg.value(metadata !{[32 x float]* %real_o_0}, i64 0, metadata !183), !dbg !185 ; [debug line = 12:90] [debug variable = real_o[0]]
  call void @llvm.dbg.value(metadata !{[32 x float]* %real_o_1}, i64 0, metadata !186), !dbg !185 ; [debug line = 12:90] [debug variable = real_o[1]]
  call void @llvm.dbg.value(metadata !{[32 x float]* %real_o_2}, i64 0, metadata !187), !dbg !185 ; [debug line = 12:90] [debug variable = real_o[2]]
  call void @llvm.dbg.value(metadata !{[32 x float]* %real_o_3}, i64 0, metadata !188), !dbg !185 ; [debug line = 12:90] [debug variable = real_o[3]]
  call void @llvm.dbg.value(metadata !{[32 x float]* %real_o_4}, i64 0, metadata !189), !dbg !185 ; [debug line = 12:90] [debug variable = real_o[4]]
  call void @llvm.dbg.value(metadata !{[32 x float]* %real_o_5}, i64 0, metadata !190), !dbg !185 ; [debug line = 12:90] [debug variable = real_o[5]]
  call void @llvm.dbg.value(metadata !{[32 x float]* %real_o_6}, i64 0, metadata !191), !dbg !185 ; [debug line = 12:90] [debug variable = real_o[6]]
  call void @llvm.dbg.value(metadata !{[32 x float]* %real_o_7}, i64 0, metadata !192), !dbg !185 ; [debug line = 12:90] [debug variable = real_o[7]]
  call void @llvm.dbg.value(metadata !{[32 x float]* %imag_o_0}, i64 0, metadata !193), !dbg !195 ; [debug line = 12:127] [debug variable = imag_o[0]]
  call void @llvm.dbg.value(metadata !{[32 x float]* %imag_o_1}, i64 0, metadata !196), !dbg !195 ; [debug line = 12:127] [debug variable = imag_o[1]]
  call void @llvm.dbg.value(metadata !{[32 x float]* %imag_o_2}, i64 0, metadata !197), !dbg !195 ; [debug line = 12:127] [debug variable = imag_o[2]]
  call void @llvm.dbg.value(metadata !{[32 x float]* %imag_o_3}, i64 0, metadata !198), !dbg !195 ; [debug line = 12:127] [debug variable = imag_o[3]]
  call void @llvm.dbg.value(metadata !{[32 x float]* %imag_o_4}, i64 0, metadata !199), !dbg !195 ; [debug line = 12:127] [debug variable = imag_o[4]]
  call void @llvm.dbg.value(metadata !{[32 x float]* %imag_o_5}, i64 0, metadata !200), !dbg !195 ; [debug line = 12:127] [debug variable = imag_o[5]]
  call void @llvm.dbg.value(metadata !{[32 x float]* %imag_o_6}, i64 0, metadata !201), !dbg !195 ; [debug line = 12:127] [debug variable = imag_o[6]]
  call void @llvm.dbg.value(metadata !{[32 x float]* %imag_o_7}, i64 0, metadata !202), !dbg !195 ; [debug line = 12:127] [debug variable = imag_o[7]]
  br label %1, !dbg !203                          ; [debug line = 24:25]

; <label>:1                                       ; preds = %7, %0
  %i = phi i9 [ 0, %0 ], [ %i_1, %7 ]             ; [#uses=6 type=i9]
  %i_cast3_cast1 = zext i9 %i to i17, !dbg !203   ; [#uses=7 type=i17] [debug line = 24:25]
  %tmp_21 = trunc i9 %i to i8                     ; [#uses=1 type=i8]
  %exitcond1 = icmp eq i9 %i, -256, !dbg !203     ; [#uses=1 type=i1] [debug line = 24:25]
  %empty = call i32 (...)* @_ssdm_op_SpecLoopTripCount(i64 256, i64 256, i64 256) nounwind ; [#uses=0 type=i32]
  %i_1 = add i9 1, %i, !dbg !206                  ; [#uses=1 type=i9] [debug line = 24:54]
  br i1 %exitcond1, label %8, label %2, !dbg !203 ; [debug line = 24:25]

; <label>:2                                       ; preds = %1
  call void (...)* @_ssdm_op_SpecLoopName([9 x i8]* @p_str2) nounwind, !dbg !207 ; [debug line = 24:60]
  %tmp = call i32 (...)* @_ssdm_op_SpecRegionBegin([9 x i8]* @p_str2) nounwind, !dbg !207 ; [#uses=1 type=i32] [debug line = 24:60]
  br label %3, !dbg !209                          ; [debug line = 28:26]

; <label>:3                                       ; preds = %4, %2
  %real_o_tmp = phi float [ 0.000000e+00, %2 ], [ %real_o_tmp_1_7, %4 ] ; [#uses=9 type=float]
  %imag_o_tmp = phi float [ 0.000000e+00, %2 ], [ %imag_o_tmp_1_7, %4 ] ; [#uses=9 type=float]
  %j = phi i9 [ 0, %2 ], [ %j_1_7, %4 ]           ; [#uses=4 type=i9]
  %empty_8 = call i32 (...)* @_ssdm_op_SpecLoopTripCount(i64 32, i64 32, i64 32) nounwind ; [#uses=0 type=i32]
  %exitcond = icmp eq i9 %j, -256, !dbg !209      ; [#uses=1 type=i1] [debug line = 28:26]
  br i1 %exitcond, label %5, label %4, !dbg !209  ; [debug line = 28:26]

; <label>:4                                       ; preds = %3
  call void (...)* @_ssdm_op_SpecLoopName([9 x i8]* @p_str3) nounwind, !dbg !211 ; [debug line = 28:61]
  %tmp_23 = trunc i9 %j to i8                     ; [#uses=8 type=i8]
  %tmp_2 = mul i8 %tmp_21, %tmp_23                ; [#uses=1 type=i8]
  %newIndex4 = call i6 @_ssdm_op_PartSelect.i6.i9.i32.i32(i9 %j, i32 3, i32 8) ; [#uses=1 type=i6]
  %newIndex1 = zext i6 %newIndex4 to i64          ; [#uses=16 type=i64]
  %real_i_0_addr = getelementptr [32 x float]* %real_i_0, i64 0, i64 %newIndex1 ; [#uses=1 type=float*]
  %real_i_0_load = load float* %real_i_0_addr, align 4, !dbg !213 ; [#uses=2 type=float] [debug line = 31:4]
  %index_cast = call i5 @_ssdm_op_PartSelect.i5.i8.i32.i32(i8 %tmp_2, i32 3, i32 7) ; [#uses=1 type=i5]
  %newIndex5 = zext i5 %index_cast to i64         ; [#uses=2 type=i64]
  %cct_0_addr = getelementptr [32 x float]* @cct_0, i64 0, i64 %newIndex5 ; [#uses=1 type=float*]
  %cct_0_load = load float* %cct_0_addr, align 4  ; [#uses=2 type=float]
  %tmp_5 = fmul float %real_i_0_load, %cct_0_load, !dbg !213 ; [#uses=1 type=float] [debug line = 31:4]
  %imag_i_0_addr = getelementptr [32 x float]* %imag_i_0, i64 0, i64 %newIndex1 ; [#uses=1 type=float*]
  %imag_i_0_load = load float* %imag_i_0_addr, align 4, !dbg !213 ; [#uses=2 type=float] [debug line = 31:4]
  %sct_0_addr = getelementptr [32 x float]* @sct_0, i64 0, i64 %newIndex5 ; [#uses=1 type=float*]
  %sct_0_load = load float* %sct_0_addr, align 4  ; [#uses=2 type=float]
  %tmp_6 = fmul float %imag_i_0_load, %sct_0_load, !dbg !213 ; [#uses=1 type=float] [debug line = 31:4]
  %tmp_7 = fsub float %tmp_5, %tmp_6, !dbg !213   ; [#uses=1 type=float] [debug line = 31:4]
  %real_o_tmp_1 = fadd float %real_o_tmp, %tmp_7, !dbg !213 ; [#uses=1 type=float] [debug line = 31:4]
  %tmp_9 = fmul float %real_i_0_load, %sct_0_load, !dbg !214 ; [#uses=1 type=float] [debug line = 32:4]
  %tmp_s = fmul float %imag_i_0_load, %cct_0_load, !dbg !214 ; [#uses=1 type=float] [debug line = 32:4]
  %tmp_1 = fadd float %tmp_9, %tmp_s, !dbg !214   ; [#uses=1 type=float] [debug line = 32:4]
  %imag_o_tmp_1 = fadd float %imag_o_tmp, %tmp_1, !dbg !214 ; [#uses=1 type=float] [debug line = 32:4]
  %j_1_s = or i8 %tmp_23, 1, !dbg !215            ; [#uses=1 type=i8] [debug line = 28:55]
  %j_1_cast_cast = zext i8 %j_1_s to i17, !dbg !216 ; [#uses=1 type=i17] [debug line = 30:41]
  %tmp_2_1 = mul i17 %i_cast3_cast1, %j_1_cast_cast, !dbg !216 ; [#uses=2 type=i17] [debug line = 30:41]
  %real_i_1_addr = getelementptr [32 x float]* %real_i_1, i64 0, i64 %newIndex1 ; [#uses=1 type=float*]
  %real_i_1_load = load float* %real_i_1_addr, align 4, !dbg !213 ; [#uses=2 type=float] [debug line = 31:4]
  %tmp_24 = trunc i17 %tmp_2_1 to i3              ; [#uses=2 type=i3]
  %index_1_cast = call i5 @_ssdm_op_PartSelect.i5.i17.i32.i32(i17 %tmp_2_1, i32 3, i32 7) ; [#uses=1 type=i5]
  %newIndex7 = zext i5 %index_1_cast to i64       ; [#uses=16 type=i64]
  %cct_0_addr_1 = getelementptr [32 x float]* @cct_0, i64 0, i64 %newIndex7 ; [#uses=1 type=float*]
  %cct_0_load_1 = load float* %cct_0_addr_1, align 4 ; [#uses=1 type=float]
  %cct_1_addr = getelementptr [32 x float]* @cct_1, i64 0, i64 %newIndex7 ; [#uses=1 type=float*]
  %cct_1_load = load float* %cct_1_addr, align 4  ; [#uses=1 type=float]
  %cct_2_addr = getelementptr [32 x float]* @cct_2, i64 0, i64 %newIndex7 ; [#uses=1 type=float*]
  %cct_2_load = load float* %cct_2_addr, align 4  ; [#uses=1 type=float]
  %cct_3_addr = getelementptr [32 x float]* @cct_3, i64 0, i64 %newIndex7 ; [#uses=1 type=float*]
  %cct_3_load = load float* %cct_3_addr, align 4  ; [#uses=1 type=float]
  %cct_4_addr = getelementptr [32 x float]* @cct_4, i64 0, i64 %newIndex7 ; [#uses=1 type=float*]
  %cct_4_load = load float* %cct_4_addr, align 4  ; [#uses=1 type=float]
  %cct_5_addr = getelementptr [32 x float]* @cct_5, i64 0, i64 %newIndex7 ; [#uses=1 type=float*]
  %cct_5_load = load float* %cct_5_addr, align 4  ; [#uses=1 type=float]
  %cct_6_addr = getelementptr [32 x float]* @cct_6, i64 0, i64 %newIndex7 ; [#uses=1 type=float*]
  %cct_6_load = load float* %cct_6_addr, align 4  ; [#uses=1 type=float]
  %cct_7_addr = getelementptr [32 x float]* @cct_7, i64 0, i64 %newIndex7 ; [#uses=1 type=float*]
  %cct_7_load = load float* %cct_7_addr, align 4  ; [#uses=1 type=float]
  %tmp_3 = call float @_ssdm_op_Mux.ap_auto.8float.i3(float %cct_0_load_1, float %cct_1_load, float %cct_2_load, float %cct_3_load, float %cct_4_load, float %cct_5_load, float %cct_6_load, float %cct_7_load, i3 %tmp_24) ; [#uses=2 type=float]
  %tmp_5_1 = fmul float %real_i_1_load, %tmp_3, !dbg !213 ; [#uses=1 type=float] [debug line = 31:4]
  %imag_i_1_addr = getelementptr [32 x float]* %imag_i_1, i64 0, i64 %newIndex1 ; [#uses=1 type=float*]
  %imag_i_1_load = load float* %imag_i_1_addr, align 4, !dbg !213 ; [#uses=2 type=float] [debug line = 31:4]
  %sct_0_addr_1 = getelementptr [32 x float]* @sct_0, i64 0, i64 %newIndex7 ; [#uses=1 type=float*]
  %sct_0_load_1 = load float* %sct_0_addr_1, align 4 ; [#uses=1 type=float]
  %sct_1_addr = getelementptr [32 x float]* @sct_1, i64 0, i64 %newIndex7 ; [#uses=1 type=float*]
  %sct_1_load = load float* %sct_1_addr, align 4  ; [#uses=1 type=float]
  %sct_2_addr = getelementptr [32 x float]* @sct_2, i64 0, i64 %newIndex7 ; [#uses=1 type=float*]
  %sct_2_load = load float* %sct_2_addr, align 4  ; [#uses=1 type=float]
  %sct_3_addr = getelementptr [32 x float]* @sct_3, i64 0, i64 %newIndex7 ; [#uses=1 type=float*]
  %sct_3_load = load float* %sct_3_addr, align 4  ; [#uses=1 type=float]
  %sct_4_addr = getelementptr [32 x float]* @sct_4, i64 0, i64 %newIndex7 ; [#uses=1 type=float*]
  %sct_4_load = load float* %sct_4_addr, align 4  ; [#uses=1 type=float]
  %sct_5_addr = getelementptr [32 x float]* @sct_5, i64 0, i64 %newIndex7 ; [#uses=1 type=float*]
  %sct_5_load = load float* %sct_5_addr, align 4  ; [#uses=1 type=float]
  %sct_6_addr = getelementptr [32 x float]* @sct_6, i64 0, i64 %newIndex7 ; [#uses=1 type=float*]
  %sct_6_load = load float* %sct_6_addr, align 4  ; [#uses=1 type=float]
  %sct_7_addr = getelementptr [32 x float]* @sct_7, i64 0, i64 %newIndex7 ; [#uses=1 type=float*]
  %sct_7_load = load float* %sct_7_addr, align 4  ; [#uses=1 type=float]
  %tmp_4 = call float @_ssdm_op_Mux.ap_auto.8float.i3(float %sct_0_load_1, float %sct_1_load, float %sct_2_load, float %sct_3_load, float %sct_4_load, float %sct_5_load, float %sct_6_load, float %sct_7_load, i3 %tmp_24) ; [#uses=2 type=float]
  %tmp_6_1 = fmul float %imag_i_1_load, %tmp_4, !dbg !213 ; [#uses=1 type=float] [debug line = 31:4]
  %tmp_7_1 = fsub float %tmp_5_1, %tmp_6_1, !dbg !213 ; [#uses=1 type=float] [debug line = 31:4]
  %real_o_tmp_1_1 = fadd float %real_o_tmp_1, %tmp_7_1, !dbg !213 ; [#uses=1 type=float] [debug line = 31:4]
  %tmp_9_1 = fmul float %real_i_1_load, %tmp_4, !dbg !214 ; [#uses=1 type=float] [debug line = 32:4]
  %tmp_1_9 = fmul float %imag_i_1_load, %tmp_3, !dbg !214 ; [#uses=1 type=float] [debug line = 32:4]
  %tmp_1_1 = fadd float %tmp_9_1, %tmp_1_9, !dbg !214 ; [#uses=1 type=float] [debug line = 32:4]
  %imag_o_tmp_1_1 = fadd float %imag_o_tmp_1, %tmp_1_1, !dbg !214 ; [#uses=1 type=float] [debug line = 32:4]
  %j_1_1 = or i8 %tmp_23, 2, !dbg !215            ; [#uses=1 type=i8] [debug line = 28:55]
  %j_1_1_cast_cast = zext i8 %j_1_1 to i17, !dbg !216 ; [#uses=1 type=i17] [debug line = 30:41]
  %tmp_2_2 = mul i17 %i_cast3_cast1, %j_1_1_cast_cast, !dbg !216 ; [#uses=2 type=i17] [debug line = 30:41]
  %real_i_2_addr = getelementptr [32 x float]* %real_i_2, i64 0, i64 %newIndex1 ; [#uses=1 type=float*]
  %real_i_2_load = load float* %real_i_2_addr, align 4, !dbg !213 ; [#uses=2 type=float] [debug line = 31:4]
  %tmp_25 = trunc i17 %tmp_2_2 to i3              ; [#uses=2 type=i3]
  %index_2_cast = call i5 @_ssdm_op_PartSelect.i5.i17.i32.i32(i17 %tmp_2_2, i32 3, i32 7) ; [#uses=1 type=i5]
  %newIndex9 = zext i5 %index_2_cast to i64       ; [#uses=16 type=i64]
  %cct_0_addr_2 = getelementptr [32 x float]* @cct_0, i64 0, i64 %newIndex9 ; [#uses=1 type=float*]
  %cct_0_load_2 = load float* %cct_0_addr_2, align 4 ; [#uses=1 type=float]
  %cct_1_addr_1 = getelementptr [32 x float]* @cct_1, i64 0, i64 %newIndex9 ; [#uses=1 type=float*]
  %cct_1_load_1 = load float* %cct_1_addr_1, align 4 ; [#uses=1 type=float]
  %cct_2_addr_1 = getelementptr [32 x float]* @cct_2, i64 0, i64 %newIndex9 ; [#uses=1 type=float*]
  %cct_2_load_1 = load float* %cct_2_addr_1, align 4 ; [#uses=1 type=float]
  %cct_3_addr_1 = getelementptr [32 x float]* @cct_3, i64 0, i64 %newIndex9 ; [#uses=1 type=float*]
  %cct_3_load_1 = load float* %cct_3_addr_1, align 4 ; [#uses=1 type=float]
  %cct_4_addr_1 = getelementptr [32 x float]* @cct_4, i64 0, i64 %newIndex9 ; [#uses=1 type=float*]
  %cct_4_load_1 = load float* %cct_4_addr_1, align 4 ; [#uses=1 type=float]
  %cct_5_addr_1 = getelementptr [32 x float]* @cct_5, i64 0, i64 %newIndex9 ; [#uses=1 type=float*]
  %cct_5_load_1 = load float* %cct_5_addr_1, align 4 ; [#uses=1 type=float]
  %cct_6_addr_1 = getelementptr [32 x float]* @cct_6, i64 0, i64 %newIndex9 ; [#uses=1 type=float*]
  %cct_6_load_1 = load float* %cct_6_addr_1, align 4 ; [#uses=1 type=float]
  %cct_7_addr_1 = getelementptr [32 x float]* @cct_7, i64 0, i64 %newIndex9 ; [#uses=1 type=float*]
  %cct_7_load_1 = load float* %cct_7_addr_1, align 4 ; [#uses=1 type=float]
  %tmp_8 = call float @_ssdm_op_Mux.ap_auto.8float.i3(float %cct_0_load_2, float %cct_1_load_1, float %cct_2_load_1, float %cct_3_load_1, float %cct_4_load_1, float %cct_5_load_1, float %cct_6_load_1, float %cct_7_load_1, i3 %tmp_25) ; [#uses=2 type=float]
  %tmp_5_2 = fmul float %real_i_2_load, %tmp_8, !dbg !213 ; [#uses=1 type=float] [debug line = 31:4]
  %imag_i_2_addr = getelementptr [32 x float]* %imag_i_2, i64 0, i64 %newIndex1 ; [#uses=1 type=float*]
  %imag_i_2_load = load float* %imag_i_2_addr, align 4, !dbg !213 ; [#uses=2 type=float] [debug line = 31:4]
  %sct_0_addr_2 = getelementptr [32 x float]* @sct_0, i64 0, i64 %newIndex9 ; [#uses=1 type=float*]
  %sct_0_load_2 = load float* %sct_0_addr_2, align 4 ; [#uses=1 type=float]
  %sct_1_addr_1 = getelementptr [32 x float]* @sct_1, i64 0, i64 %newIndex9 ; [#uses=1 type=float*]
  %sct_1_load_1 = load float* %sct_1_addr_1, align 4 ; [#uses=1 type=float]
  %sct_2_addr_1 = getelementptr [32 x float]* @sct_2, i64 0, i64 %newIndex9 ; [#uses=1 type=float*]
  %sct_2_load_1 = load float* %sct_2_addr_1, align 4 ; [#uses=1 type=float]
  %sct_3_addr_1 = getelementptr [32 x float]* @sct_3, i64 0, i64 %newIndex9 ; [#uses=1 type=float*]
  %sct_3_load_1 = load float* %sct_3_addr_1, align 4 ; [#uses=1 type=float]
  %sct_4_addr_1 = getelementptr [32 x float]* @sct_4, i64 0, i64 %newIndex9 ; [#uses=1 type=float*]
  %sct_4_load_1 = load float* %sct_4_addr_1, align 4 ; [#uses=1 type=float]
  %sct_5_addr_1 = getelementptr [32 x float]* @sct_5, i64 0, i64 %newIndex9 ; [#uses=1 type=float*]
  %sct_5_load_1 = load float* %sct_5_addr_1, align 4 ; [#uses=1 type=float]
  %sct_6_addr_1 = getelementptr [32 x float]* @sct_6, i64 0, i64 %newIndex9 ; [#uses=1 type=float*]
  %sct_6_load_1 = load float* %sct_6_addr_1, align 4 ; [#uses=1 type=float]
  %sct_7_addr_1 = getelementptr [32 x float]* @sct_7, i64 0, i64 %newIndex9 ; [#uses=1 type=float*]
  %sct_7_load_1 = load float* %sct_7_addr_1, align 4 ; [#uses=1 type=float]
  %tmp_10 = call float @_ssdm_op_Mux.ap_auto.8float.i3(float %sct_0_load_2, float %sct_1_load_1, float %sct_2_load_1, float %sct_3_load_1, float %sct_4_load_1, float %sct_5_load_1, float %sct_6_load_1, float %sct_7_load_1, i3 %tmp_25) ; [#uses=2 type=float]
  %tmp_6_2 = fmul float %imag_i_2_load, %tmp_10, !dbg !213 ; [#uses=1 type=float] [debug line = 31:4]
  %tmp_7_2 = fsub float %tmp_5_2, %tmp_6_2, !dbg !213 ; [#uses=1 type=float] [debug line = 31:4]
  %real_o_tmp_1_2 = fadd float %real_o_tmp_1_1, %tmp_7_2, !dbg !213 ; [#uses=1 type=float] [debug line = 31:4]
  %tmp_9_2 = fmul float %real_i_2_load, %tmp_10, !dbg !214 ; [#uses=1 type=float] [debug line = 32:4]
  %tmp_2_10 = fmul float %imag_i_2_load, %tmp_8, !dbg !214 ; [#uses=1 type=float] [debug line = 32:4]
  %tmp_1_2 = fadd float %tmp_9_2, %tmp_2_10, !dbg !214 ; [#uses=1 type=float] [debug line = 32:4]
  %imag_o_tmp_1_2 = fadd float %imag_o_tmp_1_1, %tmp_1_2, !dbg !214 ; [#uses=1 type=float] [debug line = 32:4]
  %j_1_2 = or i8 %tmp_23, 3, !dbg !215            ; [#uses=1 type=i8] [debug line = 28:55]
  %j_1_2_cast_cast = zext i8 %j_1_2 to i17, !dbg !216 ; [#uses=1 type=i17] [debug line = 30:41]
  %tmp_2_3 = mul i17 %i_cast3_cast1, %j_1_2_cast_cast, !dbg !216 ; [#uses=2 type=i17] [debug line = 30:41]
  %real_i_3_addr = getelementptr [32 x float]* %real_i_3, i64 0, i64 %newIndex1 ; [#uses=1 type=float*]
  %real_i_3_load = load float* %real_i_3_addr, align 4, !dbg !213 ; [#uses=2 type=float] [debug line = 31:4]
  %tmp_26 = trunc i17 %tmp_2_3 to i3              ; [#uses=2 type=i3]
  %index_3_cast = call i5 @_ssdm_op_PartSelect.i5.i17.i32.i32(i17 %tmp_2_3, i32 3, i32 7) ; [#uses=1 type=i5]
  %newIndex2 = zext i5 %index_3_cast to i64       ; [#uses=16 type=i64]
  %cct_0_addr_3 = getelementptr [32 x float]* @cct_0, i64 0, i64 %newIndex2 ; [#uses=1 type=float*]
  %cct_0_load_3 = load float* %cct_0_addr_3, align 4 ; [#uses=1 type=float]
  %cct_1_addr_2 = getelementptr [32 x float]* @cct_1, i64 0, i64 %newIndex2 ; [#uses=1 type=float*]
  %cct_1_load_2 = load float* %cct_1_addr_2, align 4 ; [#uses=1 type=float]
  %cct_2_addr_2 = getelementptr [32 x float]* @cct_2, i64 0, i64 %newIndex2 ; [#uses=1 type=float*]
  %cct_2_load_2 = load float* %cct_2_addr_2, align 4 ; [#uses=1 type=float]
  %cct_3_addr_2 = getelementptr [32 x float]* @cct_3, i64 0, i64 %newIndex2 ; [#uses=1 type=float*]
  %cct_3_load_2 = load float* %cct_3_addr_2, align 4 ; [#uses=1 type=float]
  %cct_4_addr_2 = getelementptr [32 x float]* @cct_4, i64 0, i64 %newIndex2 ; [#uses=1 type=float*]
  %cct_4_load_2 = load float* %cct_4_addr_2, align 4 ; [#uses=1 type=float]
  %cct_5_addr_2 = getelementptr [32 x float]* @cct_5, i64 0, i64 %newIndex2 ; [#uses=1 type=float*]
  %cct_5_load_2 = load float* %cct_5_addr_2, align 4 ; [#uses=1 type=float]
  %cct_6_addr_2 = getelementptr [32 x float]* @cct_6, i64 0, i64 %newIndex2 ; [#uses=1 type=float*]
  %cct_6_load_2 = load float* %cct_6_addr_2, align 4 ; [#uses=1 type=float]
  %cct_7_addr_2 = getelementptr [32 x float]* @cct_7, i64 0, i64 %newIndex2 ; [#uses=1 type=float*]
  %cct_7_load_2 = load float* %cct_7_addr_2, align 4 ; [#uses=1 type=float]
  %tmp_11 = call float @_ssdm_op_Mux.ap_auto.8float.i3(float %cct_0_load_3, float %cct_1_load_2, float %cct_2_load_2, float %cct_3_load_2, float %cct_4_load_2, float %cct_5_load_2, float %cct_6_load_2, float %cct_7_load_2, i3 %tmp_26) ; [#uses=2 type=float]
  %tmp_5_3 = fmul float %real_i_3_load, %tmp_11, !dbg !213 ; [#uses=1 type=float] [debug line = 31:4]
  %imag_i_3_addr = getelementptr [32 x float]* %imag_i_3, i64 0, i64 %newIndex1 ; [#uses=1 type=float*]
  %imag_i_3_load = load float* %imag_i_3_addr, align 4, !dbg !213 ; [#uses=2 type=float] [debug line = 31:4]
  %sct_0_addr_3 = getelementptr [32 x float]* @sct_0, i64 0, i64 %newIndex2 ; [#uses=1 type=float*]
  %sct_0_load_3 = load float* %sct_0_addr_3, align 4 ; [#uses=1 type=float]
  %sct_1_addr_2 = getelementptr [32 x float]* @sct_1, i64 0, i64 %newIndex2 ; [#uses=1 type=float*]
  %sct_1_load_2 = load float* %sct_1_addr_2, align 4 ; [#uses=1 type=float]
  %sct_2_addr_2 = getelementptr [32 x float]* @sct_2, i64 0, i64 %newIndex2 ; [#uses=1 type=float*]
  %sct_2_load_2 = load float* %sct_2_addr_2, align 4 ; [#uses=1 type=float]
  %sct_3_addr_2 = getelementptr [32 x float]* @sct_3, i64 0, i64 %newIndex2 ; [#uses=1 type=float*]
  %sct_3_load_2 = load float* %sct_3_addr_2, align 4 ; [#uses=1 type=float]
  %sct_4_addr_2 = getelementptr [32 x float]* @sct_4, i64 0, i64 %newIndex2 ; [#uses=1 type=float*]
  %sct_4_load_2 = load float* %sct_4_addr_2, align 4 ; [#uses=1 type=float]
  %sct_5_addr_2 = getelementptr [32 x float]* @sct_5, i64 0, i64 %newIndex2 ; [#uses=1 type=float*]
  %sct_5_load_2 = load float* %sct_5_addr_2, align 4 ; [#uses=1 type=float]
  %sct_6_addr_2 = getelementptr [32 x float]* @sct_6, i64 0, i64 %newIndex2 ; [#uses=1 type=float*]
  %sct_6_load_2 = load float* %sct_6_addr_2, align 4 ; [#uses=1 type=float]
  %sct_7_addr_2 = getelementptr [32 x float]* @sct_7, i64 0, i64 %newIndex2 ; [#uses=1 type=float*]
  %sct_7_load_2 = load float* %sct_7_addr_2, align 4 ; [#uses=1 type=float]
  %tmp_12 = call float @_ssdm_op_Mux.ap_auto.8float.i3(float %sct_0_load_3, float %sct_1_load_2, float %sct_2_load_2, float %sct_3_load_2, float %sct_4_load_2, float %sct_5_load_2, float %sct_6_load_2, float %sct_7_load_2, i3 %tmp_26) ; [#uses=2 type=float]
  %tmp_6_3 = fmul float %imag_i_3_load, %tmp_12, !dbg !213 ; [#uses=1 type=float] [debug line = 31:4]
  %tmp_7_3 = fsub float %tmp_5_3, %tmp_6_3, !dbg !213 ; [#uses=1 type=float] [debug line = 31:4]
  %real_o_tmp_1_3 = fadd float %real_o_tmp_1_2, %tmp_7_3, !dbg !213 ; [#uses=1 type=float] [debug line = 31:4]
  %tmp_9_3 = fmul float %real_i_3_load, %tmp_12, !dbg !214 ; [#uses=1 type=float] [debug line = 32:4]
  %tmp_3_11 = fmul float %imag_i_3_load, %tmp_11, !dbg !214 ; [#uses=1 type=float] [debug line = 32:4]
  %tmp_1_3 = fadd float %tmp_9_3, %tmp_3_11, !dbg !214 ; [#uses=1 type=float] [debug line = 32:4]
  %imag_o_tmp_1_3 = fadd float %imag_o_tmp_1_2, %tmp_1_3, !dbg !214 ; [#uses=1 type=float] [debug line = 32:4]
  %j_1_3 = or i8 %tmp_23, 4, !dbg !215            ; [#uses=1 type=i8] [debug line = 28:55]
  %j_1_3_cast_cast = zext i8 %j_1_3 to i17, !dbg !216 ; [#uses=1 type=i17] [debug line = 30:41]
  %tmp_2_4 = mul i17 %i_cast3_cast1, %j_1_3_cast_cast, !dbg !216 ; [#uses=2 type=i17] [debug line = 30:41]
  %real_i_4_addr = getelementptr [32 x float]* %real_i_4, i64 0, i64 %newIndex1 ; [#uses=1 type=float*]
  %real_i_4_load = load float* %real_i_4_addr, align 4, !dbg !213 ; [#uses=2 type=float] [debug line = 31:4]
  %tmp_27 = trunc i17 %tmp_2_4 to i3              ; [#uses=2 type=i3]
  %index_4_cast = call i5 @_ssdm_op_PartSelect.i5.i17.i32.i32(i17 %tmp_2_4, i32 3, i32 7) ; [#uses=1 type=i5]
  %newIndex6 = zext i5 %index_4_cast to i64       ; [#uses=16 type=i64]
  %cct_0_addr_4 = getelementptr [32 x float]* @cct_0, i64 0, i64 %newIndex6 ; [#uses=1 type=float*]
  %cct_0_load_4 = load float* %cct_0_addr_4, align 4 ; [#uses=1 type=float]
  %cct_1_addr_3 = getelementptr [32 x float]* @cct_1, i64 0, i64 %newIndex6 ; [#uses=1 type=float*]
  %cct_1_load_3 = load float* %cct_1_addr_3, align 4 ; [#uses=1 type=float]
  %cct_2_addr_3 = getelementptr [32 x float]* @cct_2, i64 0, i64 %newIndex6 ; [#uses=1 type=float*]
  %cct_2_load_3 = load float* %cct_2_addr_3, align 4 ; [#uses=1 type=float]
  %cct_3_addr_3 = getelementptr [32 x float]* @cct_3, i64 0, i64 %newIndex6 ; [#uses=1 type=float*]
  %cct_3_load_3 = load float* %cct_3_addr_3, align 4 ; [#uses=1 type=float]
  %cct_4_addr_3 = getelementptr [32 x float]* @cct_4, i64 0, i64 %newIndex6 ; [#uses=1 type=float*]
  %cct_4_load_3 = load float* %cct_4_addr_3, align 4 ; [#uses=1 type=float]
  %cct_5_addr_3 = getelementptr [32 x float]* @cct_5, i64 0, i64 %newIndex6 ; [#uses=1 type=float*]
  %cct_5_load_3 = load float* %cct_5_addr_3, align 4 ; [#uses=1 type=float]
  %cct_6_addr_3 = getelementptr [32 x float]* @cct_6, i64 0, i64 %newIndex6 ; [#uses=1 type=float*]
  %cct_6_load_3 = load float* %cct_6_addr_3, align 4 ; [#uses=1 type=float]
  %cct_7_addr_3 = getelementptr [32 x float]* @cct_7, i64 0, i64 %newIndex6 ; [#uses=1 type=float*]
  %cct_7_load_3 = load float* %cct_7_addr_3, align 4 ; [#uses=1 type=float]
  %tmp_13 = call float @_ssdm_op_Mux.ap_auto.8float.i3(float %cct_0_load_4, float %cct_1_load_3, float %cct_2_load_3, float %cct_3_load_3, float %cct_4_load_3, float %cct_5_load_3, float %cct_6_load_3, float %cct_7_load_3, i3 %tmp_27) ; [#uses=2 type=float]
  %tmp_5_4 = fmul float %real_i_4_load, %tmp_13, !dbg !213 ; [#uses=1 type=float] [debug line = 31:4]
  %imag_i_4_addr = getelementptr [32 x float]* %imag_i_4, i64 0, i64 %newIndex1 ; [#uses=1 type=float*]
  %imag_i_4_load = load float* %imag_i_4_addr, align 4, !dbg !213 ; [#uses=2 type=float] [debug line = 31:4]
  %sct_0_addr_4 = getelementptr [32 x float]* @sct_0, i64 0, i64 %newIndex6 ; [#uses=1 type=float*]
  %sct_0_load_4 = load float* %sct_0_addr_4, align 4 ; [#uses=1 type=float]
  %sct_1_addr_3 = getelementptr [32 x float]* @sct_1, i64 0, i64 %newIndex6 ; [#uses=1 type=float*]
  %sct_1_load_3 = load float* %sct_1_addr_3, align 4 ; [#uses=1 type=float]
  %sct_2_addr_3 = getelementptr [32 x float]* @sct_2, i64 0, i64 %newIndex6 ; [#uses=1 type=float*]
  %sct_2_load_3 = load float* %sct_2_addr_3, align 4 ; [#uses=1 type=float]
  %sct_3_addr_3 = getelementptr [32 x float]* @sct_3, i64 0, i64 %newIndex6 ; [#uses=1 type=float*]
  %sct_3_load_3 = load float* %sct_3_addr_3, align 4 ; [#uses=1 type=float]
  %sct_4_addr_3 = getelementptr [32 x float]* @sct_4, i64 0, i64 %newIndex6 ; [#uses=1 type=float*]
  %sct_4_load_3 = load float* %sct_4_addr_3, align 4 ; [#uses=1 type=float]
  %sct_5_addr_3 = getelementptr [32 x float]* @sct_5, i64 0, i64 %newIndex6 ; [#uses=1 type=float*]
  %sct_5_load_3 = load float* %sct_5_addr_3, align 4 ; [#uses=1 type=float]
  %sct_6_addr_3 = getelementptr [32 x float]* @sct_6, i64 0, i64 %newIndex6 ; [#uses=1 type=float*]
  %sct_6_load_3 = load float* %sct_6_addr_3, align 4 ; [#uses=1 type=float]
  %sct_7_addr_3 = getelementptr [32 x float]* @sct_7, i64 0, i64 %newIndex6 ; [#uses=1 type=float*]
  %sct_7_load_3 = load float* %sct_7_addr_3, align 4 ; [#uses=1 type=float]
  %tmp_14 = call float @_ssdm_op_Mux.ap_auto.8float.i3(float %sct_0_load_4, float %sct_1_load_3, float %sct_2_load_3, float %sct_3_load_3, float %sct_4_load_3, float %sct_5_load_3, float %sct_6_load_3, float %sct_7_load_3, i3 %tmp_27) ; [#uses=2 type=float]
  %tmp_6_4 = fmul float %imag_i_4_load, %tmp_14, !dbg !213 ; [#uses=1 type=float] [debug line = 31:4]
  %tmp_7_4 = fsub float %tmp_5_4, %tmp_6_4, !dbg !213 ; [#uses=1 type=float] [debug line = 31:4]
  %real_o_tmp_1_4 = fadd float %real_o_tmp_1_3, %tmp_7_4, !dbg !213 ; [#uses=1 type=float] [debug line = 31:4]
  %tmp_9_4 = fmul float %real_i_4_load, %tmp_14, !dbg !214 ; [#uses=1 type=float] [debug line = 32:4]
  %tmp_4_12 = fmul float %imag_i_4_load, %tmp_13, !dbg !214 ; [#uses=1 type=float] [debug line = 32:4]
  %tmp_1_4 = fadd float %tmp_9_4, %tmp_4_12, !dbg !214 ; [#uses=1 type=float] [debug line = 32:4]
  %imag_o_tmp_1_4 = fadd float %imag_o_tmp_1_3, %tmp_1_4, !dbg !214 ; [#uses=1 type=float] [debug line = 32:4]
  %j_1_4 = or i8 %tmp_23, 5, !dbg !215            ; [#uses=1 type=i8] [debug line = 28:55]
  %j_1_4_cast_cast = zext i8 %j_1_4 to i17, !dbg !216 ; [#uses=1 type=i17] [debug line = 30:41]
  %tmp_2_5 = mul i17 %i_cast3_cast1, %j_1_4_cast_cast, !dbg !216 ; [#uses=2 type=i17] [debug line = 30:41]
  %real_i_5_addr = getelementptr [32 x float]* %real_i_5, i64 0, i64 %newIndex1 ; [#uses=1 type=float*]
  %real_i_5_load = load float* %real_i_5_addr, align 4, !dbg !213 ; [#uses=2 type=float] [debug line = 31:4]
  %tmp_28 = trunc i17 %tmp_2_5 to i3              ; [#uses=2 type=i3]
  %index_5_cast = call i5 @_ssdm_op_PartSelect.i5.i17.i32.i32(i17 %tmp_2_5, i32 3, i32 7) ; [#uses=1 type=i5]
  %newIndex8 = zext i5 %index_5_cast to i64       ; [#uses=16 type=i64]
  %cct_0_addr_5 = getelementptr [32 x float]* @cct_0, i64 0, i64 %newIndex8 ; [#uses=1 type=float*]
  %cct_0_load_5 = load float* %cct_0_addr_5, align 4 ; [#uses=1 type=float]
  %cct_1_addr_4 = getelementptr [32 x float]* @cct_1, i64 0, i64 %newIndex8 ; [#uses=1 type=float*]
  %cct_1_load_4 = load float* %cct_1_addr_4, align 4 ; [#uses=1 type=float]
  %cct_2_addr_4 = getelementptr [32 x float]* @cct_2, i64 0, i64 %newIndex8 ; [#uses=1 type=float*]
  %cct_2_load_4 = load float* %cct_2_addr_4, align 4 ; [#uses=1 type=float]
  %cct_3_addr_4 = getelementptr [32 x float]* @cct_3, i64 0, i64 %newIndex8 ; [#uses=1 type=float*]
  %cct_3_load_4 = load float* %cct_3_addr_4, align 4 ; [#uses=1 type=float]
  %cct_4_addr_4 = getelementptr [32 x float]* @cct_4, i64 0, i64 %newIndex8 ; [#uses=1 type=float*]
  %cct_4_load_4 = load float* %cct_4_addr_4, align 4 ; [#uses=1 type=float]
  %cct_5_addr_4 = getelementptr [32 x float]* @cct_5, i64 0, i64 %newIndex8 ; [#uses=1 type=float*]
  %cct_5_load_4 = load float* %cct_5_addr_4, align 4 ; [#uses=1 type=float]
  %cct_6_addr_4 = getelementptr [32 x float]* @cct_6, i64 0, i64 %newIndex8 ; [#uses=1 type=float*]
  %cct_6_load_4 = load float* %cct_6_addr_4, align 4 ; [#uses=1 type=float]
  %cct_7_addr_4 = getelementptr [32 x float]* @cct_7, i64 0, i64 %newIndex8 ; [#uses=1 type=float*]
  %cct_7_load_4 = load float* %cct_7_addr_4, align 4 ; [#uses=1 type=float]
  %tmp_15 = call float @_ssdm_op_Mux.ap_auto.8float.i3(float %cct_0_load_5, float %cct_1_load_4, float %cct_2_load_4, float %cct_3_load_4, float %cct_4_load_4, float %cct_5_load_4, float %cct_6_load_4, float %cct_7_load_4, i3 %tmp_28) ; [#uses=2 type=float]
  %tmp_5_5 = fmul float %real_i_5_load, %tmp_15, !dbg !213 ; [#uses=1 type=float] [debug line = 31:4]
  %imag_i_5_addr = getelementptr [32 x float]* %imag_i_5, i64 0, i64 %newIndex1 ; [#uses=1 type=float*]
  %imag_i_5_load = load float* %imag_i_5_addr, align 4, !dbg !213 ; [#uses=2 type=float] [debug line = 31:4]
  %sct_0_addr_5 = getelementptr [32 x float]* @sct_0, i64 0, i64 %newIndex8 ; [#uses=1 type=float*]
  %sct_0_load_5 = load float* %sct_0_addr_5, align 4 ; [#uses=1 type=float]
  %sct_1_addr_4 = getelementptr [32 x float]* @sct_1, i64 0, i64 %newIndex8 ; [#uses=1 type=float*]
  %sct_1_load_4 = load float* %sct_1_addr_4, align 4 ; [#uses=1 type=float]
  %sct_2_addr_4 = getelementptr [32 x float]* @sct_2, i64 0, i64 %newIndex8 ; [#uses=1 type=float*]
  %sct_2_load_4 = load float* %sct_2_addr_4, align 4 ; [#uses=1 type=float]
  %sct_3_addr_4 = getelementptr [32 x float]* @sct_3, i64 0, i64 %newIndex8 ; [#uses=1 type=float*]
  %sct_3_load_4 = load float* %sct_3_addr_4, align 4 ; [#uses=1 type=float]
  %sct_4_addr_4 = getelementptr [32 x float]* @sct_4, i64 0, i64 %newIndex8 ; [#uses=1 type=float*]
  %sct_4_load_4 = load float* %sct_4_addr_4, align 4 ; [#uses=1 type=float]
  %sct_5_addr_4 = getelementptr [32 x float]* @sct_5, i64 0, i64 %newIndex8 ; [#uses=1 type=float*]
  %sct_5_load_4 = load float* %sct_5_addr_4, align 4 ; [#uses=1 type=float]
  %sct_6_addr_4 = getelementptr [32 x float]* @sct_6, i64 0, i64 %newIndex8 ; [#uses=1 type=float*]
  %sct_6_load_4 = load float* %sct_6_addr_4, align 4 ; [#uses=1 type=float]
  %sct_7_addr_4 = getelementptr [32 x float]* @sct_7, i64 0, i64 %newIndex8 ; [#uses=1 type=float*]
  %sct_7_load_4 = load float* %sct_7_addr_4, align 4 ; [#uses=1 type=float]
  %tmp_16 = call float @_ssdm_op_Mux.ap_auto.8float.i3(float %sct_0_load_5, float %sct_1_load_4, float %sct_2_load_4, float %sct_3_load_4, float %sct_4_load_4, float %sct_5_load_4, float %sct_6_load_4, float %sct_7_load_4, i3 %tmp_28) ; [#uses=2 type=float]
  %tmp_6_5 = fmul float %imag_i_5_load, %tmp_16, !dbg !213 ; [#uses=1 type=float] [debug line = 31:4]
  %tmp_7_5 = fsub float %tmp_5_5, %tmp_6_5, !dbg !213 ; [#uses=1 type=float] [debug line = 31:4]
  %real_o_tmp_1_5 = fadd float %real_o_tmp_1_4, %tmp_7_5, !dbg !213 ; [#uses=1 type=float] [debug line = 31:4]
  %tmp_9_5 = fmul float %real_i_5_load, %tmp_16, !dbg !214 ; [#uses=1 type=float] [debug line = 32:4]
  %tmp_5_13 = fmul float %imag_i_5_load, %tmp_15, !dbg !214 ; [#uses=1 type=float] [debug line = 32:4]
  %tmp_1_5 = fadd float %tmp_9_5, %tmp_5_13, !dbg !214 ; [#uses=1 type=float] [debug line = 32:4]
  %imag_o_tmp_1_5 = fadd float %imag_o_tmp_1_4, %tmp_1_5, !dbg !214 ; [#uses=1 type=float] [debug line = 32:4]
  %j_1_5 = or i8 %tmp_23, 6, !dbg !215            ; [#uses=1 type=i8] [debug line = 28:55]
  %j_1_5_cast_cast = zext i8 %j_1_5 to i17, !dbg !216 ; [#uses=1 type=i17] [debug line = 30:41]
  %tmp_2_6 = mul i17 %i_cast3_cast1, %j_1_5_cast_cast, !dbg !216 ; [#uses=2 type=i17] [debug line = 30:41]
  %real_i_6_addr = getelementptr [32 x float]* %real_i_6, i64 0, i64 %newIndex1 ; [#uses=1 type=float*]
  %real_i_6_load = load float* %real_i_6_addr, align 4, !dbg !213 ; [#uses=2 type=float] [debug line = 31:4]
  %tmp_29 = trunc i17 %tmp_2_6 to i3              ; [#uses=2 type=i3]
  %index_6_cast = call i5 @_ssdm_op_PartSelect.i5.i17.i32.i32(i17 %tmp_2_6, i32 3, i32 7) ; [#uses=1 type=i5]
  %newIndex10 = zext i5 %index_6_cast to i64      ; [#uses=16 type=i64]
  %cct_0_addr_6 = getelementptr [32 x float]* @cct_0, i64 0, i64 %newIndex10 ; [#uses=1 type=float*]
  %cct_0_load_6 = load float* %cct_0_addr_6, align 4 ; [#uses=1 type=float]
  %cct_1_addr_5 = getelementptr [32 x float]* @cct_1, i64 0, i64 %newIndex10 ; [#uses=1 type=float*]
  %cct_1_load_5 = load float* %cct_1_addr_5, align 4 ; [#uses=1 type=float]
  %cct_2_addr_5 = getelementptr [32 x float]* @cct_2, i64 0, i64 %newIndex10 ; [#uses=1 type=float*]
  %cct_2_load_5 = load float* %cct_2_addr_5, align 4 ; [#uses=1 type=float]
  %cct_3_addr_5 = getelementptr [32 x float]* @cct_3, i64 0, i64 %newIndex10 ; [#uses=1 type=float*]
  %cct_3_load_5 = load float* %cct_3_addr_5, align 4 ; [#uses=1 type=float]
  %cct_4_addr_5 = getelementptr [32 x float]* @cct_4, i64 0, i64 %newIndex10 ; [#uses=1 type=float*]
  %cct_4_load_5 = load float* %cct_4_addr_5, align 4 ; [#uses=1 type=float]
  %cct_5_addr_5 = getelementptr [32 x float]* @cct_5, i64 0, i64 %newIndex10 ; [#uses=1 type=float*]
  %cct_5_load_5 = load float* %cct_5_addr_5, align 4 ; [#uses=1 type=float]
  %cct_6_addr_5 = getelementptr [32 x float]* @cct_6, i64 0, i64 %newIndex10 ; [#uses=1 type=float*]
  %cct_6_load_5 = load float* %cct_6_addr_5, align 4 ; [#uses=1 type=float]
  %cct_7_addr_5 = getelementptr [32 x float]* @cct_7, i64 0, i64 %newIndex10 ; [#uses=1 type=float*]
  %cct_7_load_5 = load float* %cct_7_addr_5, align 4 ; [#uses=1 type=float]
  %tmp_17 = call float @_ssdm_op_Mux.ap_auto.8float.i3(float %cct_0_load_6, float %cct_1_load_5, float %cct_2_load_5, float %cct_3_load_5, float %cct_4_load_5, float %cct_5_load_5, float %cct_6_load_5, float %cct_7_load_5, i3 %tmp_29) ; [#uses=2 type=float]
  %tmp_5_6 = fmul float %real_i_6_load, %tmp_17, !dbg !213 ; [#uses=1 type=float] [debug line = 31:4]
  %imag_i_6_addr = getelementptr [32 x float]* %imag_i_6, i64 0, i64 %newIndex1 ; [#uses=1 type=float*]
  %imag_i_6_load = load float* %imag_i_6_addr, align 4, !dbg !213 ; [#uses=2 type=float] [debug line = 31:4]
  %sct_0_addr_6 = getelementptr [32 x float]* @sct_0, i64 0, i64 %newIndex10 ; [#uses=1 type=float*]
  %sct_0_load_6 = load float* %sct_0_addr_6, align 4 ; [#uses=1 type=float]
  %sct_1_addr_5 = getelementptr [32 x float]* @sct_1, i64 0, i64 %newIndex10 ; [#uses=1 type=float*]
  %sct_1_load_5 = load float* %sct_1_addr_5, align 4 ; [#uses=1 type=float]
  %sct_2_addr_5 = getelementptr [32 x float]* @sct_2, i64 0, i64 %newIndex10 ; [#uses=1 type=float*]
  %sct_2_load_5 = load float* %sct_2_addr_5, align 4 ; [#uses=1 type=float]
  %sct_3_addr_5 = getelementptr [32 x float]* @sct_3, i64 0, i64 %newIndex10 ; [#uses=1 type=float*]
  %sct_3_load_5 = load float* %sct_3_addr_5, align 4 ; [#uses=1 type=float]
  %sct_4_addr_5 = getelementptr [32 x float]* @sct_4, i64 0, i64 %newIndex10 ; [#uses=1 type=float*]
  %sct_4_load_5 = load float* %sct_4_addr_5, align 4 ; [#uses=1 type=float]
  %sct_5_addr_5 = getelementptr [32 x float]* @sct_5, i64 0, i64 %newIndex10 ; [#uses=1 type=float*]
  %sct_5_load_5 = load float* %sct_5_addr_5, align 4 ; [#uses=1 type=float]
  %sct_6_addr_5 = getelementptr [32 x float]* @sct_6, i64 0, i64 %newIndex10 ; [#uses=1 type=float*]
  %sct_6_load_5 = load float* %sct_6_addr_5, align 4 ; [#uses=1 type=float]
  %sct_7_addr_5 = getelementptr [32 x float]* @sct_7, i64 0, i64 %newIndex10 ; [#uses=1 type=float*]
  %sct_7_load_5 = load float* %sct_7_addr_5, align 4 ; [#uses=1 type=float]
  %tmp_18 = call float @_ssdm_op_Mux.ap_auto.8float.i3(float %sct_0_load_6, float %sct_1_load_5, float %sct_2_load_5, float %sct_3_load_5, float %sct_4_load_5, float %sct_5_load_5, float %sct_6_load_5, float %sct_7_load_5, i3 %tmp_29) ; [#uses=2 type=float]
  %tmp_6_6 = fmul float %imag_i_6_load, %tmp_18, !dbg !213 ; [#uses=1 type=float] [debug line = 31:4]
  %tmp_7_6 = fsub float %tmp_5_6, %tmp_6_6, !dbg !213 ; [#uses=1 type=float] [debug line = 31:4]
  %real_o_tmp_1_6 = fadd float %real_o_tmp_1_5, %tmp_7_6, !dbg !213 ; [#uses=1 type=float] [debug line = 31:4]
  %tmp_9_6 = fmul float %real_i_6_load, %tmp_18, !dbg !214 ; [#uses=1 type=float] [debug line = 32:4]
  %tmp_6_14 = fmul float %imag_i_6_load, %tmp_17, !dbg !214 ; [#uses=1 type=float] [debug line = 32:4]
  %tmp_1_6 = fadd float %tmp_9_6, %tmp_6_14, !dbg !214 ; [#uses=1 type=float] [debug line = 32:4]
  %imag_o_tmp_1_6 = fadd float %imag_o_tmp_1_5, %tmp_1_6, !dbg !214 ; [#uses=1 type=float] [debug line = 32:4]
  %j_1_6 = or i8 %tmp_23, 7, !dbg !215            ; [#uses=1 type=i8] [debug line = 28:55]
  %j_1_6_cast_cast = zext i8 %j_1_6 to i17, !dbg !216 ; [#uses=1 type=i17] [debug line = 30:41]
  %tmp_2_7 = mul i17 %i_cast3_cast1, %j_1_6_cast_cast, !dbg !216 ; [#uses=2 type=i17] [debug line = 30:41]
  %real_i_7_addr = getelementptr [32 x float]* %real_i_7, i64 0, i64 %newIndex1 ; [#uses=1 type=float*]
  %real_i_7_load = load float* %real_i_7_addr, align 4, !dbg !213 ; [#uses=2 type=float] [debug line = 31:4]
  %tmp_30 = trunc i17 %tmp_2_7 to i3              ; [#uses=2 type=i3]
  %index_7_cast = call i5 @_ssdm_op_PartSelect.i5.i17.i32.i32(i17 %tmp_2_7, i32 3, i32 7) ; [#uses=1 type=i5]
  %newIndex11 = zext i5 %index_7_cast to i64      ; [#uses=16 type=i64]
  %cct_0_addr_7 = getelementptr [32 x float]* @cct_0, i64 0, i64 %newIndex11 ; [#uses=1 type=float*]
  %cct_0_load_7 = load float* %cct_0_addr_7, align 4 ; [#uses=1 type=float]
  %cct_1_addr_6 = getelementptr [32 x float]* @cct_1, i64 0, i64 %newIndex11 ; [#uses=1 type=float*]
  %cct_1_load_6 = load float* %cct_1_addr_6, align 4 ; [#uses=1 type=float]
  %cct_2_addr_6 = getelementptr [32 x float]* @cct_2, i64 0, i64 %newIndex11 ; [#uses=1 type=float*]
  %cct_2_load_6 = load float* %cct_2_addr_6, align 4 ; [#uses=1 type=float]
  %cct_3_addr_6 = getelementptr [32 x float]* @cct_3, i64 0, i64 %newIndex11 ; [#uses=1 type=float*]
  %cct_3_load_6 = load float* %cct_3_addr_6, align 4 ; [#uses=1 type=float]
  %cct_4_addr_6 = getelementptr [32 x float]* @cct_4, i64 0, i64 %newIndex11 ; [#uses=1 type=float*]
  %cct_4_load_6 = load float* %cct_4_addr_6, align 4 ; [#uses=1 type=float]
  %cct_5_addr_6 = getelementptr [32 x float]* @cct_5, i64 0, i64 %newIndex11 ; [#uses=1 type=float*]
  %cct_5_load_6 = load float* %cct_5_addr_6, align 4 ; [#uses=1 type=float]
  %cct_6_addr_6 = getelementptr [32 x float]* @cct_6, i64 0, i64 %newIndex11 ; [#uses=1 type=float*]
  %cct_6_load_6 = load float* %cct_6_addr_6, align 4 ; [#uses=1 type=float]
  %cct_7_addr_6 = getelementptr [32 x float]* @cct_7, i64 0, i64 %newIndex11 ; [#uses=1 type=float*]
  %cct_7_load_6 = load float* %cct_7_addr_6, align 4 ; [#uses=1 type=float]
  %tmp_19 = call float @_ssdm_op_Mux.ap_auto.8float.i3(float %cct_0_load_7, float %cct_1_load_6, float %cct_2_load_6, float %cct_3_load_6, float %cct_4_load_6, float %cct_5_load_6, float %cct_6_load_6, float %cct_7_load_6, i3 %tmp_30) ; [#uses=2 type=float]
  %tmp_5_7 = fmul float %real_i_7_load, %tmp_19, !dbg !213 ; [#uses=1 type=float] [debug line = 31:4]
  %imag_i_7_addr = getelementptr [32 x float]* %imag_i_7, i64 0, i64 %newIndex1 ; [#uses=1 type=float*]
  %imag_i_7_load = load float* %imag_i_7_addr, align 4, !dbg !213 ; [#uses=2 type=float] [debug line = 31:4]
  %sct_0_addr_7 = getelementptr [32 x float]* @sct_0, i64 0, i64 %newIndex11 ; [#uses=1 type=float*]
  %sct_0_load_7 = load float* %sct_0_addr_7, align 4 ; [#uses=1 type=float]
  %sct_1_addr_6 = getelementptr [32 x float]* @sct_1, i64 0, i64 %newIndex11 ; [#uses=1 type=float*]
  %sct_1_load_6 = load float* %sct_1_addr_6, align 4 ; [#uses=1 type=float]
  %sct_2_addr_6 = getelementptr [32 x float]* @sct_2, i64 0, i64 %newIndex11 ; [#uses=1 type=float*]
  %sct_2_load_6 = load float* %sct_2_addr_6, align 4 ; [#uses=1 type=float]
  %sct_3_addr_6 = getelementptr [32 x float]* @sct_3, i64 0, i64 %newIndex11 ; [#uses=1 type=float*]
  %sct_3_load_6 = load float* %sct_3_addr_6, align 4 ; [#uses=1 type=float]
  %sct_4_addr_6 = getelementptr [32 x float]* @sct_4, i64 0, i64 %newIndex11 ; [#uses=1 type=float*]
  %sct_4_load_6 = load float* %sct_4_addr_6, align 4 ; [#uses=1 type=float]
  %sct_5_addr_6 = getelementptr [32 x float]* @sct_5, i64 0, i64 %newIndex11 ; [#uses=1 type=float*]
  %sct_5_load_6 = load float* %sct_5_addr_6, align 4 ; [#uses=1 type=float]
  %sct_6_addr_6 = getelementptr [32 x float]* @sct_6, i64 0, i64 %newIndex11 ; [#uses=1 type=float*]
  %sct_6_load_6 = load float* %sct_6_addr_6, align 4 ; [#uses=1 type=float]
  %sct_7_addr_6 = getelementptr [32 x float]* @sct_7, i64 0, i64 %newIndex11 ; [#uses=1 type=float*]
  %sct_7_load_6 = load float* %sct_7_addr_6, align 4 ; [#uses=1 type=float]
  %tmp_20 = call float @_ssdm_op_Mux.ap_auto.8float.i3(float %sct_0_load_7, float %sct_1_load_6, float %sct_2_load_6, float %sct_3_load_6, float %sct_4_load_6, float %sct_5_load_6, float %sct_6_load_6, float %sct_7_load_6, i3 %tmp_30) ; [#uses=2 type=float]
  %tmp_6_7 = fmul float %imag_i_7_load, %tmp_20, !dbg !213 ; [#uses=1 type=float] [debug line = 31:4]
  %tmp_7_7 = fsub float %tmp_5_7, %tmp_6_7, !dbg !213 ; [#uses=1 type=float] [debug line = 31:4]
  %real_o_tmp_1_7 = fadd float %real_o_tmp_1_6, %tmp_7_7, !dbg !213 ; [#uses=1 type=float] [debug line = 31:4]
  %tmp_9_7 = fmul float %real_i_7_load, %tmp_20, !dbg !214 ; [#uses=1 type=float] [debug line = 32:4]
  %tmp_7_15 = fmul float %imag_i_7_load, %tmp_19, !dbg !214 ; [#uses=1 type=float] [debug line = 32:4]
  %tmp_1_7 = fadd float %tmp_9_7, %tmp_7_15, !dbg !214 ; [#uses=1 type=float] [debug line = 32:4]
  %imag_o_tmp_1_7 = fadd float %imag_o_tmp_1_6, %tmp_1_7, !dbg !214 ; [#uses=1 type=float] [debug line = 32:4]
  %j_1_7 = add i9 8, %j, !dbg !215                ; [#uses=1 type=i9] [debug line = 28:55]
  br label %3, !dbg !215                          ; [debug line = 28:55]

; <label>:5                                       ; preds = %3
  %tmp_22 = trunc i9 %i to i3                     ; [#uses=2 type=i3]
  %newIndex3 = call i6 @_ssdm_op_PartSelect.i6.i9.i32.i32(i9 %i, i32 3, i32 8) ; [#uses=1 type=i6]
  %newIndex = zext i6 %newIndex3 to i64           ; [#uses=16 type=i64]
  %real_o_0_addr = getelementptr [32 x float]* %real_o_0, i64 0, i64 %newIndex, !dbg !217 ; [#uses=1 type=float*] [debug line = 34:3]
  %real_o_1_addr = getelementptr [32 x float]* %real_o_1, i64 0, i64 %newIndex, !dbg !217 ; [#uses=1 type=float*] [debug line = 34:3]
  %real_o_2_addr = getelementptr [32 x float]* %real_o_2, i64 0, i64 %newIndex, !dbg !217 ; [#uses=1 type=float*] [debug line = 34:3]
  %real_o_3_addr = getelementptr [32 x float]* %real_o_3, i64 0, i64 %newIndex, !dbg !217 ; [#uses=1 type=float*] [debug line = 34:3]
  %real_o_4_addr = getelementptr [32 x float]* %real_o_4, i64 0, i64 %newIndex, !dbg !217 ; [#uses=1 type=float*] [debug line = 34:3]
  %real_o_5_addr = getelementptr [32 x float]* %real_o_5, i64 0, i64 %newIndex, !dbg !217 ; [#uses=1 type=float*] [debug line = 34:3]
  %real_o_6_addr = getelementptr [32 x float]* %real_o_6, i64 0, i64 %newIndex, !dbg !217 ; [#uses=1 type=float*] [debug line = 34:3]
  %real_o_7_addr = getelementptr [32 x float]* %real_o_7, i64 0, i64 %newIndex, !dbg !217 ; [#uses=1 type=float*] [debug line = 34:3]
  switch i3 %tmp_22, label %branch727 [
    i3 0, label %branch020
    i3 1, label %branch121
    i3 2, label %branch222
    i3 3, label %branch323
    i3 -4, label %branch424
    i3 -3, label %branch525
    i3 -2, label %branch626
  ], !dbg !217                                    ; [debug line = 34:3]

; <label>:6                                       ; preds = %branch727, %branch626, %branch525, %branch424, %branch323, %branch222, %branch121, %branch020
  %imag_o_0_addr = getelementptr [32 x float]* %imag_o_0, i64 0, i64 %newIndex, !dbg !218 ; [#uses=1 type=float*] [debug line = 35:3]
  %imag_o_1_addr = getelementptr [32 x float]* %imag_o_1, i64 0, i64 %newIndex, !dbg !218 ; [#uses=1 type=float*] [debug line = 35:3]
  %imag_o_2_addr = getelementptr [32 x float]* %imag_o_2, i64 0, i64 %newIndex, !dbg !218 ; [#uses=1 type=float*] [debug line = 35:3]
  %imag_o_3_addr = getelementptr [32 x float]* %imag_o_3, i64 0, i64 %newIndex, !dbg !218 ; [#uses=1 type=float*] [debug line = 35:3]
  %imag_o_4_addr = getelementptr [32 x float]* %imag_o_4, i64 0, i64 %newIndex, !dbg !218 ; [#uses=1 type=float*] [debug line = 35:3]
  %imag_o_5_addr = getelementptr [32 x float]* %imag_o_5, i64 0, i64 %newIndex, !dbg !218 ; [#uses=1 type=float*] [debug line = 35:3]
  %imag_o_6_addr = getelementptr [32 x float]* %imag_o_6, i64 0, i64 %newIndex, !dbg !218 ; [#uses=1 type=float*] [debug line = 35:3]
  %imag_o_7_addr = getelementptr [32 x float]* %imag_o_7, i64 0, i64 %newIndex, !dbg !218 ; [#uses=1 type=float*] [debug line = 35:3]
  switch i3 %tmp_22, label %branch7 [
    i3 0, label %branch0
    i3 1, label %branch1
    i3 2, label %branch2
    i3 3, label %branch3
    i3 -4, label %branch4
    i3 -3, label %branch5
    i3 -2, label %branch6
  ], !dbg !218                                    ; [debug line = 35:3]

; <label>:7                                       ; preds = %branch7, %branch6, %branch5, %branch4, %branch3, %branch2, %branch1, %branch0
  %empty_16 = call i32 (...)* @_ssdm_op_SpecRegionEnd([9 x i8]* @p_str2, i32 %tmp) nounwind, !dbg !219 ; [#uses=0 type=i32] [debug line = 36:2]
  call void @llvm.dbg.value(metadata !{i9 %i_1}, i64 0, metadata !220), !dbg !206 ; [debug line = 24:54] [debug variable = i]
  br label %1, !dbg !206                          ; [debug line = 24:54]

; <label>:8                                       ; preds = %1
  ret void, !dbg !222                             ; [debug line = 37:1]

branch0:                                          ; preds = %6
  store float %imag_o_tmp, float* %imag_o_0_addr, align 4, !dbg !218 ; [debug line = 35:3]
  br label %7, !dbg !218                          ; [debug line = 35:3]

branch1:                                          ; preds = %6
  store float %imag_o_tmp, float* %imag_o_1_addr, align 4, !dbg !218 ; [debug line = 35:3]
  br label %7, !dbg !218                          ; [debug line = 35:3]

branch2:                                          ; preds = %6
  store float %imag_o_tmp, float* %imag_o_2_addr, align 4, !dbg !218 ; [debug line = 35:3]
  br label %7, !dbg !218                          ; [debug line = 35:3]

branch3:                                          ; preds = %6
  store float %imag_o_tmp, float* %imag_o_3_addr, align 4, !dbg !218 ; [debug line = 35:3]
  br label %7, !dbg !218                          ; [debug line = 35:3]

branch4:                                          ; preds = %6
  store float %imag_o_tmp, float* %imag_o_4_addr, align 4, !dbg !218 ; [debug line = 35:3]
  br label %7, !dbg !218                          ; [debug line = 35:3]

branch5:                                          ; preds = %6
  store float %imag_o_tmp, float* %imag_o_5_addr, align 4, !dbg !218 ; [debug line = 35:3]
  br label %7, !dbg !218                          ; [debug line = 35:3]

branch6:                                          ; preds = %6
  store float %imag_o_tmp, float* %imag_o_6_addr, align 4, !dbg !218 ; [debug line = 35:3]
  br label %7, !dbg !218                          ; [debug line = 35:3]

branch7:                                          ; preds = %6
  store float %imag_o_tmp, float* %imag_o_7_addr, align 4, !dbg !218 ; [debug line = 35:3]
  br label %7, !dbg !218                          ; [debug line = 35:3]

branch020:                                        ; preds = %5
  store float %real_o_tmp, float* %real_o_0_addr, align 4, !dbg !217 ; [debug line = 34:3]
  br label %6, !dbg !217                          ; [debug line = 34:3]

branch121:                                        ; preds = %5
  store float %real_o_tmp, float* %real_o_1_addr, align 4, !dbg !217 ; [debug line = 34:3]
  br label %6, !dbg !217                          ; [debug line = 34:3]

branch222:                                        ; preds = %5
  store float %real_o_tmp, float* %real_o_2_addr, align 4, !dbg !217 ; [debug line = 34:3]
  br label %6, !dbg !217                          ; [debug line = 34:3]

branch323:                                        ; preds = %5
  store float %real_o_tmp, float* %real_o_3_addr, align 4, !dbg !217 ; [debug line = 34:3]
  br label %6, !dbg !217                          ; [debug line = 34:3]

branch424:                                        ; preds = %5
  store float %real_o_tmp, float* %real_o_4_addr, align 4, !dbg !217 ; [debug line = 34:3]
  br label %6, !dbg !217                          ; [debug line = 34:3]

branch525:                                        ; preds = %5
  store float %real_o_tmp, float* %real_o_5_addr, align 4, !dbg !217 ; [debug line = 34:3]
  br label %6, !dbg !217                          ; [debug line = 34:3]

branch626:                                        ; preds = %5
  store float %real_o_tmp, float* %real_o_6_addr, align 4, !dbg !217 ; [debug line = 34:3]
  br label %6, !dbg !217                          ; [debug line = 34:3]

branch727:                                        ; preds = %5
  store float %real_o_tmp, float* %real_o_7_addr, align 4, !dbg !217 ; [debug line = 34:3]
  br label %6, !dbg !217                          ; [debug line = 34:3]
}

; [#uses=1]
define weak void @_ssdm_op_SpecTopModule(...) {
entry:
  ret void
}

; [#uses=1]
define weak i32 @_ssdm_op_SpecRegionEnd(...) {
entry:
  ret i32 0
}

; [#uses=1]
define weak i32 @_ssdm_op_SpecRegionBegin(...) {
entry:
  ret i32 0
}

; [#uses=2]
define weak i32 @_ssdm_op_SpecLoopTripCount(...) {
entry:
  ret i32 0
}

; [#uses=2]
define weak void @_ssdm_op_SpecLoopName(...) nounwind {
entry:
  ret void
}

; [#uses=32]
define weak void @_ssdm_op_SpecBitsMap(...) {
entry:
  ret void
}

; [#uses=0]
declare i8 @_ssdm_op_PartSelect.i8.i9.i32.i32(i9, i32, i32) nounwind readnone

; [#uses=2]
define weak i6 @_ssdm_op_PartSelect.i6.i9.i32.i32(i9, i32, i32) nounwind readnone {
entry:
  %empty = call i9 @llvm.part.select.i9(i9 %0, i32 %1, i32 %2) ; [#uses=1 type=i9]
  %empty_17 = trunc i9 %empty to i6               ; [#uses=1 type=i6]
  ret i6 %empty_17
}

; [#uses=1]
define weak i5 @_ssdm_op_PartSelect.i5.i8.i32.i32(i8, i32, i32) nounwind readnone {
entry:
  %empty = call i8 @llvm.part.select.i8(i8 %0, i32 %1, i32 %2) ; [#uses=1 type=i8]
  %empty_18 = trunc i8 %empty to i5               ; [#uses=1 type=i5]
  ret i5 %empty_18
}

; [#uses=7]
define weak i5 @_ssdm_op_PartSelect.i5.i17.i32.i32(i17, i32, i32) nounwind readnone {
entry:
  %empty = call i17 @llvm.part.select.i17(i17 %0, i32 %1, i32 %2) ; [#uses=1 type=i17]
  %empty_19 = trunc i17 %empty to i5              ; [#uses=1 type=i5]
  ret i5 %empty_19
}

; [#uses=0]
declare i3 @_ssdm_op_PartSelect.i3.i9.i32.i32(i9, i32, i32) nounwind readnone

; [#uses=0]
declare i3 @_ssdm_op_PartSelect.i3.i17.i32.i32(i17, i32, i32) nounwind readnone

; [#uses=14]
define weak float @_ssdm_op_Mux.ap_auto.8float.i3(float, float, float, float, float, float, float, float, i3) {
entry:
  switch i3 %8, label %case7 [
    i3 0, label %case0
    i3 1, label %case1
    i3 2, label %case2
    i3 3, label %case3
    i3 -4, label %case4
    i3 -3, label %case5
    i3 -2, label %case6
  ]

case0:                                            ; preds = %case7, %case6, %case5, %case4, %case3, %case2, %case1, %entry
  %merge = phi float [ %0, %entry ], [ %1, %case1 ], [ %2, %case2 ], [ %3, %case3 ], [ %4, %case4 ], [ %5, %case5 ], [ %6, %case6 ], [ %7, %case7 ] ; [#uses=1 type=float]
  ret float %merge

case1:                                            ; preds = %entry
  br label %case0

case2:                                            ; preds = %entry
  br label %case0

case3:                                            ; preds = %entry
  br label %case0

case4:                                            ; preds = %entry
  br label %case0

case5:                                            ; preds = %entry
  br label %case0

case6:                                            ; preds = %entry
  br label %case0

case7:                                            ; preds = %entry
  br label %case0
}

; [#uses=0]
declare i16 @_ssdm_op_HSub(...)

; [#uses=0]
declare i16 @_ssdm_op_HMul(...)

; [#uses=0]
declare i16 @_ssdm_op_HDiv(...)

; [#uses=0]
declare i16 @_ssdm_op_HAdd(...)

; [#uses=1]
declare void @_GLOBAL__I_a() nounwind

!hls.encrypted.func = !{}
!llvm.map.gv = !{!0}

!0 = metadata !{metadata !1, [1 x i32]* @llvm_global_ctors_0}
!1 = metadata !{metadata !2}
!2 = metadata !{i32 0, i32 31, metadata !3}
!3 = metadata !{metadata !4}
!4 = metadata !{metadata !"llvm.global_ctors.0", metadata !5, metadata !"", i32 0, i32 31}
!5 = metadata !{metadata !6}
!6 = metadata !{i32 0, i32 0, i32 1}
!7 = metadata !{metadata !8}
!8 = metadata !{i32 0, i32 31, metadata !9}
!9 = metadata !{metadata !10}
!10 = metadata !{metadata !"real_i", metadata !11, metadata !"float", i32 0, i32 31}
!11 = metadata !{metadata !12}
!12 = metadata !{i32 7, i32 255, i32 8}
!13 = metadata !{metadata !14}
!14 = metadata !{i32 0, i32 31, metadata !15}
!15 = metadata !{metadata !16}
!16 = metadata !{metadata !"real_i", metadata !17, metadata !"float", i32 0, i32 31}
!17 = metadata !{metadata !18}
!18 = metadata !{i32 6, i32 254, i32 8}
!19 = metadata !{metadata !20}
!20 = metadata !{i32 0, i32 31, metadata !21}
!21 = metadata !{metadata !22}
!22 = metadata !{metadata !"real_i", metadata !23, metadata !"float", i32 0, i32 31}
!23 = metadata !{metadata !24}
!24 = metadata !{i32 5, i32 253, i32 8}
!25 = metadata !{metadata !26}
!26 = metadata !{i32 0, i32 31, metadata !27}
!27 = metadata !{metadata !28}
!28 = metadata !{metadata !"real_i", metadata !29, metadata !"float", i32 0, i32 31}
!29 = metadata !{metadata !30}
!30 = metadata !{i32 4, i32 252, i32 8}
!31 = metadata !{metadata !32}
!32 = metadata !{i32 0, i32 31, metadata !33}
!33 = metadata !{metadata !34}
!34 = metadata !{metadata !"real_i", metadata !35, metadata !"float", i32 0, i32 31}
!35 = metadata !{metadata !36}
!36 = metadata !{i32 3, i32 251, i32 8}
!37 = metadata !{metadata !38}
!38 = metadata !{i32 0, i32 31, metadata !39}
!39 = metadata !{metadata !40}
!40 = metadata !{metadata !"real_i", metadata !41, metadata !"float", i32 0, i32 31}
!41 = metadata !{metadata !42}
!42 = metadata !{i32 2, i32 250, i32 8}
!43 = metadata !{metadata !44}
!44 = metadata !{i32 0, i32 31, metadata !45}
!45 = metadata !{metadata !46}
!46 = metadata !{metadata !"real_i", metadata !47, metadata !"float", i32 0, i32 31}
!47 = metadata !{metadata !48}
!48 = metadata !{i32 1, i32 249, i32 8}
!49 = metadata !{metadata !50}
!50 = metadata !{i32 0, i32 31, metadata !51}
!51 = metadata !{metadata !52}
!52 = metadata !{metadata !"real_i", metadata !53, metadata !"float", i32 0, i32 31}
!53 = metadata !{metadata !54}
!54 = metadata !{i32 0, i32 248, i32 8}
!55 = metadata !{metadata !56}
!56 = metadata !{i32 0, i32 31, metadata !57}
!57 = metadata !{metadata !58}
!58 = metadata !{metadata !"imag_i", metadata !11, metadata !"float", i32 0, i32 31}
!59 = metadata !{metadata !60}
!60 = metadata !{i32 0, i32 31, metadata !61}
!61 = metadata !{metadata !62}
!62 = metadata !{metadata !"imag_i", metadata !17, metadata !"float", i32 0, i32 31}
!63 = metadata !{metadata !64}
!64 = metadata !{i32 0, i32 31, metadata !65}
!65 = metadata !{metadata !66}
!66 = metadata !{metadata !"imag_i", metadata !23, metadata !"float", i32 0, i32 31}
!67 = metadata !{metadata !68}
!68 = metadata !{i32 0, i32 31, metadata !69}
!69 = metadata !{metadata !70}
!70 = metadata !{metadata !"imag_i", metadata !29, metadata !"float", i32 0, i32 31}
!71 = metadata !{metadata !72}
!72 = metadata !{i32 0, i32 31, metadata !73}
!73 = metadata !{metadata !74}
!74 = metadata !{metadata !"imag_i", metadata !35, metadata !"float", i32 0, i32 31}
!75 = metadata !{metadata !76}
!76 = metadata !{i32 0, i32 31, metadata !77}
!77 = metadata !{metadata !78}
!78 = metadata !{metadata !"imag_i", metadata !41, metadata !"float", i32 0, i32 31}
!79 = metadata !{metadata !80}
!80 = metadata !{i32 0, i32 31, metadata !81}
!81 = metadata !{metadata !82}
!82 = metadata !{metadata !"imag_i", metadata !47, metadata !"float", i32 0, i32 31}
!83 = metadata !{metadata !84}
!84 = metadata !{i32 0, i32 31, metadata !85}
!85 = metadata !{metadata !86}
!86 = metadata !{metadata !"imag_i", metadata !53, metadata !"float", i32 0, i32 31}
!87 = metadata !{metadata !88}
!88 = metadata !{i32 0, i32 31, metadata !89}
!89 = metadata !{metadata !90}
!90 = metadata !{metadata !"real_o", metadata !11, metadata !"float", i32 0, i32 31}
!91 = metadata !{metadata !92}
!92 = metadata !{i32 0, i32 31, metadata !93}
!93 = metadata !{metadata !94}
!94 = metadata !{metadata !"real_o", metadata !17, metadata !"float", i32 0, i32 31}
!95 = metadata !{metadata !96}
!96 = metadata !{i32 0, i32 31, metadata !97}
!97 = metadata !{metadata !98}
!98 = metadata !{metadata !"real_o", metadata !23, metadata !"float", i32 0, i32 31}
!99 = metadata !{metadata !100}
!100 = metadata !{i32 0, i32 31, metadata !101}
!101 = metadata !{metadata !102}
!102 = metadata !{metadata !"real_o", metadata !29, metadata !"float", i32 0, i32 31}
!103 = metadata !{metadata !104}
!104 = metadata !{i32 0, i32 31, metadata !105}
!105 = metadata !{metadata !106}
!106 = metadata !{metadata !"real_o", metadata !35, metadata !"float", i32 0, i32 31}
!107 = metadata !{metadata !108}
!108 = metadata !{i32 0, i32 31, metadata !109}
!109 = metadata !{metadata !110}
!110 = metadata !{metadata !"real_o", metadata !41, metadata !"float", i32 0, i32 31}
!111 = metadata !{metadata !112}
!112 = metadata !{i32 0, i32 31, metadata !113}
!113 = metadata !{metadata !114}
!114 = metadata !{metadata !"real_o", metadata !47, metadata !"float", i32 0, i32 31}
!115 = metadata !{metadata !116}
!116 = metadata !{i32 0, i32 31, metadata !117}
!117 = metadata !{metadata !118}
!118 = metadata !{metadata !"real_o", metadata !53, metadata !"float", i32 0, i32 31}
!119 = metadata !{metadata !120}
!120 = metadata !{i32 0, i32 31, metadata !121}
!121 = metadata !{metadata !122}
!122 = metadata !{metadata !"imag_o", metadata !11, metadata !"float", i32 0, i32 31}
!123 = metadata !{metadata !124}
!124 = metadata !{i32 0, i32 31, metadata !125}
!125 = metadata !{metadata !126}
!126 = metadata !{metadata !"imag_o", metadata !17, metadata !"float", i32 0, i32 31}
!127 = metadata !{metadata !128}
!128 = metadata !{i32 0, i32 31, metadata !129}
!129 = metadata !{metadata !130}
!130 = metadata !{metadata !"imag_o", metadata !23, metadata !"float", i32 0, i32 31}
!131 = metadata !{metadata !132}
!132 = metadata !{i32 0, i32 31, metadata !133}
!133 = metadata !{metadata !134}
!134 = metadata !{metadata !"imag_o", metadata !29, metadata !"float", i32 0, i32 31}
!135 = metadata !{metadata !136}
!136 = metadata !{i32 0, i32 31, metadata !137}
!137 = metadata !{metadata !138}
!138 = metadata !{metadata !"imag_o", metadata !35, metadata !"float", i32 0, i32 31}
!139 = metadata !{metadata !140}
!140 = metadata !{i32 0, i32 31, metadata !141}
!141 = metadata !{metadata !142}
!142 = metadata !{metadata !"imag_o", metadata !41, metadata !"float", i32 0, i32 31}
!143 = metadata !{metadata !144}
!144 = metadata !{i32 0, i32 31, metadata !145}
!145 = metadata !{metadata !146}
!146 = metadata !{metadata !"imag_o", metadata !47, metadata !"float", i32 0, i32 31}
!147 = metadata !{metadata !148}
!148 = metadata !{i32 0, i32 31, metadata !149}
!149 = metadata !{metadata !150}
!150 = metadata !{metadata !"imag_o", metadata !53, metadata !"float", i32 0, i32 31}
!151 = metadata !{i32 790531, metadata !152, metadata !"real_i[0]", null, i32 12, metadata !158, i32 0, i32 0} ; [ DW_TAG_arg_variable_field ]
!152 = metadata !{i32 786689, metadata !153, metadata !"real_i", null, i32 12, metadata !162, i32 0, i32 0} ; [ DW_TAG_arg_variable ]
!153 = metadata !{i32 786478, i32 0, metadata !154, metadata !"dft", metadata !"dft", metadata !"_Z3dftPfS_S_S_", metadata !154, i32 12, metadata !155, i1 false, i1 true, i32 0, i32 0, null, i32 256, i1 false, null, null, null, metadata !160, i32 13} ; [ DW_TAG_subprogram ]
!154 = metadata !{i32 786473, metadata !"dft.cpp", metadata !"d:/Projects/vivado/project_3/dft_256_precomputed", null} ; [ DW_TAG_file_type ]
!155 = metadata !{i32 786453, i32 0, metadata !"", i32 0, i32 0, i64 0, i64 0, i64 0, i32 0, null, metadata !156, i32 0, i32 0} ; [ DW_TAG_subroutine_type ]
!156 = metadata !{null, metadata !157, metadata !157, metadata !157, metadata !157}
!157 = metadata !{i32 786447, null, metadata !"", null, i32 0, i64 64, i64 64, i64 0, i32 0, metadata !158} ; [ DW_TAG_pointer_type ]
!158 = metadata !{i32 786454, null, metadata !"DTYPE", metadata !154, i32 10, i64 0, i64 0, i64 0, i32 0, metadata !159} ; [ DW_TAG_typedef ]
!159 = metadata !{i32 786468, null, metadata !"float", null, i32 0, i64 32, i64 32, i64 0, i32 0, i32 4} ; [ DW_TAG_base_type ]
!160 = metadata !{metadata !161}
!161 = metadata !{i32 786468}                     ; [ DW_TAG_base_type ]
!162 = metadata !{i32 786433, null, metadata !"", null, i32 0, i64 0, i64 0, i32 0, i32 0, metadata !158, metadata !163, i32 0, i32 0} ; [ DW_TAG_array_type ]
!163 = metadata !{metadata !164}
!164 = metadata !{i32 786465, i64 0, i64 255}     ; [ DW_TAG_subrange_type ]
!165 = metadata !{i32 12, i32 16, metadata !153, null}
!166 = metadata !{i32 790531, metadata !152, metadata !"real_i[1]", null, i32 12, metadata !158, i32 0, i32 0} ; [ DW_TAG_arg_variable_field ]
!167 = metadata !{i32 790531, metadata !152, metadata !"real_i[2]", null, i32 12, metadata !158, i32 0, i32 0} ; [ DW_TAG_arg_variable_field ]
!168 = metadata !{i32 790531, metadata !152, metadata !"real_i[3]", null, i32 12, metadata !158, i32 0, i32 0} ; [ DW_TAG_arg_variable_field ]
!169 = metadata !{i32 790531, metadata !152, metadata !"real_i[4]", null, i32 12, metadata !158, i32 0, i32 0} ; [ DW_TAG_arg_variable_field ]
!170 = metadata !{i32 790531, metadata !152, metadata !"real_i[5]", null, i32 12, metadata !158, i32 0, i32 0} ; [ DW_TAG_arg_variable_field ]
!171 = metadata !{i32 790531, metadata !152, metadata !"real_i[6]", null, i32 12, metadata !158, i32 0, i32 0} ; [ DW_TAG_arg_variable_field ]
!172 = metadata !{i32 790531, metadata !152, metadata !"real_i[7]", null, i32 12, metadata !158, i32 0, i32 0} ; [ DW_TAG_arg_variable_field ]
!173 = metadata !{i32 790531, metadata !174, metadata !"imag_i[0]", null, i32 12, metadata !158, i32 0, i32 0} ; [ DW_TAG_arg_variable_field ]
!174 = metadata !{i32 786689, metadata !153, metadata !"imag_i", null, i32 12, metadata !162, i32 0, i32 0} ; [ DW_TAG_arg_variable ]
!175 = metadata !{i32 12, i32 53, metadata !153, null}
!176 = metadata !{i32 790531, metadata !174, metadata !"imag_i[1]", null, i32 12, metadata !158, i32 0, i32 0} ; [ DW_TAG_arg_variable_field ]
!177 = metadata !{i32 790531, metadata !174, metadata !"imag_i[2]", null, i32 12, metadata !158, i32 0, i32 0} ; [ DW_TAG_arg_variable_field ]
!178 = metadata !{i32 790531, metadata !174, metadata !"imag_i[3]", null, i32 12, metadata !158, i32 0, i32 0} ; [ DW_TAG_arg_variable_field ]
!179 = metadata !{i32 790531, metadata !174, metadata !"imag_i[4]", null, i32 12, metadata !158, i32 0, i32 0} ; [ DW_TAG_arg_variable_field ]
!180 = metadata !{i32 790531, metadata !174, metadata !"imag_i[5]", null, i32 12, metadata !158, i32 0, i32 0} ; [ DW_TAG_arg_variable_field ]
!181 = metadata !{i32 790531, metadata !174, metadata !"imag_i[6]", null, i32 12, metadata !158, i32 0, i32 0} ; [ DW_TAG_arg_variable_field ]
!182 = metadata !{i32 790531, metadata !174, metadata !"imag_i[7]", null, i32 12, metadata !158, i32 0, i32 0} ; [ DW_TAG_arg_variable_field ]
!183 = metadata !{i32 790531, metadata !184, metadata !"real_o[0]", null, i32 12, metadata !158, i32 0, i32 0} ; [ DW_TAG_arg_variable_field ]
!184 = metadata !{i32 786689, metadata !153, metadata !"real_o", null, i32 12, metadata !162, i32 0, i32 0} ; [ DW_TAG_arg_variable ]
!185 = metadata !{i32 12, i32 90, metadata !153, null}
!186 = metadata !{i32 790531, metadata !184, metadata !"real_o[1]", null, i32 12, metadata !158, i32 0, i32 0} ; [ DW_TAG_arg_variable_field ]
!187 = metadata !{i32 790531, metadata !184, metadata !"real_o[2]", null, i32 12, metadata !158, i32 0, i32 0} ; [ DW_TAG_arg_variable_field ]
!188 = metadata !{i32 790531, metadata !184, metadata !"real_o[3]", null, i32 12, metadata !158, i32 0, i32 0} ; [ DW_TAG_arg_variable_field ]
!189 = metadata !{i32 790531, metadata !184, metadata !"real_o[4]", null, i32 12, metadata !158, i32 0, i32 0} ; [ DW_TAG_arg_variable_field ]
!190 = metadata !{i32 790531, metadata !184, metadata !"real_o[5]", null, i32 12, metadata !158, i32 0, i32 0} ; [ DW_TAG_arg_variable_field ]
!191 = metadata !{i32 790531, metadata !184, metadata !"real_o[6]", null, i32 12, metadata !158, i32 0, i32 0} ; [ DW_TAG_arg_variable_field ]
!192 = metadata !{i32 790531, metadata !184, metadata !"real_o[7]", null, i32 12, metadata !158, i32 0, i32 0} ; [ DW_TAG_arg_variable_field ]
!193 = metadata !{i32 790531, metadata !194, metadata !"imag_o[0]", null, i32 12, metadata !158, i32 0, i32 0} ; [ DW_TAG_arg_variable_field ]
!194 = metadata !{i32 786689, metadata !153, metadata !"imag_o", null, i32 12, metadata !162, i32 0, i32 0} ; [ DW_TAG_arg_variable ]
!195 = metadata !{i32 12, i32 127, metadata !153, null}
!196 = metadata !{i32 790531, metadata !194, metadata !"imag_o[1]", null, i32 12, metadata !158, i32 0, i32 0} ; [ DW_TAG_arg_variable_field ]
!197 = metadata !{i32 790531, metadata !194, metadata !"imag_o[2]", null, i32 12, metadata !158, i32 0, i32 0} ; [ DW_TAG_arg_variable_field ]
!198 = metadata !{i32 790531, metadata !194, metadata !"imag_o[3]", null, i32 12, metadata !158, i32 0, i32 0} ; [ DW_TAG_arg_variable_field ]
!199 = metadata !{i32 790531, metadata !194, metadata !"imag_o[4]", null, i32 12, metadata !158, i32 0, i32 0} ; [ DW_TAG_arg_variable_field ]
!200 = metadata !{i32 790531, metadata !194, metadata !"imag_o[5]", null, i32 12, metadata !158, i32 0, i32 0} ; [ DW_TAG_arg_variable_field ]
!201 = metadata !{i32 790531, metadata !194, metadata !"imag_o[6]", null, i32 12, metadata !158, i32 0, i32 0} ; [ DW_TAG_arg_variable_field ]
!202 = metadata !{i32 790531, metadata !194, metadata !"imag_o[7]", null, i32 12, metadata !158, i32 0, i32 0} ; [ DW_TAG_arg_variable_field ]
!203 = metadata !{i32 24, i32 25, metadata !204, null}
!204 = metadata !{i32 786443, metadata !205, i32 24, i32 12, metadata !154, i32 1} ; [ DW_TAG_lexical_block ]
!205 = metadata !{i32 786443, metadata !153, i32 13, i32 1, metadata !154, i32 0} ; [ DW_TAG_lexical_block ]
!206 = metadata !{i32 24, i32 54, metadata !204, null}
!207 = metadata !{i32 24, i32 60, metadata !208, null}
!208 = metadata !{i32 786443, metadata !204, i32 24, i32 59, metadata !154, i32 2} ; [ DW_TAG_lexical_block ]
!209 = metadata !{i32 28, i32 26, metadata !210, null}
!210 = metadata !{i32 786443, metadata !208, i32 28, i32 13, metadata !154, i32 3} ; [ DW_TAG_lexical_block ]
!211 = metadata !{i32 28, i32 61, metadata !212, null}
!212 = metadata !{i32 786443, metadata !210, i32 28, i32 60, metadata !154, i32 4} ; [ DW_TAG_lexical_block ]
!213 = metadata !{i32 31, i32 4, metadata !212, null}
!214 = metadata !{i32 32, i32 4, metadata !212, null}
!215 = metadata !{i32 28, i32 55, metadata !210, null}
!216 = metadata !{i32 30, i32 41, metadata !212, null}
!217 = metadata !{i32 34, i32 3, metadata !208, null}
!218 = metadata !{i32 35, i32 3, metadata !208, null}
!219 = metadata !{i32 36, i32 2, metadata !208, null}
!220 = metadata !{i32 786688, metadata !204, metadata !"i", metadata !154, i32 24, metadata !221, i32 0, i32 0} ; [ DW_TAG_auto_variable ]
!221 = metadata !{i32 786468, null, metadata !"int", null, i32 0, i64 32, i64 32, i64 0, i32 0, i32 5} ; [ DW_TAG_base_type ]
!222 = metadata !{i32 37, i32 1, metadata !205, null}
