

================================================================
== Vivado HLS Report for 'dft_loop_flow4_Loop_1_proc'
================================================================
* Date:           Wed Nov 02 20:48:12 2016

* Version:        2015.4 (Build 1412921 on Wed Nov 18 09:58:55 AM 2015)
* Project:        dft
* Solution:       solution2
* Product family: zynq
* Target device:  xc7z020clg484-1


================================================================
== Performance Estimates
================================================================
+ Timing (ns): 
    * Summary: 
    +--------+-------+----------+------------+
    |  Clock | Target| Estimated| Uncertainty|
    +--------+-------+----------+------------+
    |ap_clk  |  10.00|      7.26|        1.25|
    +--------+-------+----------+------------+

+ Latency (clock cycles): 
    * Summary: 
    +-----+-----+-----+-----+---------+
    |  Latency  |  Interval | Pipeline|
    | min | max | min | max |   Type  |
    +-----+-----+-----+-----+---------+
    |   10|   10|   10|   10|   none  |
    +-----+-----+-----+-----+---------+

    + Detail: 
        * Instance: 
        N/A

        * Loop: 
        +----------+-----+-----+----------+-----------+-----------+------+----------+
        |          |  Latency  | Iteration|  Initiation Interval  | Trip |          |
        | Loop Name| min | max |  Latency |  achieved |   target  | Count| Pipelined|
        +----------+-----+-----+----------+-----------+-----------+------+----------+
        |- Loop 1  |    8|    8|         6|          1|          1|     4|    yes   |
        +----------+-----+-----+----------+-----------+-----------+------+----------+

============================================================
+ Verbose Summary: Synthesis Manager
============================================================
InlineROM: 1
ExposeGlobal: 0
============================================================
+ Verbose Summary: CDFG Model
============================================================
IsTopModel: 0
ResetActiveHigh: 1
IsCombinational: 2
IsDatapathOnly: 0
HasWiredReturn: 1
HasMFsm: 0
HasVarLatency: 1
IsPipeline: 0
IsRtlPipelined: 0
IsInstanceOverlapped: 0
IsDontTouch: 0
HasImplIP: 0
IsGatedGlobalClock: 0

+ Individual pipeline summary: 
  * Pipeline-0: initiation interval (II) = 1, depth = 6


============================================================
+ Verbose Summary: Schedule
============================================================
* Number of FSM states: 8
* Pipeline: 1
  Pipeline-0: II = 1, D = 6, States = { 2 3 4 5 6 7 }
* Dataflow Pipeline: 0

* FSM state transitions: 
1 --> 
	2  / true
2 --> 
	8  / (exitcond_i_i)
	3  / (!exitcond_i_i)
3 --> 
	4  / true
4 --> 
	5  / true
5 --> 
	6  / true
6 --> 
	7  / true
7 --> 
	2  / true
8 --> 
* FSM state operations: 

 <State 1>: 1.57ns
ST_1: real_arr8_6_load [1/1] 0.00ns
newFuncRoot:0  %real_arr8_6_load = load float* @real_arr8_6, align 8

ST_1: real_arr8_7_load [1/1] 0.00ns
newFuncRoot:1  %real_arr8_7_load = load float* @real_arr8_7, align 4

ST_1: imag_arr8_6_load [1/1] 0.00ns
newFuncRoot:2  %imag_arr8_6_load = load float* @imag_arr8_6, align 8

ST_1: imag_arr8_7_load [1/1] 0.00ns
newFuncRoot:3  %imag_arr8_7_load = load float* @imag_arr8_7, align 4

ST_1: imag_arr8_1_load [1/1] 0.00ns
newFuncRoot:4  %imag_arr8_1_load = load float* @imag_arr8_1, align 4

ST_1: imag_arr8_3_load [1/1] 0.00ns
newFuncRoot:5  %imag_arr8_3_load = load float* @imag_arr8_3, align 4

ST_1: imag_arr8_5_load [1/1] 0.00ns
newFuncRoot:6  %imag_arr8_5_load = load float* @imag_arr8_5, align 4

ST_1: imag_arr8_0_load [1/1] 0.00ns
newFuncRoot:7  %imag_arr8_0_load = load float* @imag_arr8_0, align 8

ST_1: imag_arr8_2_load [1/1] 0.00ns
newFuncRoot:8  %imag_arr8_2_load = load float* @imag_arr8_2, align 8

ST_1: imag_arr8_4_load [1/1] 0.00ns
newFuncRoot:9  %imag_arr8_4_load = load float* @imag_arr8_4, align 8

ST_1: real_arr8_1_load [1/1] 0.00ns
newFuncRoot:10  %real_arr8_1_load = load float* @real_arr8_1, align 4

ST_1: real_arr8_3_load [1/1] 0.00ns
newFuncRoot:11  %real_arr8_3_load = load float* @real_arr8_3, align 4

ST_1: real_arr8_5_load [1/1] 0.00ns
newFuncRoot:12  %real_arr8_5_load = load float* @real_arr8_5, align 4

ST_1: real_arr8_0_load [1/1] 0.00ns
newFuncRoot:13  %real_arr8_0_load = load float* @real_arr8_0, align 8

ST_1: real_arr8_2_load [1/1] 0.00ns
newFuncRoot:14  %real_arr8_2_load = load float* @real_arr8_2, align 8

ST_1: real_arr8_4_load [1/1] 0.00ns
newFuncRoot:15  %real_arr8_4_load = load float* @real_arr8_4, align 8

ST_1: stg_25 [1/1] 1.57ns
newFuncRoot:16  br label %0


 <State 2>: 5.73ns
ST_2: p_078_0_i_i [1/1] 0.00ns
:0  %p_078_0_i_i = phi i4 [ 0, %newFuncRoot ], [ %j_V, %1 ]

ST_2: p_04_0_i_i [1/1] 0.00ns
:1  %p_04_0_i_i = phi i3 [ 0, %newFuncRoot ], [ %i_V, %1 ]

ST_2: exitcond_i_i [1/1] 1.62ns
:2  %exitcond_i_i = icmp eq i3 %p_04_0_i_i, -4

ST_2: i_V [1/1] 0.80ns
:3  %i_V = add i3 %p_04_0_i_i, 1

ST_2: stg_30 [1/1] 0.00ns
:4  br i1 %exitcond_i_i, label %loop_flow4_.exit2.exitStub, label %_ifconv

ST_2: tmp_2 [1/1] 0.00ns
_ifconv:3  %tmp_2 = trunc i4 %p_078_0_i_i to i3

ST_2: sel_tmp [1/1] 1.62ns
_ifconv:4  %sel_tmp = icmp eq i3 %tmp_2, 2

ST_2: sel_tmp1 [1/1] 1.37ns
_ifconv:5  %sel_tmp1 = select i1 %sel_tmp, float %real_arr8_2_load, float %real_arr8_6_load

ST_2: sel_tmp2 [1/1] 1.62ns
_ifconv:6  %sel_tmp2 = icmp eq i3 %tmp_2, -4

ST_2: sel_tmp3 [1/1] 1.37ns
_ifconv:7  %sel_tmp3 = select i1 %sel_tmp2, float %real_arr8_4_load, float %sel_tmp1

ST_2: sel_tmp4 [1/1] 1.62ns
_ifconv:8  %sel_tmp4 = icmp eq i3 %tmp_2, 0

ST_2: real_arr8_load_i_phi [1/1] 1.37ns
_ifconv:9  %real_arr8_load_i_phi = select i1 %sel_tmp4, float %real_arr8_0_load, float %sel_tmp3

ST_2: r_V [1/1] 0.00ns
_ifconv:10  %r_V = or i3 %tmp_2, 1

ST_2: sel_tmp6 [1/1] 1.62ns
_ifconv:11  %sel_tmp6 = icmp eq i3 %r_V, 3

ST_2: sel_tmp7 [1/1] 1.37ns
_ifconv:12  %sel_tmp7 = select i1 %sel_tmp6, float %real_arr8_3_load, float %real_arr8_7_load

ST_2: sel_tmp8 [1/1] 1.62ns
_ifconv:13  %sel_tmp8 = icmp eq i3 %r_V, -3

ST_2: sel_tmp9 [1/1] 1.37ns
_ifconv:14  %sel_tmp9 = select i1 %sel_tmp8, float %real_arr8_5_load, float %sel_tmp7

ST_2: sel_tmp5 [1/1] 1.62ns
_ifconv:15  %sel_tmp5 = icmp eq i3 %r_V, 1

ST_2: real_arr8_load_1_i_phi [1/1] 1.37ns
_ifconv:16  %real_arr8_load_1_i_phi = select i1 %sel_tmp5, float %real_arr8_1_load, float %sel_tmp9

ST_2: tmp_3 [1/1] 0.00ns
_ifconv:18  %tmp_3 = trunc i3 %p_04_0_i_i to i2

ST_2: stg_46 [1/1] 1.88ns
_ifconv:19  switch i2 %tmp_3, label %branch39 [
    i2 0, label %branch36
    i2 1, label %branch37
    i2 -2, label %branch38
  ]

ST_2: sel_tmp10 [1/1] 1.37ns
_ifconv12:0  %sel_tmp10 = select i1 %sel_tmp, float %imag_arr8_2_load, float %imag_arr8_6_load

ST_2: sel_tmp11 [1/1] 1.37ns
_ifconv12:1  %sel_tmp11 = select i1 %sel_tmp2, float %imag_arr8_4_load, float %sel_tmp10

ST_2: imag_arr8_load_i_phi [1/1] 1.37ns
_ifconv12:2  %imag_arr8_load_i_phi = select i1 %sel_tmp4, float %imag_arr8_0_load, float %sel_tmp11

ST_2: sel_tmp12 [1/1] 1.37ns
_ifconv12:3  %sel_tmp12 = select i1 %sel_tmp6, float %imag_arr8_3_load, float %imag_arr8_7_load

ST_2: sel_tmp13 [1/1] 1.37ns
_ifconv12:4  %sel_tmp13 = select i1 %sel_tmp8, float %imag_arr8_5_load, float %sel_tmp12

ST_2: imag_arr8_load_1_i_phi [1/1] 1.37ns
_ifconv12:5  %imag_arr8_load_1_i_phi = select i1 %sel_tmp5, float %imag_arr8_1_load, float %sel_tmp13

ST_2: stg_53 [1/1] 1.88ns
_ifconv12:7  switch i2 %tmp_3, label %branch35 [
    i2 0, label %branch32
    i2 1, label %branch33
    i2 -2, label %branch34
  ]

ST_2: j_V [1/1] 0.80ns
:1  %j_V = add i4 %p_078_0_i_i, 2


 <State 3>: 7.26ns
ST_3: tmp_7_i [5/5] 7.26ns
_ifconv:17  %tmp_7_i = fadd float %real_arr8_load_i_phi, %real_arr8_load_1_i_phi

ST_3: tmp_9_i [5/5] 7.26ns
_ifconv12:6  %tmp_9_i = fadd float %imag_arr8_load_i_phi, %imag_arr8_load_1_i_phi


 <State 4>: 7.26ns
ST_4: tmp_7_i [4/5] 7.26ns
_ifconv:17  %tmp_7_i = fadd float %real_arr8_load_i_phi, %real_arr8_load_1_i_phi

ST_4: tmp_9_i [4/5] 7.26ns
_ifconv12:6  %tmp_9_i = fadd float %imag_arr8_load_i_phi, %imag_arr8_load_1_i_phi


 <State 5>: 7.26ns
ST_5: tmp_7_i [3/5] 7.26ns
_ifconv:17  %tmp_7_i = fadd float %real_arr8_load_i_phi, %real_arr8_load_1_i_phi

ST_5: tmp_9_i [3/5] 7.26ns
_ifconv12:6  %tmp_9_i = fadd float %imag_arr8_load_i_phi, %imag_arr8_load_1_i_phi


 <State 6>: 7.26ns
ST_6: tmp_7_i [2/5] 7.26ns
_ifconv:17  %tmp_7_i = fadd float %real_arr8_load_i_phi, %real_arr8_load_1_i_phi

ST_6: tmp_9_i [2/5] 7.26ns
_ifconv12:6  %tmp_9_i = fadd float %imag_arr8_load_i_phi, %imag_arr8_load_1_i_phi


 <State 7>: 7.26ns
ST_7: empty_19 [1/1] 0.00ns
_ifconv:0  %empty_19 = call i32 (...)* @_ssdm_op_SpecLoopTripCount(i64 4, i64 4, i64 4) nounwind

ST_7: tmp [1/1] 0.00ns
_ifconv:1  %tmp = call i32 (...)* @_ssdm_op_SpecRegionBegin([12 x i8]* @p_str9) nounwind

ST_7: stg_65 [1/1] 0.00ns
_ifconv:2  call void (...)* @_ssdm_op_SpecPipeline(i32 1, i32 1, i32 1, i32 0, [1 x i8]* @p_str) nounwind

ST_7: tmp_7_i [1/5] 7.26ns
_ifconv:17  %tmp_7_i = fadd float %real_arr8_load_i_phi, %real_arr8_load_1_i_phi

ST_7: stg_67 [1/1] 0.00ns
branch38:0  store float %tmp_7_i, float* @real_arr4_2, align 4

ST_7: stg_68 [1/1] 0.00ns
branch38:1  br label %_ifconv12

ST_7: stg_69 [1/1] 0.00ns
branch37:0  store float %tmp_7_i, float* @real_arr4_1, align 4

ST_7: stg_70 [1/1] 0.00ns
branch37:1  br label %_ifconv12

ST_7: stg_71 [1/1] 0.00ns
branch36:0  store float %tmp_7_i, float* @real_arr4_0, align 4

ST_7: stg_72 [1/1] 0.00ns
branch36:1  br label %_ifconv12

ST_7: stg_73 [1/1] 0.00ns
branch39:0  store float %tmp_7_i, float* @real_arr4_3, align 4

ST_7: stg_74 [1/1] 0.00ns
branch39:1  br label %_ifconv12

ST_7: tmp_9_i [1/5] 7.26ns
_ifconv12:6  %tmp_9_i = fadd float %imag_arr8_load_i_phi, %imag_arr8_load_1_i_phi

ST_7: stg_76 [1/1] 0.00ns
branch34:0  store float %tmp_9_i, float* @imag_arr4_2, align 4

ST_7: stg_77 [1/1] 0.00ns
branch34:1  br label %1

ST_7: stg_78 [1/1] 0.00ns
branch33:0  store float %tmp_9_i, float* @imag_arr4_1, align 4

ST_7: stg_79 [1/1] 0.00ns
branch33:1  br label %1

ST_7: stg_80 [1/1] 0.00ns
branch32:0  store float %tmp_9_i, float* @imag_arr4_0, align 4

ST_7: stg_81 [1/1] 0.00ns
branch32:1  br label %1

ST_7: stg_82 [1/1] 0.00ns
branch35:0  store float %tmp_9_i, float* @imag_arr4_3, align 4

ST_7: stg_83 [1/1] 0.00ns
branch35:1  br label %1

ST_7: empty [1/1] 0.00ns
:0  %empty = call i32 (...)* @_ssdm_op_SpecRegionEnd([12 x i8]* @p_str9, i32 %tmp) nounwind

ST_7: stg_85 [1/1] 0.00ns
:2  br label %0


 <State 8>: 0.00ns
ST_8: stg_86 [1/1] 0.00ns
loop_flow4_.exit2.exitStub:0  ret void



============================================================
+ Verbose Summary: Binding
============================================================
N/A
* FSMD analyzer results:
  - Output states:
  - Chain level:
	State 1
	State 2
	State 3
	State 4
	State 5
	State 6
	State 7
	State 8


============================================================
+ Verbose Summary: Datapath Resource usage 
============================================================
N/A
