

================================================================
== Vivado HLS Report for 'dft_loop_flow2'
================================================================
* Date:           Wed Nov 02 20:48:01 2016

* Version:        2015.4 (Build 1412921 on Wed Nov 18 09:58:55 AM 2015)
* Project:        dft
* Solution:       dft_best5
* Product family: zynq
* Target device:  xc7z020clg484-1


================================================================
== Performance Estimates
================================================================
+ Timing (ns): 
    * Summary: 
    +--------+-------+----------+------------+
    |  Clock | Target| Estimated| Uncertainty|
    +--------+-------+----------+------------+
    |ap_clk  |  10.00|      7.26|        1.25|
    +--------+-------+----------+------------+

+ Latency (clock cycles): 
    * Summary: 
    +-----+-----+-----+-----+----------+
    |  Latency  |  Interval | Pipeline |
    | min | max | min | max |   Type   |
    +-----+-----+-----+-----+----------+
    |    4|    4|    1|    1| function |
    +-----+-----+-----+-----+----------+

    + Detail: 
        * Instance: 
        N/A

        * Loop: 
        N/A



================================================================
== Utilization Estimates
================================================================
* Summary: 
+-----------------+---------+-------+--------+-------+
|       Name      | BRAM_18K| DSP48E|   FF   |  LUT  |
+-----------------+---------+-------+--------+-------+
|DSP              |        -|      -|       -|      -|
|Expression       |        -|      -|       -|      -|
|FIFO             |        -|      -|       -|      -|
|Instance         |        -|      8|     820|   1560|
|Memory           |        -|      -|       -|      -|
|Multiplexer      |        -|      -|       -|      -|
|Register         |        -|      -|       5|      -|
+-----------------+---------+-------+--------+-------+
|Total            |        0|      8|     825|   1560|
+-----------------+---------+-------+--------+-------+
|Available        |      280|    220|  106400|  53200|
+-----------------+---------+-------+--------+-------+
|Utilization (%)  |        0|      3|   ~0   |      2|
+-----------------+---------+-------+--------+-------+

+ Detail: 
    * Instance: 
    +---------------------------------------+----------------------------------+---------+-------+-----+-----+
    |                Instance               |              Module              | BRAM_18K| DSP48E|  FF | LUT |
    +---------------------------------------+----------------------------------+---------+-------+-----+-----+
    |dft_fadd_32ns_32ns_32_5_full_dsp_U532  |dft_fadd_32ns_32ns_32_5_full_dsp  |        0|      2|  205|  390|
    |dft_fadd_32ns_32ns_32_5_full_dsp_U533  |dft_fadd_32ns_32ns_32_5_full_dsp  |        0|      2|  205|  390|
    |dft_fadd_32ns_32ns_32_5_full_dsp_U534  |dft_fadd_32ns_32ns_32_5_full_dsp  |        0|      2|  205|  390|
    |dft_fadd_32ns_32ns_32_5_full_dsp_U535  |dft_fadd_32ns_32ns_32_5_full_dsp  |        0|      2|  205|  390|
    +---------------------------------------+----------------------------------+---------+-------+-----+-----+
    |Total                                  |                                  |        0|      8|  820| 1560|
    +---------------------------------------+----------------------------------+---------+-------+-----+-----+

    * DSP48: 
    N/A

    * Memory: 
    N/A

    * FIFO: 
    N/A

    * Expression: 
    N/A

    * Multiplexer: 
    N/A

    * Register: 
    +-----------------------+---+----+-----+-----------+
    |          Name         | FF| LUT| Bits| Const Bits|
    +-----------------------+---+----+-----+-----------+
    |ap_CS_fsm              |  1|   0|    1|          0|
    |ap_reg_ppiten_pp0_it1  |  1|   0|    1|          0|
    |ap_reg_ppiten_pp0_it2  |  1|   0|    1|          0|
    |ap_reg_ppiten_pp0_it3  |  1|   0|    1|          0|
    |ap_reg_ppiten_pp0_it4  |  1|   0|    1|          0|
    +-----------------------+---+----+-----+-----------+
    |Total                  |  5|   0|    5|          0|
    +-----------------------+---+----+-----+-----------+



================================================================
== Interface
================================================================
* Summary: 
+--------------------+-----+-----+------------+----------------+--------------+
|      RTL Ports     | Dir | Bits|  Protocol  |  Source Object |    C Type    |
+--------------------+-----+-----+------------+----------------+--------------+
|ap_clk              |  in |    1| ap_ctrl_hs | dft_loop_flow2 | return value |
|ap_rst              |  in |    1| ap_ctrl_hs | dft_loop_flow2 | return value |
|ap_start            |  in |    1| ap_ctrl_hs | dft_loop_flow2 | return value |
|ap_done             | out |    1| ap_ctrl_hs | dft_loop_flow2 | return value |
|ap_idle             | out |    1| ap_ctrl_hs | dft_loop_flow2 | return value |
|ap_ready            | out |    1| ap_ctrl_hs | dft_loop_flow2 | return value |
|ap_ce               |  in |    1| ap_ctrl_hs | dft_loop_flow2 | return value |
|real_arr4_0         |  in |   32|   ap_none  |   real_arr4_0  |    pointer   |
|real_arr4_1         |  in |   32|   ap_none  |   real_arr4_1  |    pointer   |
|real_arr2_0         | out |   32|   ap_vld   |   real_arr2_0  |    pointer   |
|real_arr2_0_ap_vld  | out |    1|   ap_vld   |   real_arr2_0  |    pointer   |
|imag_arr4_0         |  in |   32|   ap_none  |   imag_arr4_0  |    pointer   |
|imag_arr4_1         |  in |   32|   ap_none  |   imag_arr4_1  |    pointer   |
|imag_arr2_0         | out |   32|   ap_vld   |   imag_arr2_0  |    pointer   |
|imag_arr2_0_ap_vld  | out |    1|   ap_vld   |   imag_arr2_0  |    pointer   |
|real_arr4_2         |  in |   32|   ap_none  |   real_arr4_2  |    pointer   |
|real_arr4_3         |  in |   32|   ap_none  |   real_arr4_3  |    pointer   |
|real_arr2_1         | out |   32|   ap_vld   |   real_arr2_1  |    pointer   |
|real_arr2_1_ap_vld  | out |    1|   ap_vld   |   real_arr2_1  |    pointer   |
|imag_arr4_2         |  in |   32|   ap_none  |   imag_arr4_2  |    pointer   |
|imag_arr4_3         |  in |   32|   ap_none  |   imag_arr4_3  |    pointer   |
|imag_arr2_1         | out |   32|   ap_vld   |   imag_arr2_1  |    pointer   |
|imag_arr2_1_ap_vld  | out |    1|   ap_vld   |   imag_arr2_1  |    pointer   |
+--------------------+-----+-----+------------+----------------+--------------+

============================================================
+ Verbose Summary: Synthesis Manager
============================================================
InlineROM: 1
ExposeGlobal: 0
============================================================
+ Verbose Summary: CDFG Model
============================================================
IsTopModel: 0
ResetActiveHigh: 1
IsCombinational: 2
IsDatapathOnly: 2
HasWiredReturn: 1
HasMFsm: 2
HasVarLatency: 0
IsPipeline: 1
IsRtlPipelined: 1
IsInstanceOverlapped: 0
IsDontTouch: 0
HasImplIP: 0
IsGatedGlobalClock: 0

+ Individual pipeline summary: 
  * Pipeline-0: initiation interval (II) = 1, depth = 5


============================================================
+ Verbose Summary: Schedule
============================================================
* Number of FSM states: 5
* Pipeline: 1
  Pipeline-0: II = 1, D = 5, States = { 1 2 3 4 5 }
* Dataflow Pipeline: 0

* FSM state transitions: 
1 --> 
	2  / true
2 --> 
	3  / true
3 --> 
	4  / true
4 --> 
	5  / true
5 --> 
* FSM state operations: 

 <State 1>: 7.26ns
ST_1: real_arr4_0_load [1/1] 0.00ns
:1  %real_arr4_0_load = load float* @real_arr4_0, align 16

ST_1: real_arr4_1_load [1/1] 0.00ns
:2  %real_arr4_1_load = load float* @real_arr4_1, align 4

ST_1: real_arr2_0_assign [5/5] 7.26ns
:3  %real_arr2_0_assign = fadd float %real_arr4_0_load, %real_arr4_1_load

ST_1: imag_arr4_0_load [1/1] 0.00ns
:5  %imag_arr4_0_load = load float* @imag_arr4_0, align 16

ST_1: imag_arr4_1_load [1/1] 0.00ns
:6  %imag_arr4_1_load = load float* @imag_arr4_1, align 4

ST_1: tmp_s [5/5] 7.26ns
:7  %tmp_s = fadd float %imag_arr4_0_load, %imag_arr4_1_load

ST_1: real_arr4_2_load [1/1] 0.00ns
:9  %real_arr4_2_load = load float* @real_arr4_2, align 8

ST_1: real_arr4_3_load [1/1] 0.00ns
:10  %real_arr4_3_load = load float* @real_arr4_3, align 4

ST_1: tmp_1 [5/5] 7.26ns
:11  %tmp_1 = fadd float %real_arr4_2_load, %real_arr4_3_load

ST_1: imag_arr4_2_load [1/1] 0.00ns
:13  %imag_arr4_2_load = load float* @imag_arr4_2, align 8

ST_1: imag_arr4_3_load [1/1] 0.00ns
:14  %imag_arr4_3_load = load float* @imag_arr4_3, align 4

ST_1: tmp_2 [5/5] 7.26ns
:15  %tmp_2 = fadd float %imag_arr4_2_load, %imag_arr4_3_load


 <State 2>: 7.26ns
ST_2: real_arr2_0_assign [4/5] 7.26ns
:3  %real_arr2_0_assign = fadd float %real_arr4_0_load, %real_arr4_1_load

ST_2: tmp_s [4/5] 7.26ns
:7  %tmp_s = fadd float %imag_arr4_0_load, %imag_arr4_1_load

ST_2: tmp_1 [4/5] 7.26ns
:11  %tmp_1 = fadd float %real_arr4_2_load, %real_arr4_3_load

ST_2: tmp_2 [4/5] 7.26ns
:15  %tmp_2 = fadd float %imag_arr4_2_load, %imag_arr4_3_load


 <State 3>: 7.26ns
ST_3: real_arr2_0_assign [3/5] 7.26ns
:3  %real_arr2_0_assign = fadd float %real_arr4_0_load, %real_arr4_1_load

ST_3: tmp_s [3/5] 7.26ns
:7  %tmp_s = fadd float %imag_arr4_0_load, %imag_arr4_1_load

ST_3: tmp_1 [3/5] 7.26ns
:11  %tmp_1 = fadd float %real_arr4_2_load, %real_arr4_3_load

ST_3: tmp_2 [3/5] 7.26ns
:15  %tmp_2 = fadd float %imag_arr4_2_load, %imag_arr4_3_load


 <State 4>: 7.26ns
ST_4: real_arr2_0_assign [2/5] 7.26ns
:3  %real_arr2_0_assign = fadd float %real_arr4_0_load, %real_arr4_1_load

ST_4: tmp_s [2/5] 7.26ns
:7  %tmp_s = fadd float %imag_arr4_0_load, %imag_arr4_1_load

ST_4: tmp_1 [2/5] 7.26ns
:11  %tmp_1 = fadd float %real_arr4_2_load, %real_arr4_3_load

ST_4: tmp_2 [2/5] 7.26ns
:15  %tmp_2 = fadd float %imag_arr4_2_load, %imag_arr4_3_load


 <State 5>: 7.26ns
ST_5: stg_30 [1/1] 0.00ns
:0  call void (...)* @_ssdm_op_SpecPipeline(i32 1, i32 1, i32 1, i32 0, [1 x i8]* @p_str) nounwind

ST_5: real_arr2_0_assign [1/5] 7.26ns
:3  %real_arr2_0_assign = fadd float %real_arr4_0_load, %real_arr4_1_load

ST_5: stg_32 [1/1] 0.00ns
:4  store float %real_arr2_0_assign, float* @real_arr2_0, align 4

ST_5: tmp_s [1/5] 7.26ns
:7  %tmp_s = fadd float %imag_arr4_0_load, %imag_arr4_1_load

ST_5: stg_34 [1/1] 0.00ns
:8  store float %tmp_s, float* @imag_arr2_0, align 4

ST_5: tmp_1 [1/5] 7.26ns
:11  %tmp_1 = fadd float %real_arr4_2_load, %real_arr4_3_load

ST_5: stg_36 [1/1] 0.00ns
:12  store float %tmp_1, float* @real_arr2_1, align 4

ST_5: tmp_2 [1/5] 7.26ns
:15  %tmp_2 = fadd float %imag_arr4_2_load, %imag_arr4_3_load

ST_5: stg_38 [1/1] 0.00ns
:16  store float %tmp_2, float* @imag_arr2_1, align 4

ST_5: stg_39 [1/1] 0.00ns
:17  ret void



============================================================
+ Verbose Summary: Binding
============================================================
STG Binding: 
---------------- STG Properties BEGIN ----------------
- Is combinational: 0
- Is one-state seq: 0
- Is datapath-only: 0
- Is clock enabled: 1
- Is pipelined: 1
- Is top level: 0
Port [ Return ] is wired: 1; IO mode=ap_ctrl_hs:ce=0
Port [ real_arr4_0]:  wired=1; compound=0; hidden=0; nouse=0; global=1; static=0; extern=0; dir=0; type=0; mode=0x240879fd040; pingpong=0; private_global=0; linkage=0; visibility=0; IO mode=ap_none:ce=0
Port [ real_arr4_1]:  wired=1; compound=0; hidden=0; nouse=0; global=1; static=0; extern=0; dir=0; type=0; mode=0x240879fd550; pingpong=0; private_global=0; linkage=0; visibility=0; IO mode=ap_none:ce=0
Port [ real_arr2_0]:  wired=1; compound=0; hidden=0; nouse=0; global=1; static=0; extern=0; dir=1; type=0; mode=0x240879fcbc0; pingpong=0; private_global=0; linkage=0; visibility=0; IO mode=ap_vld:ce=0
Port [ imag_arr4_0]:  wired=1; compound=0; hidden=0; nouse=0; global=1; static=0; extern=0; dir=0; type=0; mode=0x240879fce00; pingpong=0; private_global=0; linkage=0; visibility=0; IO mode=ap_none:ce=0
Port [ imag_arr4_1]:  wired=1; compound=0; hidden=0; nouse=0; global=1; static=0; extern=0; dir=0; type=0; mode=0x240879fbc90; pingpong=0; private_global=0; linkage=0; visibility=0; IO mode=ap_none:ce=0
Port [ imag_arr2_0]:  wired=1; compound=0; hidden=0; nouse=0; global=1; static=0; extern=0; dir=1; type=0; mode=0x240879fcaa0; pingpong=0; private_global=0; linkage=0; visibility=0; IO mode=ap_vld:ce=0
Port [ real_arr4_2]:  wired=1; compound=0; hidden=0; nouse=0; global=1; static=0; extern=0; dir=0; type=0; mode=0x240879fd700; pingpong=0; private_global=0; linkage=0; visibility=0; IO mode=ap_none:ce=0
Port [ real_arr4_3]:  wired=1; compound=0; hidden=0; nouse=0; global=1; static=0; extern=0; dir=0; type=0; mode=0x240879fbf60; pingpong=0; private_global=0; linkage=0; visibility=0; IO mode=ap_none:ce=0
Port [ real_arr2_1]:  wired=1; compound=0; hidden=0; nouse=0; global=1; static=0; extern=0; dir=1; type=0; mode=0x240879fbff0; pingpong=0; private_global=0; linkage=0; visibility=0; IO mode=ap_vld:ce=0
Port [ imag_arr4_2]:  wired=1; compound=0; hidden=0; nouse=0; global=1; static=0; extern=0; dir=0; type=0; mode=0x240879fbb70; pingpong=0; private_global=0; linkage=0; visibility=0; IO mode=ap_none:ce=0
Port [ imag_arr4_3]:  wired=1; compound=0; hidden=0; nouse=0; global=1; static=0; extern=0; dir=0; type=0; mode=0x240879fcf20; pingpong=0; private_global=0; linkage=0; visibility=0; IO mode=ap_none:ce=0
Port [ imag_arr2_1]:  wired=1; compound=0; hidden=0; nouse=0; global=1; static=0; extern=0; dir=1; type=0; mode=0x240879fd790; pingpong=0; private_global=0; linkage=0; visibility=0; IO mode=ap_vld:ce=0
---------------- STG Properties END ------------------

---------------- Datapath Model BEGIN ----------------

<LifeTime>
<method=bitvector/>
real_arr4_0_load   (load        ) [ 011111]
real_arr4_1_load   (load        ) [ 011111]
imag_arr4_0_load   (load        ) [ 011111]
imag_arr4_1_load   (load        ) [ 011111]
real_arr4_2_load   (load        ) [ 011111]
real_arr4_3_load   (load        ) [ 011111]
imag_arr4_2_load   (load        ) [ 011111]
imag_arr4_3_load   (load        ) [ 011111]
stg_30             (specpipeline) [ 000000]
real_arr2_0_assign (fadd        ) [ 000000]
stg_32             (store       ) [ 000000]
tmp_s              (fadd        ) [ 000000]
stg_34             (store       ) [ 000000]
tmp_1              (fadd        ) [ 000000]
stg_36             (store       ) [ 000000]
tmp_2              (fadd        ) [ 000000]
stg_38             (store       ) [ 000000]
stg_39             (ret         ) [ 000000]
</LifeTime>

<model>

<comp_list>
<comp id="0" class="1000" name="real_arr4_0">
<pin_list>
<pin id="1" dir="1" index="0" bw="1" slack="0"/>
</pin_list>
<bind>
<StgValue><ssdm name="real_arr4_0"/></StgValue>
</bind>
</comp>

<comp id="2" class="1000" name="real_arr4_1">
<pin_list>
<pin id="3" dir="1" index="0" bw="1" slack="0"/>
</pin_list>
<bind>
<StgValue><ssdm name="real_arr4_1"/></StgValue>
</bind>
</comp>

<comp id="4" class="1000" name="real_arr2_0">
<pin_list>
<pin id="5" dir="1" index="0" bw="1" slack="0"/>
</pin_list>
<bind>
<StgValue><ssdm name="real_arr2_0"/></StgValue>
</bind>
</comp>

<comp id="6" class="1000" name="imag_arr4_0">
<pin_list>
<pin id="7" dir="1" index="0" bw="1" slack="0"/>
</pin_list>
<bind>
<StgValue><ssdm name="imag_arr4_0"/></StgValue>
</bind>
</comp>

<comp id="8" class="1000" name="imag_arr4_1">
<pin_list>
<pin id="9" dir="1" index="0" bw="1" slack="0"/>
</pin_list>
<bind>
<StgValue><ssdm name="imag_arr4_1"/></StgValue>
</bind>
</comp>

<comp id="10" class="1000" name="imag_arr2_0">
<pin_list>
<pin id="11" dir="1" index="0" bw="1" slack="0"/>
</pin_list>
<bind>
<StgValue><ssdm name="imag_arr2_0"/></StgValue>
</bind>
</comp>

<comp id="12" class="1000" name="real_arr4_2">
<pin_list>
<pin id="13" dir="1" index="0" bw="1" slack="0"/>
</pin_list>
<bind>
<StgValue><ssdm name="real_arr4_2"/></StgValue>
</bind>
</comp>

<comp id="14" class="1000" name="real_arr4_3">
<pin_list>
<pin id="15" dir="1" index="0" bw="1" slack="0"/>
</pin_list>
<bind>
<StgValue><ssdm name="real_arr4_3"/></StgValue>
</bind>
</comp>

<comp id="16" class="1000" name="real_arr2_1">
<pin_list>
<pin id="17" dir="1" index="0" bw="1" slack="0"/>
</pin_list>
<bind>
<StgValue><ssdm name="real_arr2_1"/></StgValue>
</bind>
</comp>

<comp id="18" class="1000" name="imag_arr4_2">
<pin_list>
<pin id="19" dir="1" index="0" bw="1" slack="0"/>
</pin_list>
<bind>
<StgValue><ssdm name="imag_arr4_2"/></StgValue>
</bind>
</comp>

<comp id="20" class="1000" name="imag_arr4_3">
<pin_list>
<pin id="21" dir="1" index="0" bw="1" slack="0"/>
</pin_list>
<bind>
<StgValue><ssdm name="imag_arr4_3"/></StgValue>
</bind>
</comp>

<comp id="22" class="1000" name="imag_arr2_1">
<pin_list>
<pin id="23" dir="1" index="0" bw="1" slack="0"/>
</pin_list>
<bind>
<StgValue><ssdm name="imag_arr2_1"/></StgValue>
</bind>
</comp>

<comp id="24" class="1001" name="const_24">
<pin_list>
<pin id="25" dir="1" index="0" bw="1" slack="2147483647"/>
</pin_list>
<bind>
<StgValue><ssdm name="_ssdm_op_SpecPipeline"/></StgValue>
</bind>
</comp>

<comp id="26" class="1001" name="const_26">
<pin_list>
<pin id="27" dir="1" index="0" bw="1" slack="2147483647"/>
</pin_list>
<bind>
<StgValue><ssdm name=""/></StgValue>
</bind>
</comp>

<comp id="28" class="1001" name="const_28">
<pin_list>
<pin id="29" dir="1" index="0" bw="1" slack="2147483647"/>
</pin_list>
<bind>
<StgValue><ssdm name=""/></StgValue>
</bind>
</comp>

<comp id="30" class="1001" name="const_30">
<pin_list>
<pin id="31" dir="1" index="0" bw="1" slack="2147483647"/>
</pin_list>
<bind>
<StgValue><ssdm name="p_str"/></StgValue>
</bind>
</comp>

<comp id="32" class="1004" name="grp_fu_32">
<pin_list>
<pin id="33" dir="0" index="0" bw="32" slack="0"/>
<pin id="34" dir="0" index="1" bw="32" slack="0"/>
<pin id="35" dir="1" index="2" bw="32" slack="0"/>
</pin_list>
<bind>
<opcode="fadd(9) " fcode="fadd"/>
<opset="real_arr2_0_assign/1 "/>
</bind>
</comp>

<comp id="36" class="1004" name="grp_fu_36">
<pin_list>
<pin id="37" dir="0" index="0" bw="32" slack="0"/>
<pin id="38" dir="0" index="1" bw="32" slack="0"/>
<pin id="39" dir="1" index="2" bw="32" slack="0"/>
</pin_list>
<bind>
<opcode="fadd(9) " fcode="fadd"/>
<opset="tmp_s/1 "/>
</bind>
</comp>

<comp id="40" class="1004" name="grp_fu_40">
<pin_list>
<pin id="41" dir="0" index="0" bw="32" slack="0"/>
<pin id="42" dir="0" index="1" bw="32" slack="0"/>
<pin id="43" dir="1" index="2" bw="32" slack="0"/>
</pin_list>
<bind>
<opcode="fadd(9) " fcode="fadd"/>
<opset="tmp_1/1 "/>
</bind>
</comp>

<comp id="44" class="1004" name="grp_fu_44">
<pin_list>
<pin id="45" dir="0" index="0" bw="32" slack="0"/>
<pin id="46" dir="0" index="1" bw="32" slack="0"/>
<pin id="47" dir="1" index="2" bw="32" slack="0"/>
</pin_list>
<bind>
<opcode="fadd(9) " fcode="fadd"/>
<opset="tmp_2/1 "/>
</bind>
</comp>

<comp id="48" class="1004" name="real_arr4_0_load_load_fu_48">
<pin_list>
<pin id="49" dir="0" index="0" bw="32" slack="0"/>
<pin id="50" dir="1" index="1" bw="32" slack="0"/>
</pin_list>
<bind>
<opcode="load(27) " fcode="load"/>
<opset="real_arr4_0_load/1 "/>
</bind>
</comp>

<comp id="53" class="1004" name="real_arr4_1_load_load_fu_53">
<pin_list>
<pin id="54" dir="0" index="0" bw="32" slack="0"/>
<pin id="55" dir="1" index="1" bw="32" slack="0"/>
</pin_list>
<bind>
<opcode="load(27) " fcode="load"/>
<opset="real_arr4_1_load/1 "/>
</bind>
</comp>

<comp id="58" class="1004" name="imag_arr4_0_load_load_fu_58">
<pin_list>
<pin id="59" dir="0" index="0" bw="32" slack="0"/>
<pin id="60" dir="1" index="1" bw="32" slack="0"/>
</pin_list>
<bind>
<opcode="load(27) " fcode="load"/>
<opset="imag_arr4_0_load/1 "/>
</bind>
</comp>

<comp id="63" class="1004" name="imag_arr4_1_load_load_fu_63">
<pin_list>
<pin id="64" dir="0" index="0" bw="32" slack="0"/>
<pin id="65" dir="1" index="1" bw="32" slack="0"/>
</pin_list>
<bind>
<opcode="load(27) " fcode="load"/>
<opset="imag_arr4_1_load/1 "/>
</bind>
</comp>

<comp id="68" class="1004" name="real_arr4_2_load_load_fu_68">
<pin_list>
<pin id="69" dir="0" index="0" bw="32" slack="0"/>
<pin id="70" dir="1" index="1" bw="32" slack="0"/>
</pin_list>
<bind>
<opcode="load(27) " fcode="load"/>
<opset="real_arr4_2_load/1 "/>
</bind>
</comp>

<comp id="73" class="1004" name="real_arr4_3_load_load_fu_73">
<pin_list>
<pin id="74" dir="0" index="0" bw="32" slack="0"/>
<pin id="75" dir="1" index="1" bw="32" slack="0"/>
</pin_list>
<bind>
<opcode="load(27) " fcode="load"/>
<opset="real_arr4_3_load/1 "/>
</bind>
</comp>

<comp id="78" class="1004" name="imag_arr4_2_load_load_fu_78">
<pin_list>
<pin id="79" dir="0" index="0" bw="32" slack="0"/>
<pin id="80" dir="1" index="1" bw="32" slack="0"/>
</pin_list>
<bind>
<opcode="load(27) " fcode="load"/>
<opset="imag_arr4_2_load/1 "/>
</bind>
</comp>

<comp id="83" class="1004" name="imag_arr4_3_load_load_fu_83">
<pin_list>
<pin id="84" dir="0" index="0" bw="32" slack="0"/>
<pin id="85" dir="1" index="1" bw="32" slack="0"/>
</pin_list>
<bind>
<opcode="load(27) " fcode="load"/>
<opset="imag_arr4_3_load/1 "/>
</bind>
</comp>

<comp id="88" class="1004" name="stg_32_store_fu_88">
<pin_list>
<pin id="89" dir="0" index="0" bw="32" slack="0"/>
<pin id="90" dir="0" index="1" bw="32" slack="0"/>
<pin id="91" dir="1" index="2" bw="0" slack="2147483647"/>
</pin_list>
<bind>
<opcode="store(28) " fcode="store"/>
<opset="stg_32/5 "/>
</bind>
</comp>

<comp id="94" class="1004" name="stg_34_store_fu_94">
<pin_list>
<pin id="95" dir="0" index="0" bw="32" slack="0"/>
<pin id="96" dir="0" index="1" bw="32" slack="0"/>
<pin id="97" dir="1" index="2" bw="0" slack="2147483647"/>
</pin_list>
<bind>
<opcode="store(28) " fcode="store"/>
<opset="stg_34/5 "/>
</bind>
</comp>

<comp id="100" class="1004" name="stg_36_store_fu_100">
<pin_list>
<pin id="101" dir="0" index="0" bw="32" slack="0"/>
<pin id="102" dir="0" index="1" bw="32" slack="0"/>
<pin id="103" dir="1" index="2" bw="0" slack="2147483647"/>
</pin_list>
<bind>
<opcode="store(28) " fcode="store"/>
<opset="stg_36/5 "/>
</bind>
</comp>

<comp id="106" class="1004" name="stg_38_store_fu_106">
<pin_list>
<pin id="107" dir="0" index="0" bw="32" slack="0"/>
<pin id="108" dir="0" index="1" bw="32" slack="0"/>
<pin id="109" dir="1" index="2" bw="0" slack="2147483647"/>
</pin_list>
<bind>
<opcode="store(28) " fcode="store"/>
<opset="stg_38/5 "/>
</bind>
</comp>

<comp id="112" class="1005" name="real_arr4_0_load_reg_112">
<pin_list>
<pin id="113" dir="0" index="0" bw="32" slack="1"/>
<pin id="114" dir="1" index="1" bw="32" slack="1"/>
</pin_list>
<bind>
<opset="real_arr4_0_load "/>
</bind>
</comp>

<comp id="117" class="1005" name="real_arr4_1_load_reg_117">
<pin_list>
<pin id="118" dir="0" index="0" bw="32" slack="1"/>
<pin id="119" dir="1" index="1" bw="32" slack="1"/>
</pin_list>
<bind>
<opset="real_arr4_1_load "/>
</bind>
</comp>

<comp id="122" class="1005" name="imag_arr4_0_load_reg_122">
<pin_list>
<pin id="123" dir="0" index="0" bw="32" slack="1"/>
<pin id="124" dir="1" index="1" bw="32" slack="1"/>
</pin_list>
<bind>
<opset="imag_arr4_0_load "/>
</bind>
</comp>

<comp id="127" class="1005" name="imag_arr4_1_load_reg_127">
<pin_list>
<pin id="128" dir="0" index="0" bw="32" slack="1"/>
<pin id="129" dir="1" index="1" bw="32" slack="1"/>
</pin_list>
<bind>
<opset="imag_arr4_1_load "/>
</bind>
</comp>

<comp id="132" class="1005" name="real_arr4_2_load_reg_132">
<pin_list>
<pin id="133" dir="0" index="0" bw="32" slack="1"/>
<pin id="134" dir="1" index="1" bw="32" slack="1"/>
</pin_list>
<bind>
<opset="real_arr4_2_load "/>
</bind>
</comp>

<comp id="137" class="1005" name="real_arr4_3_load_reg_137">
<pin_list>
<pin id="138" dir="0" index="0" bw="32" slack="1"/>
<pin id="139" dir="1" index="1" bw="32" slack="1"/>
</pin_list>
<bind>
<opset="real_arr4_3_load "/>
</bind>
</comp>

<comp id="142" class="1005" name="imag_arr4_2_load_reg_142">
<pin_list>
<pin id="143" dir="0" index="0" bw="32" slack="1"/>
<pin id="144" dir="1" index="1" bw="32" slack="1"/>
</pin_list>
<bind>
<opset="imag_arr4_2_load "/>
</bind>
</comp>

<comp id="147" class="1005" name="imag_arr4_3_load_reg_147">
<pin_list>
<pin id="148" dir="0" index="0" bw="32" slack="1"/>
<pin id="149" dir="1" index="1" bw="32" slack="1"/>
</pin_list>
<bind>
<opset="imag_arr4_3_load "/>
</bind>
</comp>

</comp_list>

<net_list>
<net id="51"><net_src comp="0" pin="0"/><net_sink comp="48" pin=0"/></net>

<net id="52"><net_src comp="48" pin="1"/><net_sink comp="32" pin=0"/></net>

<net id="56"><net_src comp="2" pin="0"/><net_sink comp="53" pin=0"/></net>

<net id="57"><net_src comp="53" pin="1"/><net_sink comp="32" pin=1"/></net>

<net id="61"><net_src comp="6" pin="0"/><net_sink comp="58" pin=0"/></net>

<net id="62"><net_src comp="58" pin="1"/><net_sink comp="36" pin=0"/></net>

<net id="66"><net_src comp="8" pin="0"/><net_sink comp="63" pin=0"/></net>

<net id="67"><net_src comp="63" pin="1"/><net_sink comp="36" pin=1"/></net>

<net id="71"><net_src comp="12" pin="0"/><net_sink comp="68" pin=0"/></net>

<net id="72"><net_src comp="68" pin="1"/><net_sink comp="40" pin=0"/></net>

<net id="76"><net_src comp="14" pin="0"/><net_sink comp="73" pin=0"/></net>

<net id="77"><net_src comp="73" pin="1"/><net_sink comp="40" pin=1"/></net>

<net id="81"><net_src comp="18" pin="0"/><net_sink comp="78" pin=0"/></net>

<net id="82"><net_src comp="78" pin="1"/><net_sink comp="44" pin=0"/></net>

<net id="86"><net_src comp="20" pin="0"/><net_sink comp="83" pin=0"/></net>

<net id="87"><net_src comp="83" pin="1"/><net_sink comp="44" pin=1"/></net>

<net id="92"><net_src comp="32" pin="2"/><net_sink comp="88" pin=0"/></net>

<net id="93"><net_src comp="4" pin="0"/><net_sink comp="88" pin=1"/></net>

<net id="98"><net_src comp="36" pin="2"/><net_sink comp="94" pin=0"/></net>

<net id="99"><net_src comp="10" pin="0"/><net_sink comp="94" pin=1"/></net>

<net id="104"><net_src comp="40" pin="2"/><net_sink comp="100" pin=0"/></net>

<net id="105"><net_src comp="16" pin="0"/><net_sink comp="100" pin=1"/></net>

<net id="110"><net_src comp="44" pin="2"/><net_sink comp="106" pin=0"/></net>

<net id="111"><net_src comp="22" pin="0"/><net_sink comp="106" pin=1"/></net>

<net id="115"><net_src comp="48" pin="1"/><net_sink comp="112" pin=0"/></net>

<net id="116"><net_src comp="112" pin="1"/><net_sink comp="32" pin=0"/></net>

<net id="120"><net_src comp="53" pin="1"/><net_sink comp="117" pin=0"/></net>

<net id="121"><net_src comp="117" pin="1"/><net_sink comp="32" pin=1"/></net>

<net id="125"><net_src comp="58" pin="1"/><net_sink comp="122" pin=0"/></net>

<net id="126"><net_src comp="122" pin="1"/><net_sink comp="36" pin=0"/></net>

<net id="130"><net_src comp="63" pin="1"/><net_sink comp="127" pin=0"/></net>

<net id="131"><net_src comp="127" pin="1"/><net_sink comp="36" pin=1"/></net>

<net id="135"><net_src comp="68" pin="1"/><net_sink comp="132" pin=0"/></net>

<net id="136"><net_src comp="132" pin="1"/><net_sink comp="40" pin=0"/></net>

<net id="140"><net_src comp="73" pin="1"/><net_sink comp="137" pin=0"/></net>

<net id="141"><net_src comp="137" pin="1"/><net_sink comp="40" pin=1"/></net>

<net id="145"><net_src comp="78" pin="1"/><net_sink comp="142" pin=0"/></net>

<net id="146"><net_src comp="142" pin="1"/><net_sink comp="44" pin=0"/></net>

<net id="150"><net_src comp="83" pin="1"/><net_sink comp="147" pin=0"/></net>

<net id="151"><net_src comp="147" pin="1"/><net_sink comp="44" pin=1"/></net>

</net_list>

</model> 
---------------- Datapath Model END ------------------

* FSMD analyzer results:
  - Output states:
	Port: real_arr4_0 | {}
	Port: real_arr4_1 | {}
	Port: real_arr2_0 | {}
	Port: imag_arr4_0 | {}
	Port: imag_arr4_1 | {}
	Port: imag_arr2_0 | {}
	Port: real_arr4_2 | {}
	Port: real_arr4_3 | {}
	Port: real_arr2_1 | {}
	Port: imag_arr4_2 | {}
	Port: imag_arr4_3 | {}
	Port: imag_arr2_1 | {}
  - Chain level:
	State 1
		real_arr2_0_assign : 1
		tmp_s : 1
		tmp_1 : 1
		tmp_2 : 1
	State 2
	State 3
	State 4
	State 5
		stg_32 : 1
		stg_34 : 1
		stg_36 : 1
		stg_38 : 1


============================================================
+ Verbose Summary: Datapath Resource usage 
============================================================

* Functional unit list:
|----------|----------------|---------|---------|---------|
| Operation| Functional Unit|  DSP48E |    FF   |   LUT   |
|----------|----------------|---------|---------|---------|
|          |    grp_fu_32   |    2    |   205   |   390   |
|   fadd   |    grp_fu_36   |    2    |   205   |   390   |
|          |    grp_fu_40   |    2    |   205   |   390   |
|          |    grp_fu_44   |    2    |   205   |   390   |
|----------|----------------|---------|---------|---------|
|   Total  |                |    8    |   820   |   1560  |
|----------|----------------|---------|---------|---------|

Memories:
N/A

* Register list:
+------------------------+--------+
|                        |   FF   |
+------------------------+--------+
|imag_arr4_0_load_reg_122|   32   |
|imag_arr4_1_load_reg_127|   32   |
|imag_arr4_2_load_reg_142|   32   |
|imag_arr4_3_load_reg_147|   32   |
|real_arr4_0_load_reg_112|   32   |
|real_arr4_1_load_reg_117|   32   |
|real_arr4_2_load_reg_132|   32   |
|real_arr4_3_load_reg_137|   32   |
+------------------------+--------+
|          Total         |   256  |
+------------------------+--------+

* Multiplexer (MUX) list: 
|-----------|------|------|------|--------||---------||---------|
|    Comp   |  Pin | Size |  BW  | S x BW ||  Delay  ||   LUT   |
|-----------|------|------|------|--------||---------||---------|
| grp_fu_32 |  p0  |   2  |  32  |   64   ||    32   |
| grp_fu_32 |  p1  |   2  |  32  |   64   ||    32   |
| grp_fu_36 |  p0  |   2  |  32  |   64   ||    32   |
| grp_fu_36 |  p1  |   2  |  32  |   64   ||    32   |
| grp_fu_40 |  p0  |   2  |  32  |   64   ||    32   |
| grp_fu_40 |  p1  |   2  |  32  |   64   ||    32   |
| grp_fu_44 |  p0  |   2  |  32  |   64   ||    32   |
| grp_fu_44 |  p1  |   2  |  32  |   64   ||    32   |
|-----------|------|------|------|--------||---------||---------|
|   Total   |      |      |      |   512  ||  12.568 ||   256   |
|-----------|------|------|------|--------||---------||---------|



* Summary:
+-----------+--------+--------+--------+--------+
|           | DSP48E |  Delay |   FF   |   LUT  |
+-----------+--------+--------+--------+--------+
|  Function |    8   |    -   |   820  |  1560  |
|   Memory  |    -   |    -   |    -   |    -   |
|Multiplexer|    -   |   12   |    -   |   256  |
|  Register |    -   |    -   |   256  |    -   |
+-----------+--------+--------+--------+--------+
|   Total   |    8   |   12   |  1076  |  1816  |
+-----------+--------+--------+--------+--------+
