

================================================================
== Vivado HLS Report for 'dft_loop_flow16_Loop_1_proc'
================================================================
* Date:           Wed Nov 02 20:46:50 2016

* Version:        2015.4 (Build 1412921 on Wed Nov 18 09:58:55 AM 2015)
* Project:        dft
* Solution:       dft_best5
* Product family: zynq
* Target device:  xc7z020clg484-1


================================================================
== Performance Estimates
================================================================
+ Timing (ns): 
    * Summary: 
    +--------+-------+----------+------------+
    |  Clock | Target| Estimated| Uncertainty|
    +--------+-------+----------+------------+
    |ap_clk  |  10.00|      7.26|        1.25|
    +--------+-------+----------+------------+

+ Latency (clock cycles): 
    * Summary: 
    +-----+-----+-----+-----+---------+
    |  Latency  |  Interval | Pipeline|
    | min | max | min | max |   Type  |
    +-----+-----+-----+-----+---------+
    |   16|   16|   16|   16|   none  |
    +-----+-----+-----+-----+---------+

    + Detail: 
        * Instance: 
        N/A

        * Loop: 
        +----------+-----+-----+----------+-----------+-----------+------+----------+
        |          |  Latency  | Iteration|  Initiation Interval  | Trip |          |
        | Loop Name| min | max |  Latency |  achieved |   target  | Count| Pipelined|
        +----------+-----+-----+----------+-----------+-----------+------+----------+
        |- Loop 1  |   14|   14|         8|          1|          1|     8|    yes   |
        +----------+-----+-----+----------+-----------+-----------+------+----------+

============================================================
+ Verbose Summary: Synthesis Manager
============================================================
InlineROM: 1
ExposeGlobal: 0
============================================================
+ Verbose Summary: CDFG Model
============================================================
IsTopModel: 0
ResetActiveHigh: 1
IsCombinational: 2
IsDatapathOnly: 0
HasWiredReturn: 1
HasMFsm: 0
HasVarLatency: 1
IsPipeline: 0
IsRtlPipelined: 0
IsInstanceOverlapped: 0
IsDontTouch: 0
HasImplIP: 0
IsGatedGlobalClock: 0

+ Individual pipeline summary: 
  * Pipeline-0: initiation interval (II) = 1, depth = 8


============================================================
+ Verbose Summary: Schedule
============================================================
* Number of FSM states: 10
* Pipeline: 1
  Pipeline-0: II = 1, D = 8, States = { 2 3 4 5 6 7 8 9 }
* Dataflow Pipeline: 0

* FSM state transitions: 
1 --> 
	2  / true
2 --> 
	10  / (exitcond_i_i)
	3  / (!exitcond_i_i)
3 --> 
	4  / true
4 --> 
	5  / true
5 --> 
	6  / true
6 --> 
	7  / true
7 --> 
	8  / true
8 --> 
	9  / true
9 --> 
	2  / true
10 --> 
* FSM state operations: 

 <State 1>: 1.57ns
ST_1: stg_11 [1/1] 1.57ns
newFuncRoot:0  br label %0


 <State 2>: 2.39ns
ST_2: p_078_0_i_i [1/1] 0.00ns
:0  %p_078_0_i_i = phi i6 [ 0, %newFuncRoot ], [ %j_V_i_1, %1 ]

ST_2: p_04_0_i_i [1/1] 0.00ns
:1  %p_04_0_i_i = phi i5 [ 0, %newFuncRoot ], [ %i_V_i_1, %1 ]

ST_2: exitcond_i_i [1/1] 1.91ns
:2  %exitcond_i_i = icmp eq i5 %p_04_0_i_i, -16

ST_2: stg_15 [1/1] 0.00ns
:3  br i1 %exitcond_i_i, label %loop_flow16_.exit2.exitStub, label %5

ST_2: newIndex40 [1/1] 0.00ns
:3  %newIndex40 = call i4 @_ssdm_op_PartSelect.i4.i6.i32.i32(i6 %p_078_0_i_i, i32 2, i32 5)

ST_2: newIndex [1/1] 0.00ns
:4  %newIndex = zext i4 %newIndex40 to i64

ST_2: real_arr32_0_addr [1/1] 0.00ns
:5  %real_arr32_0_addr = getelementptr [8 x float]* @real_arr32_0, i64 0, i64 %newIndex

ST_2: real_arr32_0_load [2/2] 2.39ns
:6  %real_arr32_0_load = load float* %real_arr32_0_addr, align 16

ST_2: newIndex41 [1/1] 0.00ns
:7  %newIndex41 = call i3 @_ssdm_op_PartSelect.i3.i6.i32.i32(i6 %p_078_0_i_i, i32 2, i32 4)

ST_2: newIndex42 [1/1] 0.00ns
:8  %newIndex42 = zext i3 %newIndex41 to i64

ST_2: real_arr32_1_addr [1/1] 0.00ns
:9  %real_arr32_1_addr = getelementptr [8 x float]* @real_arr32_1, i64 0, i64 %newIndex42

ST_2: real_arr32_1_load [2/2] 2.39ns
:10  %real_arr32_1_load = load float* %real_arr32_1_addr, align 4

ST_2: tmp_32 [1/1] 0.00ns
:12  %tmp_32 = trunc i5 %p_04_0_i_i to i2

ST_2: newIndex43 [1/1] 0.00ns
:13  %newIndex43 = call i3 @_ssdm_op_PartSelect.i3.i5.i32.i32(i5 %p_04_0_i_i, i32 2, i32 4)

ST_2: cond [1/1] 1.36ns
:17  %cond = icmp eq i2 %tmp_32, 0

ST_2: stg_27 [1/1] 0.00ns
:18  br i1 %cond, label %branch12, label %branch14

ST_2: imag_arr32_0_addr [1/1] 0.00ns
:0  %imag_arr32_0_addr = getelementptr [8 x float]* @imag_arr32_0, i64 0, i64 %newIndex

ST_2: imag_arr32_0_load [2/2] 2.39ns
:1  %imag_arr32_0_load = load float* %imag_arr32_0_addr, align 16

ST_2: imag_arr32_1_addr [1/1] 0.00ns
:2  %imag_arr32_1_addr = getelementptr [8 x float]* @imag_arr32_1, i64 0, i64 %newIndex42

ST_2: imag_arr32_1_load [2/2] 2.39ns
:3  %imag_arr32_1_load = load float* %imag_arr32_1_addr, align 4

ST_2: stg_32 [1/1] 0.00ns
:7  br i1 %cond, label %branch4, label %branch6

ST_2: real_arr32_2_addr [1/1] 0.00ns
:1  %real_arr32_2_addr = getelementptr [8 x float]* @real_arr32_2, i64 0, i64 %newIndex

ST_2: real_arr32_2_load [2/2] 2.39ns
:2  %real_arr32_2_load = load float* %real_arr32_2_addr, align 8

ST_2: real_arr32_3_addr [1/1] 0.00ns
:3  %real_arr32_3_addr = getelementptr [8 x float]* @real_arr32_3, i64 0, i64 %newIndex42

ST_2: real_arr32_3_load [2/2] 2.39ns
:4  %real_arr32_3_load = load float* %real_arr32_3_addr, align 4

ST_2: arrayNo [1/1] 0.00ns
:6  %arrayNo = or i2 %tmp_32, 1

ST_2: cond1 [1/1] 1.36ns
:9  %cond1 = icmp eq i2 %arrayNo, 1

ST_2: stg_39 [1/1] 0.00ns
:10  br i1 %cond1, label %branch9, label %branch11

ST_2: imag_arr32_2_addr [1/1] 0.00ns
:0  %imag_arr32_2_addr = getelementptr [8 x float]* @imag_arr32_2, i64 0, i64 %newIndex

ST_2: imag_arr32_2_load [2/2] 2.39ns
:1  %imag_arr32_2_load = load float* %imag_arr32_2_addr, align 8

ST_2: imag_arr32_3_addr [1/1] 0.00ns
:2  %imag_arr32_3_addr = getelementptr [8 x float]* @imag_arr32_3, i64 0, i64 %newIndex42

ST_2: imag_arr32_3_load [2/2] 2.39ns
:3  %imag_arr32_3_load = load float* %imag_arr32_3_addr, align 4

ST_2: stg_44 [1/1] 0.00ns
:7  br i1 %cond1, label %branch1, label %branch3

ST_2: i_V_i_1 [1/1] 1.72ns
:0  %i_V_i_1 = add i5 %p_04_0_i_i, 2

ST_2: j_V_i_1 [1/1] 1.72ns
:1  %j_V_i_1 = add i6 %p_078_0_i_i, 4


 <State 3>: 2.39ns
ST_3: real_arr32_0_load [1/2] 2.39ns
:6  %real_arr32_0_load = load float* %real_arr32_0_addr, align 16

ST_3: real_arr32_1_load [1/2] 2.39ns
:10  %real_arr32_1_load = load float* %real_arr32_1_addr, align 4

ST_3: imag_arr32_0_load [1/2] 2.39ns
:1  %imag_arr32_0_load = load float* %imag_arr32_0_addr, align 16

ST_3: imag_arr32_1_load [1/2] 2.39ns
:3  %imag_arr32_1_load = load float* %imag_arr32_1_addr, align 4

ST_3: real_arr32_2_load [1/2] 2.39ns
:2  %real_arr32_2_load = load float* %real_arr32_2_addr, align 8

ST_3: real_arr32_3_load [1/2] 2.39ns
:4  %real_arr32_3_load = load float* %real_arr32_3_addr, align 4

ST_3: imag_arr32_2_load [1/2] 2.39ns
:1  %imag_arr32_2_load = load float* %imag_arr32_2_addr, align 8

ST_3: imag_arr32_3_load [1/2] 2.39ns
:3  %imag_arr32_3_load = load float* %imag_arr32_3_addr, align 4


 <State 4>: 7.26ns
ST_4: tmp_19_i [5/5] 7.26ns
:11  %tmp_19_i = fadd float %real_arr32_0_load, %real_arr32_1_load

ST_4: tmp_21_i [5/5] 7.26ns
:4  %tmp_21_i = fadd float %imag_arr32_0_load, %imag_arr32_1_load

ST_4: tmp_19_i_1 [5/5] 7.26ns
:5  %tmp_19_i_1 = fadd float %real_arr32_2_load, %real_arr32_3_load

ST_4: tmp_21_i_1 [5/5] 7.26ns
:4  %tmp_21_i_1 = fadd float %imag_arr32_2_load, %imag_arr32_3_load


 <State 5>: 7.26ns
ST_5: tmp_19_i [4/5] 7.26ns
:11  %tmp_19_i = fadd float %real_arr32_0_load, %real_arr32_1_load

ST_5: tmp_21_i [4/5] 7.26ns
:4  %tmp_21_i = fadd float %imag_arr32_0_load, %imag_arr32_1_load

ST_5: tmp_19_i_1 [4/5] 7.26ns
:5  %tmp_19_i_1 = fadd float %real_arr32_2_load, %real_arr32_3_load

ST_5: tmp_21_i_1 [4/5] 7.26ns
:4  %tmp_21_i_1 = fadd float %imag_arr32_2_load, %imag_arr32_3_load


 <State 6>: 7.26ns
ST_6: tmp_19_i [3/5] 7.26ns
:11  %tmp_19_i = fadd float %real_arr32_0_load, %real_arr32_1_load

ST_6: tmp_21_i [3/5] 7.26ns
:4  %tmp_21_i = fadd float %imag_arr32_0_load, %imag_arr32_1_load

ST_6: tmp_19_i_1 [3/5] 7.26ns
:5  %tmp_19_i_1 = fadd float %real_arr32_2_load, %real_arr32_3_load

ST_6: tmp_21_i_1 [3/5] 7.26ns
:4  %tmp_21_i_1 = fadd float %imag_arr32_2_load, %imag_arr32_3_load


 <State 7>: 7.26ns
ST_7: tmp_19_i [2/5] 7.26ns
:11  %tmp_19_i = fadd float %real_arr32_0_load, %real_arr32_1_load

ST_7: tmp_21_i [2/5] 7.26ns
:4  %tmp_21_i = fadd float %imag_arr32_0_load, %imag_arr32_1_load

ST_7: tmp_19_i_1 [2/5] 7.26ns
:5  %tmp_19_i_1 = fadd float %real_arr32_2_load, %real_arr32_3_load

ST_7: tmp_21_i_1 [2/5] 7.26ns
:4  %tmp_21_i_1 = fadd float %imag_arr32_2_load, %imag_arr32_3_load


 <State 8>: 7.26ns
ST_8: tmp_19_i [1/5] 7.26ns
:11  %tmp_19_i = fadd float %real_arr32_0_load, %real_arr32_1_load

ST_8: tmp_21_i [1/5] 7.26ns
:4  %tmp_21_i = fadd float %imag_arr32_0_load, %imag_arr32_1_load

ST_8: tmp_19_i_1 [1/5] 7.26ns
:5  %tmp_19_i_1 = fadd float %real_arr32_2_load, %real_arr32_3_load

ST_8: tmp_21_i_1 [1/5] 7.26ns
:4  %tmp_21_i_1 = fadd float %imag_arr32_2_load, %imag_arr32_3_load


 <State 9>: 2.39ns
ST_9: empty_17 [1/1] 0.00ns
:0  %empty_17 = call i32 (...)* @_ssdm_op_SpecLoopTripCount(i64 8, i64 8, i64 8) nounwind

ST_9: tmp [1/1] 0.00ns
:1  %tmp = call i32 (...)* @_ssdm_op_SpecRegionBegin([12 x i8]* @p_str5) nounwind

ST_9: stg_77 [1/1] 0.00ns
:2  call void (...)* @_ssdm_op_SpecPipeline(i32 1, i32 1, i32 1, i32 0, [1 x i8]* @p_str) nounwind

ST_9: newIndex44 [1/1] 0.00ns
:14  %newIndex44 = zext i3 %newIndex43 to i64

ST_9: real_arr16_0_addr [1/1] 0.00ns
:15  %real_arr16_0_addr = getelementptr [4 x float]* @real_arr16_0, i64 0, i64 %newIndex44

ST_9: real_arr16_2_addr [1/1] 0.00ns
:16  %real_arr16_2_addr = getelementptr [4 x float]* @real_arr16_2, i64 0, i64 %newIndex44

ST_9: stg_81 [1/1] 2.39ns
branch14:0  store float %tmp_19_i, float* %real_arr16_2_addr, align 8

ST_9: stg_82 [1/1] 0.00ns
branch14:1  br label %4

ST_9: stg_83 [1/1] 2.39ns
branch12:0  store float %tmp_19_i, float* %real_arr16_0_addr, align 8

ST_9: stg_84 [1/1] 0.00ns
branch12:1  br label %4

ST_9: imag_arr16_0_addr [1/1] 0.00ns
:5  %imag_arr16_0_addr = getelementptr [4 x float]* @imag_arr16_0, i64 0, i64 %newIndex44

ST_9: imag_arr16_2_addr [1/1] 0.00ns
:6  %imag_arr16_2_addr = getelementptr [4 x float]* @imag_arr16_2, i64 0, i64 %newIndex44

ST_9: stg_87 [1/1] 2.39ns
branch6:0  store float %tmp_21_i, float* %imag_arr16_2_addr, align 8

ST_9: stg_88 [1/1] 0.00ns
branch6:1  br label %3

ST_9: stg_89 [1/1] 2.39ns
branch4:0  store float %tmp_21_i, float* %imag_arr16_0_addr, align 8

ST_9: stg_90 [1/1] 0.00ns
branch4:1  br label %3

ST_9: empty [1/1] 0.00ns
:0  %empty = call i32 (...)* @_ssdm_op_SpecRegionEnd([12 x i8]* @p_str5, i32 %tmp) nounwind

ST_9: real_arr16_1_addr [1/1] 0.00ns
:7  %real_arr16_1_addr = getelementptr [4 x float]* @real_arr16_1, i64 0, i64 %newIndex44

ST_9: real_arr16_3_addr [1/1] 0.00ns
:8  %real_arr16_3_addr = getelementptr [4 x float]* @real_arr16_3, i64 0, i64 %newIndex44

ST_9: stg_94 [1/1] 2.39ns
branch11:0  store float %tmp_19_i_1, float* %real_arr16_3_addr, align 4

ST_9: stg_95 [1/1] 0.00ns
branch11:1  br label %2

ST_9: stg_96 [1/1] 2.39ns
branch9:0  store float %tmp_19_i_1, float* %real_arr16_1_addr, align 4

ST_9: stg_97 [1/1] 0.00ns
branch9:1  br label %2

ST_9: imag_arr16_1_addr [1/1] 0.00ns
:5  %imag_arr16_1_addr = getelementptr [4 x float]* @imag_arr16_1, i64 0, i64 %newIndex44

ST_9: imag_arr16_3_addr [1/1] 0.00ns
:6  %imag_arr16_3_addr = getelementptr [4 x float]* @imag_arr16_3, i64 0, i64 %newIndex44

ST_9: stg_100 [1/1] 2.39ns
branch3:0  store float %tmp_21_i_1, float* %imag_arr16_3_addr, align 4

ST_9: stg_101 [1/1] 0.00ns
branch3:1  br label %1

ST_9: stg_102 [1/1] 2.39ns
branch1:0  store float %tmp_21_i_1, float* %imag_arr16_1_addr, align 4

ST_9: stg_103 [1/1] 0.00ns
branch1:1  br label %1

ST_9: stg_104 [1/1] 0.00ns
:2  br label %0


 <State 10>: 0.00ns
ST_10: stg_105 [1/1] 0.00ns
loop_flow16_.exit2.exitStub:0  ret void



============================================================
+ Verbose Summary: Binding
============================================================
N/A
* FSMD analyzer results:
  - Output states:
  - Chain level:
	State 1
	State 2
	State 3
	State 4
	State 5
	State 6
	State 7
	State 8
	State 9
	State 10


============================================================
+ Verbose Summary: Datapath Resource usage 
============================================================
N/A
