

================================================================
== Vivado HLS Report for 'dft_loop_flow8_Loop_1_proc'
================================================================
* Date:           Wed Nov 02 20:47:55 2016

* Version:        2015.4 (Build 1412921 on Wed Nov 18 09:58:55 AM 2015)
* Project:        dft
* Solution:       dft_best5
* Product family: zynq
* Target device:  xc7z020clg484-1


================================================================
== Performance Estimates
================================================================
+ Timing (ns): 
    * Summary: 
    +--------+-------+----------+------------+
    |  Clock | Target| Estimated| Uncertainty|
    +--------+-------+----------+------------+
    |ap_clk  |  10.00|      7.26|        1.25|
    +--------+-------+----------+------------+

+ Latency (clock cycles): 
    * Summary: 
    +-----+-----+-----+-----+---------+
    |  Latency  |  Interval | Pipeline|
    | min | max | min | max |   Type  |
    +-----+-----+-----+-----+---------+
    |   11|   11|   11|   11|   none  |
    +-----+-----+-----+-----+---------+

    + Detail: 
        * Instance: 
        N/A

        * Loop: 
        +----------+-----+-----+----------+-----------+-----------+------+----------+
        |          |  Latency  | Iteration|  Initiation Interval  | Trip |          |
        | Loop Name| min | max |  Latency |  achieved |   target  | Count| Pipelined|
        +----------+-----+-----+----------+-----------+-----------+------+----------+
        |- Loop 1  |    9|    9|         7|          1|          1|     4|    yes   |
        +----------+-----+-----+----------+-----------+-----------+------+----------+



================================================================
== Utilization Estimates
================================================================
* Summary: 
+-----------------+---------+-------+--------+-------+
|       Name      | BRAM_18K| DSP48E|   FF   |  LUT  |
+-----------------+---------+-------+--------+-------+
|DSP              |        -|      -|       -|      -|
|Expression       |        -|      -|       0|     17|
|FIFO             |        -|      -|       -|      -|
|Instance         |        -|      8|     820|   1560|
|Memory           |        -|      -|       -|      -|
|Multiplexer      |        -|      -|       -|     11|
|Register         |        -|      -|     281|      5|
+-----------------+---------+-------+--------+-------+
|Total            |        0|      8|    1101|   1593|
+-----------------+---------+-------+--------+-------+
|Available        |      280|    220|  106400|  53200|
+-----------------+---------+-------+--------+-------+
|Utilization (%)  |        0|      3|       1|      2|
+-----------------+---------+-------+--------+-------+

+ Detail: 
    * Instance: 
    +---------------------------------------+----------------------------------+---------+-------+-----+-----+
    |                Instance               |              Module              | BRAM_18K| DSP48E|  FF | LUT |
    +---------------------------------------+----------------------------------+---------+-------+-----+-----+
    |dft_fadd_32ns_32ns_32_5_full_dsp_U430  |dft_fadd_32ns_32ns_32_5_full_dsp  |        0|      2|  205|  390|
    |dft_fadd_32ns_32ns_32_5_full_dsp_U431  |dft_fadd_32ns_32ns_32_5_full_dsp  |        0|      2|  205|  390|
    |dft_fadd_32ns_32ns_32_5_full_dsp_U432  |dft_fadd_32ns_32ns_32_5_full_dsp  |        0|      2|  205|  390|
    |dft_fadd_32ns_32ns_32_5_full_dsp_U433  |dft_fadd_32ns_32ns_32_5_full_dsp  |        0|      2|  205|  390|
    +---------------------------------------+----------------------------------+---------+-------+-----+-----+
    |Total                                  |                                  |        0|      8|  820| 1560|
    +---------------------------------------+----------------------------------+---------+-------+-----+-----+

    * DSP48: 
    N/A

    * Memory: 
    N/A

    * FIFO: 
    N/A

    * Expression: 
    +------------------------+----------+-------+---+----+------------+------------+
    |      Variable Name     | Operation| DSP48E| FF| LUT| Bitwidth P0| Bitwidth P1|
    +------------------------+----------+-------+---+----+------------+------------+
    |i_V_i_1_fu_286_p2       |     +    |      0|  0|   4|           4|           2|
    |j_V_i_1_fu_292_p2       |     +    |      0|  0|   5|           5|           3|
    |exitcond_i_i_fu_234_p2  |   icmp   |      0|  0|   2|           4|           5|
    |ap_sig_bdd_234          |    or    |      0|  0|   1|           1|           1|
    |i_V_i_03_t_fu_280_p2    |    or    |      0|  0|   5|           3|           1|
    +------------------------+----------+-------+---+----+------------+------------+
    |Total                   |          |      0|  0|  17|          17|          12|
    +------------------------+----------+-------+---+----+------------+------------+

    * Multiplexer: 
    +-----------------------+----+-----------+-----+-----------+
    |          Name         | LUT| Input Size| Bits| Total Bits|
    +-----------------------+----+-----------+-----+-----------+
    |ap_NS_fsm              |   1|          4|    1|          4|
    |ap_reg_ppiten_pp0_it6  |   1|          2|    1|          2|
    |p_04_0_i_i_reg_207     |   4|          2|    4|          8|
    |p_078_0_i_i_reg_196    |   5|          2|    5|         10|
    +-----------------------+----+-----------+-----+-----------+
    |Total                  |  11|         10|   11|         24|
    +-----------------------+----+-----------+-----+-----------+

    * Register: 
    +---------------------------+----+----+-----+-----------+
    |            Name           | FF | LUT| Bits| Const Bits|
    +---------------------------+----+----+-----+-----------+
    |ap_CS_fsm                  |   3|   0|    3|          0|
    |ap_done_reg                |   1|   0|    1|          0|
    |ap_reg_ppiten_pp0_it0      |   1|   0|    1|          0|
    |ap_reg_ppiten_pp0_it1      |   1|   0|    1|          0|
    |ap_reg_ppiten_pp0_it2      |   1|   0|    1|          0|
    |ap_reg_ppiten_pp0_it3      |   1|   0|    1|          0|
    |ap_reg_ppiten_pp0_it4      |   1|   0|    1|          0|
    |ap_reg_ppiten_pp0_it5      |   1|   0|    1|          0|
    |ap_reg_ppiten_pp0_it6      |   1|   0|    1|          0|
    |i_V_i_03_t_reg_432         |   2|   0|    3|          1|
    |imag_arr16_0_load_reg_466  |  32|   0|   32|          0|
    |imag_arr16_1_load_reg_471  |  32|   0|   32|          0|
    |imag_arr16_2_load_reg_486  |  32|   0|   32|          0|
    |imag_arr16_3_load_reg_491  |  32|   0|   32|          0|
    |p_04_0_i_i_reg_207         |   4|   0|    4|          0|
    |p_078_0_i_i_reg_196        |   5|   0|    5|          0|
    |real_arr16_0_load_reg_456  |  32|   0|   32|          0|
    |real_arr16_1_load_reg_461  |  32|   0|   32|          0|
    |real_arr16_2_load_reg_476  |  32|   0|   32|          0|
    |real_arr16_3_load_reg_481  |  32|   0|   32|          0|
    |tmp_1_reg_408              |   3|   0|    3|          0|
    |i_V_i_03_t_reg_432         |   0|   2|    3|          1|
    |tmp_1_reg_408              |   0|   3|    3|          0|
    +---------------------------+----+----+-----+-----------+
    |Total                      | 281|   5|  288|          2|
    +---------------------------+----+----+-----+-----------+



================================================================
== Interface
================================================================
* Summary: 
+-----------------------+-----+-----+------------+----------------------------+--------------+
|       RTL Ports       | Dir | Bits|  Protocol  |        Source Object       |    C Type    |
+-----------------------+-----+-----+------------+----------------------------+--------------+
|ap_clk                 |  in |    1| ap_ctrl_hs | dft_loop_flow8_Loop_1_proc | return value |
|ap_rst                 |  in |    1| ap_ctrl_hs | dft_loop_flow8_Loop_1_proc | return value |
|ap_start               |  in |    1| ap_ctrl_hs | dft_loop_flow8_Loop_1_proc | return value |
|ap_done                | out |    1| ap_ctrl_hs | dft_loop_flow8_Loop_1_proc | return value |
|ap_continue            |  in |    1| ap_ctrl_hs | dft_loop_flow8_Loop_1_proc | return value |
|ap_idle                | out |    1| ap_ctrl_hs | dft_loop_flow8_Loop_1_proc | return value |
|ap_ready               | out |    1| ap_ctrl_hs | dft_loop_flow8_Loop_1_proc | return value |
|imag_arr8_1            | out |   32|   ap_vld   |         imag_arr8_1        |    pointer   |
|imag_arr8_1_ap_vld     | out |    1|   ap_vld   |         imag_arr8_1        |    pointer   |
|imag_arr16_2_address0  | out |    2|  ap_memory |        imag_arr16_2        |     array    |
|imag_arr16_2_ce0       | out |    1|  ap_memory |        imag_arr16_2        |     array    |
|imag_arr16_2_q0        |  in |   32|  ap_memory |        imag_arr16_2        |     array    |
|imag_arr16_3_address0  | out |    2|  ap_memory |        imag_arr16_3        |     array    |
|imag_arr16_3_ce0       | out |    1|  ap_memory |        imag_arr16_3        |     array    |
|imag_arr16_3_q0        |  in |   32|  ap_memory |        imag_arr16_3        |     array    |
|real_arr8_1            | out |   32|   ap_vld   |         real_arr8_1        |    pointer   |
|real_arr8_1_ap_vld     | out |    1|   ap_vld   |         real_arr8_1        |    pointer   |
|real_arr16_2_address0  | out |    2|  ap_memory |        real_arr16_2        |     array    |
|real_arr16_2_ce0       | out |    1|  ap_memory |        real_arr16_2        |     array    |
|real_arr16_2_q0        |  in |   32|  ap_memory |        real_arr16_2        |     array    |
|real_arr16_3_address0  | out |    2|  ap_memory |        real_arr16_3        |     array    |
|real_arr16_3_ce0       | out |    1|  ap_memory |        real_arr16_3        |     array    |
|real_arr16_3_q0        |  in |   32|  ap_memory |        real_arr16_3        |     array    |
|imag_arr8_0            | out |   32|   ap_vld   |         imag_arr8_0        |    pointer   |
|imag_arr8_0_ap_vld     | out |    1|   ap_vld   |         imag_arr8_0        |    pointer   |
|imag_arr16_0_address0  | out |    2|  ap_memory |        imag_arr16_0        |     array    |
|imag_arr16_0_ce0       | out |    1|  ap_memory |        imag_arr16_0        |     array    |
|imag_arr16_0_q0        |  in |   32|  ap_memory |        imag_arr16_0        |     array    |
|imag_arr16_1_address0  | out |    2|  ap_memory |        imag_arr16_1        |     array    |
|imag_arr16_1_ce0       | out |    1|  ap_memory |        imag_arr16_1        |     array    |
|imag_arr16_1_q0        |  in |   32|  ap_memory |        imag_arr16_1        |     array    |
|real_arr8_0            | out |   32|   ap_vld   |         real_arr8_0        |    pointer   |
|real_arr8_0_ap_vld     | out |    1|   ap_vld   |         real_arr8_0        |    pointer   |
|real_arr16_0_address0  | out |    2|  ap_memory |        real_arr16_0        |     array    |
|real_arr16_0_ce0       | out |    1|  ap_memory |        real_arr16_0        |     array    |
|real_arr16_0_q0        |  in |   32|  ap_memory |        real_arr16_0        |     array    |
|real_arr16_1_address0  | out |    2|  ap_memory |        real_arr16_1        |     array    |
|real_arr16_1_ce0       | out |    1|  ap_memory |        real_arr16_1        |     array    |
|real_arr16_1_q0        |  in |   32|  ap_memory |        real_arr16_1        |     array    |
|real_arr8_2            | out |   32|   ap_vld   |         real_arr8_2        |    pointer   |
|real_arr8_2_ap_vld     | out |    1|   ap_vld   |         real_arr8_2        |    pointer   |
|real_arr8_4            | out |   32|   ap_vld   |         real_arr8_4        |    pointer   |
|real_arr8_4_ap_vld     | out |    1|   ap_vld   |         real_arr8_4        |    pointer   |
|real_arr8_6            | out |   32|   ap_vld   |         real_arr8_6        |    pointer   |
|real_arr8_6_ap_vld     | out |    1|   ap_vld   |         real_arr8_6        |    pointer   |
|imag_arr8_2            | out |   32|   ap_vld   |         imag_arr8_2        |    pointer   |
|imag_arr8_2_ap_vld     | out |    1|   ap_vld   |         imag_arr8_2        |    pointer   |
|imag_arr8_4            | out |   32|   ap_vld   |         imag_arr8_4        |    pointer   |
|imag_arr8_4_ap_vld     | out |    1|   ap_vld   |         imag_arr8_4        |    pointer   |
|imag_arr8_6            | out |   32|   ap_vld   |         imag_arr8_6        |    pointer   |
|imag_arr8_6_ap_vld     | out |    1|   ap_vld   |         imag_arr8_6        |    pointer   |
|real_arr8_3            | out |   32|   ap_vld   |         real_arr8_3        |    pointer   |
|real_arr8_3_ap_vld     | out |    1|   ap_vld   |         real_arr8_3        |    pointer   |
|real_arr8_5            | out |   32|   ap_vld   |         real_arr8_5        |    pointer   |
|real_arr8_5_ap_vld     | out |    1|   ap_vld   |         real_arr8_5        |    pointer   |
|real_arr8_7            | out |   32|   ap_vld   |         real_arr8_7        |    pointer   |
|real_arr8_7_ap_vld     | out |    1|   ap_vld   |         real_arr8_7        |    pointer   |
|imag_arr8_3            | out |   32|   ap_vld   |         imag_arr8_3        |    pointer   |
|imag_arr8_3_ap_vld     | out |    1|   ap_vld   |         imag_arr8_3        |    pointer   |
|imag_arr8_5            | out |   32|   ap_vld   |         imag_arr8_5        |    pointer   |
|imag_arr8_5_ap_vld     | out |    1|   ap_vld   |         imag_arr8_5        |    pointer   |
|imag_arr8_7            | out |   32|   ap_vld   |         imag_arr8_7        |    pointer   |
|imag_arr8_7_ap_vld     | out |    1|   ap_vld   |         imag_arr8_7        |    pointer   |
+-----------------------+-----+-----+------------+----------------------------+--------------+

============================================================
+ Verbose Summary: Synthesis Manager
============================================================
InlineROM: 1
ExposeGlobal: 0
============================================================
+ Verbose Summary: CDFG Model
============================================================
IsTopModel: 0
ResetActiveHigh: 1
IsCombinational: 2
IsDatapathOnly: 0
HasWiredReturn: 1
HasMFsm: 0
HasVarLatency: 1
IsPipeline: 0
IsRtlPipelined: 0
IsInstanceOverlapped: 0
IsDontTouch: 0
HasImplIP: 0
IsGatedGlobalClock: 0

+ Individual pipeline summary: 
  * Pipeline-0: initiation interval (II) = 1, depth = 7


============================================================
+ Verbose Summary: Schedule
============================================================
* Number of FSM states: 9
* Pipeline: 1
  Pipeline-0: II = 1, D = 7, States = { 2 3 4 5 6 7 8 }
* Dataflow Pipeline: 0

* FSM state transitions: 
1 --> 
	2  / true
2 --> 
	9  / (exitcond_i_i)
	3  / (!exitcond_i_i)
3 --> 
	4  / true
4 --> 
	5  / true
5 --> 
	6  / true
6 --> 
	7  / true
7 --> 
	8  / true
8 --> 
	2  / true
9 --> 
* FSM state operations: 

 <State 1>: 1.57ns
ST_1: stg_10 [1/1] 1.57ns
newFuncRoot:0  br label %0


 <State 2>: 2.39ns
ST_2: p_078_0_i_i [1/1] 0.00ns
:0  %p_078_0_i_i = phi i5 [ 0, %newFuncRoot ], [ %j_V_i_1, %1 ]

ST_2: p_04_0_i_i [1/1] 0.00ns
:1  %p_04_0_i_i = phi i4 [ 0, %newFuncRoot ], [ %i_V_i_1, %1 ]

ST_2: exitcond_i_i [1/1] 1.88ns
:2  %exitcond_i_i = icmp eq i4 %p_04_0_i_i, -8

ST_2: stg_14 [1/1] 0.00ns
:3  br i1 %exitcond_i_i, label %loop_flow8_.exit2.exitStub, label %5

ST_2: newIndex [1/1] 0.00ns
:3  %newIndex = call i3 @_ssdm_op_PartSelect.i3.i5.i32.i32(i5 %p_078_0_i_i, i32 2, i32 4)

ST_2: newIndex1 [1/1] 0.00ns
:4  %newIndex1 = zext i3 %newIndex to i64

ST_2: real_arr16_0_addr [1/1] 0.00ns
:5  %real_arr16_0_addr = getelementptr [4 x float]* @real_arr16_0, i64 0, i64 %newIndex1

ST_2: real_arr16_0_load [2/2] 2.39ns
:6  %real_arr16_0_load = load float* %real_arr16_0_addr, align 16

ST_2: newIndex2 [1/1] 0.00ns
:7  %newIndex2 = call i2 @_ssdm_op_PartSelect.i2.i5.i32.i32(i5 %p_078_0_i_i, i32 2, i32 3)

ST_2: newIndex3 [1/1] 0.00ns
:8  %newIndex3 = zext i2 %newIndex2 to i64

ST_2: real_arr16_1_addr [1/1] 0.00ns
:9  %real_arr16_1_addr = getelementptr [4 x float]* @real_arr16_1, i64 0, i64 %newIndex3

ST_2: real_arr16_1_load [2/2] 2.39ns
:10  %real_arr16_1_load = load float* %real_arr16_1_addr, align 4

ST_2: tmp_1 [1/1] 0.00ns
:12  %tmp_1 = trunc i4 %p_04_0_i_i to i3

ST_2: stg_24 [1/1] 1.88ns
:13  switch i3 %tmp_1, label %branch30 [
    i3 0, label %branch24
    i3 2, label %branch26
    i3 -4, label %branch28
  ]

ST_2: imag_arr16_0_addr [1/1] 0.00ns
:0  %imag_arr16_0_addr = getelementptr [4 x float]* @imag_arr16_0, i64 0, i64 %newIndex1

ST_2: imag_arr16_0_load [2/2] 2.39ns
:1  %imag_arr16_0_load = load float* %imag_arr16_0_addr, align 16

ST_2: imag_arr16_1_addr [1/1] 0.00ns
:2  %imag_arr16_1_addr = getelementptr [4 x float]* @imag_arr16_1, i64 0, i64 %newIndex3

ST_2: imag_arr16_1_load [2/2] 2.39ns
:3  %imag_arr16_1_load = load float* %imag_arr16_1_addr, align 4

ST_2: stg_29 [1/1] 1.88ns
:5  switch i3 %tmp_1, label %branch14 [
    i3 0, label %branch8
    i3 2, label %branch10
    i3 -4, label %branch12
  ]

ST_2: real_arr16_2_addr [1/1] 0.00ns
:1  %real_arr16_2_addr = getelementptr [4 x float]* @real_arr16_2, i64 0, i64 %newIndex1

ST_2: real_arr16_2_load [2/2] 2.39ns
:2  %real_arr16_2_load = load float* %real_arr16_2_addr, align 8

ST_2: real_arr16_3_addr [1/1] 0.00ns
:3  %real_arr16_3_addr = getelementptr [4 x float]* @real_arr16_3, i64 0, i64 %newIndex3

ST_2: real_arr16_3_load [2/2] 2.39ns
:4  %real_arr16_3_load = load float* %real_arr16_3_addr, align 4

ST_2: i_V_i_03_t [1/1] 0.00ns
:6  %i_V_i_03_t = or i3 %tmp_1, 1

ST_2: stg_35 [1/1] 1.88ns
:7  switch i3 %i_V_i_03_t, label %branch23 [
    i3 1, label %branch17
    i3 3, label %branch19
    i3 -3, label %branch21
  ]

ST_2: imag_arr16_2_addr [1/1] 0.00ns
:0  %imag_arr16_2_addr = getelementptr [4 x float]* @imag_arr16_2, i64 0, i64 %newIndex1

ST_2: imag_arr16_2_load [2/2] 2.39ns
:1  %imag_arr16_2_load = load float* %imag_arr16_2_addr, align 8

ST_2: imag_arr16_3_addr [1/1] 0.00ns
:2  %imag_arr16_3_addr = getelementptr [4 x float]* @imag_arr16_3, i64 0, i64 %newIndex3

ST_2: imag_arr16_3_load [2/2] 2.39ns
:3  %imag_arr16_3_load = load float* %imag_arr16_3_addr, align 4

ST_2: stg_40 [1/1] 1.88ns
:5  switch i3 %i_V_i_03_t, label %branch7 [
    i3 1, label %branch1
    i3 3, label %branch3
    i3 -3, label %branch5
  ]

ST_2: i_V_i_1 [1/1] 0.80ns
:0  %i_V_i_1 = add i4 %p_04_0_i_i, 2

ST_2: j_V_i_1 [1/1] 1.72ns
:1  %j_V_i_1 = add i5 %p_078_0_i_i, 4


 <State 3>: 2.39ns
ST_3: real_arr16_0_load [1/2] 2.39ns
:6  %real_arr16_0_load = load float* %real_arr16_0_addr, align 16

ST_3: real_arr16_1_load [1/2] 2.39ns
:10  %real_arr16_1_load = load float* %real_arr16_1_addr, align 4

ST_3: imag_arr16_0_load [1/2] 2.39ns
:1  %imag_arr16_0_load = load float* %imag_arr16_0_addr, align 16

ST_3: imag_arr16_1_load [1/2] 2.39ns
:3  %imag_arr16_1_load = load float* %imag_arr16_1_addr, align 4

ST_3: real_arr16_2_load [1/2] 2.39ns
:2  %real_arr16_2_load = load float* %real_arr16_2_addr, align 8

ST_3: real_arr16_3_load [1/2] 2.39ns
:4  %real_arr16_3_load = load float* %real_arr16_3_addr, align 4

ST_3: imag_arr16_2_load [1/2] 2.39ns
:1  %imag_arr16_2_load = load float* %imag_arr16_2_addr, align 8

ST_3: imag_arr16_3_load [1/2] 2.39ns
:3  %imag_arr16_3_load = load float* %imag_arr16_3_addr, align 4


 <State 4>: 7.26ns
ST_4: tmp_4_i [5/5] 7.26ns
:11  %tmp_4_i = fadd float %real_arr16_0_load, %real_arr16_1_load

ST_4: tmp_6_i [5/5] 7.26ns
:4  %tmp_6_i = fadd float %imag_arr16_0_load, %imag_arr16_1_load

ST_4: tmp_4_i_1 [5/5] 7.26ns
:5  %tmp_4_i_1 = fadd float %real_arr16_2_load, %real_arr16_3_load

ST_4: tmp_6_i_1 [5/5] 7.26ns
:4  %tmp_6_i_1 = fadd float %imag_arr16_2_load, %imag_arr16_3_load


 <State 5>: 7.26ns
ST_5: tmp_4_i [4/5] 7.26ns
:11  %tmp_4_i = fadd float %real_arr16_0_load, %real_arr16_1_load

ST_5: tmp_6_i [4/5] 7.26ns
:4  %tmp_6_i = fadd float %imag_arr16_0_load, %imag_arr16_1_load

ST_5: tmp_4_i_1 [4/5] 7.26ns
:5  %tmp_4_i_1 = fadd float %real_arr16_2_load, %real_arr16_3_load

ST_5: tmp_6_i_1 [4/5] 7.26ns
:4  %tmp_6_i_1 = fadd float %imag_arr16_2_load, %imag_arr16_3_load


 <State 6>: 7.26ns
ST_6: tmp_4_i [3/5] 7.26ns
:11  %tmp_4_i = fadd float %real_arr16_0_load, %real_arr16_1_load

ST_6: tmp_6_i [3/5] 7.26ns
:4  %tmp_6_i = fadd float %imag_arr16_0_load, %imag_arr16_1_load

ST_6: tmp_4_i_1 [3/5] 7.26ns
:5  %tmp_4_i_1 = fadd float %real_arr16_2_load, %real_arr16_3_load

ST_6: tmp_6_i_1 [3/5] 7.26ns
:4  %tmp_6_i_1 = fadd float %imag_arr16_2_load, %imag_arr16_3_load


 <State 7>: 7.26ns
ST_7: tmp_4_i [2/5] 7.26ns
:11  %tmp_4_i = fadd float %real_arr16_0_load, %real_arr16_1_load

ST_7: tmp_6_i [2/5] 7.26ns
:4  %tmp_6_i = fadd float %imag_arr16_0_load, %imag_arr16_1_load

ST_7: tmp_4_i_1 [2/5] 7.26ns
:5  %tmp_4_i_1 = fadd float %real_arr16_2_load, %real_arr16_3_load

ST_7: tmp_6_i_1 [2/5] 7.26ns
:4  %tmp_6_i_1 = fadd float %imag_arr16_2_load, %imag_arr16_3_load


 <State 8>: 7.26ns
ST_8: empty_12 [1/1] 0.00ns
:0  %empty_12 = call i32 (...)* @_ssdm_op_SpecLoopTripCount(i64 4, i64 4, i64 4) nounwind

ST_8: tmp [1/1] 0.00ns
:1  %tmp = call i32 (...)* @_ssdm_op_SpecRegionBegin([12 x i8]* @p_str6) nounwind

ST_8: stg_69 [1/1] 0.00ns
:2  call void (...)* @_ssdm_op_SpecPipeline(i32 1, i32 1, i32 1, i32 0, [1 x i8]* @p_str) nounwind

ST_8: tmp_4_i [1/5] 7.26ns
:11  %tmp_4_i = fadd float %real_arr16_0_load, %real_arr16_1_load

ST_8: stg_71 [1/1] 0.00ns
branch28:0  store float %tmp_4_i, float* @real_arr8_4, align 8

ST_8: stg_72 [1/1] 0.00ns
branch28:1  br label %4

ST_8: stg_73 [1/1] 0.00ns
branch26:0  store float %tmp_4_i, float* @real_arr8_2, align 8

ST_8: stg_74 [1/1] 0.00ns
branch26:1  br label %4

ST_8: stg_75 [1/1] 0.00ns
branch24:0  store float %tmp_4_i, float* @real_arr8_0, align 8

ST_8: stg_76 [1/1] 0.00ns
branch24:1  br label %4

ST_8: stg_77 [1/1] 0.00ns
branch30:0  store float %tmp_4_i, float* @real_arr8_6, align 8

ST_8: stg_78 [1/1] 0.00ns
branch30:1  br label %4

ST_8: tmp_6_i [1/5] 7.26ns
:4  %tmp_6_i = fadd float %imag_arr16_0_load, %imag_arr16_1_load

ST_8: stg_80 [1/1] 0.00ns
branch12:0  store float %tmp_6_i, float* @imag_arr8_4, align 8

ST_8: stg_81 [1/1] 0.00ns
branch12:1  br label %3

ST_8: stg_82 [1/1] 0.00ns
branch10:0  store float %tmp_6_i, float* @imag_arr8_2, align 8

ST_8: stg_83 [1/1] 0.00ns
branch10:1  br label %3

ST_8: stg_84 [1/1] 0.00ns
branch8:0  store float %tmp_6_i, float* @imag_arr8_0, align 8

ST_8: stg_85 [1/1] 0.00ns
branch8:1  br label %3

ST_8: stg_86 [1/1] 0.00ns
branch14:0  store float %tmp_6_i, float* @imag_arr8_6, align 8

ST_8: stg_87 [1/1] 0.00ns
branch14:1  br label %3

ST_8: empty [1/1] 0.00ns
:0  %empty = call i32 (...)* @_ssdm_op_SpecRegionEnd([12 x i8]* @p_str6, i32 %tmp) nounwind

ST_8: tmp_4_i_1 [1/5] 7.26ns
:5  %tmp_4_i_1 = fadd float %real_arr16_2_load, %real_arr16_3_load

ST_8: stg_90 [1/1] 0.00ns
branch21:0  store float %tmp_4_i_1, float* @real_arr8_5, align 4

ST_8: stg_91 [1/1] 0.00ns
branch21:1  br label %2

ST_8: stg_92 [1/1] 0.00ns
branch19:0  store float %tmp_4_i_1, float* @real_arr8_3, align 4

ST_8: stg_93 [1/1] 0.00ns
branch19:1  br label %2

ST_8: stg_94 [1/1] 0.00ns
branch17:0  store float %tmp_4_i_1, float* @real_arr8_1, align 4

ST_8: stg_95 [1/1] 0.00ns
branch17:1  br label %2

ST_8: stg_96 [1/1] 0.00ns
branch23:0  store float %tmp_4_i_1, float* @real_arr8_7, align 4

ST_8: stg_97 [1/1] 0.00ns
branch23:1  br label %2

ST_8: tmp_6_i_1 [1/5] 7.26ns
:4  %tmp_6_i_1 = fadd float %imag_arr16_2_load, %imag_arr16_3_load

ST_8: stg_99 [1/1] 0.00ns
branch5:0  store float %tmp_6_i_1, float* @imag_arr8_5, align 4

ST_8: stg_100 [1/1] 0.00ns
branch5:1  br label %1

ST_8: stg_101 [1/1] 0.00ns
branch3:0  store float %tmp_6_i_1, float* @imag_arr8_3, align 4

ST_8: stg_102 [1/1] 0.00ns
branch3:1  br label %1

ST_8: stg_103 [1/1] 0.00ns
branch1:0  store float %tmp_6_i_1, float* @imag_arr8_1, align 4

ST_8: stg_104 [1/1] 0.00ns
branch1:1  br label %1

ST_8: stg_105 [1/1] 0.00ns
branch7:0  store float %tmp_6_i_1, float* @imag_arr8_7, align 4

ST_8: stg_106 [1/1] 0.00ns
branch7:1  br label %1

ST_8: stg_107 [1/1] 0.00ns
:2  br label %0


 <State 9>: 0.00ns
ST_9: stg_108 [1/1] 0.00ns
loop_flow8_.exit2.exitStub:0  ret void



============================================================
+ Verbose Summary: Binding
============================================================
STG Binding: 
---------------- STG Properties BEGIN ----------------
- Is combinational: 0
- Is one-state seq: 0
- Is datapath-only: 0
- Is clock enabled: 0
- Is pipelined: 0
- Is top level: 0
Port [ Return ] is wired: 1; IO mode=ap_ctrl_hs:ce=0
Port [ imag_arr8_1]:  wired=1; compound=0; hidden=0; nouse=0; global=1; static=0; extern=0; dir=1; type=0; mode=0x240879ff5f0; pingpong=0; private_global=0; linkage=0; visibility=0; IO mode=ap_vld:ce=0
Port [ imag_arr16_2]:  wired=1; compound=1; hidden=0; nouse=0; global=1; static=0; extern=0; dir=0; type=1; mode=0x240879febd0; pingpong=0; private_global=0; linkage=0; visibility=0; MemPort=[13]; IO mode=ap_memory:ce=0
Port [ imag_arr16_3]:  wired=1; compound=1; hidden=0; nouse=0; global=1; static=0; extern=0; dir=0; type=1; mode=0x240879fd9d0; pingpong=0; private_global=0; linkage=0; visibility=0; MemPort=[13]; IO mode=ap_memory:ce=0
Port [ real_arr8_1]:  wired=1; compound=0; hidden=0; nouse=0; global=1; static=0; extern=0; dir=1; type=0; mode=0x240879fecf0; pingpong=0; private_global=0; linkage=0; visibility=0; IO mode=ap_vld:ce=0
Port [ real_arr16_2]:  wired=1; compound=1; hidden=0; nouse=0; global=1; static=0; extern=0; dir=0; type=1; mode=0x240879fe5a0; pingpong=0; private_global=0; linkage=0; visibility=0; MemPort=[13]; IO mode=ap_memory:ce=0
Port [ real_arr16_3]:  wired=1; compound=1; hidden=0; nouse=0; global=1; static=0; extern=0; dir=0; type=1; mode=0x240879fe090; pingpong=0; private_global=0; linkage=0; visibility=0; MemPort=[13]; IO mode=ap_memory:ce=0
Port [ imag_arr8_0]:  wired=1; compound=0; hidden=0; nouse=0; global=1; static=0; extern=0; dir=1; type=0; mode=0x240879fda60; pingpong=0; private_global=0; linkage=0; visibility=0; IO mode=ap_vld:ce=0
Port [ imag_arr16_0]:  wired=1; compound=1; hidden=0; nouse=0; global=1; static=0; extern=0; dir=0; type=1; mode=0x240879ff3b0; pingpong=0; private_global=0; linkage=0; visibility=0; MemPort=[13]; IO mode=ap_memory:ce=0
Port [ imag_arr16_1]:  wired=1; compound=1; hidden=0; nouse=0; global=1; static=0; extern=0; dir=0; type=1; mode=0x240879fe1b0; pingpong=0; private_global=0; linkage=0; visibility=0; MemPort=[13]; IO mode=ap_memory:ce=0
Port [ real_arr8_0]:  wired=1; compound=0; hidden=0; nouse=0; global=1; static=0; extern=0; dir=1; type=0; mode=0x240879ff200; pingpong=0; private_global=0; linkage=0; visibility=0; IO mode=ap_vld:ce=0
Port [ real_arr16_0]:  wired=1; compound=1; hidden=0; nouse=0; global=1; static=0; extern=0; dir=0; type=1; mode=0x240879fef30; pingpong=0; private_global=0; linkage=0; visibility=0; MemPort=[13]; IO mode=ap_memory:ce=0
Port [ real_arr16_1]:  wired=1; compound=1; hidden=0; nouse=0; global=1; static=0; extern=0; dir=0; type=1; mode=0x240879ff170; pingpong=0; private_global=0; linkage=0; visibility=0; MemPort=[13]; IO mode=ap_memory:ce=0
Port [ real_arr8_2]:  wired=1; compound=0; hidden=0; nouse=0; global=1; static=0; extern=0; dir=1; type=0; mode=0x240879ff7a0; pingpong=0; private_global=0; linkage=0; visibility=0; IO mode=ap_vld:ce=0
Port [ real_arr8_4]:  wired=1; compound=0; hidden=0; nouse=0; global=1; static=0; extern=0; dir=1; type=0; mode=0x240879ff830; pingpong=0; private_global=0; linkage=0; visibility=0; IO mode=ap_vld:ce=0
Port [ real_arr8_6]:  wired=1; compound=0; hidden=0; nouse=0; global=1; static=0; extern=0; dir=1; type=0; mode=0x240879ff8c0; pingpong=0; private_global=0; linkage=0; visibility=0; IO mode=ap_vld:ce=0
Port [ imag_arr8_2]:  wired=1; compound=0; hidden=0; nouse=0; global=1; static=0; extern=0; dir=1; type=0; mode=0x240879ff950; pingpong=0; private_global=0; linkage=0; visibility=0; IO mode=ap_vld:ce=0
Port [ imag_arr8_4]:  wired=1; compound=0; hidden=0; nouse=0; global=1; static=0; extern=0; dir=1; type=0; mode=0x240879fdaf0; pingpong=0; private_global=0; linkage=0; visibility=0; IO mode=ap_vld:ce=0
Port [ imag_arr8_6]:  wired=1; compound=0; hidden=0; nouse=0; global=1; static=0; extern=0; dir=1; type=0; mode=0x240879fde50; pingpong=0; private_global=0; linkage=0; visibility=0; IO mode=ap_vld:ce=0
Port [ real_arr8_3]:  wired=1; compound=0; hidden=0; nouse=0; global=1; static=0; extern=0; dir=1; type=0; mode=0x240879ffa70; pingpong=0; private_global=0; linkage=0; visibility=0; IO mode=ap_vld:ce=0
Port [ real_arr8_5]:  wired=1; compound=0; hidden=0; nouse=0; global=1; static=0; extern=0; dir=1; type=0; mode=0x240879fdee0; pingpong=0; private_global=0; linkage=0; visibility=0; IO mode=ap_vld:ce=0
Port [ real_arr8_7]:  wired=1; compound=0; hidden=0; nouse=0; global=1; static=0; extern=0; dir=1; type=0; mode=0x240879fe240; pingpong=0; private_global=0; linkage=0; visibility=0; IO mode=ap_vld:ce=0
Port [ imag_arr8_3]:  wired=1; compound=0; hidden=0; nouse=0; global=1; static=0; extern=0; dir=1; type=0; mode=0x240879ffdd0; pingpong=0; private_global=0; linkage=0; visibility=0; IO mode=ap_vld:ce=0
Port [ imag_arr8_5]:  wired=1; compound=0; hidden=0; nouse=0; global=1; static=0; extern=0; dir=1; type=0; mode=0x24087a002e0; pingpong=0; private_global=0; linkage=0; visibility=0; IO mode=ap_vld:ce=0
Port [ imag_arr8_7]:  wired=1; compound=0; hidden=0; nouse=0; global=1; static=0; extern=0; dir=1; type=0; mode=0x24087a00010; pingpong=0; private_global=0; linkage=0; visibility=0; IO mode=ap_vld:ce=0
---------------- STG Properties END ------------------

---------------- Datapath Model BEGIN ----------------

<LifeTime>
<method=bitvector/>
stg_10            (br               ) [ 0111111110]
p_078_0_i_i       (phi              ) [ 0010000000]
p_04_0_i_i        (phi              ) [ 0010000000]
exitcond_i_i      (icmp             ) [ 0011111110]
stg_14            (br               ) [ 0000000000]
newIndex          (partselect       ) [ 0000000000]
newIndex1         (zext             ) [ 0000000000]
real_arr16_0_addr (getelementptr    ) [ 0011000000]
newIndex2         (partselect       ) [ 0000000000]
newIndex3         (zext             ) [ 0000000000]
real_arr16_1_addr (getelementptr    ) [ 0011000000]
tmp_1             (trunc            ) [ 0011111110]
stg_24            (switch           ) [ 0000000000]
imag_arr16_0_addr (getelementptr    ) [ 0011000000]
imag_arr16_1_addr (getelementptr    ) [ 0011000000]
stg_29            (switch           ) [ 0000000000]
real_arr16_2_addr (getelementptr    ) [ 0011000000]
real_arr16_3_addr (getelementptr    ) [ 0011000000]
i_V_i_03_t        (or               ) [ 0011111110]
stg_35            (switch           ) [ 0000000000]
imag_arr16_2_addr (getelementptr    ) [ 0011000000]
imag_arr16_3_addr (getelementptr    ) [ 0011000000]
stg_40            (switch           ) [ 0000000000]
i_V_i_1           (add              ) [ 0111111110]
j_V_i_1           (add              ) [ 0111111110]
real_arr16_0_load (load             ) [ 0010111110]
real_arr16_1_load (load             ) [ 0010111110]
imag_arr16_0_load (load             ) [ 0010111110]
imag_arr16_1_load (load             ) [ 0010111110]
real_arr16_2_load (load             ) [ 0010111110]
real_arr16_3_load (load             ) [ 0010111110]
imag_arr16_2_load (load             ) [ 0010111110]
imag_arr16_3_load (load             ) [ 0010111110]
empty_12          (speclooptripcount) [ 0000000000]
tmp               (specregionbegin  ) [ 0000000000]
stg_69            (specpipeline     ) [ 0000000000]
tmp_4_i           (fadd             ) [ 0000000000]
stg_71            (store            ) [ 0000000000]
stg_72            (br               ) [ 0000000000]
stg_73            (store            ) [ 0000000000]
stg_74            (br               ) [ 0000000000]
stg_75            (store            ) [ 0000000000]
stg_76            (br               ) [ 0000000000]
stg_77            (store            ) [ 0000000000]
stg_78            (br               ) [ 0000000000]
tmp_6_i           (fadd             ) [ 0000000000]
stg_80            (store            ) [ 0000000000]
stg_81            (br               ) [ 0000000000]
stg_82            (store            ) [ 0000000000]
stg_83            (br               ) [ 0000000000]
stg_84            (store            ) [ 0000000000]
stg_85            (br               ) [ 0000000000]
stg_86            (store            ) [ 0000000000]
stg_87            (br               ) [ 0000000000]
empty             (specregionend    ) [ 0000000000]
tmp_4_i_1         (fadd             ) [ 0000000000]
stg_90            (store            ) [ 0000000000]
stg_91            (br               ) [ 0000000000]
stg_92            (store            ) [ 0000000000]
stg_93            (br               ) [ 0000000000]
stg_94            (store            ) [ 0000000000]
stg_95            (br               ) [ 0000000000]
stg_96            (store            ) [ 0000000000]
stg_97            (br               ) [ 0000000000]
tmp_6_i_1         (fadd             ) [ 0000000000]
stg_99            (store            ) [ 0000000000]
stg_100           (br               ) [ 0000000000]
stg_101           (store            ) [ 0000000000]
stg_102           (br               ) [ 0000000000]
stg_103           (store            ) [ 0000000000]
stg_104           (br               ) [ 0000000000]
stg_105           (store            ) [ 0000000000]
stg_106           (br               ) [ 0000000000]
stg_107           (br               ) [ 0111111110]
stg_108           (ret              ) [ 0000000000]
</LifeTime>

<model>

<comp_list>
<comp id="0" class="1000" name="imag_arr8_1">
<pin_list>
<pin id="1" dir="1" index="0" bw="1" slack="0"/>
</pin_list>
<bind>
<StgValue><ssdm name="imag_arr8_1"/></StgValue>
</bind>
</comp>

<comp id="2" class="1000" name="imag_arr16_2">
<pin_list>
<pin id="3" dir="1" index="0" bw="1" slack="0"/>
</pin_list>
<bind>
<StgValue><ssdm name="imag_arr16_2"/><MemPortTyVec>1 3 </MemPortTyVec>
</StgValue>
</bind>
</comp>

<comp id="4" class="1000" name="imag_arr16_3">
<pin_list>
<pin id="5" dir="1" index="0" bw="1" slack="0"/>
</pin_list>
<bind>
<StgValue><ssdm name="imag_arr16_3"/><MemPortTyVec>1 3 </MemPortTyVec>
</StgValue>
</bind>
</comp>

<comp id="6" class="1000" name="real_arr8_1">
<pin_list>
<pin id="7" dir="1" index="0" bw="1" slack="0"/>
</pin_list>
<bind>
<StgValue><ssdm name="real_arr8_1"/></StgValue>
</bind>
</comp>

<comp id="8" class="1000" name="real_arr16_2">
<pin_list>
<pin id="9" dir="1" index="0" bw="1" slack="0"/>
</pin_list>
<bind>
<StgValue><ssdm name="real_arr16_2"/><MemPortTyVec>1 3 </MemPortTyVec>
</StgValue>
</bind>
</comp>

<comp id="10" class="1000" name="real_arr16_3">
<pin_list>
<pin id="11" dir="1" index="0" bw="1" slack="0"/>
</pin_list>
<bind>
<StgValue><ssdm name="real_arr16_3"/><MemPortTyVec>1 3 </MemPortTyVec>
</StgValue>
</bind>
</comp>

<comp id="12" class="1000" name="imag_arr8_0">
<pin_list>
<pin id="13" dir="1" index="0" bw="1" slack="0"/>
</pin_list>
<bind>
<StgValue><ssdm name="imag_arr8_0"/></StgValue>
</bind>
</comp>

<comp id="14" class="1000" name="imag_arr16_0">
<pin_list>
<pin id="15" dir="1" index="0" bw="1" slack="0"/>
</pin_list>
<bind>
<StgValue><ssdm name="imag_arr16_0"/><MemPortTyVec>1 3 </MemPortTyVec>
</StgValue>
</bind>
</comp>

<comp id="16" class="1000" name="imag_arr16_1">
<pin_list>
<pin id="17" dir="1" index="0" bw="1" slack="0"/>
</pin_list>
<bind>
<StgValue><ssdm name="imag_arr16_1"/><MemPortTyVec>1 3 </MemPortTyVec>
</StgValue>
</bind>
</comp>

<comp id="18" class="1000" name="real_arr8_0">
<pin_list>
<pin id="19" dir="1" index="0" bw="1" slack="0"/>
</pin_list>
<bind>
<StgValue><ssdm name="real_arr8_0"/></StgValue>
</bind>
</comp>

<comp id="20" class="1000" name="real_arr16_0">
<pin_list>
<pin id="21" dir="1" index="0" bw="1" slack="0"/>
</pin_list>
<bind>
<StgValue><ssdm name="real_arr16_0"/><MemPortTyVec>1 3 </MemPortTyVec>
</StgValue>
</bind>
</comp>

<comp id="22" class="1000" name="real_arr16_1">
<pin_list>
<pin id="23" dir="1" index="0" bw="1" slack="0"/>
</pin_list>
<bind>
<StgValue><ssdm name="real_arr16_1"/><MemPortTyVec>1 3 </MemPortTyVec>
</StgValue>
</bind>
</comp>

<comp id="24" class="1000" name="real_arr8_2">
<pin_list>
<pin id="25" dir="1" index="0" bw="1" slack="0"/>
</pin_list>
<bind>
<StgValue><ssdm name="real_arr8_2"/></StgValue>
</bind>
</comp>

<comp id="26" class="1000" name="real_arr8_4">
<pin_list>
<pin id="27" dir="1" index="0" bw="1" slack="0"/>
</pin_list>
<bind>
<StgValue><ssdm name="real_arr8_4"/></StgValue>
</bind>
</comp>

<comp id="28" class="1000" name="real_arr8_6">
<pin_list>
<pin id="29" dir="1" index="0" bw="1" slack="0"/>
</pin_list>
<bind>
<StgValue><ssdm name="real_arr8_6"/></StgValue>
</bind>
</comp>

<comp id="30" class="1000" name="imag_arr8_2">
<pin_list>
<pin id="31" dir="1" index="0" bw="1" slack="0"/>
</pin_list>
<bind>
<StgValue><ssdm name="imag_arr8_2"/></StgValue>
</bind>
</comp>

<comp id="32" class="1000" name="imag_arr8_4">
<pin_list>
<pin id="33" dir="1" index="0" bw="1" slack="0"/>
</pin_list>
<bind>
<StgValue><ssdm name="imag_arr8_4"/></StgValue>
</bind>
</comp>

<comp id="34" class="1000" name="imag_arr8_6">
<pin_list>
<pin id="35" dir="1" index="0" bw="1" slack="0"/>
</pin_list>
<bind>
<StgValue><ssdm name="imag_arr8_6"/></StgValue>
</bind>
</comp>

<comp id="36" class="1000" name="real_arr8_3">
<pin_list>
<pin id="37" dir="1" index="0" bw="1" slack="0"/>
</pin_list>
<bind>
<StgValue><ssdm name="real_arr8_3"/></StgValue>
</bind>
</comp>

<comp id="38" class="1000" name="real_arr8_5">
<pin_list>
<pin id="39" dir="1" index="0" bw="1" slack="0"/>
</pin_list>
<bind>
<StgValue><ssdm name="real_arr8_5"/></StgValue>
</bind>
</comp>

<comp id="40" class="1000" name="real_arr8_7">
<pin_list>
<pin id="41" dir="1" index="0" bw="1" slack="0"/>
</pin_list>
<bind>
<StgValue><ssdm name="real_arr8_7"/></StgValue>
</bind>
</comp>

<comp id="42" class="1000" name="imag_arr8_3">
<pin_list>
<pin id="43" dir="1" index="0" bw="1" slack="0"/>
</pin_list>
<bind>
<StgValue><ssdm name="imag_arr8_3"/></StgValue>
</bind>
</comp>

<comp id="44" class="1000" name="imag_arr8_5">
<pin_list>
<pin id="45" dir="1" index="0" bw="1" slack="0"/>
</pin_list>
<bind>
<StgValue><ssdm name="imag_arr8_5"/></StgValue>
</bind>
</comp>

<comp id="46" class="1000" name="imag_arr8_7">
<pin_list>
<pin id="47" dir="1" index="0" bw="1" slack="0"/>
</pin_list>
<bind>
<StgValue><ssdm name="imag_arr8_7"/></StgValue>
</bind>
</comp>

<comp id="48" class="1001" name="const_48">
<pin_list>
<pin id="49" dir="1" index="0" bw="1" slack="1"/>
</pin_list>
<bind>
<StgValue><ssdm name=""/></StgValue>
</bind>
</comp>

<comp id="50" class="1001" name="const_50">
<pin_list>
<pin id="51" dir="1" index="0" bw="1" slack="1"/>
</pin_list>
<bind>
<StgValue><ssdm name=""/></StgValue>
</bind>
</comp>

<comp id="52" class="1001" name="const_52">
<pin_list>
<pin id="53" dir="1" index="0" bw="1" slack="0"/>
</pin_list>
<bind>
<StgValue><ssdm name=""/></StgValue>
</bind>
</comp>

<comp id="54" class="1001" name="const_54">
<pin_list>
<pin id="55" dir="1" index="0" bw="1" slack="0"/>
</pin_list>
<bind>
<StgValue><ssdm name="_ssdm_op_PartSelect.i3.i5.i32.i32"/></StgValue>
</bind>
</comp>

<comp id="56" class="1001" name="const_56">
<pin_list>
<pin id="57" dir="1" index="0" bw="1" slack="0"/>
</pin_list>
<bind>
<StgValue><ssdm name=""/></StgValue>
</bind>
</comp>

<comp id="58" class="1001" name="const_58">
<pin_list>
<pin id="59" dir="1" index="0" bw="1" slack="0"/>
</pin_list>
<bind>
<StgValue><ssdm name=""/></StgValue>
</bind>
</comp>

<comp id="60" class="1001" name="const_60">
<pin_list>
<pin id="61" dir="1" index="0" bw="1" slack="0"/>
</pin_list>
<bind>
<StgValue><ssdm name=""/></StgValue>
</bind>
</comp>

<comp id="62" class="1001" name="const_62">
<pin_list>
<pin id="63" dir="1" index="0" bw="1" slack="0"/>
</pin_list>
<bind>
<StgValue><ssdm name="_ssdm_op_PartSelect.i2.i5.i32.i32"/></StgValue>
</bind>
</comp>

<comp id="64" class="1001" name="const_64">
<pin_list>
<pin id="65" dir="1" index="0" bw="1" slack="0"/>
</pin_list>
<bind>
<StgValue><ssdm name=""/></StgValue>
</bind>
</comp>

<comp id="66" class="1001" name="const_66">
<pin_list>
<pin id="67" dir="1" index="0" bw="1" slack="2147483647"/>
</pin_list>
<bind>
<StgValue><ssdm name=""/></StgValue>
</bind>
</comp>

<comp id="68" class="1001" name="const_68">
<pin_list>
<pin id="69" dir="1" index="0" bw="1" slack="2147483647"/>
</pin_list>
<bind>
<StgValue><ssdm name=""/></StgValue>
</bind>
</comp>

<comp id="70" class="1001" name="const_70">
<pin_list>
<pin id="71" dir="1" index="0" bw="1" slack="2147483647"/>
</pin_list>
<bind>
<StgValue><ssdm name=""/></StgValue>
</bind>
</comp>

<comp id="72" class="1001" name="const_72">
<pin_list>
<pin id="73" dir="1" index="0" bw="1" slack="0"/>
</pin_list>
<bind>
<StgValue><ssdm name=""/></StgValue>
</bind>
</comp>

<comp id="74" class="1001" name="const_74">
<pin_list>
<pin id="75" dir="1" index="0" bw="1" slack="2147483647"/>
</pin_list>
<bind>
<StgValue><ssdm name=""/></StgValue>
</bind>
</comp>

<comp id="76" class="1001" name="const_76">
<pin_list>
<pin id="77" dir="1" index="0" bw="1" slack="2147483647"/>
</pin_list>
<bind>
<StgValue><ssdm name=""/></StgValue>
</bind>
</comp>

<comp id="78" class="1001" name="const_78">
<pin_list>
<pin id="79" dir="1" index="0" bw="1" slack="0"/>
</pin_list>
<bind>
<StgValue><ssdm name=""/></StgValue>
</bind>
</comp>

<comp id="80" class="1001" name="const_80">
<pin_list>
<pin id="81" dir="1" index="0" bw="1" slack="0"/>
</pin_list>
<bind>
<StgValue><ssdm name=""/></StgValue>
</bind>
</comp>

<comp id="82" class="1001" name="const_82">
<pin_list>
<pin id="83" dir="1" index="0" bw="1" slack="2147483647"/>
</pin_list>
<bind>
<StgValue><ssdm name="_ssdm_op_SpecLoopTripCount"/></StgValue>
</bind>
</comp>

<comp id="84" class="1001" name="const_84">
<pin_list>
<pin id="85" dir="1" index="0" bw="1" slack="2147483647"/>
</pin_list>
<bind>
<StgValue><ssdm name=""/></StgValue>
</bind>
</comp>

<comp id="86" class="1001" name="const_86">
<pin_list>
<pin id="87" dir="1" index="0" bw="1" slack="2147483647"/>
</pin_list>
<bind>
<StgValue><ssdm name="_ssdm_op_SpecRegionBegin"/></StgValue>
</bind>
</comp>

<comp id="88" class="1001" name="const_88">
<pin_list>
<pin id="89" dir="1" index="0" bw="1" slack="2147483647"/>
</pin_list>
<bind>
<StgValue><ssdm name="p_str6"/></StgValue>
</bind>
</comp>

<comp id="90" class="1001" name="const_90">
<pin_list>
<pin id="91" dir="1" index="0" bw="1" slack="2147483647"/>
</pin_list>
<bind>
<StgValue><ssdm name="_ssdm_op_SpecPipeline"/></StgValue>
</bind>
</comp>

<comp id="92" class="1001" name="const_92">
<pin_list>
<pin id="93" dir="1" index="0" bw="1" slack="2147483647"/>
</pin_list>
<bind>
<StgValue><ssdm name=""/></StgValue>
</bind>
</comp>

<comp id="94" class="1001" name="const_94">
<pin_list>
<pin id="95" dir="1" index="0" bw="1" slack="2147483647"/>
</pin_list>
<bind>
<StgValue><ssdm name=""/></StgValue>
</bind>
</comp>

<comp id="96" class="1001" name="const_96">
<pin_list>
<pin id="97" dir="1" index="0" bw="1" slack="2147483647"/>
</pin_list>
<bind>
<StgValue><ssdm name="p_str"/></StgValue>
</bind>
</comp>

<comp id="98" class="1001" name="const_98">
<pin_list>
<pin id="99" dir="1" index="0" bw="1" slack="2147483647"/>
</pin_list>
<bind>
<StgValue><ssdm name="_ssdm_op_SpecRegionEnd"/></StgValue>
</bind>
</comp>

<comp id="100" class="1004" name="real_arr16_0_addr_gep_fu_100">
<pin_list>
<pin id="101" dir="0" index="0" bw="32" slack="0"/>
<pin id="102" dir="0" index="1" bw="1" slack="0"/>
<pin id="103" dir="0" index="2" bw="3" slack="0"/>
<pin id="104" dir="1" index="3" bw="2" slack="0"/>
</pin_list>
<bind>
<opcode="getelementptr(29) " fcode="getelementptr"/>
<opset="real_arr16_0_addr/2 "/>
</bind>
</comp>

<comp id="107" class="1004" name="grp_access_fu_107">
<pin_list>
<pin id="108" dir="0" index="0" bw="2" slack="0"/>
<pin id="109" dir="0" index="1" bw="32" slack="2147483647"/>
<pin id="110" dir="1" index="2" bw="32" slack="1"/>
</pin_list>
<bind>
<opcode="load(27) " fcode="load"/>
<opset="real_arr16_0_load/2 "/>
</bind>
</comp>

<comp id="112" class="1004" name="real_arr16_1_addr_gep_fu_112">
<pin_list>
<pin id="113" dir="0" index="0" bw="32" slack="0"/>
<pin id="114" dir="0" index="1" bw="1" slack="0"/>
<pin id="115" dir="0" index="2" bw="2" slack="0"/>
<pin id="116" dir="1" index="3" bw="2" slack="0"/>
</pin_list>
<bind>
<opcode="getelementptr(29) " fcode="getelementptr"/>
<opset="real_arr16_1_addr/2 "/>
</bind>
</comp>

<comp id="119" class="1004" name="grp_access_fu_119">
<pin_list>
<pin id="120" dir="0" index="0" bw="2" slack="0"/>
<pin id="121" dir="0" index="1" bw="32" slack="2147483647"/>
<pin id="122" dir="1" index="2" bw="32" slack="1"/>
</pin_list>
<bind>
<opcode="load(27) " fcode="load"/>
<opset="real_arr16_1_load/2 "/>
</bind>
</comp>

<comp id="124" class="1004" name="imag_arr16_0_addr_gep_fu_124">
<pin_list>
<pin id="125" dir="0" index="0" bw="32" slack="0"/>
<pin id="126" dir="0" index="1" bw="1" slack="0"/>
<pin id="127" dir="0" index="2" bw="3" slack="0"/>
<pin id="128" dir="1" index="3" bw="2" slack="0"/>
</pin_list>
<bind>
<opcode="getelementptr(29) " fcode="getelementptr"/>
<opset="imag_arr16_0_addr/2 "/>
</bind>
</comp>

<comp id="131" class="1004" name="grp_access_fu_131">
<pin_list>
<pin id="132" dir="0" index="0" bw="2" slack="0"/>
<pin id="133" dir="0" index="1" bw="32" slack="2147483647"/>
<pin id="134" dir="1" index="2" bw="32" slack="1"/>
</pin_list>
<bind>
<opcode="load(27) " fcode="load"/>
<opset="imag_arr16_0_load/2 "/>
</bind>
</comp>

<comp id="136" class="1004" name="imag_arr16_1_addr_gep_fu_136">
<pin_list>
<pin id="137" dir="0" index="0" bw="32" slack="0"/>
<pin id="138" dir="0" index="1" bw="1" slack="0"/>
<pin id="139" dir="0" index="2" bw="2" slack="0"/>
<pin id="140" dir="1" index="3" bw="2" slack="0"/>
</pin_list>
<bind>
<opcode="getelementptr(29) " fcode="getelementptr"/>
<opset="imag_arr16_1_addr/2 "/>
</bind>
</comp>

<comp id="143" class="1004" name="grp_access_fu_143">
<pin_list>
<pin id="144" dir="0" index="0" bw="2" slack="0"/>
<pin id="145" dir="0" index="1" bw="32" slack="2147483647"/>
<pin id="146" dir="1" index="2" bw="32" slack="1"/>
</pin_list>
<bind>
<opcode="load(27) " fcode="load"/>
<opset="imag_arr16_1_load/2 "/>
</bind>
</comp>

<comp id="148" class="1004" name="real_arr16_2_addr_gep_fu_148">
<pin_list>
<pin id="149" dir="0" index="0" bw="32" slack="0"/>
<pin id="150" dir="0" index="1" bw="1" slack="0"/>
<pin id="151" dir="0" index="2" bw="3" slack="0"/>
<pin id="152" dir="1" index="3" bw="2" slack="0"/>
</pin_list>
<bind>
<opcode="getelementptr(29) " fcode="getelementptr"/>
<opset="real_arr16_2_addr/2 "/>
</bind>
</comp>

<comp id="155" class="1004" name="grp_access_fu_155">
<pin_list>
<pin id="156" dir="0" index="0" bw="2" slack="0"/>
<pin id="157" dir="0" index="1" bw="32" slack="2147483647"/>
<pin id="158" dir="1" index="2" bw="32" slack="1"/>
</pin_list>
<bind>
<opcode="load(27) " fcode="load"/>
<opset="real_arr16_2_load/2 "/>
</bind>
</comp>

<comp id="160" class="1004" name="real_arr16_3_addr_gep_fu_160">
<pin_list>
<pin id="161" dir="0" index="0" bw="32" slack="0"/>
<pin id="162" dir="0" index="1" bw="1" slack="0"/>
<pin id="163" dir="0" index="2" bw="2" slack="0"/>
<pin id="164" dir="1" index="3" bw="2" slack="0"/>
</pin_list>
<bind>
<opcode="getelementptr(29) " fcode="getelementptr"/>
<opset="real_arr16_3_addr/2 "/>
</bind>
</comp>

<comp id="167" class="1004" name="grp_access_fu_167">
<pin_list>
<pin id="168" dir="0" index="0" bw="2" slack="0"/>
<pin id="169" dir="0" index="1" bw="32" slack="2147483647"/>
<pin id="170" dir="1" index="2" bw="32" slack="1"/>
</pin_list>
<bind>
<opcode="load(27) " fcode="load"/>
<opset="real_arr16_3_load/2 "/>
</bind>
</comp>

<comp id="172" class="1004" name="imag_arr16_2_addr_gep_fu_172">
<pin_list>
<pin id="173" dir="0" index="0" bw="32" slack="0"/>
<pin id="174" dir="0" index="1" bw="1" slack="0"/>
<pin id="175" dir="0" index="2" bw="3" slack="0"/>
<pin id="176" dir="1" index="3" bw="2" slack="0"/>
</pin_list>
<bind>
<opcode="getelementptr(29) " fcode="getelementptr"/>
<opset="imag_arr16_2_addr/2 "/>
</bind>
</comp>

<comp id="179" class="1004" name="grp_access_fu_179">
<pin_list>
<pin id="180" dir="0" index="0" bw="2" slack="0"/>
<pin id="181" dir="0" index="1" bw="32" slack="2147483647"/>
<pin id="182" dir="1" index="2" bw="32" slack="1"/>
</pin_list>
<bind>
<opcode="load(27) " fcode="load"/>
<opset="imag_arr16_2_load/2 "/>
</bind>
</comp>

<comp id="184" class="1004" name="imag_arr16_3_addr_gep_fu_184">
<pin_list>
<pin id="185" dir="0" index="0" bw="32" slack="0"/>
<pin id="186" dir="0" index="1" bw="1" slack="0"/>
<pin id="187" dir="0" index="2" bw="2" slack="0"/>
<pin id="188" dir="1" index="3" bw="2" slack="0"/>
</pin_list>
<bind>
<opcode="getelementptr(29) " fcode="getelementptr"/>
<opset="imag_arr16_3_addr/2 "/>
</bind>
</comp>

<comp id="191" class="1004" name="grp_access_fu_191">
<pin_list>
<pin id="192" dir="0" index="0" bw="2" slack="0"/>
<pin id="193" dir="0" index="1" bw="32" slack="2147483647"/>
<pin id="194" dir="1" index="2" bw="32" slack="1"/>
</pin_list>
<bind>
<opcode="load(27) " fcode="load"/>
<opset="imag_arr16_3_load/2 "/>
</bind>
</comp>

<comp id="196" class="1005" name="p_078_0_i_i_reg_196">
<pin_list>
<pin id="197" dir="0" index="0" bw="5" slack="1"/>
<pin id="198" dir="1" index="1" bw="5" slack="1"/>
</pin_list>
<bind>
<opset="p_078_0_i_i (phireg) "/>
</bind>
</comp>

<comp id="200" class="1004" name="p_078_0_i_i_phi_fu_200">
<pin_list>
<pin id="201" dir="0" index="0" bw="1" slack="1"/>
<pin id="202" dir="0" index="1" bw="0" slack="2147483647"/>
<pin id="203" dir="0" index="2" bw="5" slack="0"/>
<pin id="204" dir="0" index="3" bw="0" slack="2147483647"/>
<pin id="205" dir="1" index="4" bw="5" slack="0"/>
</pin_list>
<bind>
<opcode="phi(47) " fcode="phi"/>
<opset="p_078_0_i_i/2 "/>
</bind>
</comp>

<comp id="207" class="1005" name="p_04_0_i_i_reg_207">
<pin_list>
<pin id="208" dir="0" index="0" bw="4" slack="1"/>
<pin id="209" dir="1" index="1" bw="4" slack="1"/>
</pin_list>
<bind>
<opset="p_04_0_i_i (phireg) "/>
</bind>
</comp>

<comp id="211" class="1004" name="p_04_0_i_i_phi_fu_211">
<pin_list>
<pin id="212" dir="0" index="0" bw="1" slack="1"/>
<pin id="213" dir="0" index="1" bw="0" slack="2147483647"/>
<pin id="214" dir="0" index="2" bw="4" slack="0"/>
<pin id="215" dir="0" index="3" bw="0" slack="2147483647"/>
<pin id="216" dir="1" index="4" bw="4" slack="0"/>
</pin_list>
<bind>
<opcode="phi(47) " fcode="phi"/>
<opset="p_04_0_i_i/2 "/>
</bind>
</comp>

<comp id="218" class="1004" name="grp_fu_218">
<pin_list>
<pin id="219" dir="0" index="0" bw="32" slack="1"/>
<pin id="220" dir="0" index="1" bw="32" slack="1"/>
<pin id="221" dir="1" index="2" bw="32" slack="0"/>
</pin_list>
<bind>
<opcode="fadd(9) " fcode="fadd"/>
<opset="tmp_4_i/4 "/>
</bind>
</comp>

<comp id="222" class="1004" name="grp_fu_222">
<pin_list>
<pin id="223" dir="0" index="0" bw="32" slack="1"/>
<pin id="224" dir="0" index="1" bw="32" slack="1"/>
<pin id="225" dir="1" index="2" bw="32" slack="0"/>
</pin_list>
<bind>
<opcode="fadd(9) " fcode="fadd"/>
<opset="tmp_6_i/4 "/>
</bind>
</comp>

<comp id="226" class="1004" name="grp_fu_226">
<pin_list>
<pin id="227" dir="0" index="0" bw="32" slack="1"/>
<pin id="228" dir="0" index="1" bw="32" slack="1"/>
<pin id="229" dir="1" index="2" bw="32" slack="0"/>
</pin_list>
<bind>
<opcode="fadd(9) " fcode="fadd"/>
<opset="tmp_4_i_1/4 "/>
</bind>
</comp>

<comp id="230" class="1004" name="grp_fu_230">
<pin_list>
<pin id="231" dir="0" index="0" bw="32" slack="1"/>
<pin id="232" dir="0" index="1" bw="32" slack="1"/>
<pin id="233" dir="1" index="2" bw="32" slack="0"/>
</pin_list>
<bind>
<opcode="fadd(9) " fcode="fadd"/>
<opset="tmp_6_i_1/4 "/>
</bind>
</comp>

<comp id="234" class="1004" name="exitcond_i_i_fu_234">
<pin_list>
<pin id="235" dir="0" index="0" bw="4" slack="0"/>
<pin id="236" dir="0" index="1" bw="4" slack="0"/>
<pin id="237" dir="1" index="2" bw="1" slack="6"/>
</pin_list>
<bind>
<opcode="icmp(45) " fcode="icmp"/>
<opset="exitcond_i_i/2 "/>
</bind>
</comp>

<comp id="240" class="1004" name="newIndex_fu_240">
<pin_list>
<pin id="241" dir="0" index="0" bw="3" slack="0"/>
<pin id="242" dir="0" index="1" bw="5" slack="0"/>
<pin id="243" dir="0" index="2" bw="3" slack="0"/>
<pin id="244" dir="0" index="3" bw="4" slack="0"/>
<pin id="245" dir="1" index="4" bw="3" slack="0"/>
</pin_list>
<bind>
<opcode="partselect(1002) " fcode="partselect"/>
<opset="newIndex/2 "/>
</bind>
</comp>

<comp id="250" class="1004" name="newIndex1_fu_250">
<pin_list>
<pin id="251" dir="0" index="0" bw="3" slack="0"/>
<pin id="252" dir="1" index="1" bw="64" slack="0"/>
</pin_list>
<bind>
<opcode="zext(34) " fcode="zext"/>
<opset="newIndex1/2 "/>
</bind>
</comp>

<comp id="258" class="1004" name="newIndex2_fu_258">
<pin_list>
<pin id="259" dir="0" index="0" bw="2" slack="0"/>
<pin id="260" dir="0" index="1" bw="5" slack="0"/>
<pin id="261" dir="0" index="2" bw="3" slack="0"/>
<pin id="262" dir="0" index="3" bw="3" slack="0"/>
<pin id="263" dir="1" index="4" bw="2" slack="0"/>
</pin_list>
<bind>
<opcode="partselect(1002) " fcode="partselect"/>
<opset="newIndex2/2 "/>
</bind>
</comp>

<comp id="268" class="1004" name="newIndex3_fu_268">
<pin_list>
<pin id="269" dir="0" index="0" bw="2" slack="0"/>
<pin id="270" dir="1" index="1" bw="64" slack="0"/>
</pin_list>
<bind>
<opcode="zext(34) " fcode="zext"/>
<opset="newIndex3/2 "/>
</bind>
</comp>

<comp id="276" class="1004" name="tmp_1_fu_276">
<pin_list>
<pin id="277" dir="0" index="0" bw="4" slack="0"/>
<pin id="278" dir="1" index="1" bw="3" slack="0"/>
</pin_list>
<bind>
<opcode="trunc(33) " fcode="trunc"/>
<opset="tmp_1/2 "/>
</bind>
</comp>

<comp id="280" class="1004" name="i_V_i_03_t_fu_280">
<pin_list>
<pin id="281" dir="0" index="0" bw="3" slack="0"/>
<pin id="282" dir="0" index="1" bw="3" slack="0"/>
<pin id="283" dir="1" index="2" bw="3" slack="6"/>
</pin_list>
<bind>
<opcode="or(24) " fcode="or"/>
<opset="i_V_i_03_t/2 "/>
</bind>
</comp>

<comp id="286" class="1004" name="i_V_i_1_fu_286">
<pin_list>
<pin id="287" dir="0" index="0" bw="4" slack="0"/>
<pin id="288" dir="0" index="1" bw="3" slack="0"/>
<pin id="289" dir="1" index="2" bw="4" slack="0"/>
</pin_list>
<bind>
<opcode="add(8) " fcode="add"/>
<opset="i_V_i_1/2 "/>
</bind>
</comp>

<comp id="292" class="1004" name="j_V_i_1_fu_292">
<pin_list>
<pin id="293" dir="0" index="0" bw="5" slack="0"/>
<pin id="294" dir="0" index="1" bw="4" slack="0"/>
<pin id="295" dir="1" index="2" bw="5" slack="0"/>
</pin_list>
<bind>
<opcode="add(8) " fcode="add"/>
<opset="j_V_i_1/2 "/>
</bind>
</comp>

<comp id="298" class="1004" name="stg_71_store_fu_298">
<pin_list>
<pin id="299" dir="0" index="0" bw="32" slack="0"/>
<pin id="300" dir="0" index="1" bw="32" slack="0"/>
<pin id="301" dir="1" index="2" bw="0" slack="2147483647"/>
</pin_list>
<bind>
<opcode="store(28) " fcode="store"/>
<opset="stg_71/8 "/>
</bind>
</comp>

<comp id="304" class="1004" name="stg_73_store_fu_304">
<pin_list>
<pin id="305" dir="0" index="0" bw="32" slack="0"/>
<pin id="306" dir="0" index="1" bw="32" slack="0"/>
<pin id="307" dir="1" index="2" bw="0" slack="2147483647"/>
</pin_list>
<bind>
<opcode="store(28) " fcode="store"/>
<opset="stg_73/8 "/>
</bind>
</comp>

<comp id="310" class="1004" name="stg_75_store_fu_310">
<pin_list>
<pin id="311" dir="0" index="0" bw="32" slack="0"/>
<pin id="312" dir="0" index="1" bw="32" slack="0"/>
<pin id="313" dir="1" index="2" bw="0" slack="2147483647"/>
</pin_list>
<bind>
<opcode="store(28) " fcode="store"/>
<opset="stg_75/8 "/>
</bind>
</comp>

<comp id="316" class="1004" name="stg_77_store_fu_316">
<pin_list>
<pin id="317" dir="0" index="0" bw="32" slack="0"/>
<pin id="318" dir="0" index="1" bw="32" slack="0"/>
<pin id="319" dir="1" index="2" bw="0" slack="2147483647"/>
</pin_list>
<bind>
<opcode="store(28) " fcode="store"/>
<opset="stg_77/8 "/>
</bind>
</comp>

<comp id="322" class="1004" name="stg_80_store_fu_322">
<pin_list>
<pin id="323" dir="0" index="0" bw="32" slack="0"/>
<pin id="324" dir="0" index="1" bw="32" slack="0"/>
<pin id="325" dir="1" index="2" bw="0" slack="2147483647"/>
</pin_list>
<bind>
<opcode="store(28) " fcode="store"/>
<opset="stg_80/8 "/>
</bind>
</comp>

<comp id="328" class="1004" name="stg_82_store_fu_328">
<pin_list>
<pin id="329" dir="0" index="0" bw="32" slack="0"/>
<pin id="330" dir="0" index="1" bw="32" slack="0"/>
<pin id="331" dir="1" index="2" bw="0" slack="2147483647"/>
</pin_list>
<bind>
<opcode="store(28) " fcode="store"/>
<opset="stg_82/8 "/>
</bind>
</comp>

<comp id="334" class="1004" name="stg_84_store_fu_334">
<pin_list>
<pin id="335" dir="0" index="0" bw="32" slack="0"/>
<pin id="336" dir="0" index="1" bw="32" slack="0"/>
<pin id="337" dir="1" index="2" bw="0" slack="2147483647"/>
</pin_list>
<bind>
<opcode="store(28) " fcode="store"/>
<opset="stg_84/8 "/>
</bind>
</comp>

<comp id="340" class="1004" name="stg_86_store_fu_340">
<pin_list>
<pin id="341" dir="0" index="0" bw="32" slack="0"/>
<pin id="342" dir="0" index="1" bw="32" slack="0"/>
<pin id="343" dir="1" index="2" bw="0" slack="2147483647"/>
</pin_list>
<bind>
<opcode="store(28) " fcode="store"/>
<opset="stg_86/8 "/>
</bind>
</comp>

<comp id="346" class="1004" name="stg_90_store_fu_346">
<pin_list>
<pin id="347" dir="0" index="0" bw="32" slack="0"/>
<pin id="348" dir="0" index="1" bw="32" slack="0"/>
<pin id="349" dir="1" index="2" bw="0" slack="2147483647"/>
</pin_list>
<bind>
<opcode="store(28) " fcode="store"/>
<opset="stg_90/8 "/>
</bind>
</comp>

<comp id="352" class="1004" name="stg_92_store_fu_352">
<pin_list>
<pin id="353" dir="0" index="0" bw="32" slack="0"/>
<pin id="354" dir="0" index="1" bw="32" slack="0"/>
<pin id="355" dir="1" index="2" bw="0" slack="2147483647"/>
</pin_list>
<bind>
<opcode="store(28) " fcode="store"/>
<opset="stg_92/8 "/>
</bind>
</comp>

<comp id="358" class="1004" name="stg_94_store_fu_358">
<pin_list>
<pin id="359" dir="0" index="0" bw="32" slack="0"/>
<pin id="360" dir="0" index="1" bw="32" slack="0"/>
<pin id="361" dir="1" index="2" bw="0" slack="2147483647"/>
</pin_list>
<bind>
<opcode="store(28) " fcode="store"/>
<opset="stg_94/8 "/>
</bind>
</comp>

<comp id="364" class="1004" name="stg_96_store_fu_364">
<pin_list>
<pin id="365" dir="0" index="0" bw="32" slack="0"/>
<pin id="366" dir="0" index="1" bw="32" slack="0"/>
<pin id="367" dir="1" index="2" bw="0" slack="2147483647"/>
</pin_list>
<bind>
<opcode="store(28) " fcode="store"/>
<opset="stg_96/8 "/>
</bind>
</comp>

<comp id="370" class="1004" name="stg_99_store_fu_370">
<pin_list>
<pin id="371" dir="0" index="0" bw="32" slack="0"/>
<pin id="372" dir="0" index="1" bw="32" slack="0"/>
<pin id="373" dir="1" index="2" bw="0" slack="2147483647"/>
</pin_list>
<bind>
<opcode="store(28) " fcode="store"/>
<opset="stg_99/8 "/>
</bind>
</comp>

<comp id="376" class="1004" name="stg_101_store_fu_376">
<pin_list>
<pin id="377" dir="0" index="0" bw="32" slack="0"/>
<pin id="378" dir="0" index="1" bw="32" slack="0"/>
<pin id="379" dir="1" index="2" bw="0" slack="2147483647"/>
</pin_list>
<bind>
<opcode="store(28) " fcode="store"/>
<opset="stg_101/8 "/>
</bind>
</comp>

<comp id="382" class="1004" name="stg_103_store_fu_382">
<pin_list>
<pin id="383" dir="0" index="0" bw="32" slack="0"/>
<pin id="384" dir="0" index="1" bw="32" slack="0"/>
<pin id="385" dir="1" index="2" bw="0" slack="2147483647"/>
</pin_list>
<bind>
<opcode="store(28) " fcode="store"/>
<opset="stg_103/8 "/>
</bind>
</comp>

<comp id="388" class="1004" name="stg_105_store_fu_388">
<pin_list>
<pin id="389" dir="0" index="0" bw="32" slack="0"/>
<pin id="390" dir="0" index="1" bw="32" slack="0"/>
<pin id="391" dir="1" index="2" bw="0" slack="2147483647"/>
</pin_list>
<bind>
<opcode="store(28) " fcode="store"/>
<opset="stg_105/8 "/>
</bind>
</comp>

<comp id="394" class="1005" name="exitcond_i_i_reg_394">
<pin_list>
<pin id="395" dir="0" index="0" bw="1" slack="6"/>
<pin id="396" dir="1" index="1" bw="1" slack="2147483647"/>
</pin_list>
<bind>
<opset="exitcond_i_i "/>
</bind>
</comp>

<comp id="398" class="1005" name="real_arr16_0_addr_reg_398">
<pin_list>
<pin id="399" dir="0" index="0" bw="2" slack="1"/>
<pin id="400" dir="1" index="1" bw="2" slack="1"/>
</pin_list>
<bind>
<opset="real_arr16_0_addr "/>
</bind>
</comp>

<comp id="403" class="1005" name="real_arr16_1_addr_reg_403">
<pin_list>
<pin id="404" dir="0" index="0" bw="2" slack="1"/>
<pin id="405" dir="1" index="1" bw="2" slack="1"/>
</pin_list>
<bind>
<opset="real_arr16_1_addr "/>
</bind>
</comp>

<comp id="408" class="1005" name="tmp_1_reg_408">
<pin_list>
<pin id="409" dir="0" index="0" bw="3" slack="6"/>
<pin id="410" dir="1" index="1" bw="3" slack="2147483647"/>
</pin_list>
<bind>
<opset="tmp_1 "/>
</bind>
</comp>

<comp id="412" class="1005" name="imag_arr16_0_addr_reg_412">
<pin_list>
<pin id="413" dir="0" index="0" bw="2" slack="1"/>
<pin id="414" dir="1" index="1" bw="2" slack="1"/>
</pin_list>
<bind>
<opset="imag_arr16_0_addr "/>
</bind>
</comp>

<comp id="417" class="1005" name="imag_arr16_1_addr_reg_417">
<pin_list>
<pin id="418" dir="0" index="0" bw="2" slack="1"/>
<pin id="419" dir="1" index="1" bw="2" slack="1"/>
</pin_list>
<bind>
<opset="imag_arr16_1_addr "/>
</bind>
</comp>

<comp id="422" class="1005" name="real_arr16_2_addr_reg_422">
<pin_list>
<pin id="423" dir="0" index="0" bw="2" slack="1"/>
<pin id="424" dir="1" index="1" bw="2" slack="1"/>
</pin_list>
<bind>
<opset="real_arr16_2_addr "/>
</bind>
</comp>

<comp id="427" class="1005" name="real_arr16_3_addr_reg_427">
<pin_list>
<pin id="428" dir="0" index="0" bw="2" slack="1"/>
<pin id="429" dir="1" index="1" bw="2" slack="1"/>
</pin_list>
<bind>
<opset="real_arr16_3_addr "/>
</bind>
</comp>

<comp id="432" class="1005" name="i_V_i_03_t_reg_432">
<pin_list>
<pin id="433" dir="0" index="0" bw="3" slack="6"/>
<pin id="434" dir="1" index="1" bw="3" slack="2147483647"/>
</pin_list>
<bind>
<opset="i_V_i_03_t "/>
</bind>
</comp>

<comp id="436" class="1005" name="imag_arr16_2_addr_reg_436">
<pin_list>
<pin id="437" dir="0" index="0" bw="2" slack="1"/>
<pin id="438" dir="1" index="1" bw="2" slack="1"/>
</pin_list>
<bind>
<opset="imag_arr16_2_addr "/>
</bind>
</comp>

<comp id="441" class="1005" name="imag_arr16_3_addr_reg_441">
<pin_list>
<pin id="442" dir="0" index="0" bw="2" slack="1"/>
<pin id="443" dir="1" index="1" bw="2" slack="1"/>
</pin_list>
<bind>
<opset="imag_arr16_3_addr "/>
</bind>
</comp>

<comp id="446" class="1005" name="i_V_i_1_reg_446">
<pin_list>
<pin id="447" dir="0" index="0" bw="4" slack="0"/>
<pin id="448" dir="1" index="1" bw="4" slack="0"/>
</pin_list>
<bind>
<opset="i_V_i_1 "/>
</bind>
</comp>

<comp id="451" class="1005" name="j_V_i_1_reg_451">
<pin_list>
<pin id="452" dir="0" index="0" bw="5" slack="0"/>
<pin id="453" dir="1" index="1" bw="5" slack="0"/>
</pin_list>
<bind>
<opset="j_V_i_1 "/>
</bind>
</comp>

<comp id="456" class="1005" name="real_arr16_0_load_reg_456">
<pin_list>
<pin id="457" dir="0" index="0" bw="32" slack="1"/>
<pin id="458" dir="1" index="1" bw="32" slack="1"/>
</pin_list>
<bind>
<opset="real_arr16_0_load "/>
</bind>
</comp>

<comp id="461" class="1005" name="real_arr16_1_load_reg_461">
<pin_list>
<pin id="462" dir="0" index="0" bw="32" slack="1"/>
<pin id="463" dir="1" index="1" bw="32" slack="1"/>
</pin_list>
<bind>
<opset="real_arr16_1_load "/>
</bind>
</comp>

<comp id="466" class="1005" name="imag_arr16_0_load_reg_466">
<pin_list>
<pin id="467" dir="0" index="0" bw="32" slack="1"/>
<pin id="468" dir="1" index="1" bw="32" slack="1"/>
</pin_list>
<bind>
<opset="imag_arr16_0_load "/>
</bind>
</comp>

<comp id="471" class="1005" name="imag_arr16_1_load_reg_471">
<pin_list>
<pin id="472" dir="0" index="0" bw="32" slack="1"/>
<pin id="473" dir="1" index="1" bw="32" slack="1"/>
</pin_list>
<bind>
<opset="imag_arr16_1_load "/>
</bind>
</comp>

<comp id="476" class="1005" name="real_arr16_2_load_reg_476">
<pin_list>
<pin id="477" dir="0" index="0" bw="32" slack="1"/>
<pin id="478" dir="1" index="1" bw="32" slack="1"/>
</pin_list>
<bind>
<opset="real_arr16_2_load "/>
</bind>
</comp>

<comp id="481" class="1005" name="real_arr16_3_load_reg_481">
<pin_list>
<pin id="482" dir="0" index="0" bw="32" slack="1"/>
<pin id="483" dir="1" index="1" bw="32" slack="1"/>
</pin_list>
<bind>
<opset="real_arr16_3_load "/>
</bind>
</comp>

<comp id="486" class="1005" name="imag_arr16_2_load_reg_486">
<pin_list>
<pin id="487" dir="0" index="0" bw="32" slack="1"/>
<pin id="488" dir="1" index="1" bw="32" slack="1"/>
</pin_list>
<bind>
<opset="imag_arr16_2_load "/>
</bind>
</comp>

<comp id="491" class="1005" name="imag_arr16_3_load_reg_491">
<pin_list>
<pin id="492" dir="0" index="0" bw="32" slack="1"/>
<pin id="493" dir="1" index="1" bw="32" slack="1"/>
</pin_list>
<bind>
<opset="imag_arr16_3_load "/>
</bind>
</comp>

</comp_list>

<net_list>
<net id="105"><net_src comp="20" pin="0"/><net_sink comp="100" pin=0"/></net>

<net id="106"><net_src comp="60" pin="0"/><net_sink comp="100" pin=1"/></net>

<net id="111"><net_src comp="100" pin="3"/><net_sink comp="107" pin=0"/></net>

<net id="117"><net_src comp="22" pin="0"/><net_sink comp="112" pin=0"/></net>

<net id="118"><net_src comp="60" pin="0"/><net_sink comp="112" pin=1"/></net>

<net id="123"><net_src comp="112" pin="3"/><net_sink comp="119" pin=0"/></net>

<net id="129"><net_src comp="14" pin="0"/><net_sink comp="124" pin=0"/></net>

<net id="130"><net_src comp="60" pin="0"/><net_sink comp="124" pin=1"/></net>

<net id="135"><net_src comp="124" pin="3"/><net_sink comp="131" pin=0"/></net>

<net id="141"><net_src comp="16" pin="0"/><net_sink comp="136" pin=0"/></net>

<net id="142"><net_src comp="60" pin="0"/><net_sink comp="136" pin=1"/></net>

<net id="147"><net_src comp="136" pin="3"/><net_sink comp="143" pin=0"/></net>

<net id="153"><net_src comp="8" pin="0"/><net_sink comp="148" pin=0"/></net>

<net id="154"><net_src comp="60" pin="0"/><net_sink comp="148" pin=1"/></net>

<net id="159"><net_src comp="148" pin="3"/><net_sink comp="155" pin=0"/></net>

<net id="165"><net_src comp="10" pin="0"/><net_sink comp="160" pin=0"/></net>

<net id="166"><net_src comp="60" pin="0"/><net_sink comp="160" pin=1"/></net>

<net id="171"><net_src comp="160" pin="3"/><net_sink comp="167" pin=0"/></net>

<net id="177"><net_src comp="2" pin="0"/><net_sink comp="172" pin=0"/></net>

<net id="178"><net_src comp="60" pin="0"/><net_sink comp="172" pin=1"/></net>

<net id="183"><net_src comp="172" pin="3"/><net_sink comp="179" pin=0"/></net>

<net id="189"><net_src comp="4" pin="0"/><net_sink comp="184" pin=0"/></net>

<net id="190"><net_src comp="60" pin="0"/><net_sink comp="184" pin=1"/></net>

<net id="195"><net_src comp="184" pin="3"/><net_sink comp="191" pin=0"/></net>

<net id="199"><net_src comp="48" pin="0"/><net_sink comp="196" pin=0"/></net>

<net id="206"><net_src comp="196" pin="1"/><net_sink comp="200" pin=0"/></net>

<net id="210"><net_src comp="50" pin="0"/><net_sink comp="207" pin=0"/></net>

<net id="217"><net_src comp="207" pin="1"/><net_sink comp="211" pin=0"/></net>

<net id="238"><net_src comp="211" pin="4"/><net_sink comp="234" pin=0"/></net>

<net id="239"><net_src comp="52" pin="0"/><net_sink comp="234" pin=1"/></net>

<net id="246"><net_src comp="54" pin="0"/><net_sink comp="240" pin=0"/></net>

<net id="247"><net_src comp="200" pin="4"/><net_sink comp="240" pin=1"/></net>

<net id="248"><net_src comp="56" pin="0"/><net_sink comp="240" pin=2"/></net>

<net id="249"><net_src comp="58" pin="0"/><net_sink comp="240" pin=3"/></net>

<net id="253"><net_src comp="240" pin="4"/><net_sink comp="250" pin=0"/></net>

<net id="254"><net_src comp="250" pin="1"/><net_sink comp="100" pin=2"/></net>

<net id="255"><net_src comp="250" pin="1"/><net_sink comp="124" pin=2"/></net>

<net id="256"><net_src comp="250" pin="1"/><net_sink comp="148" pin=2"/></net>

<net id="257"><net_src comp="250" pin="1"/><net_sink comp="172" pin=2"/></net>

<net id="264"><net_src comp="62" pin="0"/><net_sink comp="258" pin=0"/></net>

<net id="265"><net_src comp="200" pin="4"/><net_sink comp="258" pin=1"/></net>

<net id="266"><net_src comp="56" pin="0"/><net_sink comp="258" pin=2"/></net>

<net id="267"><net_src comp="64" pin="0"/><net_sink comp="258" pin=3"/></net>

<net id="271"><net_src comp="258" pin="4"/><net_sink comp="268" pin=0"/></net>

<net id="272"><net_src comp="268" pin="1"/><net_sink comp="112" pin=2"/></net>

<net id="273"><net_src comp="268" pin="1"/><net_sink comp="136" pin=2"/></net>

<net id="274"><net_src comp="268" pin="1"/><net_sink comp="160" pin=2"/></net>

<net id="275"><net_src comp="268" pin="1"/><net_sink comp="184" pin=2"/></net>

<net id="279"><net_src comp="211" pin="4"/><net_sink comp="276" pin=0"/></net>

<net id="284"><net_src comp="276" pin="1"/><net_sink comp="280" pin=0"/></net>

<net id="285"><net_src comp="72" pin="0"/><net_sink comp="280" pin=1"/></net>

<net id="290"><net_src comp="211" pin="4"/><net_sink comp="286" pin=0"/></net>

<net id="291"><net_src comp="78" pin="0"/><net_sink comp="286" pin=1"/></net>

<net id="296"><net_src comp="200" pin="4"/><net_sink comp="292" pin=0"/></net>

<net id="297"><net_src comp="80" pin="0"/><net_sink comp="292" pin=1"/></net>

<net id="302"><net_src comp="218" pin="2"/><net_sink comp="298" pin=0"/></net>

<net id="303"><net_src comp="26" pin="0"/><net_sink comp="298" pin=1"/></net>

<net id="308"><net_src comp="218" pin="2"/><net_sink comp="304" pin=0"/></net>

<net id="309"><net_src comp="24" pin="0"/><net_sink comp="304" pin=1"/></net>

<net id="314"><net_src comp="218" pin="2"/><net_sink comp="310" pin=0"/></net>

<net id="315"><net_src comp="18" pin="0"/><net_sink comp="310" pin=1"/></net>

<net id="320"><net_src comp="218" pin="2"/><net_sink comp="316" pin=0"/></net>

<net id="321"><net_src comp="28" pin="0"/><net_sink comp="316" pin=1"/></net>

<net id="326"><net_src comp="222" pin="2"/><net_sink comp="322" pin=0"/></net>

<net id="327"><net_src comp="32" pin="0"/><net_sink comp="322" pin=1"/></net>

<net id="332"><net_src comp="222" pin="2"/><net_sink comp="328" pin=0"/></net>

<net id="333"><net_src comp="30" pin="0"/><net_sink comp="328" pin=1"/></net>

<net id="338"><net_src comp="222" pin="2"/><net_sink comp="334" pin=0"/></net>

<net id="339"><net_src comp="12" pin="0"/><net_sink comp="334" pin=1"/></net>

<net id="344"><net_src comp="222" pin="2"/><net_sink comp="340" pin=0"/></net>

<net id="345"><net_src comp="34" pin="0"/><net_sink comp="340" pin=1"/></net>

<net id="350"><net_src comp="226" pin="2"/><net_sink comp="346" pin=0"/></net>

<net id="351"><net_src comp="38" pin="0"/><net_sink comp="346" pin=1"/></net>

<net id="356"><net_src comp="226" pin="2"/><net_sink comp="352" pin=0"/></net>

<net id="357"><net_src comp="36" pin="0"/><net_sink comp="352" pin=1"/></net>

<net id="362"><net_src comp="226" pin="2"/><net_sink comp="358" pin=0"/></net>

<net id="363"><net_src comp="6" pin="0"/><net_sink comp="358" pin=1"/></net>

<net id="368"><net_src comp="226" pin="2"/><net_sink comp="364" pin=0"/></net>

<net id="369"><net_src comp="40" pin="0"/><net_sink comp="364" pin=1"/></net>

<net id="374"><net_src comp="230" pin="2"/><net_sink comp="370" pin=0"/></net>

<net id="375"><net_src comp="44" pin="0"/><net_sink comp="370" pin=1"/></net>

<net id="380"><net_src comp="230" pin="2"/><net_sink comp="376" pin=0"/></net>

<net id="381"><net_src comp="42" pin="0"/><net_sink comp="376" pin=1"/></net>

<net id="386"><net_src comp="230" pin="2"/><net_sink comp="382" pin=0"/></net>

<net id="387"><net_src comp="0" pin="0"/><net_sink comp="382" pin=1"/></net>

<net id="392"><net_src comp="230" pin="2"/><net_sink comp="388" pin=0"/></net>

<net id="393"><net_src comp="46" pin="0"/><net_sink comp="388" pin=1"/></net>

<net id="397"><net_src comp="234" pin="2"/><net_sink comp="394" pin=0"/></net>

<net id="401"><net_src comp="100" pin="3"/><net_sink comp="398" pin=0"/></net>

<net id="402"><net_src comp="398" pin="1"/><net_sink comp="107" pin=0"/></net>

<net id="406"><net_src comp="112" pin="3"/><net_sink comp="403" pin=0"/></net>

<net id="407"><net_src comp="403" pin="1"/><net_sink comp="119" pin=0"/></net>

<net id="411"><net_src comp="276" pin="1"/><net_sink comp="408" pin=0"/></net>

<net id="415"><net_src comp="124" pin="3"/><net_sink comp="412" pin=0"/></net>

<net id="416"><net_src comp="412" pin="1"/><net_sink comp="131" pin=0"/></net>

<net id="420"><net_src comp="136" pin="3"/><net_sink comp="417" pin=0"/></net>

<net id="421"><net_src comp="417" pin="1"/><net_sink comp="143" pin=0"/></net>

<net id="425"><net_src comp="148" pin="3"/><net_sink comp="422" pin=0"/></net>

<net id="426"><net_src comp="422" pin="1"/><net_sink comp="155" pin=0"/></net>

<net id="430"><net_src comp="160" pin="3"/><net_sink comp="427" pin=0"/></net>

<net id="431"><net_src comp="427" pin="1"/><net_sink comp="167" pin=0"/></net>

<net id="435"><net_src comp="280" pin="2"/><net_sink comp="432" pin=0"/></net>

<net id="439"><net_src comp="172" pin="3"/><net_sink comp="436" pin=0"/></net>

<net id="440"><net_src comp="436" pin="1"/><net_sink comp="179" pin=0"/></net>

<net id="444"><net_src comp="184" pin="3"/><net_sink comp="441" pin=0"/></net>

<net id="445"><net_src comp="441" pin="1"/><net_sink comp="191" pin=0"/></net>

<net id="449"><net_src comp="286" pin="2"/><net_sink comp="446" pin=0"/></net>

<net id="450"><net_src comp="446" pin="1"/><net_sink comp="211" pin=2"/></net>

<net id="454"><net_src comp="292" pin="2"/><net_sink comp="451" pin=0"/></net>

<net id="455"><net_src comp="451" pin="1"/><net_sink comp="200" pin=2"/></net>

<net id="459"><net_src comp="107" pin="2"/><net_sink comp="456" pin=0"/></net>

<net id="460"><net_src comp="456" pin="1"/><net_sink comp="218" pin=0"/></net>

<net id="464"><net_src comp="119" pin="2"/><net_sink comp="461" pin=0"/></net>

<net id="465"><net_src comp="461" pin="1"/><net_sink comp="218" pin=1"/></net>

<net id="469"><net_src comp="131" pin="2"/><net_sink comp="466" pin=0"/></net>

<net id="470"><net_src comp="466" pin="1"/><net_sink comp="222" pin=0"/></net>

<net id="474"><net_src comp="143" pin="2"/><net_sink comp="471" pin=0"/></net>

<net id="475"><net_src comp="471" pin="1"/><net_sink comp="222" pin=1"/></net>

<net id="479"><net_src comp="155" pin="2"/><net_sink comp="476" pin=0"/></net>

<net id="480"><net_src comp="476" pin="1"/><net_sink comp="226" pin=0"/></net>

<net id="484"><net_src comp="167" pin="2"/><net_sink comp="481" pin=0"/></net>

<net id="485"><net_src comp="481" pin="1"/><net_sink comp="226" pin=1"/></net>

<net id="489"><net_src comp="179" pin="2"/><net_sink comp="486" pin=0"/></net>

<net id="490"><net_src comp="486" pin="1"/><net_sink comp="230" pin=0"/></net>

<net id="494"><net_src comp="191" pin="2"/><net_sink comp="491" pin=0"/></net>

<net id="495"><net_src comp="491" pin="1"/><net_sink comp="230" pin=1"/></net>

</net_list>

</model> 
---------------- Datapath Model END ------------------

* FSMD analyzer results:
  - Output states:
	Port: imag_arr8_1 | {}
	Port: imag_arr16_2 | {}
	Port: imag_arr16_3 | {}
	Port: real_arr8_1 | {}
	Port: real_arr16_2 | {}
	Port: real_arr16_3 | {}
	Port: imag_arr8_0 | {}
	Port: imag_arr16_0 | {}
	Port: imag_arr16_1 | {}
	Port: real_arr8_0 | {}
	Port: real_arr16_0 | {}
	Port: real_arr16_1 | {}
	Port: real_arr8_2 | {}
	Port: real_arr8_4 | {}
	Port: real_arr8_6 | {}
	Port: imag_arr8_2 | {}
	Port: imag_arr8_4 | {}
	Port: imag_arr8_6 | {}
	Port: real_arr8_3 | {}
	Port: real_arr8_5 | {}
	Port: real_arr8_7 | {}
	Port: imag_arr8_3 | {}
	Port: imag_arr8_5 | {}
	Port: imag_arr8_7 | {}
  - Chain level:
	State 1
	State 2
		exitcond_i_i : 1
		stg_14 : 2
		newIndex : 1
		newIndex1 : 2
		real_arr16_0_addr : 3
		real_arr16_0_load : 4
		newIndex2 : 1
		newIndex3 : 2
		real_arr16_1_addr : 3
		real_arr16_1_load : 4
		tmp_1 : 1
		stg_24 : 2
		imag_arr16_0_addr : 3
		imag_arr16_0_load : 4
		imag_arr16_1_addr : 3
		imag_arr16_1_load : 4
		stg_29 : 2
		real_arr16_2_addr : 3
		real_arr16_2_load : 4
		real_arr16_3_addr : 3
		real_arr16_3_load : 4
		i_V_i_03_t : 2
		stg_35 : 2
		imag_arr16_2_addr : 3
		imag_arr16_2_load : 4
		imag_arr16_3_addr : 3
		imag_arr16_3_load : 4
		stg_40 : 2
		i_V_i_1 : 1
		j_V_i_1 : 1
	State 3
	State 4
	State 5
	State 6
	State 7
	State 8
		stg_71 : 1
		stg_73 : 1
		stg_75 : 1
		stg_77 : 1
		stg_80 : 1
		stg_82 : 1
		stg_84 : 1
		stg_86 : 1
		empty : 1
		stg_90 : 1
		stg_92 : 1
		stg_94 : 1
		stg_96 : 1
		stg_99 : 1
		stg_101 : 1
		stg_103 : 1
		stg_105 : 1
	State 9


============================================================
+ Verbose Summary: Datapath Resource usage 
============================================================

* Functional unit list:
|----------|---------------------|---------|---------|---------|
| Operation|   Functional Unit   |  DSP48E |    FF   |   LUT   |
|----------|---------------------|---------|---------|---------|
|          |      grp_fu_218     |    2    |   205   |   390   |
|   fadd   |      grp_fu_222     |    2    |   205   |   390   |
|          |      grp_fu_226     |    2    |   205   |   390   |
|          |      grp_fu_230     |    2    |   205   |   390   |
|----------|---------------------|---------|---------|---------|
|    add   |    i_V_i_1_fu_286   |    0    |    0    |    4    |
|          |    j_V_i_1_fu_292   |    0    |    0    |    5    |
|----------|---------------------|---------|---------|---------|
|   icmp   | exitcond_i_i_fu_234 |    0    |    0    |    2    |
|----------|---------------------|---------|---------|---------|
|partselect|   newIndex_fu_240   |    0    |    0    |    0    |
|          |   newIndex2_fu_258  |    0    |    0    |    0    |
|----------|---------------------|---------|---------|---------|
|   zext   |   newIndex1_fu_250  |    0    |    0    |    0    |
|          |   newIndex3_fu_268  |    0    |    0    |    0    |
|----------|---------------------|---------|---------|---------|
|   trunc  |     tmp_1_fu_276    |    0    |    0    |    0    |
|----------|---------------------|---------|---------|---------|
|    or    |  i_V_i_03_t_fu_280  |    0    |    0    |    0    |
|----------|---------------------|---------|---------|---------|
|   Total  |                     |    8    |   820   |   1571  |
|----------|---------------------|---------|---------|---------|

Memories:
N/A

* Register list:
+-------------------------+--------+
|                         |   FF   |
+-------------------------+--------+
|   exitcond_i_i_reg_394  |    1   |
|    i_V_i_03_t_reg_432   |    3   |
|     i_V_i_1_reg_446     |    4   |
|imag_arr16_0_addr_reg_412|    2   |
|imag_arr16_0_load_reg_466|   32   |
|imag_arr16_1_addr_reg_417|    2   |
|imag_arr16_1_load_reg_471|   32   |
|imag_arr16_2_addr_reg_436|    2   |
|imag_arr16_2_load_reg_486|   32   |
|imag_arr16_3_addr_reg_441|    2   |
|imag_arr16_3_load_reg_491|   32   |
|     j_V_i_1_reg_451     |    5   |
|    p_04_0_i_i_reg_207   |    4   |
|   p_078_0_i_i_reg_196   |    5   |
|real_arr16_0_addr_reg_398|    2   |
|real_arr16_0_load_reg_456|   32   |
|real_arr16_1_addr_reg_403|    2   |
|real_arr16_1_load_reg_461|   32   |
|real_arr16_2_addr_reg_422|    2   |
|real_arr16_2_load_reg_476|   32   |
|real_arr16_3_addr_reg_427|    2   |
|real_arr16_3_load_reg_481|   32   |
|      tmp_1_reg_408      |    3   |
+-------------------------+--------+
|          Total          |   297  |
+-------------------------+--------+

* Multiplexer (MUX) list: 
|-------------------|------|------|------|--------||---------||---------|
|        Comp       |  Pin | Size |  BW  | S x BW ||  Delay  ||   LUT   |
|-------------------|------|------|------|--------||---------||---------|
| grp_access_fu_107 |  p0  |   2  |   2  |    4   ||    2    |
| grp_access_fu_119 |  p0  |   2  |   2  |    4   ||    2    |
| grp_access_fu_131 |  p0  |   2  |   2  |    4   ||    2    |
| grp_access_fu_143 |  p0  |   2  |   2  |    4   ||    2    |
| grp_access_fu_155 |  p0  |   2  |   2  |    4   ||    2    |
| grp_access_fu_167 |  p0  |   2  |   2  |    4   ||    2    |
| grp_access_fu_179 |  p0  |   2  |   2  |    4   ||    2    |
| grp_access_fu_191 |  p0  |   2  |   2  |    4   ||    2    |
|-------------------|------|------|------|--------||---------||---------|
|       Total       |      |      |      |   32   ||  12.568 ||    16   |
|-------------------|------|------|------|--------||---------||---------|



* Summary:
+-----------+--------+--------+--------+--------+
|           | DSP48E |  Delay |   FF   |   LUT  |
+-----------+--------+--------+--------+--------+
|  Function |    8   |    -   |   820  |  1571  |
|   Memory  |    -   |    -   |    -   |    -   |
|Multiplexer|    -   |   12   |    -   |   16   |
|  Register |    -   |    -   |   297  |    -   |
+-----------+--------+--------+--------+--------+
|   Total   |    8   |   12   |  1117  |  1587  |
+-----------+--------+--------+--------+--------+
