==============================================================
File generated by Vivado(TM) HLS - High-Level Synthesis from C, C++ and SystemC
Version: 2015.4
Copyright (C) 2015 Xilinx Inc. All rights reserved.

==============================================================

@I [SYN-201] Setting up clock 'default' with a period of 10ns.
@I [HLS-10] Setting target device to 'xc7z020clg484-1'
@I [HLS-10] Analyzing design file 'fft.cpp' ... 
@I [HLS-10] Validating synthesis directives ...
@I [HLS-10] Starting code transformations ...
@I [HLS-10] Checking synthesizability ...
@I [XFORM-602] Inlining function 'reverse_bits' into 'bit_reverse' (fft.cpp:32) automatically.
@W [XFORM-561] Updating loop lower bound from 0 to 1 for loop 'butterfly' (fft.cpp:89:1) in function 'fft'.
@W [XFORM-561] Updating loop lower bound from 0 to 10 for loop 'stages' (fft.cpp:78:1) in function 'fft'.
@I [XFORM-602] Inlining function 'reverse_bits' into 'bit_reverse' (fft.cpp:32) automatically.
@I [HLS-111] Elapsed time: 5.881 seconds; current memory usage: 81.6 MB.
@I [HLS-10] Starting hardware synthesis ...
@I [HLS-10] Synthesizing 'fft' ...
@I [HLS-10] ----------------------------------------------------------------
@I [HLS-10] -- Scheduling module 'fft_bit_reverse' 
@I [HLS-10] ----------------------------------------------------------------
@I [SCHED-11] Starting scheduling ...
@I [SCHED-11] Finished scheduling.
@I [HLS-111] Elapsed time: 0.031 seconds; current memory usage: 83 MB.
@I [HLS-10] ----------------------------------------------------------------
@I [HLS-10] -- Exploring micro-architecture for module 'fft_bit_reverse' 
@I [HLS-10] ----------------------------------------------------------------
@I [BIND-100] Starting micro-architecture generation ...
@I [BIND-101] Performing variable lifetime analysis.
@I [BIND-101] Exploring resource sharing.
@I [BIND-101] Binding ...
@I [BIND-100] Finished micro-architecture generation.
@I [HLS-111] Elapsed time: 0.047 seconds; current memory usage: 83 MB.
@I [HLS-10] ----------------------------------------------------------------
@I [HLS-10] -- Scheduling module 'fft' 
@I [HLS-10] ----------------------------------------------------------------
@I [SCHED-11] Starting scheduling ...
@I [SCHED-11] Finished scheduling.
@I [HLS-111] Elapsed time: 0.125 seconds; current memory usage: 83.8 MB.
@I [HLS-10] ----------------------------------------------------------------
@I [HLS-10] -- Exploring micro-architecture for module 'fft' 
@I [HLS-10] ----------------------------------------------------------------
@I [BIND-100] Starting micro-architecture generation ...
@I [BIND-101] Performing variable lifetime analysis.
@I [BIND-101] Exploring resource sharing.
@I [BIND-101] Binding ...
@I [BIND-100] Finished micro-architecture generation.
@I [HLS-111] Elapsed time: 0.062 seconds; current memory usage: 83.8 MB.
@I [HLS-10] ----------------------------------------------------------------
@I [HLS-10] -- Generating RTL for module 'fft_bit_reverse' 
@I [HLS-10] ----------------------------------------------------------------
@I [RTGEN-100] Finished creating RTL model for 'fft_bit_reverse'.
@I [HLS-111] Elapsed time: 0.125 seconds; current memory usage: 83.8 MB.
@I [HLS-10] ----------------------------------------------------------------
@I [HLS-10] -- Generating RTL for module 'fft' 
@I [HLS-10] ----------------------------------------------------------------
@I [RTGEN-500] Setting interface mode on port 'fft/X_R' to 'ap_memory'.
@I [RTGEN-500] Setting interface mode on port 'fft/X_I' to 'ap_memory'.
@I [RTGEN-500] Setting interface mode on function 'fft' to 'ap_ctrl_hs'.
@I [RTGEN-100] Generating core module 'fft_faddfsub_32ns_32ns_32_5_full_dsp': 2 instance(s).
@I [RTGEN-100] Generating core module 'fft_fmul_32ns_32ns_32_4_max_dsp': 4 instance(s).
@I [RTGEN-100] Finished creating RTL model for 'fft'.
@I [HLS-111] Elapsed time: 0.25 seconds; current memory usage: 84 MB.
@I [RTMG-279] Implementing memory 'fft_W_real_rom' using auto ROMs.
@I [RTMG-279] Implementing memory 'fft_W_imag_rom' using auto ROMs.
@I [HLS-10] Finished generating all RTL models.
@I [WSYSC-301] Generating RTL SystemC for 'fft'.
@I [WVHDL-304] Generating RTL VHDL for 'fft'.
@I [WVLOG-307] Generating RTL Verilog for 'fft'.
@I [HLS-112] Total elapsed time: 7.746 seconds; peak memory usage: 84 MB.
