

================================================================
== Vivado HLS Report for 'dft_loop_flow256'
================================================================
* Date:           Tue Nov 01 19:21:31 2016

* Version:        2015.4 (Build 1412921 on Wed Nov 18 09:58:55 AM 2015)
* Project:        dft
* Solution:       dft_best2
* Product family: zynq
* Target device:  xc7z020clg484-1


================================================================
== Performance Estimates
================================================================
+ Timing (ns): 
    * Summary: 
    +--------+-------+----------+------------+
    |  Clock | Target| Estimated| Uncertainty|
    +--------+-------+----------+------------+
    |ap_clk  |  10.00|      7.87|        1.25|
    +--------+-------+----------+------------+

+ Latency (clock cycles): 
    * Summary: 
    +-----+-----+-----+-----+---------+
    |  Latency  |  Interval | Pipeline|
    | min | max | min | max |   Type  |
    +-----+-----+-----+-----+---------+
    |   77|   77|   77|   77|   none  |
    +-----+-----+-----+-----+---------+

    + Detail: 
        * Instance: 
        N/A

        * Loop: 
        +----------+-----+-----+----------+-----------+-----------+------+----------+
        |          |  Latency  | Iteration|  Initiation Interval  | Trip |          |
        | Loop Name| min | max |  Latency |  achieved |   target  | Count| Pipelined|
        +----------+-----+-----+----------+-----------+-----------+------+----------+
        |- Loop 1  |   75|   75|        13|          1|          1|    64|    yes   |
        +----------+-----+-----+----------+-----------+-----------+------+----------+



================================================================
== Utilization Estimates
================================================================
* Summary: 
+-----------------+---------+-------+--------+-------+
|       Name      | BRAM_18K| DSP48E|   FF   |  LUT  |
+-----------------+---------+-------+--------+-------+
|DSP              |        -|      -|       -|      -|
|Expression       |        -|      4|       0|   1889|
|FIFO             |        -|      -|       -|      -|
|Instance         |        -|     64|    3928|  10560|
|Memory           |        0|      -|    8192|    256|
|Multiplexer      |        -|      -|       -|     11|
|Register         |        -|      -|    1653|      8|
+-----------------+---------+-------+--------+-------+
|Total            |        0|     68|   13773|  12724|
+-----------------+---------+-------+--------+-------+
|Available        |      280|    220|  106400|  53200|
+-----------------+---------+-------+--------+-------+
|Utilization (%)  |        0|     30|      12|     23|
+-----------------+---------+-------+--------+-------+

+ Detail: 
    * Instance: 
    +-------------------------------------+----------------------------------+---------+-------+-----+-----+
    |               Instance              |              Module              | BRAM_18K| DSP48E|  FF | LUT |
    +-------------------------------------+----------------------------------+---------+-------+-----+-----+
    |dft_fadd_32ns_32ns_32_5_full_dsp_U1  |dft_fadd_32ns_32ns_32_5_full_dsp  |        0|      2|  205|  390|
    |dft_fadd_32ns_32ns_32_5_full_dsp_U3  |dft_fadd_32ns_32ns_32_5_full_dsp  |        0|      2|  205|  390|
    |dft_fadd_32ns_32ns_32_5_full_dsp_U5  |dft_fadd_32ns_32ns_32_5_full_dsp  |        0|      2|  205|  390|
    |dft_fadd_32ns_32ns_32_5_full_dsp_U7  |dft_fadd_32ns_32ns_32_5_full_dsp  |        0|      2|  205|  390|
    |dft_fmul_32ns_32ns_32_4_max_dsp_U8   |dft_fmul_32ns_32ns_32_4_max_dsp   |        0|      3|  143|  321|
    |dft_fmul_32ns_32ns_32_4_max_dsp_U9   |dft_fmul_32ns_32ns_32_4_max_dsp   |        0|      3|  143|  321|
    |dft_fmul_32ns_32ns_32_4_max_dsp_U10  |dft_fmul_32ns_32ns_32_4_max_dsp   |        0|      3|  143|  321|
    |dft_fmul_32ns_32ns_32_4_max_dsp_U11  |dft_fmul_32ns_32ns_32_4_max_dsp   |        0|      3|  143|  321|
    |dft_fmul_32ns_32ns_32_4_max_dsp_U12  |dft_fmul_32ns_32ns_32_4_max_dsp   |        0|      3|  143|  321|
    |dft_fmul_32ns_32ns_32_4_max_dsp_U13  |dft_fmul_32ns_32ns_32_4_max_dsp   |        0|      3|  143|  321|
    |dft_fmul_32ns_32ns_32_4_max_dsp_U14  |dft_fmul_32ns_32ns_32_4_max_dsp   |        0|      3|  143|  321|
    |dft_fmul_32ns_32ns_32_4_max_dsp_U15  |dft_fmul_32ns_32ns_32_4_max_dsp   |        0|      3|  143|  321|
    |dft_fmul_32ns_32ns_32_4_max_dsp_U16  |dft_fmul_32ns_32ns_32_4_max_dsp   |        0|      3|  143|  321|
    |dft_fmul_32ns_32ns_32_4_max_dsp_U17  |dft_fmul_32ns_32ns_32_4_max_dsp   |        0|      3|  143|  321|
    |dft_fmul_32ns_32ns_32_4_max_dsp_U18  |dft_fmul_32ns_32ns_32_4_max_dsp   |        0|      3|  143|  321|
    |dft_fmul_32ns_32ns_32_4_max_dsp_U19  |dft_fmul_32ns_32ns_32_4_max_dsp   |        0|      3|  143|  321|
    |dft_fmul_32ns_32ns_32_4_max_dsp_U20  |dft_fmul_32ns_32ns_32_4_max_dsp   |        0|      3|  143|  321|
    |dft_fmul_32ns_32ns_32_4_max_dsp_U21  |dft_fmul_32ns_32ns_32_4_max_dsp   |        0|      3|  143|  321|
    |dft_fmul_32ns_32ns_32_4_max_dsp_U22  |dft_fmul_32ns_32ns_32_4_max_dsp   |        0|      3|  143|  321|
    |dft_fmul_32ns_32ns_32_4_max_dsp_U23  |dft_fmul_32ns_32ns_32_4_max_dsp   |        0|      3|  143|  321|
    |dft_fsub_32ns_32ns_32_5_full_dsp_U0  |dft_fsub_32ns_32ns_32_5_full_dsp  |        0|      2|  205|  390|
    |dft_fsub_32ns_32ns_32_5_full_dsp_U2  |dft_fsub_32ns_32ns_32_5_full_dsp  |        0|      2|  205|  390|
    |dft_fsub_32ns_32ns_32_5_full_dsp_U4  |dft_fsub_32ns_32ns_32_5_full_dsp  |        0|      2|  205|  390|
    |dft_fsub_32ns_32ns_32_5_full_dsp_U6  |dft_fsub_32ns_32ns_32_5_full_dsp  |        0|      2|  205|  390|
    |dft_mux_32to1_sel5_32_1_U24          |dft_mux_32to1_sel5_32_1           |        0|      0|    0|  288|
    |dft_mux_32to1_sel5_32_1_U25          |dft_mux_32to1_sel5_32_1           |        0|      0|    0|  288|
    |dft_mux_32to1_sel5_32_1_U26          |dft_mux_32to1_sel5_32_1           |        0|      0|    0|  288|
    |dft_mux_32to1_sel5_32_1_U27          |dft_mux_32to1_sel5_32_1           |        0|      0|    0|  288|
    |dft_mux_32to1_sel5_32_1_U28          |dft_mux_32to1_sel5_32_1           |        0|      0|    0|  288|
    |dft_mux_32to1_sel5_32_1_U29          |dft_mux_32to1_sel5_32_1           |        0|      0|    0|  288|
    |dft_mux_32to1_sel5_32_1_U30          |dft_mux_32to1_sel5_32_1           |        0|      0|    0|  288|
    |dft_mux_32to1_sel5_32_1_U31          |dft_mux_32to1_sel5_32_1           |        0|      0|    0|  288|
    +-------------------------------------+----------------------------------+---------+-------+-----+-----+
    |Total                                |                                  |        0|     64| 3928|10560|
    +-------------------------------------+----------------------------------+---------+-------+-----+-----+

    * DSP48: 
    N/A

    * Memory: 
    +----------+-------------------------+---------+-----+----+------+-----+------+-------------+
    |  Memory  |          Module         | BRAM_18K|  FF | LUT| Words| Bits| Banks| W*Bits*Banks|
    +----------+-------------------------+---------+-----+----+------+-----+------+-------------+
    |cct_0_U   |dft_loop_flow256_cct_0   |        0|  128|   4|     8|   32|     1|          256|
    |cct_1_U   |dft_loop_flow256_cct_1   |        0|  128|   4|     8|   32|     1|          256|
    |cct_10_U  |dft_loop_flow256_cct_10  |        0|  128|   4|     8|   32|     1|          256|
    |cct_11_U  |dft_loop_flow256_cct_11  |        0|  128|   4|     8|   32|     1|          256|
    |cct_12_U  |dft_loop_flow256_cct_12  |        0|  128|   4|     8|   32|     1|          256|
    |cct_13_U  |dft_loop_flow256_cct_13  |        0|  128|   4|     8|   32|     1|          256|
    |cct_14_U  |dft_loop_flow256_cct_14  |        0|  128|   4|     8|   32|     1|          256|
    |cct_15_U  |dft_loop_flow256_cct_15  |        0|  128|   4|     8|   32|     1|          256|
    |cct_16_U  |dft_loop_flow256_cct_16  |        0|  128|   4|     8|   32|     1|          256|
    |cct_17_U  |dft_loop_flow256_cct_17  |        0|  128|   4|     8|   32|     1|          256|
    |cct_18_U  |dft_loop_flow256_cct_18  |        0|  128|   4|     8|   32|     1|          256|
    |cct_19_U  |dft_loop_flow256_cct_19  |        0|  128|   4|     8|   32|     1|          256|
    |cct_2_U   |dft_loop_flow256_cct_2   |        0|  128|   4|     8|   32|     1|          256|
    |cct_20_U  |dft_loop_flow256_cct_20  |        0|  128|   4|     8|   32|     1|          256|
    |cct_21_U  |dft_loop_flow256_cct_21  |        0|  128|   4|     8|   32|     1|          256|
    |cct_22_U  |dft_loop_flow256_cct_22  |        0|  128|   4|     8|   32|     1|          256|
    |cct_23_U  |dft_loop_flow256_cct_23  |        0|  128|   4|     8|   32|     1|          256|
    |cct_24_U  |dft_loop_flow256_cct_24  |        0|  128|   4|     8|   32|     1|          256|
    |cct_25_U  |dft_loop_flow256_cct_25  |        0|  128|   4|     8|   32|     1|          256|
    |cct_26_U  |dft_loop_flow256_cct_26  |        0|  128|   4|     8|   32|     1|          256|
    |cct_27_U  |dft_loop_flow256_cct_27  |        0|  128|   4|     8|   32|     1|          256|
    |cct_28_U  |dft_loop_flow256_cct_28  |        0|  128|   4|     8|   32|     1|          256|
    |cct_29_U  |dft_loop_flow256_cct_29  |        0|  128|   4|     8|   32|     1|          256|
    |cct_3_U   |dft_loop_flow256_cct_3   |        0|  128|   4|     8|   32|     1|          256|
    |cct_30_U  |dft_loop_flow256_cct_30  |        0|  128|   4|     8|   32|     1|          256|
    |cct_31_U  |dft_loop_flow256_cct_31  |        0|  128|   4|     8|   32|     1|          256|
    |cct_4_U   |dft_loop_flow256_cct_4   |        0|  128|   4|     8|   32|     1|          256|
    |cct_5_U   |dft_loop_flow256_cct_5   |        0|  128|   4|     8|   32|     1|          256|
    |cct_6_U   |dft_loop_flow256_cct_6   |        0|  128|   4|     8|   32|     1|          256|
    |cct_7_U   |dft_loop_flow256_cct_7   |        0|  128|   4|     8|   32|     1|          256|
    |cct_8_U   |dft_loop_flow256_cct_8   |        0|  128|   4|     8|   32|     1|          256|
    |cct_9_U   |dft_loop_flow256_cct_9   |        0|  128|   4|     8|   32|     1|          256|
    |sct_0_U   |dft_loop_flow256_sct_0   |        0|  128|   4|     8|   32|     1|          256|
    |sct_1_U   |dft_loop_flow256_sct_1   |        0|  128|   4|     8|   32|     1|          256|
    |sct_10_U  |dft_loop_flow256_sct_10  |        0|  128|   4|     8|   32|     1|          256|
    |sct_11_U  |dft_loop_flow256_sct_11  |        0|  128|   4|     8|   32|     1|          256|
    |sct_12_U  |dft_loop_flow256_sct_12  |        0|  128|   4|     8|   32|     1|          256|
    |sct_13_U  |dft_loop_flow256_sct_13  |        0|  128|   4|     8|   32|     1|          256|
    |sct_14_U  |dft_loop_flow256_sct_14  |        0|  128|   4|     8|   32|     1|          256|
    |sct_15_U  |dft_loop_flow256_sct_15  |        0|  128|   4|     8|   32|     1|          256|
    |sct_16_U  |dft_loop_flow256_sct_16  |        0|  128|   4|     8|   32|     1|          256|
    |sct_17_U  |dft_loop_flow256_sct_17  |        0|  128|   4|     8|   32|     1|          256|
    |sct_18_U  |dft_loop_flow256_sct_18  |        0|  128|   4|     8|   32|     1|          256|
    |sct_19_U  |dft_loop_flow256_sct_19  |        0|  128|   4|     8|   32|     1|          256|
    |sct_2_U   |dft_loop_flow256_sct_2   |        0|  128|   4|     8|   32|     1|          256|
    |sct_20_U  |dft_loop_flow256_sct_20  |        0|  128|   4|     8|   32|     1|          256|
    |sct_21_U  |dft_loop_flow256_sct_21  |        0|  128|   4|     8|   32|     1|          256|
    |sct_22_U  |dft_loop_flow256_sct_22  |        0|  128|   4|     8|   32|     1|          256|
    |sct_23_U  |dft_loop_flow256_sct_23  |        0|  128|   4|     8|   32|     1|          256|
    |sct_24_U  |dft_loop_flow256_sct_24  |        0|  128|   4|     8|   32|     1|          256|
    |sct_25_U  |dft_loop_flow256_sct_25  |        0|  128|   4|     8|   32|     1|          256|
    |sct_26_U  |dft_loop_flow256_sct_26  |        0|  128|   4|     8|   32|     1|          256|
    |sct_27_U  |dft_loop_flow256_sct_27  |        0|  128|   4|     8|   32|     1|          256|
    |sct_28_U  |dft_loop_flow256_sct_28  |        0|  128|   4|     8|   32|     1|          256|
    |sct_29_U  |dft_loop_flow256_sct_29  |        0|  128|   4|     8|   32|     1|          256|
    |sct_3_U   |dft_loop_flow256_sct_3   |        0|  128|   4|     8|   32|     1|          256|
    |sct_30_U  |dft_loop_flow256_sct_30  |        0|  128|   4|     8|   32|     1|          256|
    |sct_31_U  |dft_loop_flow256_sct_31  |        0|  128|   4|     8|   32|     1|          256|
    |sct_4_U   |dft_loop_flow256_sct_4   |        0|  128|   4|     8|   32|     1|          256|
    |sct_5_U   |dft_loop_flow256_sct_5   |        0|  128|   4|     8|   32|     1|          256|
    |sct_6_U   |dft_loop_flow256_sct_6   |        0|  128|   4|     8|   32|     1|          256|
    |sct_7_U   |dft_loop_flow256_sct_7   |        0|  128|   4|     8|   32|     1|          256|
    |sct_8_U   |dft_loop_flow256_sct_8   |        0|  128|   4|     8|   32|     1|          256|
    |sct_9_U   |dft_loop_flow256_sct_9   |        0|  128|   4|     8|   32|     1|          256|
    +----------+-------------------------+---------+-----+----+------+-----+------+-------------+
    |Total     |                         |        0| 8192| 256|   512| 2048|    64|        16384|
    +----------+-------------------------+---------+-----+----+------+-----+------+-------------+

    * FIFO: 
    N/A

    * Expression: 
    +------------------------------+----------+-------+---+----+------------+------------+
    |         Variable Name        | Operation| DSP48E| FF| LUT| Bitwidth P0| Bitwidth P1|
    +------------------------------+----------+-------+---+----+------------+------------+
    |tmp1_fu_4243_p2               |     *    |      1|  0|   0|           9|           9|
    |tmp_1_fu_4336_p2              |     *    |      1|  0|   0|           9|           9|
    |tmp_2_fu_4365_p2              |     *    |      1|  0|   0|           9|           9|
    |tmp_3_fu_4394_p2              |     *    |      1|  0|   0|           9|           9|
    |j_V_3_fu_4417_p2              |     +    |      0|  0|   9|           3|           9|
    |imag_i_load_0_phi_fu_5189_p3  |  Select  |      0|  0|  32|           1|          32|
    |imag_i_load_1_phi_fu_5367_p3  |  Select  |      0|  0|  32|           1|          32|
    |imag_i_load_2_phi_fu_5545_p3  |  Select  |      0|  0|  32|           1|          32|
    |imag_i_load_3_phi_fu_5723_p3  |  Select  |      0|  0|  32|           1|          32|
    |real_i_load_0_phi_fu_5100_p3  |  Select  |      0|  0|  32|           1|          32|
    |real_i_load_1_phi_fu_5278_p3  |  Select  |      0|  0|  32|           1|          32|
    |real_i_load_2_phi_fu_5456_p3  |  Select  |      0|  0|  32|           1|          32|
    |real_i_load_3_phi_fu_5634_p3  |  Select  |      0|  0|  32|           1|          32|
    |sel_tmp11_fu_5093_p3          |  Select  |      0|  0|  32|           1|          32|
    |sel_tmp14_fu_4557_p3          |  Select  |      0|  0|  32|           1|          32|
    |sel_tmp15_fu_4565_p3          |  Select  |      0|  0|  32|           1|          32|
    |sel_tmp16_fu_4573_p3          |  Select  |      0|  0|  32|           1|          32|
    |sel_tmp17_fu_4581_p3          |  Select  |      0|  0|  32|           1|          32|
    |sel_tmp18_fu_5176_p3          |  Select  |      0|  0|  32|           1|          32|
    |sel_tmp19_fu_5182_p3          |  Select  |      0|  0|  32|           1|          32|
    |sel_tmp1_fu_4428_p3           |  Select  |      0|  0|  32|           1|          32|
    |sel_tmp21_fu_4594_p3          |  Select  |      0|  0|  32|           1|          32|
    |sel_tmp23_fu_4607_p3          |  Select  |      0|  0|  32|           1|          32|
    |sel_tmp25_fu_4620_p3          |  Select  |      0|  0|  32|           1|          32|
    |sel_tmp27_fu_4633_p3          |  Select  |      0|  0|  32|           1|          32|
    |sel_tmp29_fu_5265_p3          |  Select  |      0|  0|  32|           1|          32|
    |sel_tmp31_fu_5271_p3          |  Select  |      0|  0|  32|           1|          32|
    |sel_tmp33_fu_4723_p3          |  Select  |      0|  0|  32|           1|          32|
    |sel_tmp34_fu_4731_p3          |  Select  |      0|  0|  32|           1|          32|
    |sel_tmp35_fu_4739_p3          |  Select  |      0|  0|  32|           1|          32|
    |sel_tmp36_fu_4747_p3          |  Select  |      0|  0|  32|           1|          32|
    |sel_tmp37_fu_5354_p3          |  Select  |      0|  0|  32|           1|          32|
    |sel_tmp38_fu_5360_p3          |  Select  |      0|  0|  32|           1|          32|
    |sel_tmp3_fu_4441_p3           |  Select  |      0|  0|  32|           1|          32|
    |sel_tmp40_fu_4760_p3          |  Select  |      0|  0|  32|           1|          32|
    |sel_tmp42_fu_4773_p3          |  Select  |      0|  0|  32|           1|          32|
    |sel_tmp44_fu_4786_p3          |  Select  |      0|  0|  32|           1|          32|
    |sel_tmp46_fu_4799_p3          |  Select  |      0|  0|  32|           1|          32|
    |sel_tmp48_fu_5443_p3          |  Select  |      0|  0|  32|           1|          32|
    |sel_tmp50_fu_5449_p3          |  Select  |      0|  0|  32|           1|          32|
    |sel_tmp52_fu_4889_p3          |  Select  |      0|  0|  32|           1|          32|
    |sel_tmp53_fu_4897_p3          |  Select  |      0|  0|  32|           1|          32|
    |sel_tmp54_fu_4905_p3          |  Select  |      0|  0|  32|           1|          32|
    |sel_tmp55_fu_4913_p3          |  Select  |      0|  0|  32|           1|          32|
    |sel_tmp56_fu_5532_p3          |  Select  |      0|  0|  32|           1|          32|
    |sel_tmp57_fu_5538_p3          |  Select  |      0|  0|  32|           1|          32|
    |sel_tmp59_fu_4926_p3          |  Select  |      0|  0|  32|           1|          32|
    |sel_tmp5_fu_4454_p3           |  Select  |      0|  0|  32|           1|          32|
    |sel_tmp61_fu_4939_p3          |  Select  |      0|  0|  32|           1|          32|
    |sel_tmp63_fu_4952_p3          |  Select  |      0|  0|  32|           1|          32|
    |sel_tmp65_fu_4965_p3          |  Select  |      0|  0|  32|           1|          32|
    |sel_tmp67_fu_5621_p3          |  Select  |      0|  0|  32|           1|          32|
    |sel_tmp69_fu_5627_p3          |  Select  |      0|  0|  32|           1|          32|
    |sel_tmp71_fu_5055_p3          |  Select  |      0|  0|  32|           1|          32|
    |sel_tmp72_fu_5063_p3          |  Select  |      0|  0|  32|           1|          32|
    |sel_tmp73_fu_5071_p3          |  Select  |      0|  0|  32|           1|          32|
    |sel_tmp74_fu_5079_p3          |  Select  |      0|  0|  32|           1|          32|
    |sel_tmp75_fu_5710_p3          |  Select  |      0|  0|  32|           1|          32|
    |sel_tmp76_fu_5716_p3          |  Select  |      0|  0|  32|           1|          32|
    |sel_tmp7_fu_4467_p3           |  Select  |      0|  0|  32|           1|          32|
    |sel_tmp9_fu_5087_p3           |  Select  |      0|  0|  32|           1|          32|
    |exitcond_fu_4237_p2           |   icmp   |      0|  0|   4|           9|          10|
    |sel_tmp10_fu_4480_p2          |   icmp   |      0|  0|   2|           5|           5|
    |sel_tmp12_fu_4485_p2          |   icmp   |      0|  0|   2|           5|           5|
    |sel_tmp20_fu_4589_p2          |   icmp   |      0|  0|   2|           5|           1|
    |sel_tmp22_fu_4602_p2          |   icmp   |      0|  0|   2|           5|           3|
    |sel_tmp24_fu_4615_p2          |   icmp   |      0|  0|   2|           5|           4|
    |sel_tmp26_fu_4628_p2          |   icmp   |      0|  0|   2|           5|           4|
    |sel_tmp28_fu_4641_p2          |   icmp   |      0|  0|   2|           5|           5|
    |sel_tmp2_fu_4436_p2           |   icmp   |      0|  0|   2|           5|           3|
    |sel_tmp30_fu_4646_p2          |   icmp   |      0|  0|   2|           5|           5|
    |sel_tmp32_fu_4651_p2          |   icmp   |      0|  0|   2|           5|           4|
    |sel_tmp39_fu_4755_p2          |   icmp   |      0|  0|   2|           5|           2|
    |sel_tmp41_fu_4768_p2          |   icmp   |      0|  0|   2|           5|           3|
    |sel_tmp43_fu_4781_p2          |   icmp   |      0|  0|   2|           5|           4|
    |sel_tmp45_fu_4794_p2          |   icmp   |      0|  0|   2|           5|           4|
    |sel_tmp47_fu_4807_p2          |   icmp   |      0|  0|   2|           5|           5|
    |sel_tmp49_fu_4812_p2          |   icmp   |      0|  0|   2|           5|           5|
    |sel_tmp4_fu_4449_p2           |   icmp   |      0|  0|   2|           5|           4|
    |sel_tmp51_fu_4817_p2          |   icmp   |      0|  0|   2|           5|           4|
    |sel_tmp58_fu_4921_p2          |   icmp   |      0|  0|   2|           5|           2|
    |sel_tmp60_fu_4934_p2          |   icmp   |      0|  0|   2|           5|           3|
    |sel_tmp62_fu_4947_p2          |   icmp   |      0|  0|   2|           5|           4|
    |sel_tmp64_fu_4960_p2          |   icmp   |      0|  0|   2|           5|           4|
    |sel_tmp66_fu_4973_p2          |   icmp   |      0|  0|   2|           5|           5|
    |sel_tmp68_fu_4978_p2          |   icmp   |      0|  0|   2|           5|           5|
    |sel_tmp6_fu_4462_p2           |   icmp   |      0|  0|   2|           5|           4|
    |sel_tmp70_fu_4983_p2          |   icmp   |      0|  0|   2|           5|           4|
    |sel_tmp8_fu_4475_p2           |   icmp   |      0|  0|   3|           5|           6|
    |sel_tmp_fu_4423_p2            |   icmp   |      0|  0|   2|           5|           1|
    |j_V_1_fu_4330_p2              |    or    |      0|  0|   9|           9|           1|
    |j_V_8_fu_4388_p2              |    or    |      0|  0|   9|           9|           2|
    |j_V_s_fu_4359_p2              |    or    |      0|  0|   9|           9|           2|
    +------------------------------+----------+-------+---+----+------------+------------+
    |Total                         |          |      4|  0|1889|         271|        1960|
    +------------------------------+----------+-------+---+----+------------+------------+

    * Multiplexer: 
    +------------------------+----+-----------+-----+-----------+
    |          Name          | LUT| Input Size| Bits| Total Bits|
    +------------------------+----+-----------+-----+-----------+
    |ap_NS_fsm               |   1|          4|    1|          4|
    |ap_reg_ppiten_pp0_it12  |   1|          2|    1|          2|
    |p_s_reg_4130            |   9|          2|    9|         18|
    +------------------------+----+-----------+-----+-----------+
    |Total                   |  11|          8|   11|         24|
    +------------------------+----+-----------+-----+-----------+

    * Register: 
    +--------------------------------------+----+----+-----+-----------+
    |                 Name                 | FF | LUT| Bits| Const Bits|
    +--------------------------------------+----+----+-----+-----------+
    |ap_CS_fsm                             |   3|   0|    3|          0|
    |ap_reg_ppiten_pp0_it0                 |   1|   0|    1|          0|
    |ap_reg_ppiten_pp0_it1                 |   1|   0|    1|          0|
    |ap_reg_ppiten_pp0_it10                |   1|   0|    1|          0|
    |ap_reg_ppiten_pp0_it11                |   1|   0|    1|          0|
    |ap_reg_ppiten_pp0_it12                |   1|   0|    1|          0|
    |ap_reg_ppiten_pp0_it2                 |   1|   0|    1|          0|
    |ap_reg_ppiten_pp0_it3                 |   1|   0|    1|          0|
    |ap_reg_ppiten_pp0_it4                 |   1|   0|    1|          0|
    |ap_reg_ppiten_pp0_it5                 |   1|   0|    1|          0|
    |ap_reg_ppiten_pp0_it6                 |   1|   0|    1|          0|
    |ap_reg_ppiten_pp0_it7                 |   1|   0|    1|          0|
    |ap_reg_ppiten_pp0_it8                 |   1|   0|    1|          0|
    |ap_reg_ppiten_pp0_it9                 |   1|   0|    1|          0|
    |ap_reg_ppstg_tmp_18_reg_5886_pp0_it1  |   5|   0|    5|          0|
    |ap_reg_ppstg_tmp_20_reg_5963_pp0_it1  |   5|   0|    5|          0|
    |ap_reg_ppstg_tmp_22_reg_6035_pp0_it1  |   5|   0|    5|          0|
    |ap_reg_ppstg_tmp_24_reg_6107_pp0_it1  |   5|   0|    5|          0|
    |exitcond_reg_5818                     |   1|   0|    1|          0|
    |imag_i_load_0_phi_reg_7672            |  32|   0|   32|          0|
    |imag_i_load_1_phi_reg_7696            |  32|   0|   32|          0|
    |imag_i_load_2_phi_reg_7720            |  32|   0|   32|          0|
    |imag_i_load_3_phi_reg_7744            |  32|   0|   32|          0|
    |index0_V_1_cast_reg_5969              |   3|   0|    3|          0|
    |index0_V_2_cast_reg_6041              |   3|   0|    3|          0|
    |index0_V_3_cast_reg_6113              |   3|   0|    3|          0|
    |index0_V_cast_reg_5892                |   3|   0|    3|          0|
    |newIndex2_reg_5833                    |   4|   0|   64|         60|
    |newIndex4_reg_5922                    |   7|   0|    7|          0|
    |p_s_reg_4130                          |   9|   0|    9|          0|
    |real_i_load_0_phi_reg_7660            |  32|   0|   32|          0|
    |real_i_load_1_phi_reg_7684            |  32|   0|   32|          0|
    |real_i_load_2_phi_reg_7708            |  32|   0|   32|          0|
    |real_i_load_3_phi_reg_7732            |  32|   0|   32|          0|
    |sel_tmp10_reg_6174                    |   1|   0|    1|          0|
    |sel_tmp12_reg_6180                    |   1|   0|    1|          0|
    |sel_tmp17_reg_6361                    |  32|   0|   32|          0|
    |sel_tmp27_reg_6541                    |  32|   0|   32|          0|
    |sel_tmp28_reg_6546                    |   1|   0|    1|          0|
    |sel_tmp30_reg_6552                    |   1|   0|    1|          0|
    |sel_tmp32_reg_6558                    |   1|   0|    1|          0|
    |sel_tmp36_reg_6739                    |  32|   0|   32|          0|
    |sel_tmp46_reg_6919                    |  32|   0|   32|          0|
    |sel_tmp47_reg_6924                    |   1|   0|    1|          0|
    |sel_tmp49_reg_6930                    |   1|   0|    1|          0|
    |sel_tmp51_reg_6936                    |   1|   0|    1|          0|
    |sel_tmp55_reg_7117                    |  32|   0|   32|          0|
    |sel_tmp65_reg_7297                    |  32|   0|   32|          0|
    |sel_tmp66_reg_7302                    |   1|   0|    1|          0|
    |sel_tmp68_reg_7308                    |   1|   0|    1|          0|
    |sel_tmp70_reg_7314                    |   1|   0|    1|          0|
    |sel_tmp74_reg_7495                    |  32|   0|   32|          0|
    |sel_tmp7_reg_6163                     |  32|   0|   32|          0|
    |sel_tmp8_reg_6168                     |   1|   0|    1|          0|
    |tmp_10_reg_7841                       |  32|   0|   32|          0|
    |tmp_11_1_reg_7776                     |  32|   0|   32|          0|
    |tmp_11_2_reg_7796                     |  32|   0|   32|          0|
    |tmp_11_3_reg_7816                     |  32|   0|   32|          0|
    |tmp_11_reg_7690                       |  32|   0|   32|          0|
    |tmp_12_1_reg_7781                     |  32|   0|   32|          0|
    |tmp_12_2_reg_7801                     |  32|   0|   32|          0|
    |tmp_12_3_reg_7821                     |  32|   0|   32|          0|
    |tmp_12_reg_7702                       |  32|   0|   32|          0|
    |tmp_13_1_reg_7846                     |  32|   0|   32|          0|
    |tmp_13_2_reg_7856                     |  32|   0|   32|          0|
    |tmp_13_3_reg_7866                     |  32|   0|   32|          0|
    |tmp_13_reg_7714                       |  32|   0|   32|          0|
    |tmp_14_1_reg_7786                     |  32|   0|   32|          0|
    |tmp_14_2_reg_7806                     |  32|   0|   32|          0|
    |tmp_14_3_reg_7826                     |  32|   0|   32|          0|
    |tmp_14_reg_7726                       |  32|   0|   32|          0|
    |tmp_15_1_reg_7791                     |  32|   0|   32|          0|
    |tmp_15_2_reg_7811                     |  32|   0|   32|          0|
    |tmp_15_3_reg_7831                     |  32|   0|   32|          0|
    |tmp_15_reg_7738                       |  32|   0|   32|          0|
    |tmp_16_1_reg_7851                     |  32|   0|   32|          0|
    |tmp_16_2_reg_7861                     |  32|   0|   32|          0|
    |tmp_16_3_reg_7871                     |  32|   0|   32|          0|
    |tmp_16_reg_7750                       |  32|   0|   32|          0|
    |tmp_17_reg_5822                       |   5|   0|    5|          0|
    |tmp_18_reg_5886                       |   5|   0|    5|          0|
    |tmp_19_reg_5927                       |   4|   0|    5|          1|
    |tmp_20_reg_5963                       |   5|   0|    5|          0|
    |tmp_21_reg_5999                       |   4|   0|    5|          1|
    |tmp_22_reg_6035                       |   5|   0|    5|          0|
    |tmp_23_reg_6071                       |   3|   0|    5|          2|
    |tmp_24_reg_6107                       |   5|   0|    5|          0|
    |tmp_4_reg_7666                        |  32|   0|   32|          0|
    |tmp_5_reg_7678                        |  32|   0|   32|          0|
    |tmp_6_reg_7761                        |  32|   0|   32|          0|
    |tmp_7_reg_7836                        |  32|   0|   32|          0|
    |tmp_8_reg_7766                        |  32|   0|   32|          0|
    |tmp_9_reg_7771                        |  32|   0|   32|          0|
    |tmp_s_reg_7756                        |  32|   0|   32|          0|
    |exitcond_reg_5818                     |   0|   1|    1|          0|
    |newIndex4_reg_5922                    |   0|   7|    7|          0|
    +--------------------------------------+----+----+-----+-----------+
    |Total                                 |1653|   8| 1725|         64|
    +--------------------------------------+----+----+-----+-----------+



================================================================
== Interface
================================================================
* Summary: 
+------------------------+-----+-----+------------+------------------+--------------+
|        RTL Ports       | Dir | Bits|  Protocol  |   Source Object  |    C Type    |
+------------------------+-----+-----+------------+------------------+--------------+
|ap_clk                  |  in |    1| ap_ctrl_hs | dft_loop_flow256 | return value |
|ap_rst                  |  in |    1| ap_ctrl_hs | dft_loop_flow256 | return value |
|ap_start                |  in |    1| ap_ctrl_hs | dft_loop_flow256 | return value |
|ap_done                 | out |    1| ap_ctrl_hs | dft_loop_flow256 | return value |
|ap_idle                 | out |    1| ap_ctrl_hs | dft_loop_flow256 | return value |
|ap_ready                | out |    1| ap_ctrl_hs | dft_loop_flow256 | return value |
|i_V_read                |  in |    9|   ap_none  |     i_V_read     |    scalar    |
|real_i_0_address0       | out |    3|  ap_memory |     real_i_0     |     array    |
|real_i_0_ce0            | out |    1|  ap_memory |     real_i_0     |     array    |
|real_i_0_q0             |  in |   32|  ap_memory |     real_i_0     |     array    |
|real_i_1_address0       | out |    3|  ap_memory |     real_i_1     |     array    |
|real_i_1_ce0            | out |    1|  ap_memory |     real_i_1     |     array    |
|real_i_1_q0             |  in |   32|  ap_memory |     real_i_1     |     array    |
|real_i_2_address0       | out |    3|  ap_memory |     real_i_2     |     array    |
|real_i_2_ce0            | out |    1|  ap_memory |     real_i_2     |     array    |
|real_i_2_q0             |  in |   32|  ap_memory |     real_i_2     |     array    |
|real_i_3_address0       | out |    3|  ap_memory |     real_i_3     |     array    |
|real_i_3_ce0            | out |    1|  ap_memory |     real_i_3     |     array    |
|real_i_3_q0             |  in |   32|  ap_memory |     real_i_3     |     array    |
|real_i_4_address0       | out |    3|  ap_memory |     real_i_4     |     array    |
|real_i_4_ce0            | out |    1|  ap_memory |     real_i_4     |     array    |
|real_i_4_q0             |  in |   32|  ap_memory |     real_i_4     |     array    |
|real_i_5_address0       | out |    3|  ap_memory |     real_i_5     |     array    |
|real_i_5_ce0            | out |    1|  ap_memory |     real_i_5     |     array    |
|real_i_5_q0             |  in |   32|  ap_memory |     real_i_5     |     array    |
|real_i_6_address0       | out |    3|  ap_memory |     real_i_6     |     array    |
|real_i_6_ce0            | out |    1|  ap_memory |     real_i_6     |     array    |
|real_i_6_q0             |  in |   32|  ap_memory |     real_i_6     |     array    |
|real_i_7_address0       | out |    3|  ap_memory |     real_i_7     |     array    |
|real_i_7_ce0            | out |    1|  ap_memory |     real_i_7     |     array    |
|real_i_7_q0             |  in |   32|  ap_memory |     real_i_7     |     array    |
|real_i_8_address0       | out |    3|  ap_memory |     real_i_8     |     array    |
|real_i_8_ce0            | out |    1|  ap_memory |     real_i_8     |     array    |
|real_i_8_q0             |  in |   32|  ap_memory |     real_i_8     |     array    |
|real_i_9_address0       | out |    3|  ap_memory |     real_i_9     |     array    |
|real_i_9_ce0            | out |    1|  ap_memory |     real_i_9     |     array    |
|real_i_9_q0             |  in |   32|  ap_memory |     real_i_9     |     array    |
|real_i_10_address0      | out |    3|  ap_memory |     real_i_10    |     array    |
|real_i_10_ce0           | out |    1|  ap_memory |     real_i_10    |     array    |
|real_i_10_q0            |  in |   32|  ap_memory |     real_i_10    |     array    |
|real_i_11_address0      | out |    3|  ap_memory |     real_i_11    |     array    |
|real_i_11_ce0           | out |    1|  ap_memory |     real_i_11    |     array    |
|real_i_11_q0            |  in |   32|  ap_memory |     real_i_11    |     array    |
|real_i_12_address0      | out |    3|  ap_memory |     real_i_12    |     array    |
|real_i_12_ce0           | out |    1|  ap_memory |     real_i_12    |     array    |
|real_i_12_q0            |  in |   32|  ap_memory |     real_i_12    |     array    |
|real_i_13_address0      | out |    3|  ap_memory |     real_i_13    |     array    |
|real_i_13_ce0           | out |    1|  ap_memory |     real_i_13    |     array    |
|real_i_13_q0            |  in |   32|  ap_memory |     real_i_13    |     array    |
|real_i_14_address0      | out |    3|  ap_memory |     real_i_14    |     array    |
|real_i_14_ce0           | out |    1|  ap_memory |     real_i_14    |     array    |
|real_i_14_q0            |  in |   32|  ap_memory |     real_i_14    |     array    |
|real_i_15_address0      | out |    3|  ap_memory |     real_i_15    |     array    |
|real_i_15_ce0           | out |    1|  ap_memory |     real_i_15    |     array    |
|real_i_15_q0            |  in |   32|  ap_memory |     real_i_15    |     array    |
|real_i_16_address0      | out |    3|  ap_memory |     real_i_16    |     array    |
|real_i_16_ce0           | out |    1|  ap_memory |     real_i_16    |     array    |
|real_i_16_q0            |  in |   32|  ap_memory |     real_i_16    |     array    |
|real_i_17_address0      | out |    3|  ap_memory |     real_i_17    |     array    |
|real_i_17_ce0           | out |    1|  ap_memory |     real_i_17    |     array    |
|real_i_17_q0            |  in |   32|  ap_memory |     real_i_17    |     array    |
|real_i_18_address0      | out |    3|  ap_memory |     real_i_18    |     array    |
|real_i_18_ce0           | out |    1|  ap_memory |     real_i_18    |     array    |
|real_i_18_q0            |  in |   32|  ap_memory |     real_i_18    |     array    |
|real_i_19_address0      | out |    3|  ap_memory |     real_i_19    |     array    |
|real_i_19_ce0           | out |    1|  ap_memory |     real_i_19    |     array    |
|real_i_19_q0            |  in |   32|  ap_memory |     real_i_19    |     array    |
|real_i_20_address0      | out |    3|  ap_memory |     real_i_20    |     array    |
|real_i_20_ce0           | out |    1|  ap_memory |     real_i_20    |     array    |
|real_i_20_q0            |  in |   32|  ap_memory |     real_i_20    |     array    |
|real_i_21_address0      | out |    3|  ap_memory |     real_i_21    |     array    |
|real_i_21_ce0           | out |    1|  ap_memory |     real_i_21    |     array    |
|real_i_21_q0            |  in |   32|  ap_memory |     real_i_21    |     array    |
|real_i_22_address0      | out |    3|  ap_memory |     real_i_22    |     array    |
|real_i_22_ce0           | out |    1|  ap_memory |     real_i_22    |     array    |
|real_i_22_q0            |  in |   32|  ap_memory |     real_i_22    |     array    |
|real_i_23_address0      | out |    3|  ap_memory |     real_i_23    |     array    |
|real_i_23_ce0           | out |    1|  ap_memory |     real_i_23    |     array    |
|real_i_23_q0            |  in |   32|  ap_memory |     real_i_23    |     array    |
|real_i_24_address0      | out |    3|  ap_memory |     real_i_24    |     array    |
|real_i_24_ce0           | out |    1|  ap_memory |     real_i_24    |     array    |
|real_i_24_q0            |  in |   32|  ap_memory |     real_i_24    |     array    |
|real_i_25_address0      | out |    3|  ap_memory |     real_i_25    |     array    |
|real_i_25_ce0           | out |    1|  ap_memory |     real_i_25    |     array    |
|real_i_25_q0            |  in |   32|  ap_memory |     real_i_25    |     array    |
|real_i_26_address0      | out |    3|  ap_memory |     real_i_26    |     array    |
|real_i_26_ce0           | out |    1|  ap_memory |     real_i_26    |     array    |
|real_i_26_q0            |  in |   32|  ap_memory |     real_i_26    |     array    |
|real_i_27_address0      | out |    3|  ap_memory |     real_i_27    |     array    |
|real_i_27_ce0           | out |    1|  ap_memory |     real_i_27    |     array    |
|real_i_27_q0            |  in |   32|  ap_memory |     real_i_27    |     array    |
|real_i_28_address0      | out |    3|  ap_memory |     real_i_28    |     array    |
|real_i_28_ce0           | out |    1|  ap_memory |     real_i_28    |     array    |
|real_i_28_q0            |  in |   32|  ap_memory |     real_i_28    |     array    |
|real_i_29_address0      | out |    3|  ap_memory |     real_i_29    |     array    |
|real_i_29_ce0           | out |    1|  ap_memory |     real_i_29    |     array    |
|real_i_29_q0            |  in |   32|  ap_memory |     real_i_29    |     array    |
|real_i_30_address0      | out |    3|  ap_memory |     real_i_30    |     array    |
|real_i_30_ce0           | out |    1|  ap_memory |     real_i_30    |     array    |
|real_i_30_q0            |  in |   32|  ap_memory |     real_i_30    |     array    |
|real_i_31_address0      | out |    3|  ap_memory |     real_i_31    |     array    |
|real_i_31_ce0           | out |    1|  ap_memory |     real_i_31    |     array    |
|real_i_31_q0            |  in |   32|  ap_memory |     real_i_31    |     array    |
|imag_i_0_address0       | out |    3|  ap_memory |     imag_i_0     |     array    |
|imag_i_0_ce0            | out |    1|  ap_memory |     imag_i_0     |     array    |
|imag_i_0_q0             |  in |   32|  ap_memory |     imag_i_0     |     array    |
|imag_i_1_address0       | out |    3|  ap_memory |     imag_i_1     |     array    |
|imag_i_1_ce0            | out |    1|  ap_memory |     imag_i_1     |     array    |
|imag_i_1_q0             |  in |   32|  ap_memory |     imag_i_1     |     array    |
|imag_i_2_address0       | out |    3|  ap_memory |     imag_i_2     |     array    |
|imag_i_2_ce0            | out |    1|  ap_memory |     imag_i_2     |     array    |
|imag_i_2_q0             |  in |   32|  ap_memory |     imag_i_2     |     array    |
|imag_i_3_address0       | out |    3|  ap_memory |     imag_i_3     |     array    |
|imag_i_3_ce0            | out |    1|  ap_memory |     imag_i_3     |     array    |
|imag_i_3_q0             |  in |   32|  ap_memory |     imag_i_3     |     array    |
|imag_i_4_address0       | out |    3|  ap_memory |     imag_i_4     |     array    |
|imag_i_4_ce0            | out |    1|  ap_memory |     imag_i_4     |     array    |
|imag_i_4_q0             |  in |   32|  ap_memory |     imag_i_4     |     array    |
|imag_i_5_address0       | out |    3|  ap_memory |     imag_i_5     |     array    |
|imag_i_5_ce0            | out |    1|  ap_memory |     imag_i_5     |     array    |
|imag_i_5_q0             |  in |   32|  ap_memory |     imag_i_5     |     array    |
|imag_i_6_address0       | out |    3|  ap_memory |     imag_i_6     |     array    |
|imag_i_6_ce0            | out |    1|  ap_memory |     imag_i_6     |     array    |
|imag_i_6_q0             |  in |   32|  ap_memory |     imag_i_6     |     array    |
|imag_i_7_address0       | out |    3|  ap_memory |     imag_i_7     |     array    |
|imag_i_7_ce0            | out |    1|  ap_memory |     imag_i_7     |     array    |
|imag_i_7_q0             |  in |   32|  ap_memory |     imag_i_7     |     array    |
|imag_i_8_address0       | out |    3|  ap_memory |     imag_i_8     |     array    |
|imag_i_8_ce0            | out |    1|  ap_memory |     imag_i_8     |     array    |
|imag_i_8_q0             |  in |   32|  ap_memory |     imag_i_8     |     array    |
|imag_i_9_address0       | out |    3|  ap_memory |     imag_i_9     |     array    |
|imag_i_9_ce0            | out |    1|  ap_memory |     imag_i_9     |     array    |
|imag_i_9_q0             |  in |   32|  ap_memory |     imag_i_9     |     array    |
|imag_i_10_address0      | out |    3|  ap_memory |     imag_i_10    |     array    |
|imag_i_10_ce0           | out |    1|  ap_memory |     imag_i_10    |     array    |
|imag_i_10_q0            |  in |   32|  ap_memory |     imag_i_10    |     array    |
|imag_i_11_address0      | out |    3|  ap_memory |     imag_i_11    |     array    |
|imag_i_11_ce0           | out |    1|  ap_memory |     imag_i_11    |     array    |
|imag_i_11_q0            |  in |   32|  ap_memory |     imag_i_11    |     array    |
|imag_i_12_address0      | out |    3|  ap_memory |     imag_i_12    |     array    |
|imag_i_12_ce0           | out |    1|  ap_memory |     imag_i_12    |     array    |
|imag_i_12_q0            |  in |   32|  ap_memory |     imag_i_12    |     array    |
|imag_i_13_address0      | out |    3|  ap_memory |     imag_i_13    |     array    |
|imag_i_13_ce0           | out |    1|  ap_memory |     imag_i_13    |     array    |
|imag_i_13_q0            |  in |   32|  ap_memory |     imag_i_13    |     array    |
|imag_i_14_address0      | out |    3|  ap_memory |     imag_i_14    |     array    |
|imag_i_14_ce0           | out |    1|  ap_memory |     imag_i_14    |     array    |
|imag_i_14_q0            |  in |   32|  ap_memory |     imag_i_14    |     array    |
|imag_i_15_address0      | out |    3|  ap_memory |     imag_i_15    |     array    |
|imag_i_15_ce0           | out |    1|  ap_memory |     imag_i_15    |     array    |
|imag_i_15_q0            |  in |   32|  ap_memory |     imag_i_15    |     array    |
|imag_i_16_address0      | out |    3|  ap_memory |     imag_i_16    |     array    |
|imag_i_16_ce0           | out |    1|  ap_memory |     imag_i_16    |     array    |
|imag_i_16_q0            |  in |   32|  ap_memory |     imag_i_16    |     array    |
|imag_i_17_address0      | out |    3|  ap_memory |     imag_i_17    |     array    |
|imag_i_17_ce0           | out |    1|  ap_memory |     imag_i_17    |     array    |
|imag_i_17_q0            |  in |   32|  ap_memory |     imag_i_17    |     array    |
|imag_i_18_address0      | out |    3|  ap_memory |     imag_i_18    |     array    |
|imag_i_18_ce0           | out |    1|  ap_memory |     imag_i_18    |     array    |
|imag_i_18_q0            |  in |   32|  ap_memory |     imag_i_18    |     array    |
|imag_i_19_address0      | out |    3|  ap_memory |     imag_i_19    |     array    |
|imag_i_19_ce0           | out |    1|  ap_memory |     imag_i_19    |     array    |
|imag_i_19_q0            |  in |   32|  ap_memory |     imag_i_19    |     array    |
|imag_i_20_address0      | out |    3|  ap_memory |     imag_i_20    |     array    |
|imag_i_20_ce0           | out |    1|  ap_memory |     imag_i_20    |     array    |
|imag_i_20_q0            |  in |   32|  ap_memory |     imag_i_20    |     array    |
|imag_i_21_address0      | out |    3|  ap_memory |     imag_i_21    |     array    |
|imag_i_21_ce0           | out |    1|  ap_memory |     imag_i_21    |     array    |
|imag_i_21_q0            |  in |   32|  ap_memory |     imag_i_21    |     array    |
|imag_i_22_address0      | out |    3|  ap_memory |     imag_i_22    |     array    |
|imag_i_22_ce0           | out |    1|  ap_memory |     imag_i_22    |     array    |
|imag_i_22_q0            |  in |   32|  ap_memory |     imag_i_22    |     array    |
|imag_i_23_address0      | out |    3|  ap_memory |     imag_i_23    |     array    |
|imag_i_23_ce0           | out |    1|  ap_memory |     imag_i_23    |     array    |
|imag_i_23_q0            |  in |   32|  ap_memory |     imag_i_23    |     array    |
|imag_i_24_address0      | out |    3|  ap_memory |     imag_i_24    |     array    |
|imag_i_24_ce0           | out |    1|  ap_memory |     imag_i_24    |     array    |
|imag_i_24_q0            |  in |   32|  ap_memory |     imag_i_24    |     array    |
|imag_i_25_address0      | out |    3|  ap_memory |     imag_i_25    |     array    |
|imag_i_25_ce0           | out |    1|  ap_memory |     imag_i_25    |     array    |
|imag_i_25_q0            |  in |   32|  ap_memory |     imag_i_25    |     array    |
|imag_i_26_address0      | out |    3|  ap_memory |     imag_i_26    |     array    |
|imag_i_26_ce0           | out |    1|  ap_memory |     imag_i_26    |     array    |
|imag_i_26_q0            |  in |   32|  ap_memory |     imag_i_26    |     array    |
|imag_i_27_address0      | out |    3|  ap_memory |     imag_i_27    |     array    |
|imag_i_27_ce0           | out |    1|  ap_memory |     imag_i_27    |     array    |
|imag_i_27_q0            |  in |   32|  ap_memory |     imag_i_27    |     array    |
|imag_i_28_address0      | out |    3|  ap_memory |     imag_i_28    |     array    |
|imag_i_28_ce0           | out |    1|  ap_memory |     imag_i_28    |     array    |
|imag_i_28_q0            |  in |   32|  ap_memory |     imag_i_28    |     array    |
|imag_i_29_address0      | out |    3|  ap_memory |     imag_i_29    |     array    |
|imag_i_29_ce0           | out |    1|  ap_memory |     imag_i_29    |     array    |
|imag_i_29_q0            |  in |   32|  ap_memory |     imag_i_29    |     array    |
|imag_i_30_address0      | out |    3|  ap_memory |     imag_i_30    |     array    |
|imag_i_30_ce0           | out |    1|  ap_memory |     imag_i_30    |     array    |
|imag_i_30_q0            |  in |   32|  ap_memory |     imag_i_30    |     array    |
|imag_i_31_address0      | out |    3|  ap_memory |     imag_i_31    |     array    |
|imag_i_31_ce0           | out |    1|  ap_memory |     imag_i_31    |     array    |
|imag_i_31_q0            |  in |   32|  ap_memory |     imag_i_31    |     array    |
|real_arr256_0_address0  | out |    6|  ap_memory |   real_arr256_0  |     array    |
|real_arr256_0_ce0       | out |    1|  ap_memory |   real_arr256_0  |     array    |
|real_arr256_0_we0       | out |    1|  ap_memory |   real_arr256_0  |     array    |
|real_arr256_0_d0        | out |   32|  ap_memory |   real_arr256_0  |     array    |
|imag_arr256_0_address0  | out |    6|  ap_memory |   imag_arr256_0  |     array    |
|imag_arr256_0_ce0       | out |    1|  ap_memory |   imag_arr256_0  |     array    |
|imag_arr256_0_we0       | out |    1|  ap_memory |   imag_arr256_0  |     array    |
|imag_arr256_0_d0        | out |   32|  ap_memory |   imag_arr256_0  |     array    |
|real_arr256_1_address0  | out |    6|  ap_memory |   real_arr256_1  |     array    |
|real_arr256_1_ce0       | out |    1|  ap_memory |   real_arr256_1  |     array    |
|real_arr256_1_we0       | out |    1|  ap_memory |   real_arr256_1  |     array    |
|real_arr256_1_d0        | out |   32|  ap_memory |   real_arr256_1  |     array    |
|imag_arr256_1_address0  | out |    6|  ap_memory |   imag_arr256_1  |     array    |
|imag_arr256_1_ce0       | out |    1|  ap_memory |   imag_arr256_1  |     array    |
|imag_arr256_1_we0       | out |    1|  ap_memory |   imag_arr256_1  |     array    |
|imag_arr256_1_d0        | out |   32|  ap_memory |   imag_arr256_1  |     array    |
|real_arr256_2_address0  | out |    6|  ap_memory |   real_arr256_2  |     array    |
|real_arr256_2_ce0       | out |    1|  ap_memory |   real_arr256_2  |     array    |
|real_arr256_2_we0       | out |    1|  ap_memory |   real_arr256_2  |     array    |
|real_arr256_2_d0        | out |   32|  ap_memory |   real_arr256_2  |     array    |
|imag_arr256_2_address0  | out |    6|  ap_memory |   imag_arr256_2  |     array    |
|imag_arr256_2_ce0       | out |    1|  ap_memory |   imag_arr256_2  |     array    |
|imag_arr256_2_we0       | out |    1|  ap_memory |   imag_arr256_2  |     array    |
|imag_arr256_2_d0        | out |   32|  ap_memory |   imag_arr256_2  |     array    |
|real_arr256_3_address0  | out |    6|  ap_memory |   real_arr256_3  |     array    |
|real_arr256_3_ce0       | out |    1|  ap_memory |   real_arr256_3  |     array    |
|real_arr256_3_we0       | out |    1|  ap_memory |   real_arr256_3  |     array    |
|real_arr256_3_d0        | out |   32|  ap_memory |   real_arr256_3  |     array    |
|imag_arr256_3_address0  | out |    6|  ap_memory |   imag_arr256_3  |     array    |
|imag_arr256_3_ce0       | out |    1|  ap_memory |   imag_arr256_3  |     array    |
|imag_arr256_3_we0       | out |    1|  ap_memory |   imag_arr256_3  |     array    |
|imag_arr256_3_d0        | out |   32|  ap_memory |   imag_arr256_3  |     array    |
+------------------------+-----+-----+------------+------------------+--------------+

