

================================================================
== Vivado HLS Report for 'dft_loop_flow1024_Loop_1_proc'
================================================================
* Date:           Thu Nov 03 00:37:00 2016

* Version:        2015.4 (Build 1412921 on Wed Nov 18 09:58:55 AM 2015)
* Project:        dft
* Solution:       solution3
* Product family: zynq
* Target device:  xc7z020clg484-1


================================================================
== Performance Estimates
================================================================
+ Timing (ns): 
    * Summary: 
    +--------+-------+----------+------------+
    |  Clock | Target| Estimated| Uncertainty|
    +--------+-------+----------+------------+
    |ap_clk  |  10.00|      8.22|        1.25|
    +--------+-------+----------+------------+

+ Latency (clock cycles): 
    * Summary: 
    +-----+-----+-----+-----+---------+
    |  Latency  |  Interval | Pipeline|
    | min | max | min | max |   Type  |
    +-----+-----+-----+-----+---------+
    |  357|  357|  357|  357|   none  |
    +-----+-----+-----+-----+---------+

    + Detail: 
        * Instance: 
        N/A

        * Loop: 
        +----------+-----+-----+----------+-----------+-----------+------+----------+
        |          |  Latency  | Iteration|  Initiation Interval  | Trip |          |
        | Loop Name| min | max |  Latency |  achieved |   target  | Count| Pipelined|
        +----------+-----+-----+----------+-----------+-----------+------+----------+
        |- Loop 1  |  355|  355|        14|          2|          1|   171|    yes   |
        +----------+-----+-----+----------+-----------+-----------+------+----------+



================================================================
== Utilization Estimates
================================================================
* Summary: 
+-----------------+---------+-------+--------+-------+
|       Name      | BRAM_18K| DSP48E|   FF   |  LUT  |
+-----------------+---------+-------+--------+-------+
|DSP              |        -|      6|       -|      -|
|Expression       |        -|      -|       0|   1251|
|FIFO             |        -|      -|       -|      -|
|Instance         |        -|     48|    2946|   6960|
|Memory           |       64|      -|       0|      0|
|Multiplexer      |        -|      -|       -|   1945|
|Register         |        -|      -|    1895|     49|
+-----------------+---------+-------+--------+-------+
|Total            |       64|     54|    4841|  10205|
+-----------------+---------+-------+--------+-------+
|Available        |      280|    220|  106400|  53200|
+-----------------+---------+-------+--------+-------+
|Utilization (%)  |       22|     24|       4|     19|
+-----------------+---------+-------+--------+-------+

+ Detail: 
    * Instance: 
    +-------------------------------------+----------------------------------+---------+-------+-----+-----+
    |               Instance              |              Module              | BRAM_18K| DSP48E|  FF | LUT |
    +-------------------------------------+----------------------------------+---------+-------+-----+-----+
    |dft_fadd_32ns_32ns_32_5_full_dsp_U1  |dft_fadd_32ns_32ns_32_5_full_dsp  |        0|      2|  205|  390|
    |dft_fadd_32ns_32ns_32_5_full_dsp_U3  |dft_fadd_32ns_32ns_32_5_full_dsp  |        0|      2|  205|  390|
    |dft_fadd_32ns_32ns_32_5_full_dsp_U5  |dft_fadd_32ns_32ns_32_5_full_dsp  |        0|      2|  205|  390|
    |dft_fmul_32ns_32ns_32_4_max_dsp_U6   |dft_fmul_32ns_32ns_32_4_max_dsp   |        0|      3|  143|  321|
    |dft_fmul_32ns_32ns_32_4_max_dsp_U7   |dft_fmul_32ns_32ns_32_4_max_dsp   |        0|      3|  143|  321|
    |dft_fmul_32ns_32ns_32_4_max_dsp_U8   |dft_fmul_32ns_32ns_32_4_max_dsp   |        0|      3|  143|  321|
    |dft_fmul_32ns_32ns_32_4_max_dsp_U9   |dft_fmul_32ns_32ns_32_4_max_dsp   |        0|      3|  143|  321|
    |dft_fmul_32ns_32ns_32_4_max_dsp_U10  |dft_fmul_32ns_32ns_32_4_max_dsp   |        0|      3|  143|  321|
    |dft_fmul_32ns_32ns_32_4_max_dsp_U11  |dft_fmul_32ns_32ns_32_4_max_dsp   |        0|      3|  143|  321|
    |dft_fmul_32ns_32ns_32_4_max_dsp_U12  |dft_fmul_32ns_32ns_32_4_max_dsp   |        0|      3|  143|  321|
    |dft_fmul_32ns_32ns_32_4_max_dsp_U13  |dft_fmul_32ns_32ns_32_4_max_dsp   |        0|      3|  143|  321|
    |dft_fmul_32ns_32ns_32_4_max_dsp_U14  |dft_fmul_32ns_32ns_32_4_max_dsp   |        0|      3|  143|  321|
    |dft_fmul_32ns_32ns_32_4_max_dsp_U15  |dft_fmul_32ns_32ns_32_4_max_dsp   |        0|      3|  143|  321|
    |dft_fmul_32ns_32ns_32_4_max_dsp_U16  |dft_fmul_32ns_32ns_32_4_max_dsp   |        0|      3|  143|  321|
    |dft_fmul_32ns_32ns_32_4_max_dsp_U17  |dft_fmul_32ns_32ns_32_4_max_dsp   |        0|      3|  143|  321|
    |dft_fsub_32ns_32ns_32_5_full_dsp_U0  |dft_fsub_32ns_32ns_32_5_full_dsp  |        0|      2|  205|  390|
    |dft_fsub_32ns_32ns_32_5_full_dsp_U2  |dft_fsub_32ns_32ns_32_5_full_dsp  |        0|      2|  205|  390|
    |dft_fsub_32ns_32ns_32_5_full_dsp_U4  |dft_fsub_32ns_32ns_32_5_full_dsp  |        0|      2|  205|  390|
    |dft_mux_8to1_sel3_32_1_U18           |dft_mux_8to1_sel3_32_1            |        0|      0|    0|   64|
    |dft_mux_8to1_sel3_32_1_U19           |dft_mux_8to1_sel3_32_1            |        0|      0|    0|   64|
    |dft_mux_8to1_sel3_32_1_U20           |dft_mux_8to1_sel3_32_1            |        0|      0|    0|   64|
    |dft_mux_8to1_sel3_32_1_U21           |dft_mux_8to1_sel3_32_1            |        0|      0|    0|   64|
    |dft_mux_8to1_sel3_32_1_U22           |dft_mux_8to1_sel3_32_1            |        0|      0|    0|   64|
    |dft_mux_8to1_sel3_32_1_U23           |dft_mux_8to1_sel3_32_1            |        0|      0|    0|   64|
    |dft_mux_8to1_sel3_32_1_U24           |dft_mux_8to1_sel3_32_1            |        0|      0|    0|   64|
    |dft_mux_8to1_sel3_32_1_U25           |dft_mux_8to1_sel3_32_1            |        0|      0|    0|   64|
    |dft_mux_8to1_sel3_32_1_U26           |dft_mux_8to1_sel3_32_1            |        0|      0|    0|   64|
    |dft_mux_8to1_sel3_32_1_U27           |dft_mux_8to1_sel3_32_1            |        0|      0|    0|   64|
    |dft_mux_8to1_sel3_32_1_U28           |dft_mux_8to1_sel3_32_1            |        0|      0|    0|   64|
    |dft_mux_8to1_sel3_32_1_U29           |dft_mux_8to1_sel3_32_1            |        0|      0|    0|   64|
    +-------------------------------------+----------------------------------+---------+-------+-----+-----+
    |Total                                |                                  |        0|     48| 2946| 6960|
    +-------------------------------------+----------------------------------+---------+-------+-----+-----+

    * DSP48: 
    +------------------------------+--------------------------+-----------+
    |           Instance           |          Module          | Expression|
    +------------------------------+--------------------------+-----------+
    |dft_mul_mul_11s_11s_11_1_U30  |dft_mul_mul_11s_11s_11_1  |  i0 * i1  |
    |dft_mul_mul_11s_11s_11_1_U31  |dft_mul_mul_11s_11s_11_1  |  i0 * i1  |
    |dft_mul_mul_11s_11s_11_1_U32  |dft_mul_mul_11s_11s_11_1  |  i0 * i1  |
    |dft_mul_mul_11s_11s_11_1_U33  |dft_mul_mul_11s_11s_11_1  |  i0 * i1  |
    |dft_mul_mul_11s_11s_11_1_U34  |dft_mul_mul_11s_11s_11_1  |  i0 * i1  |
    |dft_mul_mul_11s_11s_11_1_U35  |dft_mul_mul_11s_11s_11_1  |  i0 * i1  |
    +------------------------------+--------------------------+-----------+

    * Memory: 
    +---------+-------------------------------------+---------+---+----+------+-----+------+-------------+
    |  Memory |                Module               | BRAM_18K| FF| LUT| Words| Bits| Banks| W*Bits*Banks|
    +---------+-------------------------------------+---------+---+----+------+-----+------+-------------+
    |cct_0_U  |dft_loop_flow1024_Loop_1_proc_cct_0  |        4|  0|   0|   128|   32|     1|         4096|
    |cct_1_U  |dft_loop_flow1024_Loop_1_proc_cct_1  |        4|  0|   0|   128|   32|     1|         4096|
    |cct_2_U  |dft_loop_flow1024_Loop_1_proc_cct_2  |        4|  0|   0|   128|   32|     1|         4096|
    |cct_3_U  |dft_loop_flow1024_Loop_1_proc_cct_3  |        4|  0|   0|   128|   32|     1|         4096|
    |cct_4_U  |dft_loop_flow1024_Loop_1_proc_cct_4  |        4|  0|   0|   128|   32|     1|         4096|
    |cct_5_U  |dft_loop_flow1024_Loop_1_proc_cct_5  |        4|  0|   0|   128|   32|     1|         4096|
    |cct_6_U  |dft_loop_flow1024_Loop_1_proc_cct_6  |        4|  0|   0|   128|   32|     1|         4096|
    |cct_7_U  |dft_loop_flow1024_Loop_1_proc_cct_7  |        4|  0|   0|   128|   32|     1|         4096|
    |sct_0_U  |dft_loop_flow1024_Loop_1_proc_sct_0  |        4|  0|   0|   128|   32|     1|         4096|
    |sct_1_U  |dft_loop_flow1024_Loop_1_proc_sct_1  |        4|  0|   0|   128|   32|     1|         4096|
    |sct_2_U  |dft_loop_flow1024_Loop_1_proc_sct_2  |        4|  0|   0|   128|   32|     1|         4096|
    |sct_3_U  |dft_loop_flow1024_Loop_1_proc_sct_3  |        4|  0|   0|   128|   32|     1|         4096|
    |sct_4_U  |dft_loop_flow1024_Loop_1_proc_sct_4  |        4|  0|   0|   128|   32|     1|         4096|
    |sct_5_U  |dft_loop_flow1024_Loop_1_proc_sct_5  |        4|  0|   0|   128|   32|     1|         4096|
    |sct_6_U  |dft_loop_flow1024_Loop_1_proc_sct_6  |        4|  0|   0|   128|   32|     1|         4096|
    |sct_7_U  |dft_loop_flow1024_Loop_1_proc_sct_7  |        4|  0|   0|   128|   32|     1|         4096|
    +---------+-------------------------------------+---------+---+----+------+-----+------+-------------+
    |Total    |                                     |       64|  0|   0|  2048|  512|    16|        65536|
    +---------+-------------------------------------+---------+---+----+------+-----+------+-------------+

    * FIFO: 
    N/A

    * Expression: 
    +--------------------------------+----------+-------+---+----+------------+------------+
    |          Variable Name         | Operation| DSP48E| FF| LUT| Bitwidth P0| Bitwidth P1|
    +--------------------------------+----------+-------+---+----+------------+------------+
    |j_V_i_1_fu_2018_p2              |     +    |      0|  0|  11|           2|          11|
    |j_V_i_2_fu_2338_p2              |     +    |      0|  0|  11|           2|          11|
    |j_V_i_3_fu_2068_p2              |     +    |      0|  0|  11|          11|           3|
    |j_V_i_4_fu_2418_p2              |     +    |      0|  0|  11|           3|          11|
    |j_V_i_5_fu_2468_p2              |     +    |      0|  0|  11|          11|           3|
    |imag_i_load_i_0_phi_fu_2161_p3  |  Select  |      0|  0|  32|           1|          32|
    |imag_i_load_i_1_phi_fu_2263_p3  |  Select  |      0|  0|  32|           1|          32|
    |imag_i_load_i_2_phi_fu_2330_p3  |  Select  |      0|  0|  32|           1|          32|
    |imag_i_load_i_3_phi_fu_2808_p3  |  Select  |      0|  0|  32|           1|          32|
    |imag_i_load_i_4_phi_fu_2684_p3  |  Select  |      0|  0|  32|           1|          32|
    |imag_i_load_i_5_phi_fu_2745_p3  |  Select  |      0|  0|  32|           1|          32|
    |real_i_load_i_0_phi_fu_2118_p3  |  Select  |      0|  0|  32|           1|          32|
    |real_i_load_i_1_phi_fu_2220_p3  |  Select  |      0|  0|  32|           1|          32|
    |real_i_load_i_2_phi_fu_2287_p3  |  Select  |      0|  0|  32|           1|          32|
    |real_i_load_i_3_phi_fu_2766_p3  |  Select  |      0|  0|  32|           1|          32|
    |real_i_load_i_4_phi_fu_2644_p3  |  Select  |      0|  0|  32|           1|          32|
    |real_i_load_i_5_phi_fu_2705_p3  |  Select  |      0|  0|  32|           1|          32|
    |sel_tmp14_fu_2194_p3            |  Select  |      0|  0|  32|           1|          32|
    |sel_tmp16_fu_2207_p3            |  Select  |      0|  0|  32|           1|          32|
    |sel_tmp18_fu_2247_p3            |  Select  |      0|  0|  32|           1|          32|
    |sel_tmp19_fu_2255_p3            |  Select  |      0|  0|  32|           1|          32|
    |sel_tmp1_fu_2090_p3             |  Select  |      0|  0|  32|           1|          32|
    |sel_tmp20_fu_2271_p3            |  Select  |      0|  0|  32|           1|          32|
    |sel_tmp21_fu_2279_p3            |  Select  |      0|  0|  32|           1|          32|
    |sel_tmp22_fu_2314_p3            |  Select  |      0|  0|  32|           1|          32|
    |sel_tmp23_fu_2322_p3            |  Select  |      0|  0|  32|           1|          32|
    |sel_tmp24_fu_2752_p3            |  Select  |      0|  0|  32|           1|          32|
    |sel_tmp25_fu_2759_p3            |  Select  |      0|  0|  32|           1|          32|
    |sel_tmp26_fu_2794_p3            |  Select  |      0|  0|  32|           1|          32|
    |sel_tmp27_fu_2801_p3            |  Select  |      0|  0|  32|           1|          32|
    |sel_tmp28_fu_2630_p3            |  Select  |      0|  0|  32|           1|          32|
    |sel_tmp29_fu_2637_p3            |  Select  |      0|  0|  32|           1|          32|
    |sel_tmp30_fu_2670_p3            |  Select  |      0|  0|  32|           1|          32|
    |sel_tmp31_fu_2677_p3            |  Select  |      0|  0|  32|           1|          32|
    |sel_tmp32_fu_2691_p3            |  Select  |      0|  0|  32|           1|          32|
    |sel_tmp33_fu_2698_p3            |  Select  |      0|  0|  32|           1|          32|
    |sel_tmp34_fu_2731_p3            |  Select  |      0|  0|  32|           1|          32|
    |sel_tmp35_fu_2738_p3            |  Select  |      0|  0|  32|           1|          32|
    |sel_tmp3_fu_2104_p3             |  Select  |      0|  0|  32|           1|          32|
    |sel_tmp7_fu_2145_p3             |  Select  |      0|  0|  32|           1|          32|
    |sel_tmp9_fu_2153_p3             |  Select  |      0|  0|  32|           1|          32|
    |ap_sig_bdd_1897                 |    and   |      0|  0|   1|           1|           1|
    |ap_sig_bdd_1899                 |    and   |      0|  0|   1|           1|           1|
    |ap_sig_bdd_1902                 |    and   |      0|  0|   1|           1|           1|
    |ap_sig_bdd_1905                 |    and   |      0|  0|   1|           1|           1|
    |ap_sig_bdd_1907                 |    and   |      0|  0|   1|           1|           1|
    |ap_sig_bdd_1909                 |    and   |      0|  0|   1|           1|           1|
    |cond1_fu_2012_p2                |   icmp   |      0|  0|   1|           2|           1|
    |cond_fu_2183_p2                 |   icmp   |      0|  0|   1|           2|           1|
    |exitcond_i_i_4_fu_2074_p2       |   icmp   |      0|  0|   5|          11|          12|
    |exitcond_i_i_fu_1938_p2         |   icmp   |      0|  0|   5|          11|          12|
    |sel_tmp13_fu_2189_p2            |   icmp   |      0|  0|   2|           3|           1|
    |sel_tmp15_fu_2202_p2            |   icmp   |      0|  0|   2|           3|           2|
    |sel_tmp17_fu_2215_p2            |   icmp   |      0|  0|   2|           3|           3|
    |sel_tmp2_fu_2098_p2             |   icmp   |      0|  0|   2|           3|           2|
    |sel_tmp4_fu_2112_p2             |   icmp   |      0|  0|   2|           3|           4|
    |sel_tmp_fu_2084_p2              |   icmp   |      0|  0|   2|           3|           1|
    |ap_sig_bdd_533                  |    or    |      0|  0|   1|           1|           1|
    |j_V_i_s_fu_1986_p2              |    or    |      0|  0|  13|          11|           1|
    +--------------------------------+----------+-------+---+----+------------+------------+
    |Total                           |          |      0|  0|1251|         127|        1238|
    +--------------------------------+----------+-------+---+----+------------+------------+

    * Multiplexer: 
    +---------------------------+----+-----------+-----+-----------+
    |            Name           | LUT| Input Size| Bits| Total Bits|
    +---------------------------+----+-----------+-----+-----------+
    |ap_NS_fsm                  |   1|          5|    1|          5|
    |ap_reg_ppiten_pp0_it1      |   1|          2|    1|          2|
    |ap_reg_ppiten_pp0_it6      |   1|          2|    1|          2|
    |cct_0_address0             |   7|          3|    7|         21|
    |cct_0_address1             |   7|          3|    7|         21|
    |cct_0_address2             |   7|          3|    7|         21|
    |cct_1_address0             |   7|          3|    7|         21|
    |cct_1_address1             |   7|          3|    7|         21|
    |cct_1_address2             |   7|          3|    7|         21|
    |cct_2_address0             |   7|          3|    7|         21|
    |cct_2_address1             |   7|          3|    7|         21|
    |cct_2_address2             |   7|          3|    7|         21|
    |cct_3_address0             |   7|          3|    7|         21|
    |cct_3_address1             |   7|          3|    7|         21|
    |cct_3_address2             |   7|          3|    7|         21|
    |cct_4_address0             |   7|          3|    7|         21|
    |cct_4_address1             |   7|          3|    7|         21|
    |cct_4_address2             |   7|          3|    7|         21|
    |cct_5_address0             |   7|          3|    7|         21|
    |cct_5_address1             |   7|          3|    7|         21|
    |cct_5_address2             |   7|          3|    7|         21|
    |cct_6_address0             |   7|          3|    7|         21|
    |cct_6_address1             |   7|          3|    7|         21|
    |cct_6_address2             |   7|          3|    7|         21|
    |cct_7_address0             |   7|          3|    7|         21|
    |cct_7_address1             |   7|          3|    7|         21|
    |cct_7_address2             |   7|          3|    7|         21|
    |grp_fu_1818_p0             |  32|          3|   32|         96|
    |grp_fu_1818_p1             |  32|          3|   32|         96|
    |grp_fu_1822_p0             |  32|          3|   32|         96|
    |grp_fu_1822_p1             |  32|          3|   32|         96|
    |grp_fu_1826_p0             |  32|          3|   32|         96|
    |grp_fu_1826_p1             |  32|          3|   32|         96|
    |grp_fu_1830_p0             |  32|          3|   32|         96|
    |grp_fu_1830_p1             |  32|          3|   32|         96|
    |grp_fu_1834_p0             |  32|          3|   32|         96|
    |grp_fu_1834_p1             |  32|          3|   32|         96|
    |grp_fu_1838_p0             |  32|          3|   32|         96|
    |grp_fu_1838_p1             |  32|          3|   32|         96|
    |grp_fu_1842_p0             |  32|          3|   32|         96|
    |grp_fu_1842_p1             |  32|          3|   32|         96|
    |grp_fu_1846_p0             |  32|          3|   32|         96|
    |grp_fu_1846_p1             |  32|          3|   32|         96|
    |grp_fu_1850_p0             |  32|          3|   32|         96|
    |grp_fu_1850_p1             |  32|          3|   32|         96|
    |grp_fu_1854_p0             |  32|          3|   32|         96|
    |grp_fu_1854_p1             |  32|          3|   32|         96|
    |grp_fu_1858_p0             |  32|          3|   32|         96|
    |grp_fu_1858_p1             |  32|          3|   32|         96|
    |grp_fu_1862_p0             |  32|          3|   32|         96|
    |grp_fu_1862_p1             |  32|          3|   32|         96|
    |grp_fu_1866_p0             |  32|          3|   32|         96|
    |grp_fu_1866_p1             |  32|          3|   32|         96|
    |grp_fu_1870_p0             |  32|          3|   32|         96|
    |grp_fu_1870_p1             |  32|          3|   32|         96|
    |grp_fu_1874_p0             |  32|          3|   32|         96|
    |grp_fu_1874_p1             |  32|          3|   32|         96|
    |grp_fu_1878_p0             |  32|          3|   32|         96|
    |grp_fu_1878_p1             |  32|          3|   32|         96|
    |grp_fu_1882_p0             |  32|          3|   32|         96|
    |grp_fu_1882_p1             |  32|          3|   32|         96|
    |grp_fu_1886_p0             |  32|          3|   32|         96|
    |grp_fu_1886_p1             |  32|          3|   32|         96|
    |imag_arr1024_0_address0    |   8|          4|    8|         32|
    |imag_arr1024_0_d0          |  32|          4|   32|        128|
    |imag_arr1024_1_address0    |   8|          4|    8|         32|
    |imag_arr1024_1_d0          |  32|          4|   32|        128|
    |imag_arr1024_2_address0    |   8|          4|    8|         32|
    |imag_arr1024_2_d0          |  32|          4|   32|        128|
    |imag_arr1024_3_address0    |   8|          4|    8|         32|
    |imag_arr1024_3_d0          |  32|          4|   32|        128|
    |imag_i_0_address0          |   7|          3|    7|         21|
    |imag_i_1_address0          |   7|          3|    7|         21|
    |imag_i_2_address0          |   7|          3|    7|         21|
    |imag_i_3_address0          |   7|          3|    7|         21|
    |imag_i_4_address0          |   7|          3|    7|         21|
    |imag_i_5_address0          |   7|          3|    7|         21|
    |imag_i_6_address0          |   7|          3|    7|         21|
    |imag_i_7_address0          |   7|          3|    7|         21|
    |p_02_0_i_i_phi_fu_1810_p4  |  11|          2|   11|         22|
    |p_02_0_i_i_reg_1806        |  11|          2|   11|         22|
    |real_arr1024_0_address0    |   8|          4|    8|         32|
    |real_arr1024_0_d0          |  32|          4|   32|        128|
    |real_arr1024_1_address0    |   8|          4|    8|         32|
    |real_arr1024_1_d0          |  32|          4|   32|        128|
    |real_arr1024_2_address0    |   8|          4|    8|         32|
    |real_arr1024_2_d0          |  32|          4|   32|        128|
    |real_arr1024_3_address0    |   8|          4|    8|         32|
    |real_arr1024_3_d0          |  32|          4|   32|        128|
    |real_i_0_address0          |   7|          3|    7|         21|
    |real_i_1_address0          |   7|          3|    7|         21|
    |real_i_2_address0          |   7|          3|    7|         21|
    |real_i_3_address0          |   7|          3|    7|         21|
    |real_i_4_address0          |   7|          3|    7|         21|
    |real_i_5_address0          |   7|          3|    7|         21|
    |real_i_6_address0          |   7|          3|    7|         21|
    |real_i_7_address0          |   7|          3|    7|         21|
    |sct_0_address0             |   7|          3|    7|         21|
    |sct_0_address1             |   7|          3|    7|         21|
    |sct_0_address2             |   7|          3|    7|         21|
    |sct_1_address0             |   7|          3|    7|         21|
    |sct_1_address1             |   7|          3|    7|         21|
    |sct_1_address2             |   7|          3|    7|         21|
    |sct_2_address0             |   7|          3|    7|         21|
    |sct_2_address1             |   7|          3|    7|         21|
    |sct_2_address2             |   7|          3|    7|         21|
    |sct_3_address0             |   7|          3|    7|         21|
    |sct_3_address1             |   7|          3|    7|         21|
    |sct_3_address2             |   7|          3|    7|         21|
    |sct_4_address0             |   7|          3|    7|         21|
    |sct_4_address1             |   7|          3|    7|         21|
    |sct_4_address2             |   7|          3|    7|         21|
    |sct_5_address0             |   7|          3|    7|         21|
    |sct_5_address1             |   7|          3|    7|         21|
    |sct_5_address2             |   7|          3|    7|         21|
    |sct_6_address0             |   7|          3|    7|         21|
    |sct_6_address1             |   7|          3|    7|         21|
    |sct_6_address2             |   7|          3|    7|         21|
    |sct_7_address0             |   7|          3|    7|         21|
    |sct_7_address1             |   7|          3|    7|         21|
    |sct_7_address2             |   7|          3|    7|         21|
    +---------------------------+----+-----------+-----+-----------+
    |Total                      |1945|        377| 1945|       6133|
    +---------------------------+----+-----------+-----+-----------+

    * Register: 
    +------------------------------+----+----+-----+-----------+
    |             Name             | FF | LUT| Bits| Const Bits|
    +------------------------------+----+----+-----+-----------+
    |ap_CS_fsm                     |   4|   0|    4|          0|
    |ap_done_reg                   |   1|   0|    1|          0|
    |ap_reg_ppiten_pp0_it0         |   1|   0|    1|          0|
    |ap_reg_ppiten_pp0_it1         |   1|   0|    1|          0|
    |ap_reg_ppiten_pp0_it2         |   1|   0|    1|          0|
    |ap_reg_ppiten_pp0_it3         |   1|   0|    1|          0|
    |ap_reg_ppiten_pp0_it4         |   1|   0|    1|          0|
    |ap_reg_ppiten_pp0_it5         |   1|   0|    1|          0|
    |ap_reg_ppiten_pp0_it6         |   1|   0|    1|          0|
    |cond1_reg_3123                |   1|   0|    1|          0|
    |cond_reg_3321                 |   1|   0|    1|          0|
    |exitcond_i_i_4_reg_3190       |   1|   0|    1|          0|
    |exitcond_i_i_reg_3010         |   1|   0|    1|          0|
    |imag_i_load_i_0_phi_reg_3270  |  32|   0|   32|          0|
    |imag_i_load_i_1_phi_reg_3371  |  32|   0|   32|          0|
    |imag_i_load_i_2_phi_reg_3463  |  32|   0|   32|          0|
    |imag_i_load_i_3_phi_reg_3999  |  32|   0|   32|          0|
    |imag_i_load_i_4_phi_reg_3849  |  32|   0|   32|          0|
    |imag_i_load_i_5_phi_reg_3941  |  32|   0|   32|          0|
    |index0_V_i_1_cast_reg_3098    |   7|   0|    7|          0|
    |index0_V_i_2_cast_reg_3153    |   7|   0|    7|          0|
    |index0_V_i_3_cast_reg_3520    |   7|   0|    7|          0|
    |index0_V_i_4_cast_reg_3556    |   7|   0|    7|          0|
    |index0_V_i_5_cast_reg_3612    |   7|   0|    7|          0|
    |index0_V_i_cast_reg_3040      |   7|   0|    7|          0|
    |j_V_i_3_reg_3183              |  11|   0|   11|          0|
    |j_V_i_5_reg_3642              |  11|   0|   11|          0|
    |newIndex75_reg_3316           |   9|   0|    9|          0|
    |newIndex81_reg_3178           |   9|   0|    9|          0|
    |newIndex83_reg_3509           |   8|   0|    8|          0|
    |newIndex86_reg_3525           |   9|   0|    9|          0|
    |newIndex90_reg_3581           |   9|   0|    9|          0|
    |newIndex94_reg_3637           |   9|   0|    9|          0|
    |p_02_0_i_i_reg_1806           |  11|   0|   11|          0|
    |real_i_load_i_0_phi_reg_3224  |  32|   0|   32|          0|
    |real_i_load_i_1_phi_reg_3325  |  32|   0|   32|          0|
    |real_i_load_i_2_phi_reg_3417  |  32|   0|   32|          0|
    |real_i_load_i_3_phi_reg_3987  |  32|   0|   32|          0|
    |real_i_load_i_4_phi_reg_3803  |  32|   0|   32|          0|
    |real_i_load_i_5_phi_reg_3895  |  32|   0|   32|          0|
    |reg_1890                      |  32|   0|   32|          0|
    |reg_1898                      |  32|   0|   32|          0|
    |reg_1906                      |  32|   0|   32|          0|
    |reg_1914                      |  32|   0|   32|          0|
    |reg_1922                      |  32|   0|   32|          0|
    |reg_1930                      |  32|   0|   32|          0|
    |sel_tmp2_reg_3204             |   1|   0|    1|          0|
    |sel_tmp4_reg_3214             |   1|   0|    1|          0|
    |sel_tmp_reg_3194              |   1|   0|    1|          0|
    |tmp_10_reg_4023               |  32|   0|   32|          0|
    |tmp_11_reg_4029               |  32|   0|   32|          0|
    |tmp_13_reg_3034               |   3|   0|    3|          0|
    |tmp_15_reg_3065               |   2|   0|    3|          1|
    |tmp_16_reg_3092               |   3|   0|    3|          0|
    |tmp_18_reg_3147               |   3|   0|    3|          0|
    |tmp_19_reg_3514               |   3|   0|    3|          0|
    |tmp_1_reg_3647                |  32|   0|   32|          0|
    |tmp_20_reg_3550               |   3|   0|    3|          0|
    |tmp_21_reg_3606               |   3|   0|    3|          0|
    |tmp_25_i_1_reg_4055           |  32|   0|   32|          0|
    |tmp_25_i_2_reg_4075           |  32|   0|   32|          0|
    |tmp_25_i_3_reg_4095           |  32|   0|   32|          0|
    |tmp_25_i_4_reg_4115           |  32|   0|   32|          0|
    |tmp_25_i_5_reg_4135           |  32|   0|   32|          0|
    |tmp_25_i_reg_4035             |  32|   0|   32|          0|
    |tmp_26_i_1_reg_4060           |  32|   0|   32|          0|
    |tmp_26_i_2_reg_4080           |  32|   0|   32|          0|
    |tmp_26_i_3_reg_4100           |  32|   0|   32|          0|
    |tmp_26_i_4_reg_4120           |  32|   0|   32|          0|
    |tmp_26_i_5_reg_4140           |  32|   0|   32|          0|
    |tmp_26_i_reg_4040             |  32|   0|   32|          0|
    |tmp_28_i_1_reg_4065           |  32|   0|   32|          0|
    |tmp_28_i_2_reg_4085           |  32|   0|   32|          0|
    |tmp_28_i_3_reg_4105           |  32|   0|   32|          0|
    |tmp_28_i_4_reg_4125           |  32|   0|   32|          0|
    |tmp_28_i_5_reg_4145           |  32|   0|   32|          0|
    |tmp_28_i_reg_4045             |  32|   0|   32|          0|
    |tmp_29_i_1_reg_4070           |  32|   0|   32|          0|
    |tmp_29_i_2_reg_4090           |  32|   0|   32|          0|
    |tmp_29_i_3_reg_4110           |  32|   0|   32|          0|
    |tmp_29_i_4_reg_4130           |  32|   0|   32|          0|
    |tmp_29_i_5_reg_4150           |  32|   0|   32|          0|
    |tmp_29_i_reg_4050             |  32|   0|   32|          0|
    |tmp_2_reg_3653                |  32|   0|   32|          0|
    |tmp_3_reg_3659                |  32|   0|   32|          0|
    |tmp_4_reg_3665                |  32|   0|   32|          0|
    |tmp_5_reg_3671                |  32|   0|   32|          0|
    |tmp_6_reg_3677                |  32|   0|   32|          0|
    |tmp_7_reg_3993                |  32|   0|   32|          0|
    |tmp_8_reg_4005                |  32|   0|   32|          0|
    |tmp_9_reg_4011                |  32|   0|   32|          0|
    |tmp_s_reg_4017                |  32|   0|   32|          0|
    |cond1_reg_3123                |   0|   1|    1|          0|
    |cond_reg_3321                 |   0|   1|    1|          0|
    |exitcond_i_i_4_reg_3190       |   0|   1|    1|          0|
    |exitcond_i_i_reg_3010         |   0|   1|    1|          0|
    |newIndex75_reg_3316           |   0|   9|    9|          0|
    |newIndex81_reg_3178           |   0|   9|    9|          0|
    |newIndex86_reg_3525           |   0|   9|    9|          0|
    |newIndex90_reg_3581           |   0|   9|    9|          0|
    |newIndex94_reg_3637           |   0|   9|    9|          0|
    +------------------------------+----+----+-----+-----------+
    |Total                         |1895|  49| 1945|          1|
    +------------------------------+----+----+-----+-----------+



================================================================
== Interface
================================================================
* Summary: 
+-------------------------+-----+-----+------------+-------------------------------+--------------+
|        RTL Ports        | Dir | Bits|  Protocol  |         Source Object         |    C Type    |
+-------------------------+-----+-----+------------+-------------------------------+--------------+
|ap_clk                   |  in |    1| ap_ctrl_hs | dft_loop_flow1024_Loop_1_proc | return value |
|ap_rst                   |  in |    1| ap_ctrl_hs | dft_loop_flow1024_Loop_1_proc | return value |
|ap_start                 |  in |    1| ap_ctrl_hs | dft_loop_flow1024_Loop_1_proc | return value |
|ap_done                  | out |    1| ap_ctrl_hs | dft_loop_flow1024_Loop_1_proc | return value |
|ap_continue              |  in |    1| ap_ctrl_hs | dft_loop_flow1024_Loop_1_proc | return value |
|ap_idle                  | out |    1| ap_ctrl_hs | dft_loop_flow1024_Loop_1_proc | return value |
|ap_ready                 | out |    1| ap_ctrl_hs | dft_loop_flow1024_Loop_1_proc | return value |
|i_V_read                 |  in |   11|   ap_none  |            i_V_read           |    scalar    |
|real_i_5_address0        | out |    7|  ap_memory |            real_i_5           |     array    |
|real_i_5_ce0             | out |    1|  ap_memory |            real_i_5           |     array    |
|real_i_5_q0              |  in |   32|  ap_memory |            real_i_5           |     array    |
|real_i_5_address1        | out |    7|  ap_memory |            real_i_5           |     array    |
|real_i_5_ce1             | out |    1|  ap_memory |            real_i_5           |     array    |
|real_i_5_q1              |  in |   32|  ap_memory |            real_i_5           |     array    |
|real_i_7_address0        | out |    7|  ap_memory |            real_i_7           |     array    |
|real_i_7_ce0             | out |    1|  ap_memory |            real_i_7           |     array    |
|real_i_7_q0              |  in |   32|  ap_memory |            real_i_7           |     array    |
|real_i_7_address1        | out |    7|  ap_memory |            real_i_7           |     array    |
|real_i_7_ce1             | out |    1|  ap_memory |            real_i_7           |     array    |
|real_i_7_q1              |  in |   32|  ap_memory |            real_i_7           |     array    |
|real_i_1_address0        | out |    7|  ap_memory |            real_i_1           |     array    |
|real_i_1_ce0             | out |    1|  ap_memory |            real_i_1           |     array    |
|real_i_1_q0              |  in |   32|  ap_memory |            real_i_1           |     array    |
|real_i_1_address1        | out |    7|  ap_memory |            real_i_1           |     array    |
|real_i_1_ce1             | out |    1|  ap_memory |            real_i_1           |     array    |
|real_i_1_q1              |  in |   32|  ap_memory |            real_i_1           |     array    |
|real_i_3_address0        | out |    7|  ap_memory |            real_i_3           |     array    |
|real_i_3_ce0             | out |    1|  ap_memory |            real_i_3           |     array    |
|real_i_3_q0              |  in |   32|  ap_memory |            real_i_3           |     array    |
|real_i_3_address1        | out |    7|  ap_memory |            real_i_3           |     array    |
|real_i_3_ce1             | out |    1|  ap_memory |            real_i_3           |     array    |
|real_i_3_q1              |  in |   32|  ap_memory |            real_i_3           |     array    |
|real_i_4_address0        | out |    7|  ap_memory |            real_i_4           |     array    |
|real_i_4_ce0             | out |    1|  ap_memory |            real_i_4           |     array    |
|real_i_4_q0              |  in |   32|  ap_memory |            real_i_4           |     array    |
|real_i_4_address1        | out |    7|  ap_memory |            real_i_4           |     array    |
|real_i_4_ce1             | out |    1|  ap_memory |            real_i_4           |     array    |
|real_i_4_q1              |  in |   32|  ap_memory |            real_i_4           |     array    |
|real_i_6_address0        | out |    7|  ap_memory |            real_i_6           |     array    |
|real_i_6_ce0             | out |    1|  ap_memory |            real_i_6           |     array    |
|real_i_6_q0              |  in |   32|  ap_memory |            real_i_6           |     array    |
|real_i_6_address1        | out |    7|  ap_memory |            real_i_6           |     array    |
|real_i_6_ce1             | out |    1|  ap_memory |            real_i_6           |     array    |
|real_i_6_q1              |  in |   32|  ap_memory |            real_i_6           |     array    |
|real_i_0_address0        | out |    7|  ap_memory |            real_i_0           |     array    |
|real_i_0_ce0             | out |    1|  ap_memory |            real_i_0           |     array    |
|real_i_0_q0              |  in |   32|  ap_memory |            real_i_0           |     array    |
|real_i_0_address1        | out |    7|  ap_memory |            real_i_0           |     array    |
|real_i_0_ce1             | out |    1|  ap_memory |            real_i_0           |     array    |
|real_i_0_q1              |  in |   32|  ap_memory |            real_i_0           |     array    |
|real_i_2_address0        | out |    7|  ap_memory |            real_i_2           |     array    |
|real_i_2_ce0             | out |    1|  ap_memory |            real_i_2           |     array    |
|real_i_2_q0              |  in |   32|  ap_memory |            real_i_2           |     array    |
|real_i_2_address1        | out |    7|  ap_memory |            real_i_2           |     array    |
|real_i_2_ce1             | out |    1|  ap_memory |            real_i_2           |     array    |
|real_i_2_q1              |  in |   32|  ap_memory |            real_i_2           |     array    |
|imag_i_0_address0        | out |    7|  ap_memory |            imag_i_0           |     array    |
|imag_i_0_ce0             | out |    1|  ap_memory |            imag_i_0           |     array    |
|imag_i_0_q0              |  in |   32|  ap_memory |            imag_i_0           |     array    |
|imag_i_0_address1        | out |    7|  ap_memory |            imag_i_0           |     array    |
|imag_i_0_ce1             | out |    1|  ap_memory |            imag_i_0           |     array    |
|imag_i_0_q1              |  in |   32|  ap_memory |            imag_i_0           |     array    |
|imag_i_2_address0        | out |    7|  ap_memory |            imag_i_2           |     array    |
|imag_i_2_ce0             | out |    1|  ap_memory |            imag_i_2           |     array    |
|imag_i_2_q0              |  in |   32|  ap_memory |            imag_i_2           |     array    |
|imag_i_2_address1        | out |    7|  ap_memory |            imag_i_2           |     array    |
|imag_i_2_ce1             | out |    1|  ap_memory |            imag_i_2           |     array    |
|imag_i_2_q1              |  in |   32|  ap_memory |            imag_i_2           |     array    |
|imag_i_4_address0        | out |    7|  ap_memory |            imag_i_4           |     array    |
|imag_i_4_ce0             | out |    1|  ap_memory |            imag_i_4           |     array    |
|imag_i_4_q0              |  in |   32|  ap_memory |            imag_i_4           |     array    |
|imag_i_4_address1        | out |    7|  ap_memory |            imag_i_4           |     array    |
|imag_i_4_ce1             | out |    1|  ap_memory |            imag_i_4           |     array    |
|imag_i_4_q1              |  in |   32|  ap_memory |            imag_i_4           |     array    |
|imag_i_6_address0        | out |    7|  ap_memory |            imag_i_6           |     array    |
|imag_i_6_ce0             | out |    1|  ap_memory |            imag_i_6           |     array    |
|imag_i_6_q0              |  in |   32|  ap_memory |            imag_i_6           |     array    |
|imag_i_6_address1        | out |    7|  ap_memory |            imag_i_6           |     array    |
|imag_i_6_ce1             | out |    1|  ap_memory |            imag_i_6           |     array    |
|imag_i_6_q1              |  in |   32|  ap_memory |            imag_i_6           |     array    |
|imag_i_1_address0        | out |    7|  ap_memory |            imag_i_1           |     array    |
|imag_i_1_ce0             | out |    1|  ap_memory |            imag_i_1           |     array    |
|imag_i_1_q0              |  in |   32|  ap_memory |            imag_i_1           |     array    |
|imag_i_1_address1        | out |    7|  ap_memory |            imag_i_1           |     array    |
|imag_i_1_ce1             | out |    1|  ap_memory |            imag_i_1           |     array    |
|imag_i_1_q1              |  in |   32|  ap_memory |            imag_i_1           |     array    |
|imag_i_3_address0        | out |    7|  ap_memory |            imag_i_3           |     array    |
|imag_i_3_ce0             | out |    1|  ap_memory |            imag_i_3           |     array    |
|imag_i_3_q0              |  in |   32|  ap_memory |            imag_i_3           |     array    |
|imag_i_3_address1        | out |    7|  ap_memory |            imag_i_3           |     array    |
|imag_i_3_ce1             | out |    1|  ap_memory |            imag_i_3           |     array    |
|imag_i_3_q1              |  in |   32|  ap_memory |            imag_i_3           |     array    |
|imag_i_5_address0        | out |    7|  ap_memory |            imag_i_5           |     array    |
|imag_i_5_ce0             | out |    1|  ap_memory |            imag_i_5           |     array    |
|imag_i_5_q0              |  in |   32|  ap_memory |            imag_i_5           |     array    |
|imag_i_5_address1        | out |    7|  ap_memory |            imag_i_5           |     array    |
|imag_i_5_ce1             | out |    1|  ap_memory |            imag_i_5           |     array    |
|imag_i_5_q1              |  in |   32|  ap_memory |            imag_i_5           |     array    |
|imag_i_7_address0        | out |    7|  ap_memory |            imag_i_7           |     array    |
|imag_i_7_ce0             | out |    1|  ap_memory |            imag_i_7           |     array    |
|imag_i_7_q0              |  in |   32|  ap_memory |            imag_i_7           |     array    |
|imag_i_7_address1        | out |    7|  ap_memory |            imag_i_7           |     array    |
|imag_i_7_ce1             | out |    1|  ap_memory |            imag_i_7           |     array    |
|imag_i_7_q1              |  in |   32|  ap_memory |            imag_i_7           |     array    |
|imag_arr1024_1_address0  | out |    8|  ap_memory |         imag_arr1024_1        |     array    |
|imag_arr1024_1_ce0       | out |    1|  ap_memory |         imag_arr1024_1        |     array    |
|imag_arr1024_1_we0       | out |    1|  ap_memory |         imag_arr1024_1        |     array    |
|imag_arr1024_1_d0        | out |   32|  ap_memory |         imag_arr1024_1        |     array    |
|real_arr1024_1_address0  | out |    8|  ap_memory |         real_arr1024_1        |     array    |
|real_arr1024_1_ce0       | out |    1|  ap_memory |         real_arr1024_1        |     array    |
|real_arr1024_1_we0       | out |    1|  ap_memory |         real_arr1024_1        |     array    |
|real_arr1024_1_d0        | out |   32|  ap_memory |         real_arr1024_1        |     array    |
|imag_arr1024_0_address0  | out |    8|  ap_memory |         imag_arr1024_0        |     array    |
|imag_arr1024_0_ce0       | out |    1|  ap_memory |         imag_arr1024_0        |     array    |
|imag_arr1024_0_we0       | out |    1|  ap_memory |         imag_arr1024_0        |     array    |
|imag_arr1024_0_d0        | out |   32|  ap_memory |         imag_arr1024_0        |     array    |
|real_arr1024_0_address0  | out |    8|  ap_memory |         real_arr1024_0        |     array    |
|real_arr1024_0_ce0       | out |    1|  ap_memory |         real_arr1024_0        |     array    |
|real_arr1024_0_we0       | out |    1|  ap_memory |         real_arr1024_0        |     array    |
|real_arr1024_0_d0        | out |   32|  ap_memory |         real_arr1024_0        |     array    |
|imag_arr1024_3_address0  | out |    8|  ap_memory |         imag_arr1024_3        |     array    |
|imag_arr1024_3_ce0       | out |    1|  ap_memory |         imag_arr1024_3        |     array    |
|imag_arr1024_3_we0       | out |    1|  ap_memory |         imag_arr1024_3        |     array    |
|imag_arr1024_3_d0        | out |   32|  ap_memory |         imag_arr1024_3        |     array    |
|real_arr1024_3_address0  | out |    8|  ap_memory |         real_arr1024_3        |     array    |
|real_arr1024_3_ce0       | out |    1|  ap_memory |         real_arr1024_3        |     array    |
|real_arr1024_3_we0       | out |    1|  ap_memory |         real_arr1024_3        |     array    |
|real_arr1024_3_d0        | out |   32|  ap_memory |         real_arr1024_3        |     array    |
|imag_arr1024_2_address0  | out |    8|  ap_memory |         imag_arr1024_2        |     array    |
|imag_arr1024_2_ce0       | out |    1|  ap_memory |         imag_arr1024_2        |     array    |
|imag_arr1024_2_we0       | out |    1|  ap_memory |         imag_arr1024_2        |     array    |
|imag_arr1024_2_d0        | out |   32|  ap_memory |         imag_arr1024_2        |     array    |
|real_arr1024_2_address0  | out |    8|  ap_memory |         real_arr1024_2        |     array    |
|real_arr1024_2_ce0       | out |    1|  ap_memory |         real_arr1024_2        |     array    |
|real_arr1024_2_we0       | out |    1|  ap_memory |         real_arr1024_2        |     array    |
|real_arr1024_2_d0        | out |   32|  ap_memory |         real_arr1024_2        |     array    |
+-------------------------+-----+-----+------------+-------------------------------+--------------+

