

================================================================
== Vivado HLS Report for 'dft_loop_flow256'
================================================================
* Date:           Thu Nov 03 00:37:36 2016

* Version:        2015.4 (Build 1412921 on Wed Nov 18 09:58:55 AM 2015)
* Project:        dft
* Solution:       solution3
* Product family: zynq
* Target device:  xc7z020clg484-1


================================================================
== Performance Estimates
================================================================
+ Timing (ns): 
    * Summary: 
    +--------+-------+----------+------------+
    |  Clock | Target| Estimated| Uncertainty|
    +--------+-------+----------+------------+
    |ap_clk  |  10.00|      7.26|        1.25|
    +--------+-------+----------+------------+

+ Latency (clock cycles): 
    * Summary: 
    +-----+-----+-----+-----+----------+
    |  Latency  |  Interval | Pipeline |
    | min | max | min | max |   Type   |
    +-----+-----+-----+-----+----------+
    |   72|   72|   73|   73| dataflow |
    +-----+-----+-----+-----+----------+

    + Detail: 
        * Instance: 
        +----------------------------------------+------------------------------+-----+-----+-----+-----+---------+
        |                                        |                              |  Latency  |  Interval | Pipeline|
        |                Instance                |            Module            | min | max | min | max |   Type  |
        +----------------------------------------+------------------------------+-----+-----+-----+-----+---------+
        |grp_dft_loop_flow256_Loop_1_proc_fu_40  |dft_loop_flow256_Loop_1_proc  |   72|   72|   72|   72|   none  |
        +----------------------------------------+------------------------------+-----+-----+-----+-----+---------+

        * Loop: 
        N/A



================================================================
== Utilization Estimates
================================================================
* Summary: 
+-----------------+---------+-------+--------+-------+
|       Name      | BRAM_18K| DSP48E|   FF   |  LUT  |
+-----------------+---------+-------+--------+-------+
|DSP              |        -|      -|       -|      -|
|Expression       |        -|      -|       -|      -|
|FIFO             |        -|      -|       -|      -|
|Instance         |        -|     16|    2989|   3902|
|Memory           |        -|      -|       -|      -|
|Multiplexer      |        -|      -|       -|      -|
|Register         |        -|      -|       2|      -|
+-----------------+---------+-------+--------+-------+
|Total            |        0|     16|    2991|   3902|
+-----------------+---------+-------+--------+-------+
|Available        |      280|    220|  106400|  53200|
+-----------------+---------+-------+--------+-------+
|Utilization (%)  |        0|      7|       2|      7|
+-----------------+---------+-------+--------+-------+

+ Detail: 
    * Instance: 
    +---------------------------------+------------------------------+---------+-------+------+------+
    |             Instance            |            Module            | BRAM_18K| DSP48E|  FF  |  LUT |
    +---------------------------------+------------------------------+---------+-------+------+------+
    |dft_loop_flow256_Loop_1_proc_U0  |dft_loop_flow256_Loop_1_proc  |        0|     16|  2989|  3902|
    +---------------------------------+------------------------------+---------+-------+------+------+
    |Total                            |                              |        0|     16|  2989|  3902|
    +---------------------------------+------------------------------+---------+-------+------+------+

    * DSP48: 
    N/A

    * Memory: 
    N/A

    * FIFO: 
    N/A

    * Expression: 
    N/A

    * Multiplexer: 
    N/A

    * Register: 
    +-------------------------------------------------+---+----+-----+-----------+
    |                       Name                      | FF| LUT| Bits| Const Bits|
    +-------------------------------------------------+---+----+-----+-----------+
    |ap_CS                                            |  1|   0|    1|          0|
    |ap_reg_procdone_dft_loop_flow256_Loop_1_proc_U0  |  1|   0|    1|          0|
    +-------------------------------------------------+---+----+-----+-----------+
    |Total                                            |  2|   0|    2|          0|
    +-------------------------------------------------+---+----+-----+-----------+



================================================================
== Interface
================================================================
* Summary: 
+------------------------+-----+-----+------------+------------------+--------------+
|        RTL Ports       | Dir | Bits|  Protocol  |   Source Object  |    C Type    |
+------------------------+-----+-----+------------+------------------+--------------+
|real_arr512_0_address0  | out |    7|  ap_memory |   real_arr512_0  |     array    |
|real_arr512_0_ce0       | out |    1|  ap_memory |   real_arr512_0  |     array    |
|real_arr512_0_d0        | out |   32|  ap_memory |   real_arr512_0  |     array    |
|real_arr512_0_q0        |  in |   32|  ap_memory |   real_arr512_0  |     array    |
|real_arr512_0_we0       | out |    1|  ap_memory |   real_arr512_0  |     array    |
|real_arr512_0_address1  | out |    7|  ap_memory |   real_arr512_0  |     array    |
|real_arr512_0_ce1       | out |    1|  ap_memory |   real_arr512_0  |     array    |
|real_arr512_0_d1        | out |   32|  ap_memory |   real_arr512_0  |     array    |
|real_arr512_0_q1        |  in |   32|  ap_memory |   real_arr512_0  |     array    |
|real_arr512_0_we1       | out |    1|  ap_memory |   real_arr512_0  |     array    |
|real_arr512_1_address0  | out |    7|  ap_memory |   real_arr512_1  |     array    |
|real_arr512_1_ce0       | out |    1|  ap_memory |   real_arr512_1  |     array    |
|real_arr512_1_d0        | out |   32|  ap_memory |   real_arr512_1  |     array    |
|real_arr512_1_q0        |  in |   32|  ap_memory |   real_arr512_1  |     array    |
|real_arr512_1_we0       | out |    1|  ap_memory |   real_arr512_1  |     array    |
|real_arr512_1_address1  | out |    7|  ap_memory |   real_arr512_1  |     array    |
|real_arr512_1_ce1       | out |    1|  ap_memory |   real_arr512_1  |     array    |
|real_arr512_1_d1        | out |   32|  ap_memory |   real_arr512_1  |     array    |
|real_arr512_1_q1        |  in |   32|  ap_memory |   real_arr512_1  |     array    |
|real_arr512_1_we1       | out |    1|  ap_memory |   real_arr512_1  |     array    |
|real_arr256_0_address0  | out |    6|  ap_memory |   real_arr256_0  |     array    |
|real_arr256_0_ce0       | out |    1|  ap_memory |   real_arr256_0  |     array    |
|real_arr256_0_d0        | out |   32|  ap_memory |   real_arr256_0  |     array    |
|real_arr256_0_q0        |  in |   32|  ap_memory |   real_arr256_0  |     array    |
|real_arr256_0_we0       | out |    1|  ap_memory |   real_arr256_0  |     array    |
|real_arr256_0_address1  | out |    6|  ap_memory |   real_arr256_0  |     array    |
|real_arr256_0_ce1       | out |    1|  ap_memory |   real_arr256_0  |     array    |
|real_arr256_0_d1        | out |   32|  ap_memory |   real_arr256_0  |     array    |
|real_arr256_0_q1        |  in |   32|  ap_memory |   real_arr256_0  |     array    |
|real_arr256_0_we1       | out |    1|  ap_memory |   real_arr256_0  |     array    |
|imag_arr512_0_address0  | out |    7|  ap_memory |   imag_arr512_0  |     array    |
|imag_arr512_0_ce0       | out |    1|  ap_memory |   imag_arr512_0  |     array    |
|imag_arr512_0_d0        | out |   32|  ap_memory |   imag_arr512_0  |     array    |
|imag_arr512_0_q0        |  in |   32|  ap_memory |   imag_arr512_0  |     array    |
|imag_arr512_0_we0       | out |    1|  ap_memory |   imag_arr512_0  |     array    |
|imag_arr512_0_address1  | out |    7|  ap_memory |   imag_arr512_0  |     array    |
|imag_arr512_0_ce1       | out |    1|  ap_memory |   imag_arr512_0  |     array    |
|imag_arr512_0_d1        | out |   32|  ap_memory |   imag_arr512_0  |     array    |
|imag_arr512_0_q1        |  in |   32|  ap_memory |   imag_arr512_0  |     array    |
|imag_arr512_0_we1       | out |    1|  ap_memory |   imag_arr512_0  |     array    |
|imag_arr512_1_address0  | out |    7|  ap_memory |   imag_arr512_1  |     array    |
|imag_arr512_1_ce0       | out |    1|  ap_memory |   imag_arr512_1  |     array    |
|imag_arr512_1_d0        | out |   32|  ap_memory |   imag_arr512_1  |     array    |
|imag_arr512_1_q0        |  in |   32|  ap_memory |   imag_arr512_1  |     array    |
|imag_arr512_1_we0       | out |    1|  ap_memory |   imag_arr512_1  |     array    |
|imag_arr512_1_address1  | out |    7|  ap_memory |   imag_arr512_1  |     array    |
|imag_arr512_1_ce1       | out |    1|  ap_memory |   imag_arr512_1  |     array    |
|imag_arr512_1_d1        | out |   32|  ap_memory |   imag_arr512_1  |     array    |
|imag_arr512_1_q1        |  in |   32|  ap_memory |   imag_arr512_1  |     array    |
|imag_arr512_1_we1       | out |    1|  ap_memory |   imag_arr512_1  |     array    |
|imag_arr256_0_address0  | out |    6|  ap_memory |   imag_arr256_0  |     array    |
|imag_arr256_0_ce0       | out |    1|  ap_memory |   imag_arr256_0  |     array    |
|imag_arr256_0_d0        | out |   32|  ap_memory |   imag_arr256_0  |     array    |
|imag_arr256_0_q0        |  in |   32|  ap_memory |   imag_arr256_0  |     array    |
|imag_arr256_0_we0       | out |    1|  ap_memory |   imag_arr256_0  |     array    |
|imag_arr256_0_address1  | out |    6|  ap_memory |   imag_arr256_0  |     array    |
|imag_arr256_0_ce1       | out |    1|  ap_memory |   imag_arr256_0  |     array    |
|imag_arr256_0_d1        | out |   32|  ap_memory |   imag_arr256_0  |     array    |
|imag_arr256_0_q1        |  in |   32|  ap_memory |   imag_arr256_0  |     array    |
|imag_arr256_0_we1       | out |    1|  ap_memory |   imag_arr256_0  |     array    |
|real_arr512_2_address0  | out |    7|  ap_memory |   real_arr512_2  |     array    |
|real_arr512_2_ce0       | out |    1|  ap_memory |   real_arr512_2  |     array    |
|real_arr512_2_d0        | out |   32|  ap_memory |   real_arr512_2  |     array    |
|real_arr512_2_q0        |  in |   32|  ap_memory |   real_arr512_2  |     array    |
|real_arr512_2_we0       | out |    1|  ap_memory |   real_arr512_2  |     array    |
|real_arr512_2_address1  | out |    7|  ap_memory |   real_arr512_2  |     array    |
|real_arr512_2_ce1       | out |    1|  ap_memory |   real_arr512_2  |     array    |
|real_arr512_2_d1        | out |   32|  ap_memory |   real_arr512_2  |     array    |
|real_arr512_2_q1        |  in |   32|  ap_memory |   real_arr512_2  |     array    |
|real_arr512_2_we1       | out |    1|  ap_memory |   real_arr512_2  |     array    |
|real_arr512_3_address0  | out |    7|  ap_memory |   real_arr512_3  |     array    |
|real_arr512_3_ce0       | out |    1|  ap_memory |   real_arr512_3  |     array    |
|real_arr512_3_d0        | out |   32|  ap_memory |   real_arr512_3  |     array    |
|real_arr512_3_q0        |  in |   32|  ap_memory |   real_arr512_3  |     array    |
|real_arr512_3_we0       | out |    1|  ap_memory |   real_arr512_3  |     array    |
|real_arr512_3_address1  | out |    7|  ap_memory |   real_arr512_3  |     array    |
|real_arr512_3_ce1       | out |    1|  ap_memory |   real_arr512_3  |     array    |
|real_arr512_3_d1        | out |   32|  ap_memory |   real_arr512_3  |     array    |
|real_arr512_3_q1        |  in |   32|  ap_memory |   real_arr512_3  |     array    |
|real_arr512_3_we1       | out |    1|  ap_memory |   real_arr512_3  |     array    |
|real_arr256_1_address0  | out |    6|  ap_memory |   real_arr256_1  |     array    |
|real_arr256_1_ce0       | out |    1|  ap_memory |   real_arr256_1  |     array    |
|real_arr256_1_d0        | out |   32|  ap_memory |   real_arr256_1  |     array    |
|real_arr256_1_q0        |  in |   32|  ap_memory |   real_arr256_1  |     array    |
|real_arr256_1_we0       | out |    1|  ap_memory |   real_arr256_1  |     array    |
|real_arr256_1_address1  | out |    6|  ap_memory |   real_arr256_1  |     array    |
|real_arr256_1_ce1       | out |    1|  ap_memory |   real_arr256_1  |     array    |
|real_arr256_1_d1        | out |   32|  ap_memory |   real_arr256_1  |     array    |
|real_arr256_1_q1        |  in |   32|  ap_memory |   real_arr256_1  |     array    |
|real_arr256_1_we1       | out |    1|  ap_memory |   real_arr256_1  |     array    |
|imag_arr512_2_address0  | out |    7|  ap_memory |   imag_arr512_2  |     array    |
|imag_arr512_2_ce0       | out |    1|  ap_memory |   imag_arr512_2  |     array    |
|imag_arr512_2_d0        | out |   32|  ap_memory |   imag_arr512_2  |     array    |
|imag_arr512_2_q0        |  in |   32|  ap_memory |   imag_arr512_2  |     array    |
|imag_arr512_2_we0       | out |    1|  ap_memory |   imag_arr512_2  |     array    |
|imag_arr512_2_address1  | out |    7|  ap_memory |   imag_arr512_2  |     array    |
|imag_arr512_2_ce1       | out |    1|  ap_memory |   imag_arr512_2  |     array    |
|imag_arr512_2_d1        | out |   32|  ap_memory |   imag_arr512_2  |     array    |
|imag_arr512_2_q1        |  in |   32|  ap_memory |   imag_arr512_2  |     array    |
|imag_arr512_2_we1       | out |    1|  ap_memory |   imag_arr512_2  |     array    |
|imag_arr512_3_address0  | out |    7|  ap_memory |   imag_arr512_3  |     array    |
|imag_arr512_3_ce0       | out |    1|  ap_memory |   imag_arr512_3  |     array    |
|imag_arr512_3_d0        | out |   32|  ap_memory |   imag_arr512_3  |     array    |
|imag_arr512_3_q0        |  in |   32|  ap_memory |   imag_arr512_3  |     array    |
|imag_arr512_3_we0       | out |    1|  ap_memory |   imag_arr512_3  |     array    |
|imag_arr512_3_address1  | out |    7|  ap_memory |   imag_arr512_3  |     array    |
|imag_arr512_3_ce1       | out |    1|  ap_memory |   imag_arr512_3  |     array    |
|imag_arr512_3_d1        | out |   32|  ap_memory |   imag_arr512_3  |     array    |
|imag_arr512_3_q1        |  in |   32|  ap_memory |   imag_arr512_3  |     array    |
|imag_arr512_3_we1       | out |    1|  ap_memory |   imag_arr512_3  |     array    |
|imag_arr256_1_address0  | out |    6|  ap_memory |   imag_arr256_1  |     array    |
|imag_arr256_1_ce0       | out |    1|  ap_memory |   imag_arr256_1  |     array    |
|imag_arr256_1_d0        | out |   32|  ap_memory |   imag_arr256_1  |     array    |
|imag_arr256_1_q0        |  in |   32|  ap_memory |   imag_arr256_1  |     array    |
|imag_arr256_1_we0       | out |    1|  ap_memory |   imag_arr256_1  |     array    |
|imag_arr256_1_address1  | out |    6|  ap_memory |   imag_arr256_1  |     array    |
|imag_arr256_1_ce1       | out |    1|  ap_memory |   imag_arr256_1  |     array    |
|imag_arr256_1_d1        | out |   32|  ap_memory |   imag_arr256_1  |     array    |
|imag_arr256_1_q1        |  in |   32|  ap_memory |   imag_arr256_1  |     array    |
|imag_arr256_1_we1       | out |    1|  ap_memory |   imag_arr256_1  |     array    |
|real_arr256_2_address0  | out |    6|  ap_memory |   real_arr256_2  |     array    |
|real_arr256_2_ce0       | out |    1|  ap_memory |   real_arr256_2  |     array    |
|real_arr256_2_d0        | out |   32|  ap_memory |   real_arr256_2  |     array    |
|real_arr256_2_q0        |  in |   32|  ap_memory |   real_arr256_2  |     array    |
|real_arr256_2_we0       | out |    1|  ap_memory |   real_arr256_2  |     array    |
|real_arr256_2_address1  | out |    6|  ap_memory |   real_arr256_2  |     array    |
|real_arr256_2_ce1       | out |    1|  ap_memory |   real_arr256_2  |     array    |
|real_arr256_2_d1        | out |   32|  ap_memory |   real_arr256_2  |     array    |
|real_arr256_2_q1        |  in |   32|  ap_memory |   real_arr256_2  |     array    |
|real_arr256_2_we1       | out |    1|  ap_memory |   real_arr256_2  |     array    |
|imag_arr256_2_address0  | out |    6|  ap_memory |   imag_arr256_2  |     array    |
|imag_arr256_2_ce0       | out |    1|  ap_memory |   imag_arr256_2  |     array    |
|imag_arr256_2_d0        | out |   32|  ap_memory |   imag_arr256_2  |     array    |
|imag_arr256_2_q0        |  in |   32|  ap_memory |   imag_arr256_2  |     array    |
|imag_arr256_2_we0       | out |    1|  ap_memory |   imag_arr256_2  |     array    |
|imag_arr256_2_address1  | out |    6|  ap_memory |   imag_arr256_2  |     array    |
|imag_arr256_2_ce1       | out |    1|  ap_memory |   imag_arr256_2  |     array    |
|imag_arr256_2_d1        | out |   32|  ap_memory |   imag_arr256_2  |     array    |
|imag_arr256_2_q1        |  in |   32|  ap_memory |   imag_arr256_2  |     array    |
|imag_arr256_2_we1       | out |    1|  ap_memory |   imag_arr256_2  |     array    |
|real_arr256_3_address0  | out |    6|  ap_memory |   real_arr256_3  |     array    |
|real_arr256_3_ce0       | out |    1|  ap_memory |   real_arr256_3  |     array    |
|real_arr256_3_d0        | out |   32|  ap_memory |   real_arr256_3  |     array    |
|real_arr256_3_q0        |  in |   32|  ap_memory |   real_arr256_3  |     array    |
|real_arr256_3_we0       | out |    1|  ap_memory |   real_arr256_3  |     array    |
|real_arr256_3_address1  | out |    6|  ap_memory |   real_arr256_3  |     array    |
|real_arr256_3_ce1       | out |    1|  ap_memory |   real_arr256_3  |     array    |
|real_arr256_3_d1        | out |   32|  ap_memory |   real_arr256_3  |     array    |
|real_arr256_3_q1        |  in |   32|  ap_memory |   real_arr256_3  |     array    |
|real_arr256_3_we1       | out |    1|  ap_memory |   real_arr256_3  |     array    |
|imag_arr256_3_address0  | out |    6|  ap_memory |   imag_arr256_3  |     array    |
|imag_arr256_3_ce0       | out |    1|  ap_memory |   imag_arr256_3  |     array    |
|imag_arr256_3_d0        | out |   32|  ap_memory |   imag_arr256_3  |     array    |
|imag_arr256_3_q0        |  in |   32|  ap_memory |   imag_arr256_3  |     array    |
|imag_arr256_3_we0       | out |    1|  ap_memory |   imag_arr256_3  |     array    |
|imag_arr256_3_address1  | out |    6|  ap_memory |   imag_arr256_3  |     array    |
|imag_arr256_3_ce1       | out |    1|  ap_memory |   imag_arr256_3  |     array    |
|imag_arr256_3_d1        | out |   32|  ap_memory |   imag_arr256_3  |     array    |
|imag_arr256_3_q1        |  in |   32|  ap_memory |   imag_arr256_3  |     array    |
|imag_arr256_3_we1       | out |    1|  ap_memory |   imag_arr256_3  |     array    |
|ap_clk                  |  in |    1| ap_ctrl_hs | dft_loop_flow256 | return value |
|ap_rst                  |  in |    1| ap_ctrl_hs | dft_loop_flow256 | return value |
|ap_done                 | out |    1| ap_ctrl_hs | dft_loop_flow256 | return value |
|ap_start                |  in |    1| ap_ctrl_hs | dft_loop_flow256 | return value |
|ap_idle                 | out |    1| ap_ctrl_hs | dft_loop_flow256 | return value |
|ap_ready                | out |    1| ap_ctrl_hs | dft_loop_flow256 | return value |
+------------------------+-----+-----+------------+------------------+--------------+

