

================================================================
== Vivado HLS Report for 'dft'
================================================================
* Date:           Sat Oct 29 18:57:27 2016

* Version:        2015.4 (Build 1412921 on Wed Nov 18 09:58:55 AM 2015)
* Project:        dft
* Solution:       dft_opt1
* Product family: zynq
* Target device:  xc7z020clg484-1


================================================================
== Performance Estimates
================================================================
+ Timing (ns): 
    * Summary: 
    +--------+-------+----------+------------+
    |  Clock | Target| Estimated| Uncertainty|
    +--------+-------+----------+------------+
    |ap_clk  |  10.00|      8.41|        1.25|
    +--------+-------+----------+------------+

+ Latency (clock cycles): 
    * Summary: 
    +---------+---------+---------+---------+---------+
    |      Latency      |      Interval     | Pipeline|
    |   min   |   max   |   min   |   max   |   Type  |
    +---------+---------+---------+---------+---------+
    |  1115138|  1115138|  1115139|  1115139|   none  |
    +---------+---------+---------+---------+---------+

    + Detail: 
        * Instance: 
        N/A

        * Loop: 
        +-------------+---------+---------+----------+-----------+-----------+------+----------+
        |             |      Latency      | Iteration|  Initiation Interval  | Trip |          |
        |  Loop Name  |   min   |   max   |  Latency |  achieved |   target  | Count| Pipelined|
        +-------------+---------+---------+----------+-----------+-----------+------+----------+
        |- Loop 1     |  1114624|  1114624|      4354|          -|          -|   256|    no    |
        | + Loop 1.1  |     4352|     4352|        17|          -|          -|   256|    no    |
        |- Loop 2     |      512|      512|         2|          -|          -|   256|    no    |
        +-------------+---------+---------+----------+-----------+-----------+------+----------+

============================================================
+ Verbose Summary: Synthesis Manager
============================================================
InlineROM: 1
ExposeGlobal: 0
============================================================
+ Verbose Summary: CDFG Model
============================================================
IsTopModel: 1
ResetActiveHigh: 1
IsCombinational: 0
IsDatapathOnly: 0
HasWiredReturn: 1
HasMFsm: 0
HasVarLatency: 1
IsPipeline: 0
IsRtlPipelined: 0
IsInstanceOverlapped: 0
IsDontTouch: 0
HasImplIP: 0
IsGatedGlobalClock: 0


============================================================
+ Verbose Summary: Schedule
============================================================
* Number of FSM states: 21
* Pipeline: 0
* Dataflow Pipeline: 0

* FSM state transitions: 
1 --> 
	2  / true
2 --> 
	20  / (exitcond2)
	3  / (!exitcond2)
3 --> 
	2  / (exitcond1)
	4  / (!exitcond1)
4 --> 
	5  / true
5 --> 
	6  / true
6 --> 
	7  / true
7 --> 
	8  / true
8 --> 
	9  / true
9 --> 
	10  / true
10 --> 
	11  / true
11 --> 
	12  / true
12 --> 
	13  / true
13 --> 
	14  / true
14 --> 
	15  / true
15 --> 
	16  / true
16 --> 
	17  / true
17 --> 
	18  / true
18 --> 
	19  / true
19 --> 
	3  / true
20 --> 
	21  / (!exitcond)
21 --> 
	20  / true
* FSM state operations: 

 <State 1>: 1.57ns
ST_1: stg_22 [1/1] 0.00ns
:0  call void (...)* @_ssdm_op_SpecBitsMap([256 x float]* %sample_real) nounwind, !map !7

ST_1: stg_23 [1/1] 0.00ns
:1  call void (...)* @_ssdm_op_SpecBitsMap([256 x float]* %sample_imag) nounwind, !map !13

ST_1: stg_24 [1/1] 0.00ns
:2  call void (...)* @_ssdm_op_SpecTopModule([4 x i8]* @dft_str) nounwind

ST_1: tmp_real [1/1] 0.00ns
:3  %tmp_real = alloca [256 x float], align 16

ST_1: tmp_imag [1/1] 0.00ns
:4  %tmp_imag = alloca [256 x float], align 16

ST_1: stg_27 [1/1] 1.57ns
:5  br label %.loopexit


 <State 2>: 3.60ns
ST_2: i [1/1] 0.00ns
.loopexit:0  %i = phi i9 [ 0, %0 ], [ %i_2, %2 ]

ST_2: tmp_1 [1/1] 0.00ns
.loopexit:1  %tmp_1 = trunc i9 %i to i8

ST_2: exitcond2 [1/1] 2.03ns
.loopexit:2  %exitcond2 = icmp eq i9 %i, -256

ST_2: empty [1/1] 0.00ns
.loopexit:3  %empty = call i32 (...)* @_ssdm_op_SpecLoopTripCount(i64 256, i64 256, i64 256) nounwind

ST_2: i_2 [1/1] 1.84ns
.loopexit:4  %i_2 = add i9 1, %i

ST_2: stg_33 [1/1] 1.57ns
.loopexit:5  br i1 %exitcond2, label %.preheader, label %1

ST_2: tmp [1/1] 0.00ns
:0  %tmp = zext i9 %i to i64

ST_2: tmp_real_addr [1/1] 0.00ns
:1  %tmp_real_addr = getelementptr inbounds [256 x float]* %tmp_real, i64 0, i64 %tmp

ST_2: stg_36 [1/1] 2.71ns
:2  store float 0.000000e+00, float* %tmp_real_addr, align 4

ST_2: tmp_imag_addr [1/1] 0.00ns
:3  %tmp_imag_addr = getelementptr inbounds [256 x float]* %tmp_imag, i64 0, i64 %tmp

ST_2: stg_38 [1/1] 1.57ns
:4  br label %2


 <State 3>: 6.38ns
ST_3: storemerge [1/1] 0.00ns
:0  %storemerge = phi float [ 0.000000e+00, %1 ], [ %tmp_13, %3 ]

ST_3: tmp_2 [1/1] 0.00ns
:1  %tmp_2 = phi float [ 0.000000e+00, %1 ], [ %tmp_7, %3 ]

ST_3: j [1/1] 0.00ns
:2  %j = phi i9 [ 0, %1 ], [ %j_1, %3 ]

ST_3: stg_42 [1/1] 2.71ns
:3  store float %storemerge, float* %tmp_imag_addr, align 4

ST_3: tmp_14 [1/1] 0.00ns
:4  %tmp_14 = trunc i9 %j to i8

ST_3: exitcond1 [1/1] 2.03ns
:5  %exitcond1 = icmp eq i9 %j, -256

ST_3: empty_3 [1/1] 0.00ns
:6  %empty_3 = call i32 (...)* @_ssdm_op_SpecLoopTripCount(i64 256, i64 256, i64 256) nounwind

ST_3: j_1 [1/1] 1.84ns
:7  %j_1 = add i9 1, %j

ST_3: stg_47 [1/1] 0.00ns
:8  br i1 %exitcond1, label %.loopexit, label %3

ST_3: tmp_6 [1/1] 6.38ns
:0  %tmp_6 = mul i8 %tmp_1, %tmp_14


 <State 4>: 2.71ns
ST_4: tmp_8 [1/1] 0.00ns
:1  %tmp_8 = zext i8 %tmp_6 to i64

ST_4: cos_coefficients_table_addr [1/1] 0.00ns
:2  %cos_coefficients_table_addr = getelementptr inbounds [256 x float]* @cos_coefficients_table, i64 0, i64 %tmp_8

ST_4: c [2/2] 2.39ns
:3  %c = load float* %cos_coefficients_table_addr, align 4

ST_4: sin_coefficients_table_addr [1/1] 0.00ns
:4  %sin_coefficients_table_addr = getelementptr inbounds [256 x float]* @sin_coefficients_table, i64 0, i64 %tmp_8

ST_4: s [2/2] 2.39ns
:5  %s = load float* %sin_coefficients_table_addr, align 4

ST_4: tmp_9 [1/1] 0.00ns
:6  %tmp_9 = zext i9 %j to i64

ST_4: sample_real_addr_1 [1/1] 0.00ns
:7  %sample_real_addr_1 = getelementptr [256 x float]* %sample_real, i64 0, i64 %tmp_9

ST_4: sample_real_load [2/2] 2.71ns
:8  %sample_real_load = load float* %sample_real_addr_1, align 4

ST_4: sample_imag_addr_1 [1/1] 0.00ns
:10  %sample_imag_addr_1 = getelementptr [256 x float]* %sample_imag, i64 0, i64 %tmp_9

ST_4: sample_imag_load [2/2] 2.71ns
:11  %sample_imag_load = load float* %sample_imag_addr_1, align 4


 <State 5>: 8.41ns
ST_5: c [1/2] 2.39ns
:3  %c = load float* %cos_coefficients_table_addr, align 4

ST_5: s [1/2] 2.39ns
:5  %s = load float* %sin_coefficients_table_addr, align 4

ST_5: sample_real_load [1/2] 2.71ns
:8  %sample_real_load = load float* %sample_real_addr_1, align 4

ST_5: tmp_s [4/4] 5.70ns
:9  %tmp_s = fmul float %sample_real_load, %c

ST_5: sample_imag_load [1/2] 2.71ns
:11  %sample_imag_load = load float* %sample_imag_addr_1, align 4

ST_5: tmp_4 [4/4] 5.70ns
:12  %tmp_4 = fmul float %sample_imag_load, %s

ST_5: tmp_10 [4/4] 5.70ns
:16  %tmp_10 = fmul float %sample_real_load, %s

ST_5: tmp_11 [4/4] 5.70ns
:17  %tmp_11 = fmul float %sample_imag_load, %c


 <State 6>: 5.70ns
ST_6: tmp_s [3/4] 5.70ns
:9  %tmp_s = fmul float %sample_real_load, %c

ST_6: tmp_4 [3/4] 5.70ns
:12  %tmp_4 = fmul float %sample_imag_load, %s

ST_6: tmp_10 [3/4] 5.70ns
:16  %tmp_10 = fmul float %sample_real_load, %s

ST_6: tmp_11 [3/4] 5.70ns
:17  %tmp_11 = fmul float %sample_imag_load, %c


 <State 7>: 5.70ns
ST_7: tmp_s [2/4] 5.70ns
:9  %tmp_s = fmul float %sample_real_load, %c

ST_7: tmp_4 [2/4] 5.70ns
:12  %tmp_4 = fmul float %sample_imag_load, %s

ST_7: tmp_10 [2/4] 5.70ns
:16  %tmp_10 = fmul float %sample_real_load, %s

ST_7: tmp_11 [2/4] 5.70ns
:17  %tmp_11 = fmul float %sample_imag_load, %c


 <State 8>: 5.70ns
ST_8: tmp_s [1/4] 5.70ns
:9  %tmp_s = fmul float %sample_real_load, %c

ST_8: tmp_4 [1/4] 5.70ns
:12  %tmp_4 = fmul float %sample_imag_load, %s

ST_8: tmp_10 [1/4] 5.70ns
:16  %tmp_10 = fmul float %sample_real_load, %s

ST_8: tmp_11 [1/4] 5.70ns
:17  %tmp_11 = fmul float %sample_imag_load, %c


 <State 9>: 7.26ns
ST_9: tmp_5 [5/5] 7.26ns
:13  %tmp_5 = fsub float %tmp_s, %tmp_4

ST_9: tmp_12 [5/5] 7.26ns
:18  %tmp_12 = fadd float %tmp_10, %tmp_11


 <State 10>: 7.26ns
ST_10: tmp_5 [4/5] 7.26ns
:13  %tmp_5 = fsub float %tmp_s, %tmp_4

ST_10: tmp_12 [4/5] 7.26ns
:18  %tmp_12 = fadd float %tmp_10, %tmp_11


 <State 11>: 7.26ns
ST_11: tmp_5 [3/5] 7.26ns
:13  %tmp_5 = fsub float %tmp_s, %tmp_4

ST_11: tmp_12 [3/5] 7.26ns
:18  %tmp_12 = fadd float %tmp_10, %tmp_11


 <State 12>: 7.26ns
ST_12: tmp_5 [2/5] 7.26ns
:13  %tmp_5 = fsub float %tmp_s, %tmp_4

ST_12: tmp_12 [2/5] 7.26ns
:18  %tmp_12 = fadd float %tmp_10, %tmp_11


 <State 13>: 7.26ns
ST_13: tmp_5 [1/5] 7.26ns
:13  %tmp_5 = fsub float %tmp_s, %tmp_4

ST_13: tmp_12 [1/5] 7.26ns
:18  %tmp_12 = fadd float %tmp_10, %tmp_11


 <State 14>: 7.26ns
ST_14: tmp_7 [5/5] 7.26ns
:14  %tmp_7 = fadd float %tmp_2, %tmp_5

ST_14: tmp_13 [5/5] 7.26ns
:19  %tmp_13 = fadd float %storemerge, %tmp_12


 <State 15>: 7.26ns
ST_15: tmp_7 [4/5] 7.26ns
:14  %tmp_7 = fadd float %tmp_2, %tmp_5

ST_15: tmp_13 [4/5] 7.26ns
:19  %tmp_13 = fadd float %storemerge, %tmp_12


 <State 16>: 7.26ns
ST_16: tmp_7 [3/5] 7.26ns
:14  %tmp_7 = fadd float %tmp_2, %tmp_5

ST_16: tmp_13 [3/5] 7.26ns
:19  %tmp_13 = fadd float %storemerge, %tmp_12


 <State 17>: 7.26ns
ST_17: tmp_7 [2/5] 7.26ns
:14  %tmp_7 = fadd float %tmp_2, %tmp_5

ST_17: tmp_13 [2/5] 7.26ns
:19  %tmp_13 = fadd float %storemerge, %tmp_12


 <State 18>: 7.26ns
ST_18: tmp_7 [1/5] 7.26ns
:14  %tmp_7 = fadd float %tmp_2, %tmp_5

ST_18: tmp_13 [1/5] 7.26ns
:19  %tmp_13 = fadd float %storemerge, %tmp_12


 <State 19>: 2.71ns
ST_19: stg_99 [1/1] 2.71ns
:15  store float %tmp_7, float* %tmp_real_addr, align 4

ST_19: stg_100 [1/1] 0.00ns
:20  br label %2


 <State 20>: 2.71ns
ST_20: i1 [1/1] 0.00ns
.preheader:0  %i1 = phi i9 [ %i_1, %4 ], [ 0, %.loopexit ]

ST_20: exitcond [1/1] 2.03ns
.preheader:1  %exitcond = icmp eq i9 %i1, -256

ST_20: empty_4 [1/1] 0.00ns
.preheader:2  %empty_4 = call i32 (...)* @_ssdm_op_SpecLoopTripCount(i64 256, i64 256, i64 256) nounwind

ST_20: i_1 [1/1] 1.84ns
.preheader:3  %i_1 = add i9 %i1, 1

ST_20: stg_105 [1/1] 0.00ns
.preheader:4  br i1 %exitcond, label %5, label %4

ST_20: tmp_3 [1/1] 0.00ns
:0  %tmp_3 = zext i9 %i1 to i64

ST_20: tmp_real_addr_1 [1/1] 0.00ns
:1  %tmp_real_addr_1 = getelementptr inbounds [256 x float]* %tmp_real, i64 0, i64 %tmp_3

ST_20: tmp_real_load [2/2] 2.71ns
:2  %tmp_real_load = load float* %tmp_real_addr_1, align 4

ST_20: tmp_imag_addr_1 [1/1] 0.00ns
:5  %tmp_imag_addr_1 = getelementptr inbounds [256 x float]* %tmp_imag, i64 0, i64 %tmp_3

ST_20: tmp_imag_load [2/2] 2.71ns
:6  %tmp_imag_load = load float* %tmp_imag_addr_1, align 4

ST_20: stg_111 [1/1] 0.00ns
:0  ret void


 <State 21>: 5.42ns
ST_21: tmp_real_load [1/2] 2.71ns
:2  %tmp_real_load = load float* %tmp_real_addr_1, align 4

ST_21: sample_real_addr [1/1] 0.00ns
:3  %sample_real_addr = getelementptr [256 x float]* %sample_real, i64 0, i64 %tmp_3

ST_21: stg_114 [1/1] 2.71ns
:4  store float %tmp_real_load, float* %sample_real_addr, align 4

ST_21: tmp_imag_load [1/2] 2.71ns
:6  %tmp_imag_load = load float* %tmp_imag_addr_1, align 4

ST_21: sample_imag_addr [1/1] 0.00ns
:7  %sample_imag_addr = getelementptr [256 x float]* %sample_imag, i64 0, i64 %tmp_3

ST_21: stg_117 [1/1] 2.71ns
:8  store float %tmp_imag_load, float* %sample_imag_addr, align 4

ST_21: stg_118 [1/1] 0.00ns
:9  br label %.preheader



============================================================
+ Verbose Summary: Binding
============================================================
N/A
* FSMD analyzer results:
  - Output states:
  - Chain level:
	State 1
	State 2
	State 3
	State 4
	State 5
	State 6
	State 7
	State 8
	State 9
	State 10
	State 11
	State 12
	State 13
	State 14
	State 15
	State 16
	State 17
	State 18
	State 19
	State 20
	State 21


============================================================
+ Verbose Summary: Datapath Resource usage 
============================================================
N/A
