; ModuleID = 'D:/Projects/vivado/Project_1/project1/fir128/fir/fir128_optimized6/.autopilot/db/a.o.2.bc'
target datalayout = "e-p:64:64:64-i1:8:8-i8:8:8-i16:16:16-i32:32:32-i64:64:64-f32:32:32-f64:64:64-v64:64:64-v128:128:128-a0:0:64-s0:64:64-f80:128:128-n8:16:32:64-S128"
target triple = "x86_64-w64-mingw32"

@shift_reg_V_7_9 = internal unnamed_addr global i8 0
@shift_reg_V_7_8 = internal unnamed_addr global i8 0
@shift_reg_V_7_7 = internal unnamed_addr global i8 0
@shift_reg_V_7_6 = internal unnamed_addr global i8 0
@shift_reg_V_7_5 = internal unnamed_addr global i8 0
@shift_reg_V_7_4 = internal unnamed_addr global i8 0
@shift_reg_V_7_3 = internal unnamed_addr global i8 0
@shift_reg_V_7_2 = internal unnamed_addr global i8 0
@shift_reg_V_7_14 = internal unnamed_addr global i8 0
@shift_reg_V_7_13 = internal unnamed_addr global i8 0
@shift_reg_V_7_12 = internal unnamed_addr global i8 0
@shift_reg_V_7_11 = internal unnamed_addr global i8 0
@shift_reg_V_7_10 = internal unnamed_addr global i8 0
@shift_reg_V_7_1 = internal unnamed_addr global i8 0
@shift_reg_V_7_0 = internal unnamed_addr global i8 0
@shift_reg_V_6_9 = internal unnamed_addr global i8 0
@shift_reg_V_6_8 = internal unnamed_addr global i8 0
@shift_reg_V_6_7 = internal unnamed_addr global i8 0
@shift_reg_V_6_6 = internal unnamed_addr global i8 0
@shift_reg_V_6_5 = internal unnamed_addr global i8 0
@shift_reg_V_6_4 = internal unnamed_addr global i8 0
@shift_reg_V_6_3 = internal unnamed_addr global i8 0
@shift_reg_V_6_2 = internal unnamed_addr global i8 0
@shift_reg_V_6_15 = internal unnamed_addr global i8 0
@shift_reg_V_6_14 = internal unnamed_addr global i8 0
@shift_reg_V_6_13 = internal unnamed_addr global i8 0
@shift_reg_V_6_12 = internal unnamed_addr global i8 0
@shift_reg_V_6_11 = internal unnamed_addr global i8 0
@shift_reg_V_6_10 = internal unnamed_addr global i8 0
@shift_reg_V_6_1 = internal unnamed_addr global i8 0
@shift_reg_V_6_0 = internal unnamed_addr global i8 0
@shift_reg_V_5_9 = internal unnamed_addr global i8 0
@shift_reg_V_5_8 = internal unnamed_addr global i8 0
@shift_reg_V_5_7 = internal unnamed_addr global i8 0
@shift_reg_V_5_6 = internal unnamed_addr global i8 0
@shift_reg_V_5_5 = internal unnamed_addr global i8 0
@shift_reg_V_5_4 = internal unnamed_addr global i8 0
@shift_reg_V_5_3 = internal unnamed_addr global i8 0
@shift_reg_V_5_2 = internal unnamed_addr global i8 0
@shift_reg_V_5_15 = internal unnamed_addr global i8 0
@shift_reg_V_5_14 = internal unnamed_addr global i8 0
@shift_reg_V_5_13 = internal unnamed_addr global i8 0
@shift_reg_V_5_12 = internal unnamed_addr global i8 0
@shift_reg_V_5_11 = internal unnamed_addr global i8 0
@shift_reg_V_5_10 = internal unnamed_addr global i8 0
@shift_reg_V_5_1 = internal unnamed_addr global i8 0
@shift_reg_V_5_0 = internal unnamed_addr global i8 0
@shift_reg_V_4_9 = internal unnamed_addr global i8 0
@shift_reg_V_4_8 = internal unnamed_addr global i8 0
@shift_reg_V_4_7 = internal unnamed_addr global i8 0
@shift_reg_V_4_6 = internal unnamed_addr global i8 0
@shift_reg_V_4_5 = internal unnamed_addr global i8 0
@shift_reg_V_4_4 = internal unnamed_addr global i8 0
@shift_reg_V_4_3 = internal unnamed_addr global i8 0
@shift_reg_V_4_2 = internal unnamed_addr global i8 0
@shift_reg_V_4_15 = internal unnamed_addr global i8 0
@shift_reg_V_4_14 = internal unnamed_addr global i8 0
@shift_reg_V_4_13 = internal unnamed_addr global i8 0
@shift_reg_V_4_12 = internal unnamed_addr global i8 0
@shift_reg_V_4_11 = internal unnamed_addr global i8 0
@shift_reg_V_4_10 = internal unnamed_addr global i8 0
@shift_reg_V_4_1 = internal unnamed_addr global i8 0
@shift_reg_V_4_0 = internal unnamed_addr global i8 0
@shift_reg_V_3_9 = internal unnamed_addr global i8 0
@shift_reg_V_3_8 = internal unnamed_addr global i8 0
@shift_reg_V_3_7 = internal unnamed_addr global i8 0
@shift_reg_V_3_6 = internal unnamed_addr global i8 0
@shift_reg_V_3_5 = internal unnamed_addr global i8 0
@shift_reg_V_3_4 = internal unnamed_addr global i8 0
@shift_reg_V_3_3 = internal unnamed_addr global i8 0
@shift_reg_V_3_2 = internal unnamed_addr global i8 0
@shift_reg_V_3_15 = internal unnamed_addr global i8 0
@shift_reg_V_3_14 = internal unnamed_addr global i8 0
@shift_reg_V_3_13 = internal unnamed_addr global i8 0
@shift_reg_V_3_12 = internal unnamed_addr global i8 0
@shift_reg_V_3_11 = internal unnamed_addr global i8 0
@shift_reg_V_3_10 = internal unnamed_addr global i8 0
@shift_reg_V_3_1 = internal unnamed_addr global i8 0
@shift_reg_V_3_0 = internal unnamed_addr global i8 0
@shift_reg_V_2_9 = internal unnamed_addr global i8 0
@shift_reg_V_2_8 = internal unnamed_addr global i8 0
@shift_reg_V_2_7 = internal unnamed_addr global i8 0
@shift_reg_V_2_6 = internal unnamed_addr global i8 0
@shift_reg_V_2_5 = internal unnamed_addr global i8 0
@shift_reg_V_2_4 = internal unnamed_addr global i8 0
@shift_reg_V_2_3 = internal unnamed_addr global i8 0
@shift_reg_V_2_2 = internal unnamed_addr global i8 0
@shift_reg_V_2_15 = internal unnamed_addr global i8 0
@shift_reg_V_2_14 = internal unnamed_addr global i8 0
@shift_reg_V_2_13 = internal unnamed_addr global i8 0
@shift_reg_V_2_12 = internal unnamed_addr global i8 0
@shift_reg_V_2_11 = internal unnamed_addr global i8 0
@shift_reg_V_2_10 = internal unnamed_addr global i8 0
@shift_reg_V_2_1 = internal unnamed_addr global i8 0
@shift_reg_V_2_0 = internal unnamed_addr global i8 0
@shift_reg_V_1_9 = internal unnamed_addr global i8 0
@shift_reg_V_1_8 = internal unnamed_addr global i8 0
@shift_reg_V_1_7 = internal unnamed_addr global i8 0
@shift_reg_V_1_6 = internal unnamed_addr global i8 0
@shift_reg_V_1_5 = internal unnamed_addr global i8 0
@shift_reg_V_1_4 = internal unnamed_addr global i8 0
@shift_reg_V_1_3 = internal unnamed_addr global i8 0
@shift_reg_V_1_2 = internal unnamed_addr global i8 0
@shift_reg_V_1_15 = internal unnamed_addr global i8 0
@shift_reg_V_1_14 = internal unnamed_addr global i8 0
@shift_reg_V_1_13 = internal unnamed_addr global i8 0
@shift_reg_V_1_12 = internal unnamed_addr global i8 0
@shift_reg_V_1_11 = internal unnamed_addr global i8 0
@shift_reg_V_1_10 = internal unnamed_addr global i8 0
@shift_reg_V_1_1 = internal unnamed_addr global i8 0
@shift_reg_V_1_0 = internal unnamed_addr global i8 0
@shift_reg_V_0_9 = internal unnamed_addr global i8 0
@shift_reg_V_0_8 = internal unnamed_addr global i8 0
@shift_reg_V_0_7 = internal unnamed_addr global i8 0
@shift_reg_V_0_6 = internal unnamed_addr global i8 0
@shift_reg_V_0_5 = internal unnamed_addr global i8 0
@shift_reg_V_0_4 = internal unnamed_addr global i8 0
@shift_reg_V_0_3 = internal unnamed_addr global i8 0
@shift_reg_V_0_2 = internal unnamed_addr global i8 0
@shift_reg_V_0_15 = internal unnamed_addr global i8 0
@shift_reg_V_0_14 = internal unnamed_addr global i8 0
@shift_reg_V_0_13 = internal unnamed_addr global i8 0
@shift_reg_V_0_12 = internal unnamed_addr global i8 0
@shift_reg_V_0_11 = internal unnamed_addr global i8 0
@shift_reg_V_0_10 = internal unnamed_addr global i8 0
@shift_reg_V_0_1 = internal unnamed_addr global i8 0
@shift_reg_V_0_0 = internal unnamed_addr global i8 0
@llvm_global_ctors_1 = appending global [1 x void ()*] [void ()* @_GLOBAL__I_a]
@llvm_global_ctors_0 = appending global [1 x i32] [i32 65535]
@fir_str = internal unnamed_addr constant [4 x i8] c"fir\00"

declare void @llvm.dbg.value(metadata, i64, metadata) nounwind readnone

define void @fir(i32* %y, i32 %x) nounwind uwtable {
.preheader.preheader:
  call void (...)* @_ssdm_op_SpecBitsMap(i32* %y) nounwind, !map !7
  call void (...)* @_ssdm_op_SpecBitsMap(i32 %x) nounwind, !map !11
  call void (...)* @_ssdm_op_SpecTopModule([4 x i8]* @fir_str) nounwind
  %x_read = call i32 @_ssdm_op_Read.ap_auto.i32(i32 %x) nounwind
  %shift_reg_V_7_14_load = load i8* @shift_reg_V_7_14, align 2
  %lhs_V_1_cast = sext i8 %shift_reg_V_7_14_load to i10
  %shift_reg_V_7_13_load = load i8* @shift_reg_V_7_13, align 1
  store i8 %shift_reg_V_7_13_load, i8* @shift_reg_V_7_14, align 2
  %lhs_V_1_1_cast = sext i8 %shift_reg_V_7_13_load to i9
  %shift_reg_V_7_12_load = load i8* @shift_reg_V_7_12, align 4
  store i8 %shift_reg_V_7_12_load, i8* @shift_reg_V_7_13, align 1
  %lhs_V_1_2_cast = sext i8 %shift_reg_V_7_12_load to i9
  %shift_reg_V_7_11_load = load i8* @shift_reg_V_7_11, align 1
  store i8 %shift_reg_V_7_11_load, i8* @shift_reg_V_7_12, align 4
  %lhs_V_1_3_cast = sext i8 %shift_reg_V_7_11_load to i9
  %shift_reg_V_7_10_load = load i8* @shift_reg_V_7_10, align 2
  store i8 %shift_reg_V_7_10_load, i8* @shift_reg_V_7_11, align 1
  %lhs_V_1_4_cast = sext i8 %shift_reg_V_7_10_load to i10
  %shift_reg_V_7_9_load = load i8* @shift_reg_V_7_9, align 1
  store i8 %shift_reg_V_7_9_load, i8* @shift_reg_V_7_10, align 2
  %lhs_V_1_5_cast = sext i8 %shift_reg_V_7_9_load to i9
  %shift_reg_V_7_8_load = load i8* @shift_reg_V_7_8, align 8
  store i8 %shift_reg_V_7_8_load, i8* @shift_reg_V_7_9, align 1
  %lhs_V_1_6_cast = sext i8 %shift_reg_V_7_8_load to i9
  %shift_reg_V_7_7_load = load i8* @shift_reg_V_7_7, align 1
  store i8 %shift_reg_V_7_7_load, i8* @shift_reg_V_7_8, align 8
  %lhs_V_1_7_cast = sext i8 %shift_reg_V_7_7_load to i10
  %shift_reg_V_7_6_load = load i8* @shift_reg_V_7_6, align 2
  store i8 %shift_reg_V_7_6_load, i8* @shift_reg_V_7_7, align 1
  %lhs_V_1_8_cast = sext i8 %shift_reg_V_7_6_load to i9
  %shift_reg_V_7_5_load = load i8* @shift_reg_V_7_5, align 1
  store i8 %shift_reg_V_7_5_load, i8* @shift_reg_V_7_6, align 2
  %lhs_V_1_9_cast = sext i8 %shift_reg_V_7_5_load to i9
  %shift_reg_V_7_4_load = load i8* @shift_reg_V_7_4, align 4
  store i8 %shift_reg_V_7_4_load, i8* @shift_reg_V_7_5, align 1
  %lhs_V_1_cast_2 = sext i8 %shift_reg_V_7_4_load to i10
  %shift_reg_V_7_3_load = load i8* @shift_reg_V_7_3, align 1
  store i8 %shift_reg_V_7_3_load, i8* @shift_reg_V_7_4, align 4
  %lhs_V_1_10_cast = sext i8 %shift_reg_V_7_3_load to i9
  %shift_reg_V_7_2_load = load i8* @shift_reg_V_7_2, align 2
  store i8 %shift_reg_V_7_2_load, i8* @shift_reg_V_7_3, align 1
  %lhs_V_1_11_cast = sext i8 %shift_reg_V_7_2_load to i9
  %shift_reg_V_7_1_load = load i8* @shift_reg_V_7_1, align 1
  store i8 %shift_reg_V_7_1_load, i8* @shift_reg_V_7_2, align 2
  %lhs_V_1_12_cast = sext i8 %shift_reg_V_7_1_load to i10
  %shift_reg_V_7_0_load = load i8* @shift_reg_V_7_0, align 16
  store i8 %shift_reg_V_7_0_load, i8* @shift_reg_V_7_1, align 1
  %lhs_V_1_13_cast = sext i8 %shift_reg_V_7_0_load to i9
  %shift_reg_V_6_15_load = load i8* @shift_reg_V_6_15, align 1
  store i8 %shift_reg_V_6_15_load, i8* @shift_reg_V_7_0, align 16
  %lhs_V_1_14_cast = sext i8 %shift_reg_V_6_15_load to i9
  %shift_reg_V_6_14_load = load i8* @shift_reg_V_6_14, align 2
  store i8 %shift_reg_V_6_14_load, i8* @shift_reg_V_6_15, align 1
  %lhs_V_1_15_cast = sext i8 %shift_reg_V_6_14_load to i9
  %shift_reg_V_6_13_load = load i8* @shift_reg_V_6_13, align 1
  store i8 %shift_reg_V_6_13_load, i8* @shift_reg_V_6_14, align 2
  %lhs_V_1_16_cast = sext i8 %shift_reg_V_6_13_load to i10
  %shift_reg_V_6_12_load = load i8* @shift_reg_V_6_12, align 4
  store i8 %shift_reg_V_6_12_load, i8* @shift_reg_V_6_13, align 1
  %lhs_V_1_17_cast = sext i8 %shift_reg_V_6_12_load to i9
  %shift_reg_V_6_11_load = load i8* @shift_reg_V_6_11, align 1
  store i8 %shift_reg_V_6_11_load, i8* @shift_reg_V_6_12, align 4
  %lhs_V_1_18_cast = sext i8 %shift_reg_V_6_11_load to i10
  %shift_reg_V_6_10_load = load i8* @shift_reg_V_6_10, align 2
  store i8 %shift_reg_V_6_10_load, i8* @shift_reg_V_6_11, align 1
  %lhs_V_1_19_cast = sext i8 %shift_reg_V_6_10_load to i9
  %shift_reg_V_6_9_load = load i8* @shift_reg_V_6_9, align 1
  store i8 %shift_reg_V_6_9_load, i8* @shift_reg_V_6_10, align 2
  %lhs_V_1_20_cast = sext i8 %shift_reg_V_6_9_load to i9
  %shift_reg_V_6_8_load = load i8* @shift_reg_V_6_8, align 8
  store i8 %shift_reg_V_6_8_load, i8* @shift_reg_V_6_9, align 1
  %lhs_V_1_21_cast = sext i8 %shift_reg_V_6_8_load to i9
  %tmp = add i9 %lhs_V_1_19_cast, %lhs_V_1_20_cast
  %tmp161_cast = sext i9 %tmp to i11
  %tmp1 = add i9 %lhs_V_1_15_cast, %lhs_V_1_17_cast
  %tmp163_cast = sext i9 %tmp1 to i10
  %tmp2 = add i10 %tmp163_cast, %lhs_V_1_18_cast
  %tmp162_cast = sext i10 %tmp2 to i11
  %tmp3 = add i11 %tmp162_cast, %tmp161_cast
  %tmp160_cast = sext i11 %tmp3 to i12
  %tmp4 = add i9 %lhs_V_1_11_cast, %lhs_V_1_10_cast
  %tmp166_cast = sext i9 %tmp4 to i10
  %tmp5 = add i10 %tmp166_cast, %lhs_V_1_16_cast
  %tmp165_cast = sext i10 %tmp5 to i11
  %tmp6 = add i9 %lhs_V_1_14_cast, %lhs_V_1_13_cast
  %tmp168_cast = sext i9 %tmp6 to i10
  %tmp7 = add i10 %tmp168_cast, %lhs_V_1_12_cast
  %tmp167_cast = sext i10 %tmp7 to i11
  %tmp8 = add i11 %tmp167_cast, %tmp165_cast
  %tmp164_cast = sext i11 %tmp8 to i12
  %tmp9 = add i12 %tmp164_cast, %tmp160_cast
  %tmp159_cast = sext i12 %tmp9 to i13
  %tmp10 = add i9 %lhs_V_1_1_cast, %lhs_V_1_2_cast
  %tmp172_cast = sext i9 %tmp10 to i10
  %tmp11 = add i10 %tmp172_cast, %lhs_V_1_cast
  %tmp171_cast = sext i10 %tmp11 to i11
  %tmp12 = add i9 %lhs_V_1_3_cast, %lhs_V_1_5_cast
  %tmp174_cast = sext i9 %tmp12 to i10
  %tmp13 = add i10 %tmp174_cast, %lhs_V_1_4_cast
  %tmp173_cast = sext i10 %tmp13 to i11
  %tmp14 = add i11 %tmp173_cast, %tmp171_cast
  %tmp170_cast = sext i11 %tmp14 to i12
  %tmp15 = add i9 %lhs_V_1_6_cast, %lhs_V_1_8_cast
  %tmp177_cast = sext i9 %tmp15 to i10
  %tmp16 = add i10 %tmp177_cast, %lhs_V_1_7_cast
  %tmp176_cast = sext i10 %tmp16 to i11
  %tmp17 = add i9 %lhs_V_1_9_cast, %lhs_V_1_21_cast
  %tmp179_cast = sext i9 %tmp17 to i10
  %tmp18 = add i10 %tmp179_cast, %lhs_V_1_cast_2
  %tmp178_cast = sext i10 %tmp18 to i11
  %tmp19 = add i11 %tmp178_cast, %tmp176_cast
  %tmp175_cast = sext i11 %tmp19 to i12
  %tmp20 = add i12 %tmp175_cast, %tmp170_cast
  %tmp169_cast = sext i12 %tmp20 to i13
  %r_V_1_s = add i13 %tmp169_cast, %tmp159_cast
  %p_shl2 = call i16 @_ssdm_op_BitConcatenate.i16.i13.i3(i13 %r_V_1_s, i3 0)
  %p_shl3 = call i14 @_ssdm_op_BitConcatenate.i14.i13.i1(i13 %r_V_1_s, i1 false)
  %p_shl3_cast = sext i14 %p_shl3 to i16
  %shift_reg_V_6_7_load = load i8* @shift_reg_V_6_7, align 1
  store i8 %shift_reg_V_6_7_load, i8* @shift_reg_V_6_8, align 8
  %lhs_V_1_22_cast = sext i8 %shift_reg_V_6_7_load to i13
  %r_V_1_1 = mul i13 11, %lhs_V_1_22_cast
  %r_V_1_22_cast = sext i13 %r_V_1_1 to i16
  %shift_reg_V_6_6_load = load i8* @shift_reg_V_6_6, align 2
  store i8 %shift_reg_V_6_6_load, i8* @shift_reg_V_6_7, align 1
  %lhs_V_1_23_cast = sext i8 %shift_reg_V_6_6_load to i13
  %r_V_1_2 = mul i13 11, %lhs_V_1_23_cast
  %shift_reg_V_6_5_load = load i8* @shift_reg_V_6_5, align 1
  store i8 %shift_reg_V_6_5_load, i8* @shift_reg_V_6_6, align 2
  %r_V_1_3 = call i11 @_ssdm_op_BitConcatenate.i11.i8.i3(i8 %shift_reg_V_6_5_load, i3 0)
  %r_V_1_24_cast = sext i11 %r_V_1_3 to i13
  %shift_reg_V_6_4_load = load i8* @shift_reg_V_6_4, align 4
  store i8 %shift_reg_V_6_4_load, i8* @shift_reg_V_6_5, align 1
  %lhs_V_1_25_cast = sext i8 %shift_reg_V_6_4_load to i11
  %p_shl4 = call i10 @_ssdm_op_BitConcatenate.i10.i8.i2(i8 %shift_reg_V_6_4_load, i2 0)
  %p_shl4_cast = sext i10 %p_shl4 to i11
  %r_V_1_4 = sub i11 %p_shl4_cast, %lhs_V_1_25_cast
  %shift_reg_V_6_3_load = load i8* @shift_reg_V_6_3, align 1
  store i8 %shift_reg_V_6_3_load, i8* @shift_reg_V_6_4, align 4
  %lhs_V_1_26_cast = sext i8 %shift_reg_V_6_3_load to i11
  %tmp_1 = call i10 @_ssdm_op_BitConcatenate.i10.i8.i2(i8 %shift_reg_V_6_3_load, i2 0)
  %p_shl = sext i10 %tmp_1 to i11
  %r_V_1_5 = sub i11 %lhs_V_1_26_cast, %p_shl
  %tmp21 = add i16 %p_shl2, %r_V_1_22_cast
  %tmp22 = add i16 %tmp21, %p_shl3_cast
  %tmp23 = add i13 %r_V_1_2, %r_V_1_24_cast
  %tmp24 = add i11 %r_V_1_4, %r_V_1_5
  %tmp184_cast = sext i11 %tmp24 to i13
  %tmp25 = add i13 %tmp184_cast, %tmp23
  %tmp182_cast = sext i13 %tmp25 to i16
  %acc_V_5 = add i16 %tmp182_cast, %tmp22
  %shift_reg_V_6_2_load = load i8* @shift_reg_V_6_2, align 2
  store i8 %shift_reg_V_6_2_load, i8* @shift_reg_V_6_3, align 1
  %p_shl6 = call i11 @_ssdm_op_BitConcatenate.i11.i8.i3(i8 %shift_reg_V_6_2_load, i3 0)
  %p_shl6_cast = sext i11 %p_shl6 to i16
  %acc_V_6 = sub i16 %acc_V_5, %p_shl6_cast
  %shift_reg_V_6_1_load = load i8* @shift_reg_V_6_1, align 1
  store i8 %shift_reg_V_6_1_load, i8* @shift_reg_V_6_2, align 2
  %lhs_V_1_28_cast = sext i8 %shift_reg_V_6_1_load to i13
  %r_V_1_6 = mul i13 -11, %lhs_V_1_28_cast
  %r_V_1_27_cast = sext i13 %r_V_1_6 to i16
  %shift_reg_V_6_0_load = load i8* @shift_reg_V_6_0, align 16
  store i8 %shift_reg_V_6_0_load, i8* @shift_reg_V_6_1, align 1
  %lhs_V_1_29_cast = sext i8 %shift_reg_V_6_0_load to i13
  %r_V_1_7 = mul i13 -11, %lhs_V_1_29_cast
  %r_V_1_28_cast = sext i13 %r_V_1_7 to i16
  %shift_reg_V_5_15_load = load i8* @shift_reg_V_5_15, align 1
  store i8 %shift_reg_V_5_15_load, i8* @shift_reg_V_6_0, align 16
  %p_shl7 = call i11 @_ssdm_op_BitConcatenate.i11.i8.i3(i8 %shift_reg_V_5_15_load, i3 0)
  %p_shl7_cast = sext i11 %p_shl7 to i12
  %p_neg2 = sub i12 0, %p_shl7_cast
  %p_shl8 = call i9 @_ssdm_op_BitConcatenate.i9.i8.i1(i8 %shift_reg_V_5_15_load, i1 false)
  %p_shl8_cast = sext i9 %p_shl8 to i12
  %r_V_1_8 = sub i12 %p_neg2, %p_shl8_cast
  %r_V_1_29_cast = sext i12 %r_V_1_8 to i13
  %shift_reg_V_5_14_load = load i8* @shift_reg_V_5_14, align 2
  store i8 %shift_reg_V_5_14_load, i8* @shift_reg_V_5_15, align 1
  %p_shl9 = call i11 @_ssdm_op_BitConcatenate.i11.i8.i3(i8 %shift_reg_V_5_14_load, i3 0)
  %p_shl9_cast = sext i11 %p_shl9 to i12
  %p_neg3 = sub i12 0, %p_shl9_cast
  %p_shl5 = call i9 @_ssdm_op_BitConcatenate.i9.i8.i1(i8 %shift_reg_V_5_14_load, i1 false)
  %p_shl5_cast = sext i9 %p_shl5 to i12
  %r_V_1_9 = sub i12 %p_neg3, %p_shl5_cast
  %r_V_1_30_cast = sext i12 %r_V_1_9 to i13
  %shift_reg_V_5_13_load = load i8* @shift_reg_V_5_13, align 1
  store i8 %shift_reg_V_5_13_load, i8* @shift_reg_V_5_14, align 2
  %p_shl1 = call i11 @_ssdm_op_BitConcatenate.i11.i8.i3(i8 %shift_reg_V_5_13_load, i3 0)
  %p_shl10_cast = sext i11 %p_shl1 to i12
  %p_neg4 = sub i12 0, %p_shl10_cast
  %p_shl10 = call i9 @_ssdm_op_BitConcatenate.i9.i8.i1(i8 %shift_reg_V_5_13_load, i1 false)
  %p_shl11_cast = sext i9 %p_shl10 to i12
  %r_V_1_10 = sub i12 %p_neg4, %p_shl11_cast
  %r_V_1_31_cast = sext i12 %r_V_1_10 to i13
  %shift_reg_V_5_12_load = load i8* @shift_reg_V_5_12, align 4
  store i8 %shift_reg_V_5_12_load, i8* @shift_reg_V_5_13, align 1
  %p_shl11 = call i11 @_ssdm_op_BitConcatenate.i11.i8.i3(i8 %shift_reg_V_5_12_load, i3 0)
  %p_shl12_cast = sext i11 %p_shl11 to i12
  %p_neg5 = sub i12 0, %p_shl12_cast
  %p_shl12 = call i9 @_ssdm_op_BitConcatenate.i9.i8.i1(i8 %shift_reg_V_5_12_load, i1 false)
  %p_shl13_cast = sext i9 %p_shl12 to i12
  %r_V_1_11 = sub i12 %p_neg5, %p_shl13_cast
  %r_V_1_32_cast = sext i12 %r_V_1_11 to i13
  %shift_reg_V_5_11_load = load i8* @shift_reg_V_5_11, align 1
  store i8 %shift_reg_V_5_11_load, i8* @shift_reg_V_5_12, align 4
  %p_shl13 = call i11 @_ssdm_op_BitConcatenate.i11.i8.i3(i8 %shift_reg_V_5_11_load, i3 0)
  %p_shl14_cast = sext i11 %p_shl13 to i12
  %p_neg6 = sub i12 0, %p_shl14_cast
  %p_shl14 = call i9 @_ssdm_op_BitConcatenate.i9.i8.i1(i8 %shift_reg_V_5_11_load, i1 false)
  %p_shl15_cast = sext i9 %p_shl14 to i12
  %r_V_1_12 = sub i12 %p_neg6, %p_shl15_cast
  %r_V_1_33_cast = sext i12 %r_V_1_12 to i13
  %shift_reg_V_5_10_load = load i8* @shift_reg_V_5_10, align 2
  store i8 %shift_reg_V_5_10_load, i8* @shift_reg_V_5_11, align 1
  %p_shl15 = call i11 @_ssdm_op_BitConcatenate.i11.i8.i3(i8 %shift_reg_V_5_10_load, i3 0)
  %p_shl16_cast = sext i11 %p_shl15 to i12
  %p_neg7 = sub i12 0, %p_shl16_cast
  %p_shl16 = call i9 @_ssdm_op_BitConcatenate.i9.i8.i1(i8 %shift_reg_V_5_10_load, i1 false)
  %p_shl17_cast = sext i9 %p_shl16 to i12
  %r_V_1_13 = sub i12 %p_neg7, %p_shl17_cast
  %r_V_1_34_cast = sext i12 %r_V_1_13 to i13
  %shift_reg_V_5_9_load = load i8* @shift_reg_V_5_9, align 1
  store i8 %shift_reg_V_5_9_load, i8* @shift_reg_V_5_10, align 2
  %p_shl17 = call i11 @_ssdm_op_BitConcatenate.i11.i8.i3(i8 %shift_reg_V_5_9_load, i3 0)
  %p_shl18_cast = sext i11 %p_shl17 to i12
  %p_neg8 = sub i12 0, %p_shl18_cast
  %p_shl18 = call i9 @_ssdm_op_BitConcatenate.i9.i8.i1(i8 %shift_reg_V_5_9_load, i1 false)
  %p_shl19_cast = sext i9 %p_shl18 to i12
  %r_V_1_14 = sub i12 %p_neg8, %p_shl19_cast
  %r_V_1_35_cast = sext i12 %r_V_1_14 to i13
  %shift_reg_V_5_8_load = load i8* @shift_reg_V_5_8, align 8
  store i8 %shift_reg_V_5_8_load, i8* @shift_reg_V_5_9, align 1
  %p_shl19 = call i11 @_ssdm_op_BitConcatenate.i11.i8.i3(i8 %shift_reg_V_5_8_load, i3 0)
  %p_shl20_cast = sext i11 %p_shl19 to i12
  %p_neg9 = sub i12 0, %p_shl20_cast
  %p_shl20 = call i9 @_ssdm_op_BitConcatenate.i9.i8.i1(i8 %shift_reg_V_5_8_load, i1 false)
  %p_shl21_cast = sext i9 %p_shl20 to i12
  %r_V_1_15 = sub i12 %p_neg9, %p_shl21_cast
  %r_V_1_36_cast = sext i12 %r_V_1_15 to i13
  %shift_reg_V_5_7_load = load i8* @shift_reg_V_5_7, align 1
  store i8 %shift_reg_V_5_7_load, i8* @shift_reg_V_5_8, align 8
  %lhs_V_1_38_cast = sext i8 %shift_reg_V_5_7_load to i9
  %shift_reg_V_5_6_load = load i8* @shift_reg_V_5_6, align 2
  store i8 %shift_reg_V_5_6_load, i8* @shift_reg_V_5_7, align 1
  %lhs_V_1_39_cast = sext i8 %shift_reg_V_5_6_load to i9
  %tmp26 = add i16 %acc_V_6, %r_V_1_28_cast
  %tmp27 = add i16 %tmp26, %r_V_1_27_cast
  %tmp28 = add i13 %r_V_1_30_cast, %r_V_1_31_cast
  %tmp29 = add i13 %tmp28, %r_V_1_29_cast
  %tmp188_cast = sext i13 %tmp29 to i16
  %tmp30 = add i16 %tmp188_cast, %tmp27
  %tmp31 = add i13 %r_V_1_33_cast, %r_V_1_34_cast
  %tmp32 = add i13 %tmp31, %r_V_1_32_cast
  %tmp191_cast = sext i13 %tmp32 to i15
  %tmp33 = add i13 %r_V_1_35_cast, %r_V_1_36_cast
  %tmp194_cast = sext i13 %tmp33 to i14
  %r_V_1_16 = add i9 %lhs_V_1_38_cast, %lhs_V_1_39_cast
  %r_V_1_37289_cast = sext i9 %r_V_1_16 to i14
  %tmp34 = mul i14 -11, %r_V_1_37289_cast
  %tmp35 = add i14 %tmp34, %tmp194_cast
  %tmp193_cast = sext i14 %tmp35 to i15
  %tmp36 = add i15 %tmp193_cast, %tmp191_cast
  %tmp190_cast = sext i15 %tmp36 to i16
  %acc_V_s = add i16 %tmp190_cast, %tmp30
  %shift_reg_V_5_5_load = load i8* @shift_reg_V_5_5, align 1
  store i8 %shift_reg_V_5_5_load, i8* @shift_reg_V_5_6, align 2
  %p_shl21 = call i11 @_ssdm_op_BitConcatenate.i11.i8.i3(i8 %shift_reg_V_5_5_load, i3 0)
  %p_shl22_cast = sext i11 %p_shl21 to i16
  %acc_V_1 = sub i16 %acc_V_s, %p_shl22_cast
  %shift_reg_V_5_4_load = load i8* @shift_reg_V_5_4, align 4
  store i8 %shift_reg_V_5_4_load, i8* @shift_reg_V_5_5, align 1
  %lhs_V_1_41_cast = sext i8 %shift_reg_V_5_4_load to i11
  %tmp_2 = call i10 @_ssdm_op_BitConcatenate.i10.i8.i2(i8 %shift_reg_V_5_4_load, i2 0)
  %p_shl22 = sext i10 %tmp_2 to i11
  %r_V_1_17 = sub i11 %lhs_V_1_41_cast, %p_shl22
  %r_V_1_39_cast = sext i11 %r_V_1_17 to i12
  %shift_reg_V_5_3_load = load i8* @shift_reg_V_5_3, align 1
  store i8 %shift_reg_V_5_3_load, i8* @shift_reg_V_5_4, align 4
  %lhs_V_1_42_cast = sext i8 %shift_reg_V_5_3_load to i11
  %p_shl23 = call i10 @_ssdm_op_BitConcatenate.i10.i8.i2(i8 %shift_reg_V_5_3_load, i2 0)
  %p_shl23_cast = sext i10 %p_shl23 to i11
  %r_V_1_18 = sub i11 %p_shl23_cast, %lhs_V_1_42_cast
  %r_V_1_40_cast = sext i11 %r_V_1_18 to i12
  %shift_reg_V_5_2_load = load i8* @shift_reg_V_5_2, align 2
  store i8 %shift_reg_V_5_2_load, i8* @shift_reg_V_5_3, align 1
  %r_V_1_19 = call i11 @_ssdm_op_BitConcatenate.i11.i8.i3(i8 %shift_reg_V_5_2_load, i3 0)
  %r_V_1_41_cast = sext i11 %r_V_1_19 to i12
  %shift_reg_V_5_1_load = load i8* @shift_reg_V_5_1, align 1
  store i8 %shift_reg_V_5_1_load, i8* @shift_reg_V_5_2, align 2
  %lhs_V_1_44_cast = sext i8 %shift_reg_V_5_1_load to i13
  %r_V_1_20 = mul i13 11, %lhs_V_1_44_cast
  %shift_reg_V_5_0_load = load i8* @shift_reg_V_5_0, align 16
  store i8 %shift_reg_V_5_0_load, i8* @shift_reg_V_5_1, align 1
  %lhs_V_1_45_cast = sext i8 %shift_reg_V_5_0_load to i13
  %r_V_1_21 = mul i13 11, %lhs_V_1_45_cast
  %shift_reg_V_4_15_load = load i8* @shift_reg_V_4_15, align 1
  store i8 %shift_reg_V_4_15_load, i8* @shift_reg_V_5_0, align 16
  %p_shl24 = call i11 @_ssdm_op_BitConcatenate.i11.i8.i3(i8 %shift_reg_V_4_15_load, i3 0)
  %p_shl24_cast = sext i11 %p_shl24 to i13
  %p_shl25 = call i9 @_ssdm_op_BitConcatenate.i9.i8.i1(i8 %shift_reg_V_4_15_load, i1 false)
  %p_shl25_cast = sext i9 %p_shl25 to i12
  %shift_reg_V_4_14_load = load i8* @shift_reg_V_4_14, align 2
  store i8 %shift_reg_V_4_14_load, i8* @shift_reg_V_4_15, align 1
  %p_shl26 = call i11 @_ssdm_op_BitConcatenate.i11.i8.i3(i8 %shift_reg_V_4_14_load, i3 0)
  %p_shl26_cast = sext i11 %p_shl26 to i12
  %p_shl27 = call i9 @_ssdm_op_BitConcatenate.i9.i8.i1(i8 %shift_reg_V_4_14_load, i1 false)
  %p_shl27_cast = sext i9 %p_shl27 to i12
  %shift_reg_V_4_13_load = load i8* @shift_reg_V_4_13, align 1
  store i8 %shift_reg_V_4_13_load, i8* @shift_reg_V_4_14, align 2
  %p_shl28 = call i11 @_ssdm_op_BitConcatenate.i11.i8.i3(i8 %shift_reg_V_4_13_load, i3 0)
  %p_shl28_cast = sext i11 %p_shl28 to i12
  %p_shl29 = call i9 @_ssdm_op_BitConcatenate.i9.i8.i1(i8 %shift_reg_V_4_13_load, i1 false)
  %p_shl29_cast = sext i9 %p_shl29 to i12
  %shift_reg_V_4_12_load = load i8* @shift_reg_V_4_12, align 4
  store i8 %shift_reg_V_4_12_load, i8* @shift_reg_V_4_13, align 1
  %p_shl30 = call i11 @_ssdm_op_BitConcatenate.i11.i8.i3(i8 %shift_reg_V_4_12_load, i3 0)
  %p_shl30_cast = sext i11 %p_shl30 to i12
  %p_shl31 = call i9 @_ssdm_op_BitConcatenate.i9.i8.i1(i8 %shift_reg_V_4_12_load, i1 false)
  %p_shl31_cast = sext i9 %p_shl31 to i12
  %shift_reg_V_4_11_load = load i8* @shift_reg_V_4_11, align 1
  store i8 %shift_reg_V_4_11_load, i8* @shift_reg_V_4_12, align 4
  %p_shl32 = call i11 @_ssdm_op_BitConcatenate.i11.i8.i3(i8 %shift_reg_V_4_11_load, i3 0)
  %p_shl32_cast = sext i11 %p_shl32 to i12
  %p_shl33 = call i9 @_ssdm_op_BitConcatenate.i9.i8.i1(i8 %shift_reg_V_4_11_load, i1 false)
  %p_shl33_cast = sext i9 %p_shl33 to i12
  %shift_reg_V_4_10_load = load i8* @shift_reg_V_4_10, align 2
  store i8 %shift_reg_V_4_10_load, i8* @shift_reg_V_4_11, align 1
  %p_shl34 = call i11 @_ssdm_op_BitConcatenate.i11.i8.i3(i8 %shift_reg_V_4_10_load, i3 0)
  %p_shl34_cast = sext i11 %p_shl34 to i12
  %p_shl35 = call i9 @_ssdm_op_BitConcatenate.i9.i8.i1(i8 %shift_reg_V_4_10_load, i1 false)
  %p_shl35_cast = sext i9 %p_shl35 to i12
  %shift_reg_V_4_9_load = load i8* @shift_reg_V_4_9, align 1
  store i8 %shift_reg_V_4_9_load, i8* @shift_reg_V_4_10, align 2
  %p_shl36 = call i11 @_ssdm_op_BitConcatenate.i11.i8.i3(i8 %shift_reg_V_4_9_load, i3 0)
  %p_shl36_cast = sext i11 %p_shl36 to i13
  %p_shl37 = call i9 @_ssdm_op_BitConcatenate.i9.i8.i1(i8 %shift_reg_V_4_9_load, i1 false)
  %p_shl37_cast = sext i9 %p_shl37 to i12
  %shift_reg_V_4_8_load = load i8* @shift_reg_V_4_8, align 8
  store i8 %shift_reg_V_4_8_load, i8* @shift_reg_V_4_9, align 1
  %p_shl38 = call i11 @_ssdm_op_BitConcatenate.i11.i8.i3(i8 %shift_reg_V_4_8_load, i3 0)
  %p_shl38_cast = sext i11 %p_shl38 to i16
  %p_shl39 = call i9 @_ssdm_op_BitConcatenate.i9.i8.i1(i8 %shift_reg_V_4_8_load, i1 false)
  %p_shl39_cast = sext i9 %p_shl39 to i16
  %shift_reg_V_4_7_load = load i8* @shift_reg_V_4_7, align 1
  store i8 %shift_reg_V_4_7_load, i8* @shift_reg_V_4_8, align 8
  %lhs_V_1_54_cast = sext i8 %shift_reg_V_4_7_load to i12
  %r_V_1_22 = mul i12 11, %lhs_V_1_54_cast
  %shift_reg_V_4_6_load = load i8* @shift_reg_V_4_6, align 2
  store i8 %shift_reg_V_4_6_load, i8* @shift_reg_V_4_7, align 1
  %lhs_V_1_55_cast = sext i8 %shift_reg_V_4_6_load to i13
  %r_V_1_23 = mul i13 11, %lhs_V_1_55_cast
  %shift_reg_V_4_5_load = load i8* @shift_reg_V_4_5, align 1
  store i8 %shift_reg_V_4_5_load, i8* @shift_reg_V_4_6, align 2
  %r_V_1_24 = call i11 @_ssdm_op_BitConcatenate.i11.i8.i3(i8 %shift_reg_V_4_5_load, i3 0)
  %r_V_1_54_cast = sext i11 %r_V_1_24 to i13
  %shift_reg_V_4_4_load = load i8* @shift_reg_V_4_4, align 4
  store i8 %shift_reg_V_4_4_load, i8* @shift_reg_V_4_5, align 1
  %lhs_V_1_57_cast = sext i8 %shift_reg_V_4_4_load to i11
  %p_shl40 = call i10 @_ssdm_op_BitConcatenate.i10.i8.i2(i8 %shift_reg_V_4_4_load, i2 0)
  %p_shl40_cast = sext i10 %p_shl40 to i11
  %r_V_1_25 = sub i11 %p_shl40_cast, %lhs_V_1_57_cast
  %shift_reg_V_4_3_load = load i8* @shift_reg_V_4_3, align 1
  store i8 %shift_reg_V_4_3_load, i8* @shift_reg_V_4_4, align 4
  %lhs_V_1_58_cast = sext i8 %shift_reg_V_4_3_load to i11
  %tmp_3 = call i10 @_ssdm_op_BitConcatenate.i10.i8.i2(i8 %shift_reg_V_4_3_load, i2 0)
  %p_shl129 = sext i10 %tmp_3 to i11
  %r_V_1_26 = sub i11 %lhs_V_1_58_cast, %p_shl129
  %tmp37 = add i16 %p_shl38_cast, %acc_V_1
  %tmp38 = add i16 %tmp37, %p_shl39_cast
  %tmp39 = add i12 %r_V_1_40_cast, %r_V_1_41_cast
  %tmp40 = add i12 %tmp39, %r_V_1_39_cast
  %tmp200_cast = sext i12 %tmp40 to i16
  %tmp41 = add i16 %tmp200_cast, %tmp38
  %tmp42 = add i13 %r_V_1_21, %p_shl24_cast
  %tmp43 = add i13 %tmp42, %r_V_1_20
  %tmp203_cast = sext i13 %tmp43 to i14
  %tmp44 = add i12 %p_shl25_cast, %p_shl26_cast
  %tmp206_cast = sext i12 %tmp44 to i13
  %tmp45 = add i12 %p_shl27_cast, %p_shl28_cast
  %tmp207_cast = sext i12 %tmp45 to i13
  %tmp46 = add i13 %tmp207_cast, %tmp206_cast
  %tmp205_cast = sext i13 %tmp46 to i14
  %tmp47 = add i14 %tmp205_cast, %tmp203_cast
  %tmp202_cast = sext i14 %tmp47 to i16
  %tmp48 = add i16 %tmp202_cast, %tmp41
  %tmp49 = add i12 %p_shl30_cast, %p_shl31_cast
  %tmp50 = add i12 %tmp49, %p_shl29_cast
  %tmp210_cast = sext i12 %tmp50 to i13
  %tmp51 = add i12 %p_shl32_cast, %p_shl33_cast
  %tmp213_cast = sext i12 %tmp51 to i13
  %tmp52 = add i12 %p_shl34_cast, %p_shl35_cast
  %tmp214_cast = sext i12 %tmp52 to i13
  %tmp53 = add i13 %tmp214_cast, %tmp213_cast
  %tmp54 = add i13 %tmp53, %tmp210_cast
  %tmp209_cast = sext i13 %tmp54 to i15
  %tmp55 = add i12 %p_shl37_cast, %r_V_1_22
  %tmp217_cast = sext i12 %tmp55 to i13
  %tmp56 = add i13 %tmp217_cast, %p_shl36_cast
  %tmp216_cast = sext i13 %tmp56 to i14
  %tmp57 = add i13 %r_V_1_23, %r_V_1_54_cast
  %tmp58 = add i11 %r_V_1_25, %r_V_1_26
  %tmp220_cast = sext i11 %tmp58 to i13
  %tmp59 = add i13 %tmp220_cast, %tmp57
  %tmp218_cast = sext i13 %tmp59 to i14
  %tmp60 = add i14 %tmp218_cast, %tmp216_cast
  %tmp215_cast = sext i14 %tmp60 to i15
  %tmp61 = add i15 %tmp215_cast, %tmp209_cast
  %tmp208_cast = sext i15 %tmp61 to i16
  %acc_V_2 = add i16 %tmp208_cast, %tmp48
  %shift_reg_V_4_2_load = load i8* @shift_reg_V_4_2, align 2
  store i8 %shift_reg_V_4_2_load, i8* @shift_reg_V_4_3, align 1
  %p_shl41 = call i11 @_ssdm_op_BitConcatenate.i11.i8.i3(i8 %shift_reg_V_4_2_load, i3 0)
  %p_shl41_cast = sext i11 %p_shl41 to i16
  %acc_V_3 = sub i16 %acc_V_2, %p_shl41_cast
  %shift_reg_V_4_1_load = load i8* @shift_reg_V_4_1, align 1
  store i8 %shift_reg_V_4_1_load, i8* @shift_reg_V_4_2, align 2
  %lhs_V_1_60_cast = sext i8 %shift_reg_V_4_1_load to i13
  %r_V_1_27 = mul i13 -11, %lhs_V_1_60_cast
  %r_V_1_57_cast = sext i13 %r_V_1_27 to i16
  %shift_reg_V_4_0_load = load i8* @shift_reg_V_4_0, align 16
  store i8 %shift_reg_V_4_0_load, i8* @shift_reg_V_4_1, align 1
  %lhs_V_1_61_cast = sext i8 %shift_reg_V_4_0_load to i13
  %r_V_1_28 = mul i13 -11, %lhs_V_1_61_cast
  %r_V_1_58_cast = sext i13 %r_V_1_28 to i16
  %shift_reg_V_3_15_load = load i8* @shift_reg_V_3_15, align 1
  store i8 %shift_reg_V_3_15_load, i8* @shift_reg_V_4_0, align 16
  %p_shl42 = call i11 @_ssdm_op_BitConcatenate.i11.i8.i3(i8 %shift_reg_V_3_15_load, i3 0)
  %p_shl42_cast = sext i11 %p_shl42 to i12
  %p_neg = sub i12 0, %p_shl42_cast
  %p_shl43 = call i9 @_ssdm_op_BitConcatenate.i9.i8.i1(i8 %shift_reg_V_3_15_load, i1 false)
  %p_shl43_cast = sext i9 %p_shl43 to i12
  %r_V_1_29 = sub i12 %p_neg, %p_shl43_cast
  %r_V_1_59_cast = sext i12 %r_V_1_29 to i13
  %shift_reg_V_3_14_load = load i8* @shift_reg_V_3_14, align 2
  store i8 %shift_reg_V_3_14_load, i8* @shift_reg_V_3_15, align 1
  %p_shl44 = call i11 @_ssdm_op_BitConcatenate.i11.i8.i3(i8 %shift_reg_V_3_14_load, i3 0)
  %p_shl44_cast = sext i11 %p_shl44 to i12
  %p_neg1 = sub i12 0, %p_shl44_cast
  %p_shl45 = call i9 @_ssdm_op_BitConcatenate.i9.i8.i1(i8 %shift_reg_V_3_14_load, i1 false)
  %p_shl45_cast = sext i9 %p_shl45 to i12
  %r_V_1_30 = sub i12 %p_neg1, %p_shl45_cast
  %r_V_1_60_cast = sext i12 %r_V_1_30 to i13
  %shift_reg_V_3_13_load = load i8* @shift_reg_V_3_13, align 1
  store i8 %shift_reg_V_3_13_load, i8* @shift_reg_V_3_14, align 2
  %p_shl46 = call i11 @_ssdm_op_BitConcatenate.i11.i8.i3(i8 %shift_reg_V_3_13_load, i3 0)
  %p_shl46_cast = sext i11 %p_shl46 to i12
  %p_neg10 = sub i12 0, %p_shl46_cast
  %p_shl47 = call i9 @_ssdm_op_BitConcatenate.i9.i8.i1(i8 %shift_reg_V_3_13_load, i1 false)
  %p_shl47_cast = sext i9 %p_shl47 to i12
  %r_V_1_31 = sub i12 %p_neg10, %p_shl47_cast
  %r_V_1_61_cast = sext i12 %r_V_1_31 to i13
  %shift_reg_V_3_12_load = load i8* @shift_reg_V_3_12, align 4
  store i8 %shift_reg_V_3_12_load, i8* @shift_reg_V_3_13, align 1
  %p_shl48 = call i11 @_ssdm_op_BitConcatenate.i11.i8.i3(i8 %shift_reg_V_3_12_load, i3 0)
  %p_shl48_cast = sext i11 %p_shl48 to i12
  %p_neg11 = sub i12 0, %p_shl48_cast
  %p_shl50 = call i9 @_ssdm_op_BitConcatenate.i9.i8.i1(i8 %shift_reg_V_3_12_load, i1 false)
  %p_shl50_cast = sext i9 %p_shl50 to i12
  %r_V_1_32 = sub i12 %p_neg11, %p_shl50_cast
  %r_V_1_62_cast = sext i12 %r_V_1_32 to i13
  %shift_reg_V_3_11_load = load i8* @shift_reg_V_3_11, align 1
  store i8 %shift_reg_V_3_11_load, i8* @shift_reg_V_3_12, align 4
  %p_shl52 = call i11 @_ssdm_op_BitConcatenate.i11.i8.i3(i8 %shift_reg_V_3_11_load, i3 0)
  %p_shl52_cast = sext i11 %p_shl52 to i12
  %p_neg12 = sub i12 0, %p_shl52_cast
  %p_shl54 = call i9 @_ssdm_op_BitConcatenate.i9.i8.i1(i8 %shift_reg_V_3_11_load, i1 false)
  %p_shl54_cast = sext i9 %p_shl54 to i12
  %r_V_1_33 = sub i12 %p_neg12, %p_shl54_cast
  %r_V_1_63_cast = sext i12 %r_V_1_33 to i13
  %shift_reg_V_3_10_load = load i8* @shift_reg_V_3_10, align 2
  store i8 %shift_reg_V_3_10_load, i8* @shift_reg_V_3_11, align 1
  %p_shl57 = call i11 @_ssdm_op_BitConcatenate.i11.i8.i3(i8 %shift_reg_V_3_10_load, i3 0)
  %p_shl57_cast = sext i11 %p_shl57 to i12
  %p_neg13 = sub i12 0, %p_shl57_cast
  %p_shl60 = call i9 @_ssdm_op_BitConcatenate.i9.i8.i1(i8 %shift_reg_V_3_10_load, i1 false)
  %p_shl60_cast = sext i9 %p_shl60 to i12
  %r_V_1_34 = sub i12 %p_neg13, %p_shl60_cast
  %r_V_1_64_cast = sext i12 %r_V_1_34 to i13
  %shift_reg_V_3_9_load = load i8* @shift_reg_V_3_9, align 1
  store i8 %shift_reg_V_3_9_load, i8* @shift_reg_V_3_10, align 2
  %p_shl63 = call i11 @_ssdm_op_BitConcatenate.i11.i8.i3(i8 %shift_reg_V_3_9_load, i3 0)
  %p_shl63_cast = sext i11 %p_shl63 to i12
  %p_neg14 = sub i12 0, %p_shl63_cast
  %p_shl66 = call i9 @_ssdm_op_BitConcatenate.i9.i8.i1(i8 %shift_reg_V_3_9_load, i1 false)
  %p_shl66_cast = sext i9 %p_shl66 to i12
  %r_V_1_35 = sub i12 %p_neg14, %p_shl66_cast
  %r_V_1_65_cast = sext i12 %r_V_1_35 to i13
  %shift_reg_V_3_8_load = load i8* @shift_reg_V_3_8, align 8
  store i8 %shift_reg_V_3_8_load, i8* @shift_reg_V_3_9, align 1
  %p_shl69 = call i11 @_ssdm_op_BitConcatenate.i11.i8.i3(i8 %shift_reg_V_3_8_load, i3 0)
  %p_shl69_cast = sext i11 %p_shl69 to i12
  %p_neg15 = sub i12 0, %p_shl69_cast
  %p_shl72 = call i9 @_ssdm_op_BitConcatenate.i9.i8.i1(i8 %shift_reg_V_3_8_load, i1 false)
  %p_shl72_cast = sext i9 %p_shl72 to i12
  %r_V_1_36 = sub i12 %p_neg15, %p_shl72_cast
  %r_V_1_66_cast = sext i12 %r_V_1_36 to i13
  %shift_reg_V_3_7_load = load i8* @shift_reg_V_3_7, align 1
  store i8 %shift_reg_V_3_7_load, i8* @shift_reg_V_3_8, align 8
  %lhs_V_1_70_cast = sext i8 %shift_reg_V_3_7_load to i9
  %shift_reg_V_3_6_load = load i8* @shift_reg_V_3_6, align 2
  store i8 %shift_reg_V_3_6_load, i8* @shift_reg_V_3_7, align 1
  %lhs_V_1_71_cast = sext i8 %shift_reg_V_3_6_load to i9
  %tmp62 = add i16 %acc_V_3, %r_V_1_58_cast
  %tmp63 = add i16 %tmp62, %r_V_1_57_cast
  %tmp64 = add i13 %r_V_1_60_cast, %r_V_1_61_cast
  %tmp65 = add i13 %tmp64, %r_V_1_59_cast
  %tmp224_cast = sext i13 %tmp65 to i16
  %tmp66 = add i16 %tmp224_cast, %tmp63
  %tmp67 = add i13 %r_V_1_63_cast, %r_V_1_64_cast
  %tmp68 = add i13 %tmp67, %r_V_1_62_cast
  %tmp227_cast = sext i13 %tmp68 to i15
  %tmp69 = add i13 %r_V_1_65_cast, %r_V_1_66_cast
  %tmp230_cast = sext i13 %tmp69 to i14
  %r_V_1_37 = add i9 %lhs_V_1_70_cast, %lhs_V_1_71_cast
  %r_V_1_67290_cast = sext i9 %r_V_1_37 to i14
  %tmp70 = mul i14 -11, %r_V_1_67290_cast
  %tmp71 = add i14 %tmp70, %tmp230_cast
  %tmp229_cast = sext i14 %tmp71 to i15
  %tmp72 = add i15 %tmp229_cast, %tmp227_cast
  %tmp226_cast = sext i15 %tmp72 to i16
  %acc_V_4 = add i16 %tmp226_cast, %tmp66
  %shift_reg_V_3_5_load = load i8* @shift_reg_V_3_5, align 1
  store i8 %shift_reg_V_3_5_load, i8* @shift_reg_V_3_6, align 2
  %p_shl75 = call i11 @_ssdm_op_BitConcatenate.i11.i8.i3(i8 %shift_reg_V_3_5_load, i3 0)
  %p_shl75_cast = sext i11 %p_shl75 to i16
  %acc_V_7 = sub i16 %acc_V_4, %p_shl75_cast
  %shift_reg_V_3_4_load = load i8* @shift_reg_V_3_4, align 4
  store i8 %shift_reg_V_3_4_load, i8* @shift_reg_V_3_5, align 1
  %lhs_V_1_73_cast = sext i8 %shift_reg_V_3_4_load to i11
  %tmp_4 = call i10 @_ssdm_op_BitConcatenate.i10.i8.i2(i8 %shift_reg_V_3_4_load, i2 0)
  %p_shl131 = sext i10 %tmp_4 to i11
  %r_V_1_38 = sub i11 %lhs_V_1_73_cast, %p_shl131
  %r_V_1_69_cast = sext i11 %r_V_1_38 to i12
  %shift_reg_V_3_3_load = load i8* @shift_reg_V_3_3, align 1
  store i8 %shift_reg_V_3_3_load, i8* @shift_reg_V_3_4, align 4
  %lhs_V_1_74_cast = sext i8 %shift_reg_V_3_3_load to i11
  %p_shl78 = call i10 @_ssdm_op_BitConcatenate.i10.i8.i2(i8 %shift_reg_V_3_3_load, i2 0)
  %p_shl78_cast = sext i10 %p_shl78 to i11
  %r_V_1_39 = sub i11 %p_shl78_cast, %lhs_V_1_74_cast
  %r_V_1_70_cast = sext i11 %r_V_1_39 to i12
  %shift_reg_V_3_2_load = load i8* @shift_reg_V_3_2, align 2
  store i8 %shift_reg_V_3_2_load, i8* @shift_reg_V_3_3, align 1
  %r_V_1_40 = call i11 @_ssdm_op_BitConcatenate.i11.i8.i3(i8 %shift_reg_V_3_2_load, i3 0)
  %r_V_1_71_cast = sext i11 %r_V_1_40 to i12
  %shift_reg_V_3_1_load = load i8* @shift_reg_V_3_1, align 1
  store i8 %shift_reg_V_3_1_load, i8* @shift_reg_V_3_2, align 2
  %lhs_V_1_76_cast = sext i8 %shift_reg_V_3_1_load to i13
  %r_V_1_41 = mul i13 11, %lhs_V_1_76_cast
  %shift_reg_V_3_0_load = load i8* @shift_reg_V_3_0, align 16
  store i8 %shift_reg_V_3_0_load, i8* @shift_reg_V_3_1, align 1
  %lhs_V_1_77_cast = sext i8 %shift_reg_V_3_0_load to i13
  %r_V_1_42 = mul i13 11, %lhs_V_1_77_cast
  %shift_reg_V_2_15_load = load i8* @shift_reg_V_2_15, align 1
  store i8 %shift_reg_V_2_15_load, i8* @shift_reg_V_3_0, align 16
  %p_shl81 = call i11 @_ssdm_op_BitConcatenate.i11.i8.i3(i8 %shift_reg_V_2_15_load, i3 0)
  %p_shl81_cast = sext i11 %p_shl81 to i13
  %p_shl84 = call i9 @_ssdm_op_BitConcatenate.i9.i8.i1(i8 %shift_reg_V_2_15_load, i1 false)
  %p_shl84_cast = sext i9 %p_shl84 to i12
  %shift_reg_V_2_14_load = load i8* @shift_reg_V_2_14, align 2
  store i8 %shift_reg_V_2_14_load, i8* @shift_reg_V_2_15, align 1
  %p_shl87 = call i11 @_ssdm_op_BitConcatenate.i11.i8.i3(i8 %shift_reg_V_2_14_load, i3 0)
  %p_shl87_cast = sext i11 %p_shl87 to i12
  %p_shl90 = call i9 @_ssdm_op_BitConcatenate.i9.i8.i1(i8 %shift_reg_V_2_14_load, i1 false)
  %p_shl90_cast = sext i9 %p_shl90 to i12
  %shift_reg_V_2_13_load = load i8* @shift_reg_V_2_13, align 1
  store i8 %shift_reg_V_2_13_load, i8* @shift_reg_V_2_14, align 2
  %p_shl93 = call i11 @_ssdm_op_BitConcatenate.i11.i8.i3(i8 %shift_reg_V_2_13_load, i3 0)
  %p_shl93_cast = sext i11 %p_shl93 to i12
  %p_shl96 = call i9 @_ssdm_op_BitConcatenate.i9.i8.i1(i8 %shift_reg_V_2_13_load, i1 false)
  %p_shl96_cast = sext i9 %p_shl96 to i12
  %shift_reg_V_2_12_load = load i8* @shift_reg_V_2_12, align 4
  store i8 %shift_reg_V_2_12_load, i8* @shift_reg_V_2_13, align 1
  %p_shl99 = call i11 @_ssdm_op_BitConcatenate.i11.i8.i3(i8 %shift_reg_V_2_12_load, i3 0)
  %p_shl99_cast = sext i11 %p_shl99 to i12
  %p_shl102 = call i9 @_ssdm_op_BitConcatenate.i9.i8.i1(i8 %shift_reg_V_2_12_load, i1 false)
  %p_shl102_cast = sext i9 %p_shl102 to i12
  %shift_reg_V_2_11_load = load i8* @shift_reg_V_2_11, align 1
  store i8 %shift_reg_V_2_11_load, i8* @shift_reg_V_2_12, align 4
  %p_shl105 = call i11 @_ssdm_op_BitConcatenate.i11.i8.i3(i8 %shift_reg_V_2_11_load, i3 0)
  %p_shl105_cast = sext i11 %p_shl105 to i12
  %p_shl108 = call i9 @_ssdm_op_BitConcatenate.i9.i8.i1(i8 %shift_reg_V_2_11_load, i1 false)
  %p_shl108_cast = sext i9 %p_shl108 to i12
  %shift_reg_V_2_10_load = load i8* @shift_reg_V_2_10, align 2
  store i8 %shift_reg_V_2_10_load, i8* @shift_reg_V_2_11, align 1
  %p_shl111 = call i11 @_ssdm_op_BitConcatenate.i11.i8.i3(i8 %shift_reg_V_2_10_load, i3 0)
  %p_shl111_cast = sext i11 %p_shl111 to i12
  %p_shl114 = call i9 @_ssdm_op_BitConcatenate.i9.i8.i1(i8 %shift_reg_V_2_10_load, i1 false)
  %p_shl114_cast = sext i9 %p_shl114 to i12
  %shift_reg_V_2_9_load = load i8* @shift_reg_V_2_9, align 1
  store i8 %shift_reg_V_2_9_load, i8* @shift_reg_V_2_10, align 2
  %p_shl117 = call i11 @_ssdm_op_BitConcatenate.i11.i8.i3(i8 %shift_reg_V_2_9_load, i3 0)
  %p_shl117_cast = sext i11 %p_shl117 to i13
  %p_shl120 = call i9 @_ssdm_op_BitConcatenate.i9.i8.i1(i8 %shift_reg_V_2_9_load, i1 false)
  %p_shl120_cast = sext i9 %p_shl120 to i12
  %shift_reg_V_2_8_load = load i8* @shift_reg_V_2_8, align 8
  store i8 %shift_reg_V_2_8_load, i8* @shift_reg_V_2_9, align 1
  %p_shl123 = call i11 @_ssdm_op_BitConcatenate.i11.i8.i3(i8 %shift_reg_V_2_8_load, i3 0)
  %p_shl123_cast = sext i11 %p_shl123 to i16
  %p_shl126 = call i9 @_ssdm_op_BitConcatenate.i9.i8.i1(i8 %shift_reg_V_2_8_load, i1 false)
  %p_shl126_cast = sext i9 %p_shl126 to i16
  %shift_reg_V_2_7_load = load i8* @shift_reg_V_2_7, align 1
  store i8 %shift_reg_V_2_7_load, i8* @shift_reg_V_2_8, align 8
  %lhs_V_1_86_cast = sext i8 %shift_reg_V_2_7_load to i12
  %r_V_1_43 = mul i12 11, %lhs_V_1_86_cast
  %shift_reg_V_2_6_load = load i8* @shift_reg_V_2_6, align 2
  store i8 %shift_reg_V_2_6_load, i8* @shift_reg_V_2_7, align 1
  %lhs_V_1_87_cast = sext i8 %shift_reg_V_2_6_load to i13
  %r_V_1_44 = mul i13 11, %lhs_V_1_87_cast
  %shift_reg_V_2_5_load = load i8* @shift_reg_V_2_5, align 1
  store i8 %shift_reg_V_2_5_load, i8* @shift_reg_V_2_6, align 2
  %r_V_1_45 = call i11 @_ssdm_op_BitConcatenate.i11.i8.i3(i8 %shift_reg_V_2_5_load, i3 0)
  %r_V_1_84_cast = sext i11 %r_V_1_45 to i13
  %shift_reg_V_2_4_load = load i8* @shift_reg_V_2_4, align 4
  store i8 %shift_reg_V_2_4_load, i8* @shift_reg_V_2_5, align 1
  %lhs_V_1_89_cast = sext i8 %shift_reg_V_2_4_load to i11
  %p_shl127 = call i10 @_ssdm_op_BitConcatenate.i10.i8.i2(i8 %shift_reg_V_2_4_load, i2 0)
  %p_shl127_cast = sext i10 %p_shl127 to i11
  %r_V_1_46 = sub i11 %p_shl127_cast, %lhs_V_1_89_cast
  %shift_reg_V_2_3_load = load i8* @shift_reg_V_2_3, align 1
  store i8 %shift_reg_V_2_3_load, i8* @shift_reg_V_2_4, align 4
  %lhs_V_1_90_cast = sext i8 %shift_reg_V_2_3_load to i11
  %tmp_5 = call i10 @_ssdm_op_BitConcatenate.i10.i8.i2(i8 %shift_reg_V_2_3_load, i2 0)
  %p_shl130 = sext i10 %tmp_5 to i11
  %r_V_1_47 = sub i11 %lhs_V_1_90_cast, %p_shl130
  %tmp73 = add i16 %p_shl123_cast, %acc_V_7
  %tmp74 = add i16 %tmp73, %p_shl126_cast
  %tmp75 = add i12 %r_V_1_70_cast, %r_V_1_71_cast
  %tmp76 = add i12 %tmp75, %r_V_1_69_cast
  %tmp236_cast = sext i12 %tmp76 to i16
  %tmp77 = add i16 %tmp236_cast, %tmp74
  %tmp78 = add i13 %r_V_1_42, %p_shl81_cast
  %tmp79 = add i13 %tmp78, %r_V_1_41
  %tmp239_cast = sext i13 %tmp79 to i14
  %tmp80 = add i12 %p_shl84_cast, %p_shl87_cast
  %tmp242_cast = sext i12 %tmp80 to i13
  %tmp81 = add i12 %p_shl90_cast, %p_shl93_cast
  %tmp243_cast = sext i12 %tmp81 to i13
  %tmp82 = add i13 %tmp243_cast, %tmp242_cast
  %tmp241_cast = sext i13 %tmp82 to i14
  %tmp83 = add i14 %tmp241_cast, %tmp239_cast
  %tmp238_cast = sext i14 %tmp83 to i16
  %tmp84 = add i16 %tmp238_cast, %tmp77
  %tmp85 = add i12 %p_shl99_cast, %p_shl102_cast
  %tmp86 = add i12 %tmp85, %p_shl96_cast
  %tmp246_cast = sext i12 %tmp86 to i13
  %tmp87 = add i12 %p_shl105_cast, %p_shl108_cast
  %tmp249_cast = sext i12 %tmp87 to i13
  %tmp88 = add i12 %p_shl111_cast, %p_shl114_cast
  %tmp250_cast = sext i12 %tmp88 to i13
  %tmp89 = add i13 %tmp250_cast, %tmp249_cast
  %tmp90 = add i13 %tmp89, %tmp246_cast
  %tmp245_cast = sext i13 %tmp90 to i15
  %tmp91 = add i12 %p_shl120_cast, %r_V_1_43
  %tmp253_cast = sext i12 %tmp91 to i13
  %tmp92 = add i13 %tmp253_cast, %p_shl117_cast
  %tmp252_cast = sext i13 %tmp92 to i14
  %tmp93 = add i13 %r_V_1_44, %r_V_1_84_cast
  %tmp94 = add i11 %r_V_1_46, %r_V_1_47
  %tmp256_cast = sext i11 %tmp94 to i13
  %tmp95 = add i13 %tmp256_cast, %tmp93
  %tmp254_cast = sext i13 %tmp95 to i14
  %tmp96 = add i14 %tmp254_cast, %tmp252_cast
  %tmp251_cast = sext i14 %tmp96 to i15
  %tmp97 = add i15 %tmp251_cast, %tmp245_cast
  %tmp244_cast = sext i15 %tmp97 to i16
  %acc_V_8 = add i16 %tmp244_cast, %tmp84
  %shift_reg_V_2_2_load = load i8* @shift_reg_V_2_2, align 2
  store i8 %shift_reg_V_2_2_load, i8* @shift_reg_V_2_3, align 1
  %p_shl125 = call i11 @_ssdm_op_BitConcatenate.i11.i8.i3(i8 %shift_reg_V_2_2_load, i3 0)
  %p_shl125_cast = sext i11 %p_shl125 to i16
  %acc_V_9 = sub i16 %acc_V_8, %p_shl125_cast
  %shift_reg_V_2_1_load = load i8* @shift_reg_V_2_1, align 1
  store i8 %shift_reg_V_2_1_load, i8* @shift_reg_V_2_2, align 2
  %lhs_V_1_92_cast = sext i8 %shift_reg_V_2_1_load to i13
  %r_V_1_48 = mul i13 -11, %lhs_V_1_92_cast
  %r_V_1_87_cast = sext i13 %r_V_1_48 to i16
  %shift_reg_V_2_0_load = load i8* @shift_reg_V_2_0, align 16
  store i8 %shift_reg_V_2_0_load, i8* @shift_reg_V_2_1, align 1
  %lhs_V_1_93_cast = sext i8 %shift_reg_V_2_0_load to i13
  %r_V_1_49 = mul i13 -11, %lhs_V_1_93_cast
  %r_V_1_88_cast = sext i13 %r_V_1_49 to i16
  %shift_reg_V_1_15_load = load i8* @shift_reg_V_1_15, align 1
  store i8 %shift_reg_V_1_15_load, i8* @shift_reg_V_2_0, align 16
  %p_shl122 = call i11 @_ssdm_op_BitConcatenate.i11.i8.i3(i8 %shift_reg_V_1_15_load, i3 0)
  %p_shl122_cast = sext i11 %p_shl122 to i12
  %p_neg16 = sub i12 0, %p_shl122_cast
  %p_shl124 = call i9 @_ssdm_op_BitConcatenate.i9.i8.i1(i8 %shift_reg_V_1_15_load, i1 false)
  %p_shl124_cast = sext i9 %p_shl124 to i12
  %r_V_1_50 = sub i12 %p_neg16, %p_shl124_cast
  %r_V_1_89_cast = sext i12 %r_V_1_50 to i13
  %shift_reg_V_1_14_load = load i8* @shift_reg_V_1_14, align 2
  store i8 %shift_reg_V_1_14_load, i8* @shift_reg_V_1_15, align 1
  %p_shl119 = call i11 @_ssdm_op_BitConcatenate.i11.i8.i3(i8 %shift_reg_V_1_14_load, i3 0)
  %p_shl119_cast = sext i11 %p_shl119 to i12
  %p_neg17 = sub i12 0, %p_shl119_cast
  %p_shl121 = call i9 @_ssdm_op_BitConcatenate.i9.i8.i1(i8 %shift_reg_V_1_14_load, i1 false)
  %p_shl121_cast = sext i9 %p_shl121 to i12
  %r_V_1_51 = sub i12 %p_neg17, %p_shl121_cast
  %r_V_1_90_cast = sext i12 %r_V_1_51 to i13
  %shift_reg_V_1_13_load = load i8* @shift_reg_V_1_13, align 1
  store i8 %shift_reg_V_1_13_load, i8* @shift_reg_V_1_14, align 2
  %p_shl116 = call i11 @_ssdm_op_BitConcatenate.i11.i8.i3(i8 %shift_reg_V_1_13_load, i3 0)
  %p_shl116_cast = sext i11 %p_shl116 to i12
  %p_neg18 = sub i12 0, %p_shl116_cast
  %p_shl118 = call i9 @_ssdm_op_BitConcatenate.i9.i8.i1(i8 %shift_reg_V_1_13_load, i1 false)
  %p_shl118_cast = sext i9 %p_shl118 to i12
  %r_V_1_52 = sub i12 %p_neg18, %p_shl118_cast
  %r_V_1_91_cast = sext i12 %r_V_1_52 to i13
  %shift_reg_V_1_12_load = load i8* @shift_reg_V_1_12, align 4
  store i8 %shift_reg_V_1_12_load, i8* @shift_reg_V_1_13, align 1
  %p_shl113 = call i11 @_ssdm_op_BitConcatenate.i11.i8.i3(i8 %shift_reg_V_1_12_load, i3 0)
  %p_shl113_cast = sext i11 %p_shl113 to i12
  %p_neg19 = sub i12 0, %p_shl113_cast
  %p_shl115 = call i9 @_ssdm_op_BitConcatenate.i9.i8.i1(i8 %shift_reg_V_1_12_load, i1 false)
  %p_shl115_cast = sext i9 %p_shl115 to i12
  %r_V_1_53 = sub i12 %p_neg19, %p_shl115_cast
  %r_V_1_92_cast = sext i12 %r_V_1_53 to i13
  %shift_reg_V_1_11_load = load i8* @shift_reg_V_1_11, align 1
  store i8 %shift_reg_V_1_11_load, i8* @shift_reg_V_1_12, align 4
  %p_shl110 = call i11 @_ssdm_op_BitConcatenate.i11.i8.i3(i8 %shift_reg_V_1_11_load, i3 0)
  %p_shl110_cast = sext i11 %p_shl110 to i12
  %p_neg20 = sub i12 0, %p_shl110_cast
  %p_shl112 = call i9 @_ssdm_op_BitConcatenate.i9.i8.i1(i8 %shift_reg_V_1_11_load, i1 false)
  %p_shl112_cast = sext i9 %p_shl112 to i12
  %r_V_1_54 = sub i12 %p_neg20, %p_shl112_cast
  %r_V_1_93_cast = sext i12 %r_V_1_54 to i13
  %shift_reg_V_1_10_load = load i8* @shift_reg_V_1_10, align 2
  store i8 %shift_reg_V_1_10_load, i8* @shift_reg_V_1_11, align 1
  %p_shl107 = call i11 @_ssdm_op_BitConcatenate.i11.i8.i3(i8 %shift_reg_V_1_10_load, i3 0)
  %p_shl107_cast = sext i11 %p_shl107 to i12
  %p_neg21 = sub i12 0, %p_shl107_cast
  %p_shl109 = call i9 @_ssdm_op_BitConcatenate.i9.i8.i1(i8 %shift_reg_V_1_10_load, i1 false)
  %p_shl109_cast = sext i9 %p_shl109 to i12
  %r_V_1_55 = sub i12 %p_neg21, %p_shl109_cast
  %r_V_1_94_cast = sext i12 %r_V_1_55 to i13
  %shift_reg_V_1_9_load = load i8* @shift_reg_V_1_9, align 1
  store i8 %shift_reg_V_1_9_load, i8* @shift_reg_V_1_10, align 2
  %p_shl104 = call i11 @_ssdm_op_BitConcatenate.i11.i8.i3(i8 %shift_reg_V_1_9_load, i3 0)
  %p_shl104_cast = sext i11 %p_shl104 to i12
  %p_neg22 = sub i12 0, %p_shl104_cast
  %p_shl106 = call i9 @_ssdm_op_BitConcatenate.i9.i8.i1(i8 %shift_reg_V_1_9_load, i1 false)
  %p_shl106_cast = sext i9 %p_shl106 to i12
  %r_V_1_56 = sub i12 %p_neg22, %p_shl106_cast
  %r_V_1_95_cast = sext i12 %r_V_1_56 to i13
  %shift_reg_V_1_8_load = load i8* @shift_reg_V_1_8, align 8
  store i8 %shift_reg_V_1_8_load, i8* @shift_reg_V_1_9, align 1
  %p_shl101 = call i11 @_ssdm_op_BitConcatenate.i11.i8.i3(i8 %shift_reg_V_1_8_load, i3 0)
  %p_shl101_cast = sext i11 %p_shl101 to i12
  %p_neg23 = sub i12 0, %p_shl101_cast
  %p_shl103 = call i9 @_ssdm_op_BitConcatenate.i9.i8.i1(i8 %shift_reg_V_1_8_load, i1 false)
  %p_shl103_cast = sext i9 %p_shl103 to i12
  %r_V_1_57 = sub i12 %p_neg23, %p_shl103_cast
  %r_V_1_96_cast = sext i12 %r_V_1_57 to i13
  %shift_reg_V_1_7_load = load i8* @shift_reg_V_1_7, align 1
  store i8 %shift_reg_V_1_7_load, i8* @shift_reg_V_1_8, align 8
  %p_shl98 = call i11 @_ssdm_op_BitConcatenate.i11.i8.i3(i8 %shift_reg_V_1_7_load, i3 0)
  %p_shl98_cast = sext i11 %p_shl98 to i12
  %p_neg24 = sub i12 0, %p_shl98_cast
  %p_shl100 = call i9 @_ssdm_op_BitConcatenate.i9.i8.i1(i8 %shift_reg_V_1_7_load, i1 false)
  %p_shl100_cast = sext i9 %p_shl100 to i12
  %r_V_1_58 = sub i12 %p_neg24, %p_shl100_cast
  %r_V_1_97_cast = sext i12 %r_V_1_58 to i13
  %shift_reg_V_1_6_load = load i8* @shift_reg_V_1_6, align 2
  store i8 %shift_reg_V_1_6_load, i8* @shift_reg_V_1_7, align 1
  %p_shl95 = call i11 @_ssdm_op_BitConcatenate.i11.i8.i3(i8 %shift_reg_V_1_6_load, i3 0)
  %p_shl95_cast = sext i11 %p_shl95 to i12
  %p_neg25 = sub i12 0, %p_shl95_cast
  %p_shl97 = call i9 @_ssdm_op_BitConcatenate.i9.i8.i1(i8 %shift_reg_V_1_6_load, i1 false)
  %p_shl97_cast = sext i9 %p_shl97 to i12
  %r_V_1_59 = sub i12 %p_neg25, %p_shl97_cast
  %r_V_1_98_cast = sext i12 %r_V_1_59 to i13
  %shift_reg_V_1_5_load = load i8* @shift_reg_V_1_5, align 1
  store i8 %shift_reg_V_1_5_load, i8* @shift_reg_V_1_6, align 2
  %p_shl92 = call i11 @_ssdm_op_BitConcatenate.i11.i8.i3(i8 %shift_reg_V_1_5_load, i3 0)
  %p_shl92_cast = sext i11 %p_shl92 to i12
  %p_neg26 = sub i12 0, %p_shl92_cast
  %p_shl94 = call i9 @_ssdm_op_BitConcatenate.i9.i8.i1(i8 %shift_reg_V_1_5_load, i1 false)
  %p_shl94_cast = sext i9 %p_shl94 to i12
  %r_V_1_60 = sub i12 %p_neg26, %p_shl94_cast
  %r_V_1_99_cast = sext i12 %r_V_1_60 to i13
  %shift_reg_V_1_4_load = load i8* @shift_reg_V_1_4, align 4
  store i8 %shift_reg_V_1_4_load, i8* @shift_reg_V_1_5, align 1
  %p_shl89 = call i11 @_ssdm_op_BitConcatenate.i11.i8.i3(i8 %shift_reg_V_1_4_load, i3 0)
  %p_shl89_cast = sext i11 %p_shl89 to i12
  %p_neg27 = sub i12 0, %p_shl89_cast
  %p_shl91 = call i9 @_ssdm_op_BitConcatenate.i9.i8.i1(i8 %shift_reg_V_1_4_load, i1 false)
  %p_shl91_cast = sext i9 %p_shl91 to i12
  %r_V_1_61 = sub i12 %p_neg27, %p_shl91_cast
  %r_V_1_100_cast = sext i12 %r_V_1_61 to i13
  %shift_reg_V_1_3_load = load i8* @shift_reg_V_1_3, align 1
  store i8 %shift_reg_V_1_3_load, i8* @shift_reg_V_1_4, align 4
  %p_shl86 = call i11 @_ssdm_op_BitConcatenate.i11.i8.i3(i8 %shift_reg_V_1_3_load, i3 0)
  %p_shl86_cast = sext i11 %p_shl86 to i12
  %p_neg28 = sub i12 0, %p_shl86_cast
  %p_shl88 = call i9 @_ssdm_op_BitConcatenate.i9.i8.i1(i8 %shift_reg_V_1_3_load, i1 false)
  %p_shl88_cast = sext i9 %p_shl88 to i12
  %r_V_1_62 = sub i12 %p_neg28, %p_shl88_cast
  %r_V_1_101_cast = sext i12 %r_V_1_62 to i13
  %shift_reg_V_1_2_load = load i8* @shift_reg_V_1_2, align 2
  store i8 %shift_reg_V_1_2_load, i8* @shift_reg_V_1_3, align 1
  %p_shl83 = call i11 @_ssdm_op_BitConcatenate.i11.i8.i3(i8 %shift_reg_V_1_2_load, i3 0)
  %p_shl83_cast = sext i11 %p_shl83 to i12
  %p_neg29 = sub i12 0, %p_shl83_cast
  %p_shl85 = call i9 @_ssdm_op_BitConcatenate.i9.i8.i1(i8 %shift_reg_V_1_2_load, i1 false)
  %p_shl85_cast = sext i9 %p_shl85 to i12
  %r_V_1_63 = sub i12 %p_neg29, %p_shl85_cast
  %r_V_1_102_cast = sext i12 %r_V_1_63 to i13
  %shift_reg_V_1_1_load = load i8* @shift_reg_V_1_1, align 1
  store i8 %shift_reg_V_1_1_load, i8* @shift_reg_V_1_2, align 2
  %p_shl80 = call i11 @_ssdm_op_BitConcatenate.i11.i8.i3(i8 %shift_reg_V_1_1_load, i3 0)
  %p_shl80_cast = sext i11 %p_shl80 to i12
  %p_neg30 = sub i12 0, %p_shl80_cast
  %p_shl82 = call i9 @_ssdm_op_BitConcatenate.i9.i8.i1(i8 %shift_reg_V_1_1_load, i1 false)
  %p_shl82_cast = sext i9 %p_shl82 to i12
  %r_V_1_64 = sub i12 %p_neg30, %p_shl82_cast
  %r_V_1_103_cast = sext i12 %r_V_1_64 to i13
  %shift_reg_V_1_0_load = load i8* @shift_reg_V_1_0, align 16
  store i8 %shift_reg_V_1_0_load, i8* @shift_reg_V_1_1, align 1
  %p_shl77 = call i11 @_ssdm_op_BitConcatenate.i11.i8.i3(i8 %shift_reg_V_1_0_load, i3 0)
  %p_shl77_cast = sext i11 %p_shl77 to i12
  %p_neg31 = sub i12 0, %p_shl77_cast
  %p_shl79 = call i9 @_ssdm_op_BitConcatenate.i9.i8.i1(i8 %shift_reg_V_1_0_load, i1 false)
  %p_shl79_cast = sext i9 %p_shl79 to i12
  %r_V_1_65 = sub i12 %p_neg31, %p_shl79_cast
  %r_V_1_104_cast = sext i12 %r_V_1_65 to i13
  %shift_reg_V_0_15_load = load i8* @shift_reg_V_0_15, align 1
  store i8 %shift_reg_V_0_15_load, i8* @shift_reg_V_1_0, align 16
  %p_shl74 = call i11 @_ssdm_op_BitConcatenate.i11.i8.i3(i8 %shift_reg_V_0_15_load, i3 0)
  %p_shl74_cast = sext i11 %p_shl74 to i12
  %p_neg32 = sub i12 0, %p_shl74_cast
  %p_shl76 = call i9 @_ssdm_op_BitConcatenate.i9.i8.i1(i8 %shift_reg_V_0_15_load, i1 false)
  %p_shl76_cast = sext i9 %p_shl76 to i12
  %r_V_1_66 = sub i12 %p_neg32, %p_shl76_cast
  %r_V_1_105_cast = sext i12 %r_V_1_66 to i13
  %shift_reg_V_0_14_load = load i8* @shift_reg_V_0_14, align 2
  store i8 %shift_reg_V_0_14_load, i8* @shift_reg_V_0_15, align 1
  %p_shl71 = call i11 @_ssdm_op_BitConcatenate.i11.i8.i3(i8 %shift_reg_V_0_14_load, i3 0)
  %p_shl71_cast = sext i11 %p_shl71 to i12
  %p_neg33 = sub i12 0, %p_shl71_cast
  %p_shl73 = call i9 @_ssdm_op_BitConcatenate.i9.i8.i1(i8 %shift_reg_V_0_14_load, i1 false)
  %p_shl73_cast = sext i9 %p_shl73 to i12
  %r_V_1_67 = sub i12 %p_neg33, %p_shl73_cast
  %r_V_1_106_cast = sext i12 %r_V_1_67 to i13
  %shift_reg_V_0_13_load = load i8* @shift_reg_V_0_13, align 1
  store i8 %shift_reg_V_0_13_load, i8* @shift_reg_V_0_14, align 2
  %p_shl68 = call i11 @_ssdm_op_BitConcatenate.i11.i8.i3(i8 %shift_reg_V_0_13_load, i3 0)
  %p_shl68_cast = sext i11 %p_shl68 to i12
  %p_neg34 = sub i12 0, %p_shl68_cast
  %p_shl70 = call i9 @_ssdm_op_BitConcatenate.i9.i8.i1(i8 %shift_reg_V_0_13_load, i1 false)
  %p_shl70_cast = sext i9 %p_shl70 to i12
  %r_V_1_68 = sub i12 %p_neg34, %p_shl70_cast
  %r_V_1_107_cast = sext i12 %r_V_1_68 to i13
  %shift_reg_V_0_12_load = load i8* @shift_reg_V_0_12, align 4
  store i8 %shift_reg_V_0_12_load, i8* @shift_reg_V_0_13, align 1
  %p_shl65 = call i11 @_ssdm_op_BitConcatenate.i11.i8.i3(i8 %shift_reg_V_0_12_load, i3 0)
  %p_shl65_cast = sext i11 %p_shl65 to i12
  %p_neg35 = sub i12 0, %p_shl65_cast
  %p_shl67 = call i9 @_ssdm_op_BitConcatenate.i9.i8.i1(i8 %shift_reg_V_0_12_load, i1 false)
  %p_shl67_cast = sext i9 %p_shl67 to i12
  %r_V_1_69 = sub i12 %p_neg35, %p_shl67_cast
  %r_V_1_108_cast = sext i12 %r_V_1_69 to i13
  %shift_reg_V_0_11_load = load i8* @shift_reg_V_0_11, align 1
  store i8 %shift_reg_V_0_11_load, i8* @shift_reg_V_0_12, align 4
  %p_shl62 = call i11 @_ssdm_op_BitConcatenate.i11.i8.i3(i8 %shift_reg_V_0_11_load, i3 0)
  %p_shl62_cast = sext i11 %p_shl62 to i12
  %p_neg36 = sub i12 0, %p_shl62_cast
  %p_shl64 = call i9 @_ssdm_op_BitConcatenate.i9.i8.i1(i8 %shift_reg_V_0_11_load, i1 false)
  %p_shl64_cast = sext i9 %p_shl64 to i12
  %r_V_1_70 = sub i12 %p_neg36, %p_shl64_cast
  %r_V_1_109_cast = sext i12 %r_V_1_70 to i13
  %shift_reg_V_0_10_load = load i8* @shift_reg_V_0_10, align 2
  store i8 %shift_reg_V_0_10_load, i8* @shift_reg_V_0_11, align 1
  %p_shl59 = call i11 @_ssdm_op_BitConcatenate.i11.i8.i3(i8 %shift_reg_V_0_10_load, i3 0)
  %p_shl59_cast = sext i11 %p_shl59 to i12
  %p_neg37 = sub i12 0, %p_shl59_cast
  %p_shl61 = call i9 @_ssdm_op_BitConcatenate.i9.i8.i1(i8 %shift_reg_V_0_10_load, i1 false)
  %p_shl61_cast = sext i9 %p_shl61 to i12
  %r_V_1_71 = sub i12 %p_neg37, %p_shl61_cast
  %r_V_1_110_cast = sext i12 %r_V_1_71 to i13
  %shift_reg_V_0_9_load = load i8* @shift_reg_V_0_9, align 1
  store i8 %shift_reg_V_0_9_load, i8* @shift_reg_V_0_10, align 2
  %p_shl56 = call i11 @_ssdm_op_BitConcatenate.i11.i8.i3(i8 %shift_reg_V_0_9_load, i3 0)
  %p_shl56_cast = sext i11 %p_shl56 to i12
  %p_neg38 = sub i12 0, %p_shl56_cast
  %p_shl58 = call i9 @_ssdm_op_BitConcatenate.i9.i8.i1(i8 %shift_reg_V_0_9_load, i1 false)
  %p_shl58_cast = sext i9 %p_shl58 to i12
  %r_V_1_72 = sub i12 %p_neg38, %p_shl58_cast
  %r_V_1_111_cast = sext i12 %r_V_1_72 to i13
  %shift_reg_V_0_8_load = load i8* @shift_reg_V_0_8, align 8
  store i8 %shift_reg_V_0_8_load, i8* @shift_reg_V_0_9, align 1
  %p_shl53 = call i11 @_ssdm_op_BitConcatenate.i11.i8.i3(i8 %shift_reg_V_0_8_load, i3 0)
  %p_shl53_cast = sext i11 %p_shl53 to i12
  %p_neg39 = sub i12 0, %p_shl53_cast
  %p_shl55 = call i9 @_ssdm_op_BitConcatenate.i9.i8.i1(i8 %shift_reg_V_0_8_load, i1 false)
  %p_shl55_cast = sext i9 %p_shl55 to i12
  %r_V_1_73 = sub i12 %p_neg39, %p_shl55_cast
  %r_V_1_112_cast = sext i12 %r_V_1_73 to i13
  %shift_reg_V_0_7_load = load i8* @shift_reg_V_0_7, align 1
  store i8 %shift_reg_V_0_7_load, i8* @shift_reg_V_0_8, align 8
  %lhs_V_1_118_cast = sext i8 %shift_reg_V_0_7_load to i9
  %shift_reg_V_0_6_load = load i8* @shift_reg_V_0_6, align 2
  store i8 %shift_reg_V_0_6_load, i8* @shift_reg_V_0_7, align 1
  %lhs_V_1_119_cast = sext i8 %shift_reg_V_0_6_load to i9
  %tmp98 = add i16 %acc_V_9, %r_V_1_88_cast
  %tmp99 = add i16 %tmp98, %r_V_1_87_cast
  %tmp100 = add i13 %r_V_1_89_cast, %r_V_1_90_cast
  %tmp262_cast = sext i13 %tmp100 to i14
  %tmp101 = add i13 %r_V_1_91_cast, %r_V_1_92_cast
  %tmp263_cast = sext i13 %tmp101 to i14
  %tmp102 = add i14 %tmp263_cast, %tmp262_cast
  %tmp261_cast = sext i14 %tmp102 to i16
  %tmp103 = add i16 %tmp261_cast, %tmp99
  %tmp104 = add i13 %r_V_1_94_cast, %r_V_1_95_cast
  %tmp105 = add i13 %tmp104, %r_V_1_93_cast
  %tmp265_cast = sext i13 %tmp105 to i15
  %tmp106 = add i13 %r_V_1_96_cast, %r_V_1_97_cast
  %tmp268_cast = sext i13 %tmp106 to i14
  %tmp107 = add i13 %r_V_1_98_cast, %r_V_1_99_cast
  %tmp269_cast = sext i13 %tmp107 to i14
  %tmp108 = add i14 %tmp269_cast, %tmp268_cast
  %tmp267_cast = sext i14 %tmp108 to i15
  %tmp109 = add i15 %tmp267_cast, %tmp265_cast
  %tmp264_cast = sext i15 %tmp109 to i16
  %tmp110 = add i16 %tmp264_cast, %tmp103
  %tmp111 = add i13 %r_V_1_101_cast, %r_V_1_102_cast
  %tmp112 = add i13 %tmp111, %r_V_1_100_cast
  %tmp272_cast = sext i13 %tmp112 to i15
  %tmp113 = add i13 %r_V_1_103_cast, %r_V_1_104_cast
  %tmp275_cast = sext i13 %tmp113 to i14
  %tmp114 = add i13 %r_V_1_105_cast, %r_V_1_106_cast
  %tmp276_cast = sext i13 %tmp114 to i14
  %tmp115 = add i14 %tmp276_cast, %tmp275_cast
  %tmp274_cast = sext i14 %tmp115 to i15
  %tmp116 = add i15 %tmp274_cast, %tmp272_cast
  %tmp271_cast = sext i15 %tmp116 to i16
  %tmp117 = add i13 %r_V_1_107_cast, %r_V_1_108_cast
  %tmp279_cast = sext i13 %tmp117 to i14
  %tmp118 = add i13 %r_V_1_109_cast, %r_V_1_110_cast
  %tmp280_cast = sext i13 %tmp118 to i14
  %tmp119 = add i14 %tmp280_cast, %tmp279_cast
  %tmp278_cast = sext i14 %tmp119 to i15
  %tmp120 = add i13 %r_V_1_111_cast, %r_V_1_112_cast
  %tmp282_cast = sext i13 %tmp120 to i14
  %r_V_1_74 = add i9 %lhs_V_1_118_cast, %lhs_V_1_119_cast
  %r_V_1_113291_cast = sext i9 %r_V_1_74 to i14
  %tmp121 = mul i14 -11, %r_V_1_113291_cast
  %tmp122 = add i14 %tmp121, %tmp282_cast
  %tmp281_cast = sext i14 %tmp122 to i15
  %tmp123 = add i15 %tmp281_cast, %tmp278_cast
  %tmp277_cast = sext i15 %tmp123 to i16
  %tmp124 = add i16 %tmp277_cast, %tmp271_cast
  %acc_V_10 = add i16 %tmp124, %tmp110
  %shift_reg_V_0_5_load = load i8* @shift_reg_V_0_5, align 1
  store i8 %shift_reg_V_0_5_load, i8* @shift_reg_V_0_6, align 2
  %p_shl51 = call i11 @_ssdm_op_BitConcatenate.i11.i8.i3(i8 %shift_reg_V_0_5_load, i3 0)
  %p_shl51_cast = sext i11 %p_shl51 to i16
  %acc_V_11 = sub i16 %acc_V_10, %p_shl51_cast
  %shift_reg_V_0_4_load = load i8* @shift_reg_V_0_4, align 4
  store i8 %shift_reg_V_0_4_load, i8* @shift_reg_V_0_5, align 1
  %lhs_V_1_121_cast = sext i8 %shift_reg_V_0_4_load to i11
  %tmp_6 = call i10 @_ssdm_op_BitConcatenate.i10.i8.i2(i8 %shift_reg_V_0_4_load, i2 0)
  %p_shl128 = sext i10 %tmp_6 to i11
  %r_V_1_75 = sub i11 %lhs_V_1_121_cast, %p_shl128
  %r_V_1_115_cast = sext i11 %r_V_1_75 to i16
  %shift_reg_V_0_3_load = load i8* @shift_reg_V_0_3, align 1
  store i8 %shift_reg_V_0_3_load, i8* @shift_reg_V_0_4, align 4
  %lhs_V_1_122_cast = sext i8 %shift_reg_V_0_3_load to i11
  %p_shl49 = call i10 @_ssdm_op_BitConcatenate.i10.i8.i2(i8 %shift_reg_V_0_3_load, i2 0)
  %p_shl49_cast = sext i10 %p_shl49 to i11
  %r_V_1_76 = sub i11 %p_shl49_cast, %lhs_V_1_122_cast
  %r_V_1_116_cast = sext i11 %r_V_1_76 to i16
  %shift_reg_V_0_2_load = load i8* @shift_reg_V_0_2, align 2
  store i8 %shift_reg_V_0_2_load, i8* @shift_reg_V_0_3, align 1
  %r_V_1_77 = call i11 @_ssdm_op_BitConcatenate.i11.i8.i3(i8 %shift_reg_V_0_2_load, i3 0)
  %r_V_1_117_cast = sext i11 %r_V_1_77 to i13
  %shift_reg_V_0_1_load = load i8* @shift_reg_V_0_1, align 1
  store i8 %shift_reg_V_0_1_load, i8* @shift_reg_V_0_2, align 2
  %lhs_V_1_124_cast = sext i8 %shift_reg_V_0_1_load to i9
  %shift_reg_V_0_0_load = load i8* @shift_reg_V_0_0, align 16
  store i8 %shift_reg_V_0_0_load, i8* @shift_reg_V_0_1, align 1
  %lhs_V_1_125_cast = sext i8 %shift_reg_V_0_0_load to i9
  %tmp125 = add i16 %acc_V_11, %r_V_1_116_cast
  %tmp126 = add i16 %tmp125, %r_V_1_115_cast
  %r_V_1_78 = add i9 %lhs_V_1_124_cast, %lhs_V_1_125_cast
  %r_V_1_118292_cast = sext i9 %r_V_1_78 to i13
  %tmp127 = mul i13 11, %r_V_1_118292_cast
  %tmp128 = add i13 %tmp127, %r_V_1_117_cast
  %tmp286_cast = sext i13 %tmp128 to i16
  %acc_V_12 = add i16 %tmp286_cast, %tmp126
  %tmp_129 = trunc i32 %x_read to i8
  store i8 %tmp_129, i8* @shift_reg_V_0_0, align 16
  %tmp_130 = shl i32 %x_read, 3
  %tmp_131 = shl i32 %x_read, 1
  %tmp_9 = sext i16 %acc_V_12 to i32
  %tmp129 = add i32 %tmp_130, %tmp_9
  %tmp_s = add i32 %tmp129, %tmp_131
  call void @_ssdm_op_Write.ap_auto.i32P(i32* %y, i32 %tmp_s) nounwind
  ret void
}

define weak void @_ssdm_op_Write.ap_auto.i32P(i32*, i32) {
entry:
  store i32 %1, i32* %0
  ret void
}

define weak void @_ssdm_op_SpecTopModule(...) {
entry:
  ret void
}

define weak void @_ssdm_op_SpecBitsMap(...) {
entry:
  ret void
}

define weak i32 @_ssdm_op_Read.ap_auto.i32(i32) {
entry:
  ret i32 %0
}

declare i8 @_ssdm_op_PartSelect.i8.i32.i32.i32(i32, i32, i32) nounwind readnone

declare i31 @_ssdm_op_PartSelect.i31.i32.i32.i32(i32, i32, i32) nounwind readnone

declare i29 @_ssdm_op_PartSelect.i29.i32.i32.i32(i32, i32, i32) nounwind readnone

declare i16 @_ssdm_op_HSub(...)

declare i16 @_ssdm_op_HMul(...)

declare i16 @_ssdm_op_HDiv(...)

declare i16 @_ssdm_op_HAdd(...)

define weak i9 @_ssdm_op_BitConcatenate.i9.i8.i1(i8, i1) nounwind readnone {
entry:
  %empty = zext i8 %0 to i9
  %empty_3 = zext i1 %1 to i9
  %empty_4 = shl i9 %empty, 1
  %empty_5 = or i9 %empty_4, %empty_3
  ret i9 %empty_5
}

declare i32 @_ssdm_op_BitConcatenate.i32.i31.i1(i31, i1) nounwind readnone

declare i32 @_ssdm_op_BitConcatenate.i32.i29.i3(i29, i3) nounwind readnone

define weak i16 @_ssdm_op_BitConcatenate.i16.i13.i3(i13, i3) nounwind readnone {
entry:
  %empty = zext i13 %0 to i16
  %empty_6 = zext i3 %1 to i16
  %empty_7 = shl i16 %empty, 3
  %empty_8 = or i16 %empty_7, %empty_6
  ret i16 %empty_8
}

define weak i14 @_ssdm_op_BitConcatenate.i14.i13.i1(i13, i1) nounwind readnone {
entry:
  %empty = zext i13 %0 to i14
  %empty_9 = zext i1 %1 to i14
  %empty_10 = shl i14 %empty, 1
  %empty_11 = or i14 %empty_10, %empty_9
  ret i14 %empty_11
}

define weak i11 @_ssdm_op_BitConcatenate.i11.i8.i3(i8, i3) nounwind readnone {
entry:
  %empty = zext i8 %0 to i11
  %empty_12 = zext i3 %1 to i11
  %empty_13 = shl i11 %empty, 3
  %empty_14 = or i11 %empty_13, %empty_12
  ret i11 %empty_14
}

define weak i10 @_ssdm_op_BitConcatenate.i10.i8.i2(i8, i2) nounwind readnone {
entry:
  %empty = zext i8 %0 to i10
  %empty_15 = zext i2 %1 to i10
  %empty_16 = shl i10 %empty, 2
  %empty_17 = or i10 %empty_16, %empty_15
  ret i10 %empty_17
}

declare void @_GLOBAL__I_a() nounwind

!hls.encrypted.func = !{}
!llvm.map.gv = !{!0}

!0 = metadata !{metadata !1, [1 x i32]* @llvm_global_ctors_0}
!1 = metadata !{metadata !2}
!2 = metadata !{i32 0, i32 31, metadata !3}
!3 = metadata !{metadata !4}
!4 = metadata !{metadata !"llvm.global_ctors.0", metadata !5, metadata !"", i32 0, i32 31}
!5 = metadata !{metadata !6}
!6 = metadata !{i32 0, i32 0, i32 1}
!7 = metadata !{metadata !8}
!8 = metadata !{i32 0, i32 31, metadata !9}
!9 = metadata !{metadata !10}
!10 = metadata !{metadata !"y", metadata !5, metadata !"int", i32 0, i32 31}
!11 = metadata !{metadata !12}
!12 = metadata !{i32 0, i32 31, metadata !13}
!13 = metadata !{metadata !14}
!14 = metadata !{metadata !"x", metadata !15, metadata !"int", i32 0, i32 31}
!15 = metadata !{metadata !16}
!16 = metadata !{i32 0, i32 0, i32 0}
