

================================================================
== Vivado HLS Report for 'phasedetector_fir'
================================================================
* Date:           Thu Oct 20 02:41:58 2016

* Version:        2015.4 (Build 1412921 on Wed Nov 18 09:58:55 AM 2015)
* Project:        phasedetector
* Solution:       phasedectector_optimized2
* Product family: zynq
* Target device:  xc7z020clg484-1


================================================================
== Performance Estimates
================================================================
+ Timing (ns): 
    * Summary: 
    +--------+-------+----------+------------+
    |  Clock | Target| Estimated| Uncertainty|
    +--------+-------+----------+------------+
    |ap_clk  |  10.00|      7.16|        1.25|
    +--------+-------+----------+------------+

+ Latency (clock cycles): 
    * Summary: 
    +-----+-----+-----+-----+----------+
    |  Latency  |  Interval | Pipeline |
    | min | max | min | max |   Type   |
    +-----+-----+-----+-----+----------+
    |    7|    7|    1|    1| function |
    +-----+-----+-----+-----+----------+

    + Detail: 
        * Instance: 
        N/A

        * Loop: 
        N/A

============================================================
+ Verbose Summary: Synthesis Manager
============================================================
InlineROM: 1
ExposeGlobal: 0
============================================================
+ Verbose Summary: CDFG Model
============================================================
IsTopModel: 0
ResetActiveHigh: 1
IsCombinational: 0
IsDatapathOnly: 0
HasWiredReturn: 1
HasMFsm: 2
HasVarLatency: 0
IsPipeline: 1
IsRtlPipelined: 1
IsInstanceOverlapped: 0
IsDontTouch: 0
HasImplIP: 0
IsGatedGlobalClock: 0

+ Individual pipeline summary: 
  * Pipeline-0: initiation interval (II) = 1, depth = 8


============================================================
+ Verbose Summary: Schedule
============================================================
* Number of FSM states: 8
* Pipeline: 1
  Pipeline-0: II = 1, D = 8, States = { 1 2 3 4 5 6 7 8 }
* Dataflow Pipeline: 0

* FSM state transitions: 
1 --> 
	2  / true
2 --> 
	3  / true
3 --> 
	4  / true
4 --> 
	5  / true
5 --> 
	6  / true
6 --> 
	7  / true
7 --> 
	8  / true
8 --> 
* FSM state operations: 

 <State 1>: 7.16ns
ST_1: Q_V_read [1/1] 0.00ns
:0  %Q_V_read = call i19 @_ssdm_op_Read.ap_auto.i19(i19 %Q_V)

ST_1: I_V_read [1/1] 0.00ns
:1  %I_V_read = call i19 @_ssdm_op_Read.ap_auto.i19(i19 %I_V)

ST_1: shift_reg_V_3_6_3_load [1/1] 0.00ns
:2  %shift_reg_V_3_6_3_load = load i19* @shift_reg_V_3_6_3, align 8

ST_1: tmp_101_i [1/1] 1.79ns
:3  %tmp_101_i = sub i19 0, %shift_reg_V_3_6_3_load

ST_1: shift_reg_V_3_5_3_load [1/1] 0.00ns
:4  %shift_reg_V_3_5_3_load = load i19* @shift_reg_V_3_5_3, align 4

ST_1: stg_14 [1/1] 0.00ns
:5  store i19 %shift_reg_V_3_5_3_load, i19* @shift_reg_V_3_6_3, align 8

ST_1: tmp_101_1_i [1/1] 1.79ns
:6  %tmp_101_1_i = sub i19 %tmp_101_i, %shift_reg_V_3_5_3_load

ST_1: shift_reg_V_3_4_3_load [1/1] 0.00ns
:7  %shift_reg_V_3_4_3_load = load i19* @shift_reg_V_3_4_3, align 16

ST_1: stg_17 [1/1] 0.00ns
:8  store i19 %shift_reg_V_3_4_3_load, i19* @shift_reg_V_3_5_3, align 4

ST_1: tmp_101_2_i [1/1] 1.79ns
:9  %tmp_101_2_i = sub i19 %tmp_101_1_i, %shift_reg_V_3_4_3_load

ST_1: shift_reg_V_3_3_3_load [1/1] 0.00ns
:10  %shift_reg_V_3_3_3_load = load i19* @shift_reg_V_3_3_3, align 4

ST_1: stg_20 [1/1] 0.00ns
:11  store i19 %shift_reg_V_3_3_3_load, i19* @shift_reg_V_3_4_3, align 16

ST_1: shift_reg_V_3_2_3_load [1/1] 0.00ns
:12  %shift_reg_V_3_2_3_load = load i19* @shift_reg_V_3_2_3, align 8

ST_1: stg_22 [1/1] 0.00ns
:13  store i19 %shift_reg_V_3_2_3_load, i19* @shift_reg_V_3_3_3, align 4

ST_1: shift_reg_V_3_1_3_load [1/1] 0.00ns
:14  %shift_reg_V_3_1_3_load = load i19* @shift_reg_V_3_1_3, align 4

ST_1: stg_24 [1/1] 0.00ns
:15  store i19 %shift_reg_V_3_1_3_load, i19* @shift_reg_V_3_2_3, align 8

ST_1: tmp1 [1/1] 1.79ns
:17  %tmp1 = add i19 %shift_reg_V_3_1_3_load, %tmp_101_2_i

ST_1: shift_reg_V_3_0_3_load [1/1] 0.00ns
:19  %shift_reg_V_3_0_3_load = load i19* @shift_reg_V_3_0_3, align 16

ST_1: stg_27 [1/1] 0.00ns
:20  store i19 %shift_reg_V_3_0_3_load, i19* @shift_reg_V_3_1_3, align 4

ST_1: shift_reg_V_3_7_2_load [1/1] 0.00ns
:22  %shift_reg_V_3_7_2_load = load i19* @shift_reg_V_3_7_2, align 4

ST_1: stg_29 [1/1] 0.00ns
:23  store i19 %shift_reg_V_3_7_2_load, i19* @shift_reg_V_3_0_3, align 16

ST_1: shift_reg_V_3_6_2_load [1/1] 0.00ns
:25  %shift_reg_V_3_6_2_load = load i19* @shift_reg_V_3_6_2, align 8

ST_1: stg_31 [1/1] 0.00ns
:26  store i19 %shift_reg_V_3_6_2_load, i19* @shift_reg_V_3_7_2, align 4

ST_1: shift_reg_V_3_5_2_load [1/1] 0.00ns
:27  %shift_reg_V_3_5_2_load = load i19* @shift_reg_V_3_5_2, align 4

ST_1: stg_33 [1/1] 0.00ns
:28  store i19 %shift_reg_V_3_5_2_load, i19* @shift_reg_V_3_6_2, align 8

ST_1: shift_reg_V_3_4_2_load [1/1] 0.00ns
:29  %shift_reg_V_3_4_2_load = load i19* @shift_reg_V_3_4_2, align 16

ST_1: stg_35 [1/1] 0.00ns
:30  store i19 %shift_reg_V_3_4_2_load, i19* @shift_reg_V_3_5_2, align 4

ST_1: shift_reg_V_3_3_2_load [1/1] 0.00ns
:31  %shift_reg_V_3_3_2_load = load i19* @shift_reg_V_3_3_2, align 4

ST_1: stg_37 [1/1] 0.00ns
:32  store i19 %shift_reg_V_3_3_2_load, i19* @shift_reg_V_3_4_2, align 16

ST_1: shift_reg_V_3_2_2_load [1/1] 0.00ns
:33  %shift_reg_V_3_2_2_load = load i19* @shift_reg_V_3_2_2, align 8

ST_1: stg_39 [1/1] 0.00ns
:34  store i19 %shift_reg_V_3_2_2_load, i19* @shift_reg_V_3_3_2, align 4

ST_1: tmp3 [1/1] 2.08ns
:35  %tmp3 = add i19 %shift_reg_V_3_5_2_load, %shift_reg_V_3_4_2_load

ST_1: shift_reg_V_3_1_2_load [1/1] 0.00ns
:40  %shift_reg_V_3_1_2_load = load i19* @shift_reg_V_3_1_2, align 4

ST_1: stg_42 [1/1] 0.00ns
:41  store i19 %shift_reg_V_3_1_2_load, i19* @shift_reg_V_3_2_2, align 8

ST_1: shift_reg_V_3_0_2_load [1/1] 0.00ns
:43  %shift_reg_V_3_0_2_load = load i19* @shift_reg_V_3_0_2, align 16

ST_1: stg_44 [1/1] 0.00ns
:44  store i19 %shift_reg_V_3_0_2_load, i19* @shift_reg_V_3_1_2, align 4

ST_1: shift_reg_V_3_7_1_load [1/1] 0.00ns
:46  %shift_reg_V_3_7_1_load = load i19* @shift_reg_V_3_7_1, align 4

ST_1: stg_46 [1/1] 0.00ns
:47  store i19 %shift_reg_V_3_7_1_load, i19* @shift_reg_V_3_0_2, align 16

ST_1: shift_reg_V_3_6_1_load [1/1] 0.00ns
:49  %shift_reg_V_3_6_1_load = load i19* @shift_reg_V_3_6_1, align 8

ST_1: stg_48 [1/1] 0.00ns
:50  store i19 %shift_reg_V_3_6_1_load, i19* @shift_reg_V_3_7_1, align 4

ST_1: shift_reg_V_3_5_1_load [1/1] 0.00ns
:52  %shift_reg_V_3_5_1_load = load i19* @shift_reg_V_3_5_1, align 4

ST_1: stg_50 [1/1] 0.00ns
:53  store i19 %shift_reg_V_3_5_1_load, i19* @shift_reg_V_3_6_1, align 8

ST_1: shift_reg_V_3_4_1_load [1/1] 0.00ns
:55  %shift_reg_V_3_4_1_load = load i19* @shift_reg_V_3_4_1, align 16

ST_1: stg_52 [1/1] 0.00ns
:56  store i19 %shift_reg_V_3_4_1_load, i19* @shift_reg_V_3_5_1, align 4

ST_1: shift_reg_V_3_3_1_load [1/1] 0.00ns
:58  %shift_reg_V_3_3_1_load = load i19* @shift_reg_V_3_3_1, align 4

ST_1: stg_54 [1/1] 0.00ns
:59  store i19 %shift_reg_V_3_3_1_load, i19* @shift_reg_V_3_4_1, align 16

ST_1: shift_reg_V_3_2_1_load [1/1] 0.00ns
:60  %shift_reg_V_3_2_1_load = load i19* @shift_reg_V_3_2_1, align 8

ST_1: stg_56 [1/1] 0.00ns
:61  store i19 %shift_reg_V_3_2_1_load, i19* @shift_reg_V_3_3_1, align 4

ST_1: shift_reg_V_3_1_1_load [1/1] 0.00ns
:64  %shift_reg_V_3_1_1_load = load i19* @shift_reg_V_3_1_1, align 4

ST_1: stg_58 [1/1] 0.00ns
:65  store i19 %shift_reg_V_3_1_1_load, i19* @shift_reg_V_3_2_1, align 8

ST_1: shift_reg_V_3_0_1_load [1/1] 0.00ns
:67  %shift_reg_V_3_0_1_load = load i19* @shift_reg_V_3_0_1, align 16

ST_1: stg_60 [1/1] 0.00ns
:68  store i19 %shift_reg_V_3_0_1_load, i19* @shift_reg_V_3_1_1, align 4

ST_1: shift_reg_V_3_7_0_load [1/1] 0.00ns
:70  %shift_reg_V_3_7_0_load = load i19* @shift_reg_V_3_7_0, align 4

ST_1: stg_62 [1/1] 0.00ns
:71  store i19 %shift_reg_V_3_7_0_load, i19* @shift_reg_V_3_0_1, align 16

ST_1: shift_reg_V_3_6_0_load [1/1] 0.00ns
:73  %shift_reg_V_3_6_0_load = load i19* @shift_reg_V_3_6_0, align 8

ST_1: stg_64 [1/1] 0.00ns
:74  store i19 %shift_reg_V_3_6_0_load, i19* @shift_reg_V_3_7_0, align 4

ST_1: shift_reg_V_3_5_0_load [1/1] 0.00ns
:75  %shift_reg_V_3_5_0_load = load i19* @shift_reg_V_3_5_0, align 4

ST_1: stg_66 [1/1] 0.00ns
:76  store i19 %shift_reg_V_3_5_0_load, i19* @shift_reg_V_3_6_0, align 8

ST_1: shift_reg_V_3_4_0_load [1/1] 0.00ns
:79  %shift_reg_V_3_4_0_load = load i19* @shift_reg_V_3_4_0, align 16

ST_1: stg_68 [1/1] 0.00ns
:80  store i19 %shift_reg_V_3_4_0_load, i19* @shift_reg_V_3_5_0, align 4

ST_1: shift_reg_V_3_3_0_load [1/1] 0.00ns
:82  %shift_reg_V_3_3_0_load = load i19* @shift_reg_V_3_3_0, align 4

ST_1: stg_70 [1/1] 0.00ns
:83  store i19 %shift_reg_V_3_3_0_load, i19* @shift_reg_V_3_4_0, align 16

ST_1: shift_reg_V_3_2_0_load [1/1] 0.00ns
:85  %shift_reg_V_3_2_0_load = load i19* @shift_reg_V_3_2_0, align 8

ST_1: stg_72 [1/1] 0.00ns
:86  store i19 %shift_reg_V_3_2_0_load, i19* @shift_reg_V_3_3_0, align 4

ST_1: shift_reg_V_3_1_0_load [1/1] 0.00ns
:88  %shift_reg_V_3_1_0_load = load i19* @shift_reg_V_3_1_0, align 4

ST_1: stg_74 [1/1] 0.00ns
:89  store i19 %shift_reg_V_3_1_0_load, i19* @shift_reg_V_3_2_0, align 8

ST_1: shift_reg_V_3_0_0_load [1/1] 0.00ns
:91  %shift_reg_V_3_0_0_load = load i19* @shift_reg_V_3_0_0, align 16

ST_1: stg_76 [1/1] 0.00ns
:92  store i19 %shift_reg_V_3_0_0_load, i19* @shift_reg_V_3_1_0, align 4

ST_1: stg_77 [1/1] 0.00ns
:94  store i19 %I_V_read, i19* @shift_reg_V_3_0_0, align 16

ST_1: shift_reg_V_1_6_3_load [1/1] 0.00ns
:95  %shift_reg_V_1_6_3_load = load i19* @shift_reg_V_1_6_3, align 8

ST_1: shift_reg_V_1_5_3_load [1/1] 0.00ns
:96  %shift_reg_V_1_5_3_load = load i19* @shift_reg_V_1_5_3, align 4

ST_1: stg_80 [1/1] 0.00ns
:97  store i19 %shift_reg_V_1_5_3_load, i19* @shift_reg_V_1_6_3, align 8

ST_1: tmp_68_1_i [1/1] 1.79ns
:98  %tmp_68_1_i = add i19 %shift_reg_V_1_6_3_load, %shift_reg_V_1_5_3_load

ST_1: shift_reg_V_1_4_3_load [1/1] 0.00ns
:99  %shift_reg_V_1_4_3_load = load i19* @shift_reg_V_1_4_3, align 16

ST_1: stg_83 [1/1] 0.00ns
:100  store i19 %shift_reg_V_1_4_3_load, i19* @shift_reg_V_1_5_3, align 4

ST_1: tmp_71_2_i [1/1] 1.79ns
:101  %tmp_71_2_i = sub i19 %tmp_68_1_i, %shift_reg_V_1_4_3_load

ST_1: shift_reg_V_1_3_3_load [1/1] 0.00ns
:102  %shift_reg_V_1_3_3_load = load i19* @shift_reg_V_1_3_3, align 4

ST_1: stg_86 [1/1] 0.00ns
:103  store i19 %shift_reg_V_1_3_3_load, i19* @shift_reg_V_1_4_3, align 16

ST_1: tmp_68_3_i [1/1] 1.79ns
:104  %tmp_68_3_i = add i19 %shift_reg_V_1_3_3_load, %tmp_71_2_i

ST_1: shift_reg_V_1_2_3_load [1/1] 0.00ns
:105  %shift_reg_V_1_2_3_load = load i19* @shift_reg_V_1_2_3, align 8

ST_1: stg_89 [1/1] 0.00ns
:106  store i19 %shift_reg_V_1_2_3_load, i19* @shift_reg_V_1_3_3, align 4

ST_1: tmp_71_4_i [1/1] 1.79ns
:107  %tmp_71_4_i = sub i19 %tmp_68_3_i, %shift_reg_V_1_2_3_load

ST_1: shift_reg_V_1_1_3_load [1/1] 0.00ns
:108  %shift_reg_V_1_1_3_load = load i19* @shift_reg_V_1_1_3, align 4

ST_1: stg_92 [1/1] 0.00ns
:109  store i19 %shift_reg_V_1_1_3_load, i19* @shift_reg_V_1_2_3, align 8

ST_1: shift_reg_V_1_0_3_load [1/1] 0.00ns
:110  %shift_reg_V_1_0_3_load = load i19* @shift_reg_V_1_0_3, align 16

ST_1: stg_94 [1/1] 0.00ns
:111  store i19 %shift_reg_V_1_0_3_load, i19* @shift_reg_V_1_1_3, align 4

ST_1: shift_reg_V_1_7_2_load [1/1] 0.00ns
:112  %shift_reg_V_1_7_2_load = load i19* @shift_reg_V_1_7_2, align 4

ST_1: stg_96 [1/1] 0.00ns
:113  store i19 %shift_reg_V_1_7_2_load, i19* @shift_reg_V_1_0_3, align 16

ST_1: shift_reg_V_1_6_2_load [1/1] 0.00ns
:114  %shift_reg_V_1_6_2_load = load i19* @shift_reg_V_1_6_2, align 8

ST_1: stg_98 [1/1] 0.00ns
:115  store i19 %shift_reg_V_1_6_2_load, i19* @shift_reg_V_1_7_2, align 4

ST_1: tmp8 [1/1] 2.08ns
:116  %tmp8 = add i19 %shift_reg_V_1_1_3_load, %shift_reg_V_1_0_3_load

ST_1: shift_reg_V_1_5_2_load [1/1] 0.00ns
:120  %shift_reg_V_1_5_2_load = load i19* @shift_reg_V_1_5_2, align 4

ST_1: stg_101 [1/1] 0.00ns
:121  store i19 %shift_reg_V_1_5_2_load, i19* @shift_reg_V_1_6_2, align 8

ST_1: shift_reg_V_1_4_2_load [1/1] 0.00ns
:123  %shift_reg_V_1_4_2_load = load i19* @shift_reg_V_1_4_2, align 16

ST_1: stg_103 [1/1] 0.00ns
:124  store i19 %shift_reg_V_1_4_2_load, i19* @shift_reg_V_1_5_2, align 4

ST_1: shift_reg_V_1_3_2_load [1/1] 0.00ns
:126  %shift_reg_V_1_3_2_load = load i19* @shift_reg_V_1_3_2, align 4

ST_1: stg_105 [1/1] 0.00ns
:127  store i19 %shift_reg_V_1_3_2_load, i19* @shift_reg_V_1_4_2, align 16

ST_1: shift_reg_V_1_2_2_load [1/1] 0.00ns
:129  %shift_reg_V_1_2_2_load = load i19* @shift_reg_V_1_2_2, align 8

ST_1: stg_107 [1/1] 0.00ns
:130  store i19 %shift_reg_V_1_2_2_load, i19* @shift_reg_V_1_3_2, align 4

ST_1: shift_reg_V_1_1_2_load [1/1] 0.00ns
:132  %shift_reg_V_1_1_2_load = load i19* @shift_reg_V_1_1_2, align 4

ST_1: stg_109 [1/1] 0.00ns
:133  store i19 %shift_reg_V_1_1_2_load, i19* @shift_reg_V_1_2_2, align 8

ST_1: shift_reg_V_1_0_2_load [1/1] 0.00ns
:135  %shift_reg_V_1_0_2_load = load i19* @shift_reg_V_1_0_2, align 16

ST_1: stg_111 [1/1] 0.00ns
:136  store i19 %shift_reg_V_1_0_2_load, i19* @shift_reg_V_1_1_2, align 4

ST_1: shift_reg_V_1_7_1_load [1/1] 0.00ns
:138  %shift_reg_V_1_7_1_load = load i19* @shift_reg_V_1_7_1, align 4

ST_1: stg_113 [1/1] 0.00ns
:139  store i19 %shift_reg_V_1_7_1_load, i19* @shift_reg_V_1_0_2, align 16

ST_1: shift_reg_V_1_6_1_load [1/1] 0.00ns
:140  %shift_reg_V_1_6_1_load = load i19* @shift_reg_V_1_6_1, align 8

ST_1: stg_115 [1/1] 0.00ns
:141  store i19 %shift_reg_V_1_6_1_load, i19* @shift_reg_V_1_7_1, align 4

ST_1: shift_reg_V_1_5_1_load [1/1] 0.00ns
:144  %shift_reg_V_1_5_1_load = load i19* @shift_reg_V_1_5_1, align 4

ST_1: stg_117 [1/1] 0.00ns
:145  store i19 %shift_reg_V_1_5_1_load, i19* @shift_reg_V_1_6_1, align 8

ST_1: shift_reg_V_1_4_1_load [1/1] 0.00ns
:147  %shift_reg_V_1_4_1_load = load i19* @shift_reg_V_1_4_1, align 16

ST_1: stg_119 [1/1] 0.00ns
:148  store i19 %shift_reg_V_1_4_1_load, i19* @shift_reg_V_1_5_1, align 4

ST_1: shift_reg_V_1_3_1_load [1/1] 0.00ns
:150  %shift_reg_V_1_3_1_load = load i19* @shift_reg_V_1_3_1, align 4

ST_1: stg_121 [1/1] 0.00ns
:151  store i19 %shift_reg_V_1_3_1_load, i19* @shift_reg_V_1_4_1, align 16

ST_1: shift_reg_V_1_2_1_load [1/1] 0.00ns
:153  %shift_reg_V_1_2_1_load = load i19* @shift_reg_V_1_2_1, align 8

ST_1: stg_123 [1/1] 0.00ns
:154  store i19 %shift_reg_V_1_2_1_load, i19* @shift_reg_V_1_3_1, align 4

ST_1: shift_reg_V_1_1_1_load [1/1] 0.00ns
:156  %shift_reg_V_1_1_1_load = load i19* @shift_reg_V_1_1_1, align 4

ST_1: stg_125 [1/1] 0.00ns
:157  store i19 %shift_reg_V_1_1_1_load, i19* @shift_reg_V_1_2_1, align 8

ST_1: shift_reg_V_1_0_1_load [1/1] 0.00ns
:159  %shift_reg_V_1_0_1_load = load i19* @shift_reg_V_1_0_1, align 16

ST_1: stg_127 [1/1] 0.00ns
:160  store i19 %shift_reg_V_1_0_1_load, i19* @shift_reg_V_1_1_1, align 4

ST_1: shift_reg_V_1_7_0_load [1/1] 0.00ns
:162  %shift_reg_V_1_7_0_load = load i19* @shift_reg_V_1_7_0, align 4

ST_1: stg_129 [1/1] 0.00ns
:163  store i19 %shift_reg_V_1_7_0_load, i19* @shift_reg_V_1_0_1, align 16

ST_1: shift_reg_V_1_6_0_load [1/1] 0.00ns
:165  %shift_reg_V_1_6_0_load = load i19* @shift_reg_V_1_6_0, align 8

ST_1: stg_131 [1/1] 0.00ns
:166  store i19 %shift_reg_V_1_6_0_load, i19* @shift_reg_V_1_7_0, align 4

ST_1: shift_reg_V_1_5_0_load [1/1] 0.00ns
:168  %shift_reg_V_1_5_0_load = load i19* @shift_reg_V_1_5_0, align 4

ST_1: stg_133 [1/1] 0.00ns
:169  store i19 %shift_reg_V_1_5_0_load, i19* @shift_reg_V_1_6_0, align 8

ST_1: shift_reg_V_1_4_0_load [1/1] 0.00ns
:171  %shift_reg_V_1_4_0_load = load i19* @shift_reg_V_1_4_0, align 16

ST_1: stg_135 [1/1] 0.00ns
:172  store i19 %shift_reg_V_1_4_0_load, i19* @shift_reg_V_1_5_0, align 4

ST_1: shift_reg_V_1_3_0_load [1/1] 0.00ns
:174  %shift_reg_V_1_3_0_load = load i19* @shift_reg_V_1_3_0, align 4

ST_1: stg_137 [1/1] 0.00ns
:175  store i19 %shift_reg_V_1_3_0_load, i19* @shift_reg_V_1_4_0, align 16

ST_1: shift_reg_V_1_2_0_load [1/1] 0.00ns
:177  %shift_reg_V_1_2_0_load = load i19* @shift_reg_V_1_2_0, align 8

ST_1: stg_139 [1/1] 0.00ns
:178  store i19 %shift_reg_V_1_2_0_load, i19* @shift_reg_V_1_3_0, align 4

ST_1: shift_reg_V_1_1_0_load [1/1] 0.00ns
:180  %shift_reg_V_1_1_0_load = load i19* @shift_reg_V_1_1_0, align 4

ST_1: stg_141 [1/1] 0.00ns
:181  store i19 %shift_reg_V_1_1_0_load, i19* @shift_reg_V_1_2_0, align 8

ST_1: shift_reg_V_1_0_0_load [1/1] 0.00ns
:183  %shift_reg_V_1_0_0_load = load i19* @shift_reg_V_1_0_0, align 16

ST_1: stg_143 [1/1] 0.00ns
:184  store i19 %shift_reg_V_1_0_0_load, i19* @shift_reg_V_1_1_0, align 4

ST_1: stg_144 [1/1] 0.00ns
:186  store i19 %Q_V_read, i19* @shift_reg_V_1_0_0, align 16

ST_1: shift_reg_V_2_6_3_load [1/1] 0.00ns
:188  %shift_reg_V_2_6_3_load = load i19* @shift_reg_V_2_6_3, align 8

ST_1: tmp_86_i [1/1] 1.79ns
:189  %tmp_86_i = sub i19 0, %shift_reg_V_2_6_3_load

ST_1: shift_reg_V_2_5_3_load [1/1] 0.00ns
:190  %shift_reg_V_2_5_3_load = load i19* @shift_reg_V_2_5_3, align 4

ST_1: stg_148 [1/1] 0.00ns
:191  store i19 %shift_reg_V_2_5_3_load, i19* @shift_reg_V_2_6_3, align 8

ST_1: tmp_86_1_i [1/1] 1.79ns
:192  %tmp_86_1_i = sub i19 %tmp_86_i, %shift_reg_V_2_5_3_load

ST_1: shift_reg_V_2_4_3_load [1/1] 0.00ns
:193  %shift_reg_V_2_4_3_load = load i19* @shift_reg_V_2_4_3, align 16

ST_1: stg_151 [1/1] 0.00ns
:194  store i19 %shift_reg_V_2_4_3_load, i19* @shift_reg_V_2_5_3, align 4

ST_1: tmp_86_2_i [1/1] 1.79ns
:195  %tmp_86_2_i = sub i19 %tmp_86_1_i, %shift_reg_V_2_4_3_load

ST_1: shift_reg_V_2_3_3_load [1/1] 0.00ns
:196  %shift_reg_V_2_3_3_load = load i19* @shift_reg_V_2_3_3, align 4

ST_1: stg_154 [1/1] 0.00ns
:197  store i19 %shift_reg_V_2_3_3_load, i19* @shift_reg_V_2_4_3, align 16

ST_1: shift_reg_V_2_2_3_load [1/1] 0.00ns
:198  %shift_reg_V_2_2_3_load = load i19* @shift_reg_V_2_2_3, align 8

ST_1: stg_156 [1/1] 0.00ns
:199  store i19 %shift_reg_V_2_2_3_load, i19* @shift_reg_V_2_3_3, align 4

ST_1: shift_reg_V_2_1_3_load [1/1] 0.00ns
:200  %shift_reg_V_2_1_3_load = load i19* @shift_reg_V_2_1_3, align 4

ST_1: stg_158 [1/1] 0.00ns
:201  store i19 %shift_reg_V_2_1_3_load, i19* @shift_reg_V_2_2_3, align 8

ST_1: tmp13 [1/1] 1.79ns
:203  %tmp13 = add i19 %shift_reg_V_2_1_3_load, %tmp_86_2_i

ST_1: shift_reg_V_2_0_3_load [1/1] 0.00ns
:205  %shift_reg_V_2_0_3_load = load i19* @shift_reg_V_2_0_3, align 16

ST_1: stg_161 [1/1] 0.00ns
:206  store i19 %shift_reg_V_2_0_3_load, i19* @shift_reg_V_2_1_3, align 4

ST_1: shift_reg_V_2_7_2_load [1/1] 0.00ns
:208  %shift_reg_V_2_7_2_load = load i19* @shift_reg_V_2_7_2, align 4

ST_1: stg_163 [1/1] 0.00ns
:209  store i19 %shift_reg_V_2_7_2_load, i19* @shift_reg_V_2_0_3, align 16

ST_1: shift_reg_V_2_6_2_load [1/1] 0.00ns
:211  %shift_reg_V_2_6_2_load = load i19* @shift_reg_V_2_6_2, align 8

ST_1: stg_165 [1/1] 0.00ns
:212  store i19 %shift_reg_V_2_6_2_load, i19* @shift_reg_V_2_7_2, align 4

ST_1: shift_reg_V_2_5_2_load [1/1] 0.00ns
:213  %shift_reg_V_2_5_2_load = load i19* @shift_reg_V_2_5_2, align 4

ST_1: stg_167 [1/1] 0.00ns
:214  store i19 %shift_reg_V_2_5_2_load, i19* @shift_reg_V_2_6_2, align 8

ST_1: shift_reg_V_2_4_2_load [1/1] 0.00ns
:215  %shift_reg_V_2_4_2_load = load i19* @shift_reg_V_2_4_2, align 16

ST_1: stg_169 [1/1] 0.00ns
:216  store i19 %shift_reg_V_2_4_2_load, i19* @shift_reg_V_2_5_2, align 4

ST_1: shift_reg_V_2_3_2_load [1/1] 0.00ns
:217  %shift_reg_V_2_3_2_load = load i19* @shift_reg_V_2_3_2, align 4

ST_1: stg_171 [1/1] 0.00ns
:218  store i19 %shift_reg_V_2_3_2_load, i19* @shift_reg_V_2_4_2, align 16

ST_1: shift_reg_V_2_2_2_load [1/1] 0.00ns
:219  %shift_reg_V_2_2_2_load = load i19* @shift_reg_V_2_2_2, align 8

ST_1: stg_173 [1/1] 0.00ns
:220  store i19 %shift_reg_V_2_2_2_load, i19* @shift_reg_V_2_3_2, align 4

ST_1: tmp15 [1/1] 1.79ns
:221  %tmp15 = add i19 %shift_reg_V_2_5_2_load, %shift_reg_V_2_4_2_load

ST_1: tmp14 [1/1] 1.79ns
:222  %tmp14 = add i19 %tmp15, %shift_reg_V_2_6_2_load

ST_1: shift_reg_V_2_1_2_load [1/1] 0.00ns
:226  %shift_reg_V_2_1_2_load = load i19* @shift_reg_V_2_1_2, align 4

ST_1: stg_177 [1/1] 0.00ns
:227  store i19 %shift_reg_V_2_1_2_load, i19* @shift_reg_V_2_2_2, align 8

ST_1: shift_reg_V_2_0_2_load [1/1] 0.00ns
:229  %shift_reg_V_2_0_2_load = load i19* @shift_reg_V_2_0_2, align 16

ST_1: stg_179 [1/1] 0.00ns
:230  store i19 %shift_reg_V_2_0_2_load, i19* @shift_reg_V_2_1_2, align 4

ST_1: shift_reg_V_2_7_1_load [1/1] 0.00ns
:232  %shift_reg_V_2_7_1_load = load i19* @shift_reg_V_2_7_1, align 4

ST_1: stg_181 [1/1] 0.00ns
:233  store i19 %shift_reg_V_2_7_1_load, i19* @shift_reg_V_2_0_2, align 16

ST_1: shift_reg_V_2_6_1_load [1/1] 0.00ns
:235  %shift_reg_V_2_6_1_load = load i19* @shift_reg_V_2_6_1, align 8

ST_1: stg_183 [1/1] 0.00ns
:236  store i19 %shift_reg_V_2_6_1_load, i19* @shift_reg_V_2_7_1, align 4

ST_1: shift_reg_V_2_5_1_load [1/1] 0.00ns
:238  %shift_reg_V_2_5_1_load = load i19* @shift_reg_V_2_5_1, align 4

ST_1: stg_185 [1/1] 0.00ns
:239  store i19 %shift_reg_V_2_5_1_load, i19* @shift_reg_V_2_6_1, align 8

ST_1: shift_reg_V_2_4_1_load [1/1] 0.00ns
:241  %shift_reg_V_2_4_1_load = load i19* @shift_reg_V_2_4_1, align 16

ST_1: stg_187 [1/1] 0.00ns
:242  store i19 %shift_reg_V_2_4_1_load, i19* @shift_reg_V_2_5_1, align 4

ST_1: shift_reg_V_2_3_1_load [1/1] 0.00ns
:244  %shift_reg_V_2_3_1_load = load i19* @shift_reg_V_2_3_1, align 4

ST_1: stg_189 [1/1] 0.00ns
:245  store i19 %shift_reg_V_2_3_1_load, i19* @shift_reg_V_2_4_1, align 16

ST_1: shift_reg_V_2_2_1_load [1/1] 0.00ns
:246  %shift_reg_V_2_2_1_load = load i19* @shift_reg_V_2_2_1, align 8

ST_1: stg_191 [1/1] 0.00ns
:247  store i19 %shift_reg_V_2_2_1_load, i19* @shift_reg_V_2_3_1, align 4

ST_1: shift_reg_V_2_1_1_load [1/1] 0.00ns
:250  %shift_reg_V_2_1_1_load = load i19* @shift_reg_V_2_1_1, align 4

ST_1: stg_193 [1/1] 0.00ns
:251  store i19 %shift_reg_V_2_1_1_load, i19* @shift_reg_V_2_2_1, align 8

ST_1: shift_reg_V_2_0_1_load [1/1] 0.00ns
:253  %shift_reg_V_2_0_1_load = load i19* @shift_reg_V_2_0_1, align 16

ST_1: stg_195 [1/1] 0.00ns
:254  store i19 %shift_reg_V_2_0_1_load, i19* @shift_reg_V_2_1_1, align 4

ST_1: shift_reg_V_2_7_0_load [1/1] 0.00ns
:256  %shift_reg_V_2_7_0_load = load i19* @shift_reg_V_2_7_0, align 4

ST_1: stg_197 [1/1] 0.00ns
:257  store i19 %shift_reg_V_2_7_0_load, i19* @shift_reg_V_2_0_1, align 16

ST_1: shift_reg_V_2_6_0_load [1/1] 0.00ns
:259  %shift_reg_V_2_6_0_load = load i19* @shift_reg_V_2_6_0, align 8

ST_1: stg_199 [1/1] 0.00ns
:260  store i19 %shift_reg_V_2_6_0_load, i19* @shift_reg_V_2_7_0, align 4

ST_1: shift_reg_V_2_5_0_load [1/1] 0.00ns
:261  %shift_reg_V_2_5_0_load = load i19* @shift_reg_V_2_5_0, align 4

ST_1: stg_201 [1/1] 0.00ns
:262  store i19 %shift_reg_V_2_5_0_load, i19* @shift_reg_V_2_6_0, align 8

ST_1: shift_reg_V_2_4_0_load [1/1] 0.00ns
:265  %shift_reg_V_2_4_0_load = load i19* @shift_reg_V_2_4_0, align 16

ST_1: stg_203 [1/1] 0.00ns
:266  store i19 %shift_reg_V_2_4_0_load, i19* @shift_reg_V_2_5_0, align 4

ST_1: shift_reg_V_2_3_0_load [1/1] 0.00ns
:268  %shift_reg_V_2_3_0_load = load i19* @shift_reg_V_2_3_0, align 4

ST_1: stg_205 [1/1] 0.00ns
:269  store i19 %shift_reg_V_2_3_0_load, i19* @shift_reg_V_2_4_0, align 16

ST_1: shift_reg_V_2_2_0_load [1/1] 0.00ns
:271  %shift_reg_V_2_2_0_load = load i19* @shift_reg_V_2_2_0, align 8

ST_1: stg_207 [1/1] 0.00ns
:272  store i19 %shift_reg_V_2_2_0_load, i19* @shift_reg_V_2_3_0, align 4

ST_1: shift_reg_V_2_1_0_load [1/1] 0.00ns
:274  %shift_reg_V_2_1_0_load = load i19* @shift_reg_V_2_1_0, align 4

ST_1: stg_209 [1/1] 0.00ns
:275  store i19 %shift_reg_V_2_1_0_load, i19* @shift_reg_V_2_2_0, align 8

ST_1: shift_reg_V_2_0_0_load [1/1] 0.00ns
:277  %shift_reg_V_2_0_0_load = load i19* @shift_reg_V_2_0_0, align 16

ST_1: stg_211 [1/1] 0.00ns
:278  store i19 %shift_reg_V_2_0_0_load, i19* @shift_reg_V_2_1_0, align 4

ST_1: stg_212 [1/1] 0.00ns
:280  store i19 %Q_V_read, i19* @shift_reg_V_2_0_0, align 16

ST_1: shift_reg_V_6_3_load [1/1] 0.00ns
:281  %shift_reg_V_6_3_load = load i19* @shift_reg_V_6_3, align 8

ST_1: shift_reg_V_5_3_load [1/1] 0.00ns
:282  %shift_reg_V_5_3_load = load i19* @shift_reg_V_5_3, align 4

ST_1: stg_215 [1/1] 0.00ns
:283  store i19 %shift_reg_V_5_3_load, i19* @shift_reg_V_6_3, align 8

ST_1: tmp_53_1_i [1/1] 1.79ns
:284  %tmp_53_1_i = add i19 %shift_reg_V_6_3_load, %shift_reg_V_5_3_load

ST_1: shift_reg_V_4_3_load [1/1] 0.00ns
:285  %shift_reg_V_4_3_load = load i19* @shift_reg_V_4_3, align 16

ST_1: stg_218 [1/1] 0.00ns
:286  store i19 %shift_reg_V_4_3_load, i19* @shift_reg_V_5_3, align 4

ST_1: tmp_56_2_i [1/1] 1.79ns
:287  %tmp_56_2_i = sub i19 %tmp_53_1_i, %shift_reg_V_4_3_load

ST_1: shift_reg_V_371_3_load [1/1] 0.00ns
:288  %shift_reg_V_371_3_load = load i19* @shift_reg_V_371_3, align 4

ST_1: stg_221 [1/1] 0.00ns
:289  store i19 %shift_reg_V_371_3_load, i19* @shift_reg_V_4_3, align 16

ST_1: tmp_53_3_i [1/1] 1.79ns
:290  %tmp_53_3_i = add i19 %shift_reg_V_371_3_load, %tmp_56_2_i

ST_1: shift_reg_V_270_3_load [1/1] 0.00ns
:291  %shift_reg_V_270_3_load = load i19* @shift_reg_V_270_3, align 8

ST_1: stg_224 [1/1] 0.00ns
:292  store i19 %shift_reg_V_270_3_load, i19* @shift_reg_V_371_3, align 4

ST_1: tmp_56_4_i [1/1] 1.79ns
:293  %tmp_56_4_i = sub i19 %tmp_53_3_i, %shift_reg_V_270_3_load

ST_1: shift_reg_V_169_3_load [1/1] 0.00ns
:294  %shift_reg_V_169_3_load = load i19* @shift_reg_V_169_3, align 4

ST_1: stg_227 [1/1] 0.00ns
:295  store i19 %shift_reg_V_169_3_load, i19* @shift_reg_V_270_3, align 8

ST_1: shift_reg_V_0_3_load [1/1] 0.00ns
:296  %shift_reg_V_0_3_load = load i19* @shift_reg_V_0_3, align 16

ST_1: stg_229 [1/1] 0.00ns
:297  store i19 %shift_reg_V_0_3_load, i19* @shift_reg_V_169_3, align 4

ST_1: shift_reg_V_7_2_load [1/1] 0.00ns
:298  %shift_reg_V_7_2_load = load i19* @shift_reg_V_7_2, align 4

ST_1: stg_231 [1/1] 0.00ns
:299  store i19 %shift_reg_V_7_2_load, i19* @shift_reg_V_0_3, align 16

ST_1: shift_reg_V_6_2_load [1/1] 0.00ns
:300  %shift_reg_V_6_2_load = load i19* @shift_reg_V_6_2, align 8

ST_1: stg_233 [1/1] 0.00ns
:301  store i19 %shift_reg_V_6_2_load, i19* @shift_reg_V_7_2, align 4

ST_1: shift_reg_V_5_2_load [1/1] 0.00ns
:306  %shift_reg_V_5_2_load = load i19* @shift_reg_V_5_2, align 4

ST_1: stg_235 [1/1] 0.00ns
:307  store i19 %shift_reg_V_5_2_load, i19* @shift_reg_V_6_2, align 8

ST_1: shift_reg_V_4_2_load [1/1] 0.00ns
:309  %shift_reg_V_4_2_load = load i19* @shift_reg_V_4_2, align 16

ST_1: stg_237 [1/1] 0.00ns
:310  store i19 %shift_reg_V_4_2_load, i19* @shift_reg_V_5_2, align 4

ST_1: shift_reg_V_371_2_load [1/1] 0.00ns
:312  %shift_reg_V_371_2_load = load i19* @shift_reg_V_371_2, align 4

ST_1: stg_239 [1/1] 0.00ns
:313  store i19 %shift_reg_V_371_2_load, i19* @shift_reg_V_4_2, align 16

ST_1: shift_reg_V_270_2_load [1/1] 0.00ns
:315  %shift_reg_V_270_2_load = load i19* @shift_reg_V_270_2, align 8

ST_1: stg_241 [1/1] 0.00ns
:316  store i19 %shift_reg_V_270_2_load, i19* @shift_reg_V_371_2, align 4

ST_1: shift_reg_V_169_2_load [1/1] 0.00ns
:318  %shift_reg_V_169_2_load = load i19* @shift_reg_V_169_2, align 4

ST_1: stg_243 [1/1] 0.00ns
:319  store i19 %shift_reg_V_169_2_load, i19* @shift_reg_V_270_2, align 8

ST_1: shift_reg_V_0_2_load [1/1] 0.00ns
:321  %shift_reg_V_0_2_load = load i19* @shift_reg_V_0_2, align 16

ST_1: stg_245 [1/1] 0.00ns
:322  store i19 %shift_reg_V_0_2_load, i19* @shift_reg_V_169_2, align 4

ST_1: shift_reg_V_7_1_load [1/1] 0.00ns
:324  %shift_reg_V_7_1_load = load i19* @shift_reg_V_7_1, align 4

ST_1: stg_247 [1/1] 0.00ns
:325  store i19 %shift_reg_V_7_1_load, i19* @shift_reg_V_0_2, align 16

ST_1: shift_reg_V_6_1_load [1/1] 0.00ns
:326  %shift_reg_V_6_1_load = load i19* @shift_reg_V_6_1, align 8

ST_1: stg_249 [1/1] 0.00ns
:327  store i19 %shift_reg_V_6_1_load, i19* @shift_reg_V_7_1, align 4

ST_1: shift_reg_V_5_1_load [1/1] 0.00ns
:330  %shift_reg_V_5_1_load = load i19* @shift_reg_V_5_1, align 4

ST_1: stg_251 [1/1] 0.00ns
:331  store i19 %shift_reg_V_5_1_load, i19* @shift_reg_V_6_1, align 8

ST_1: shift_reg_V_4_1_load [1/1] 0.00ns
:333  %shift_reg_V_4_1_load = load i19* @shift_reg_V_4_1, align 16

ST_1: stg_253 [1/1] 0.00ns
:334  store i19 %shift_reg_V_4_1_load, i19* @shift_reg_V_5_1, align 4

ST_1: shift_reg_V_371_1_load [1/1] 0.00ns
:336  %shift_reg_V_371_1_load = load i19* @shift_reg_V_371_1, align 4

ST_1: stg_255 [1/1] 0.00ns
:337  store i19 %shift_reg_V_371_1_load, i19* @shift_reg_V_4_1, align 16

ST_1: shift_reg_V_270_1_load [1/1] 0.00ns
:339  %shift_reg_V_270_1_load = load i19* @shift_reg_V_270_1, align 8

ST_1: stg_257 [1/1] 0.00ns
:340  store i19 %shift_reg_V_270_1_load, i19* @shift_reg_V_371_1, align 4

ST_1: shift_reg_V_169_1_load [1/1] 0.00ns
:342  %shift_reg_V_169_1_load = load i19* @shift_reg_V_169_1, align 4

ST_1: stg_259 [1/1] 0.00ns
:343  store i19 %shift_reg_V_169_1_load, i19* @shift_reg_V_270_1, align 8

ST_1: shift_reg_V_0_1_load [1/1] 0.00ns
:345  %shift_reg_V_0_1_load = load i19* @shift_reg_V_0_1, align 16

ST_1: stg_261 [1/1] 0.00ns
:346  store i19 %shift_reg_V_0_1_load, i19* @shift_reg_V_169_1, align 4

ST_1: shift_reg_V_7_0_load [1/1] 0.00ns
:348  %shift_reg_V_7_0_load = load i19* @shift_reg_V_7_0, align 4

ST_1: stg_263 [1/1] 0.00ns
:349  store i19 %shift_reg_V_7_0_load, i19* @shift_reg_V_0_1, align 16

ST_1: shift_reg_V_6_0_load [1/1] 0.00ns
:351  %shift_reg_V_6_0_load = load i19* @shift_reg_V_6_0, align 8

ST_1: stg_265 [1/1] 0.00ns
:352  store i19 %shift_reg_V_6_0_load, i19* @shift_reg_V_7_0, align 4

ST_1: shift_reg_V_5_0_load [1/1] 0.00ns
:354  %shift_reg_V_5_0_load = load i19* @shift_reg_V_5_0, align 4

ST_1: stg_267 [1/1] 0.00ns
:355  store i19 %shift_reg_V_5_0_load, i19* @shift_reg_V_6_0, align 8

ST_1: shift_reg_V_4_0_load [1/1] 0.00ns
:357  %shift_reg_V_4_0_load = load i19* @shift_reg_V_4_0, align 16

ST_1: stg_269 [1/1] 0.00ns
:358  store i19 %shift_reg_V_4_0_load, i19* @shift_reg_V_5_0, align 4

ST_1: shift_reg_V_371_0_load [1/1] 0.00ns
:360  %shift_reg_V_371_0_load = load i19* @shift_reg_V_371_0, align 4

ST_1: stg_271 [1/1] 0.00ns
:361  store i19 %shift_reg_V_371_0_load, i19* @shift_reg_V_4_0, align 16

ST_1: shift_reg_V_270_0_load [1/1] 0.00ns
:363  %shift_reg_V_270_0_load = load i19* @shift_reg_V_270_0, align 8

ST_1: stg_273 [1/1] 0.00ns
:364  store i19 %shift_reg_V_270_0_load, i19* @shift_reg_V_371_0, align 4

ST_1: shift_reg_V_169_0_load [1/1] 0.00ns
:366  %shift_reg_V_169_0_load = load i19* @shift_reg_V_169_0, align 4

ST_1: stg_275 [1/1] 0.00ns
:367  store i19 %shift_reg_V_169_0_load, i19* @shift_reg_V_270_0, align 8

ST_1: shift_reg_V_0_0_load [1/1] 0.00ns
:369  %shift_reg_V_0_0_load = load i19* @shift_reg_V_0_0, align 16

ST_1: stg_277 [1/1] 0.00ns
:370  store i19 %shift_reg_V_0_0_load, i19* @shift_reg_V_169_0, align 4

ST_1: stg_278 [1/1] 0.00ns
:371  store i19 %I_V_read, i19* @shift_reg_V_0_0, align 16


 <State 2>: 7.16ns
ST_2: tmp [1/1] 1.79ns
:16  %tmp = add i19 %shift_reg_V_3_3_3_load, %shift_reg_V_3_2_3_load

ST_2: tmp_98_5_i [1/1] 1.79ns
:18  %tmp_98_5_i = add i19 %tmp1, %tmp

ST_2: tmp_101_6_i [1/1] 1.79ns
:21  %tmp_101_6_i = sub i19 %tmp_98_5_i, %shift_reg_V_3_0_3_load

ST_2: tmp_101_7_i [1/1] 1.79ns
:24  %tmp_101_7_i = sub i19 %tmp_101_6_i, %shift_reg_V_3_7_2_load

ST_2: tmp10 [1/1] 1.79ns
:117  %tmp10 = add i19 %shift_reg_V_1_6_2_load, %tmp_71_4_i

ST_2: tmp9 [1/1] 1.79ns
:118  %tmp9 = add i19 %tmp10, %shift_reg_V_1_7_2_load

ST_2: tmp_68_8_i [1/1] 1.79ns
:119  %tmp_68_8_i = add i19 %tmp9, %tmp8

ST_2: tmp_71_9_i [1/1] 1.79ns
:122  %tmp_71_9_i = sub i19 %tmp_68_8_i, %shift_reg_V_1_5_2_load

ST_2: tmp12 [1/1] 1.79ns
:202  %tmp12 = add i19 %shift_reg_V_2_3_3_load, %shift_reg_V_2_2_3_load

ST_2: tmp_83_5_i [1/1] 1.79ns
:204  %tmp_83_5_i = add i19 %tmp13, %tmp12

ST_2: tmp_86_6_i [1/1] 1.79ns
:207  %tmp_86_6_i = sub i19 %tmp_83_5_i, %shift_reg_V_2_0_3_load

ST_2: tmp_86_7_i [1/1] 1.79ns
:210  %tmp_86_7_i = sub i19 %tmp_86_6_i, %shift_reg_V_2_7_2_load

ST_2: tmp20 [1/1] 1.79ns
:302  %tmp20 = add i19 %shift_reg_V_169_3_load, %shift_reg_V_0_3_load

ST_2: tmp22 [1/1] 1.79ns
:303  %tmp22 = add i19 %shift_reg_V_6_2_load, %tmp_56_4_i

ST_2: tmp21 [1/1] 1.79ns
:304  %tmp21 = add i19 %tmp22, %shift_reg_V_7_2_load

ST_2: tmp_53_8_i [1/1] 1.79ns
:305  %tmp_53_8_i = add i19 %tmp21, %tmp20


 <State 3>: 7.16ns
ST_3: tmp2 [1/1] 1.79ns
:36  %tmp2 = add i19 %tmp3, %shift_reg_V_3_6_2_load

ST_3: tmp5 [1/1] 1.79ns
:37  %tmp5 = add i19 %shift_reg_V_3_2_2_load, %tmp_101_7_i

ST_3: tmp4 [1/1] 1.79ns
:38  %tmp4 = add i19 %tmp5, %shift_reg_V_3_3_2_load

ST_3: tmp_98_2_i [1/1] 1.79ns
:39  %tmp_98_2_i = add i19 %tmp4, %tmp2

ST_3: tmp_68_i [1/1] 1.79ns
:125  %tmp_68_i = add i19 %shift_reg_V_1_4_2_load, %tmp_71_9_i

ST_3: tmp_71_i [1/1] 1.79ns
:128  %tmp_71_i = sub i19 %tmp_68_i, %shift_reg_V_1_3_2_load

ST_3: tmp_71_1_i [1/1] 1.79ns
:131  %tmp_71_1_i = sub i19 %tmp_71_i, %shift_reg_V_1_2_2_load

ST_3: tmp_68_2_i [1/1] 1.79ns
:134  %tmp_68_2_i = add i19 %shift_reg_V_1_1_2_load, %tmp_71_1_i

ST_3: tmp17 [1/1] 1.79ns
:223  %tmp17 = add i19 %shift_reg_V_2_2_2_load, %tmp_86_7_i

ST_3: tmp16 [1/1] 1.79ns
:224  %tmp16 = add i19 %tmp17, %shift_reg_V_2_3_2_load

ST_3: tmp_83_2_i [1/1] 1.79ns
:225  %tmp_83_2_i = add i19 %tmp16, %tmp14

ST_3: tmp_86_i_14 [1/1] 1.79ns
:228  %tmp_86_i_14 = sub i19 %tmp_83_2_i, %shift_reg_V_2_1_2_load

ST_3: tmp_56_9_i [1/1] 1.79ns
:308  %tmp_56_9_i = sub i19 %tmp_53_8_i, %shift_reg_V_5_2_load

ST_3: tmp_53_i [1/1] 1.79ns
:311  %tmp_53_i = add i19 %shift_reg_V_4_2_load, %tmp_56_9_i

ST_3: tmp_56_i [1/1] 1.79ns
:314  %tmp_56_i = sub i19 %tmp_53_i, %shift_reg_V_371_2_load

ST_3: tmp_56_1_i [1/1] 1.79ns
:317  %tmp_56_1_i = sub i19 %tmp_56_i, %shift_reg_V_270_2_load


 <State 4>: 7.16ns
ST_4: tmp_101_i_13 [1/1] 1.79ns
:42  %tmp_101_i_13 = sub i19 %tmp_98_2_i, %shift_reg_V_3_1_2_load

ST_4: tmp_101_3_i [1/1] 1.79ns
:45  %tmp_101_3_i = sub i19 %tmp_101_i_13, %shift_reg_V_3_0_2_load

ST_4: tmp_101_4_i [1/1] 1.79ns
:48  %tmp_101_4_i = sub i19 %tmp_101_3_i, %shift_reg_V_3_7_1_load

ST_4: tmp_101_5_i [1/1] 1.79ns
:51  %tmp_101_5_i = sub i19 %tmp_101_4_i, %shift_reg_V_3_6_1_load

ST_4: tmp_71_3_i [1/1] 1.79ns
:137  %tmp_71_3_i = sub i19 %tmp_68_2_i, %shift_reg_V_1_0_2_load

ST_4: tmp11 [1/1] 1.79ns
:142  %tmp11 = add i19 %shift_reg_V_1_6_1_load, %tmp_71_3_i

ST_4: tmp_68_9_i [1/1] 1.79ns
:143  %tmp_68_9_i = add i19 %tmp11, %shift_reg_V_1_7_1_load

ST_4: tmp_71_5_i [1/1] 1.79ns
:146  %tmp_71_5_i = sub i19 %tmp_68_9_i, %shift_reg_V_1_5_1_load

ST_4: tmp_86_3_i [1/1] 1.79ns
:231  %tmp_86_3_i = sub i19 %tmp_86_i_14, %shift_reg_V_2_0_2_load

ST_4: tmp_86_4_i [1/1] 1.79ns
:234  %tmp_86_4_i = sub i19 %tmp_86_3_i, %shift_reg_V_2_7_1_load

ST_4: tmp_86_5_i [1/1] 1.79ns
:237  %tmp_86_5_i = sub i19 %tmp_86_4_i, %shift_reg_V_2_6_1_load

ST_4: tmp_83_6_i [1/1] 1.79ns
:240  %tmp_83_6_i = add i19 %shift_reg_V_2_5_1_load, %tmp_86_5_i

ST_4: tmp_53_2_i [1/1] 1.79ns
:320  %tmp_53_2_i = add i19 %shift_reg_V_169_2_load, %tmp_56_1_i

ST_4: tmp_56_3_i [1/1] 1.79ns
:323  %tmp_56_3_i = sub i19 %tmp_53_2_i, %shift_reg_V_0_2_load

ST_4: tmp23 [1/1] 1.79ns
:328  %tmp23 = add i19 %shift_reg_V_6_1_load, %tmp_56_3_i

ST_4: tmp_53_9_i [1/1] 1.79ns
:329  %tmp_53_9_i = add i19 %tmp23, %shift_reg_V_7_1_load


 <State 5>: 7.16ns
ST_5: tmp_98_6_i [1/1] 1.79ns
:54  %tmp_98_6_i = add i19 %shift_reg_V_3_5_1_load, %tmp_101_5_i

ST_5: tmp_101_8_i [1/1] 1.79ns
:57  %tmp_101_8_i = sub i19 %tmp_98_6_i, %shift_reg_V_3_4_1_load

ST_5: tmp6 [1/1] 1.79ns
:62  %tmp6 = add i19 %shift_reg_V_3_2_1_load, %tmp_101_8_i

ST_5: tmp_98_10_i [1/1] 1.79ns
:63  %tmp_98_10_i = add i19 %tmp6, %shift_reg_V_3_3_1_load

ST_5: tmp_68_10_i [1/1] 1.79ns
:149  %tmp_68_10_i = add i19 %shift_reg_V_1_4_1_load, %tmp_71_5_i

ST_5: tmp_71_6_i [1/1] 1.79ns
:152  %tmp_71_6_i = sub i19 %tmp_68_10_i, %shift_reg_V_1_3_1_load

ST_5: tmp_68_11_i [1/1] 1.79ns
:155  %tmp_68_11_i = add i19 %shift_reg_V_1_2_1_load, %tmp_71_6_i

ST_5: tmp_71_7_i [1/1] 1.79ns
:158  %tmp_71_7_i = sub i19 %tmp_68_11_i, %shift_reg_V_1_1_1_load

ST_5: tmp_86_8_i [1/1] 1.79ns
:243  %tmp_86_8_i = sub i19 %tmp_83_6_i, %shift_reg_V_2_4_1_load

ST_5: tmp18 [1/1] 1.79ns
:248  %tmp18 = add i19 %shift_reg_V_2_2_1_load, %tmp_86_8_i

ST_5: tmp_83_10_i [1/1] 1.79ns
:249  %tmp_83_10_i = add i19 %tmp18, %shift_reg_V_2_3_1_load

ST_5: tmp_86_9_i [1/1] 1.79ns
:252  %tmp_86_9_i = sub i19 %tmp_83_10_i, %shift_reg_V_2_1_1_load

ST_5: tmp_56_5_i [1/1] 1.79ns
:332  %tmp_56_5_i = sub i19 %tmp_53_9_i, %shift_reg_V_5_1_load

ST_5: tmp_53_10_i [1/1] 1.79ns
:335  %tmp_53_10_i = add i19 %shift_reg_V_4_1_load, %tmp_56_5_i

ST_5: tmp_56_6_i [1/1] 1.79ns
:338  %tmp_56_6_i = sub i19 %tmp_53_10_i, %shift_reg_V_371_1_load

ST_5: tmp_53_11_i [1/1] 1.79ns
:341  %tmp_53_11_i = add i19 %shift_reg_V_270_1_load, %tmp_56_6_i


 <State 6>: 7.16ns
ST_6: tmp_101_9_i [1/1] 1.79ns
:66  %tmp_101_9_i = sub i19 %tmp_98_10_i, %shift_reg_V_3_1_1_load

ST_6: tmp_101_10_i [1/1] 1.79ns
:69  %tmp_101_10_i = sub i19 %tmp_101_9_i, %shift_reg_V_3_0_1_load

ST_6: tmp_101_11_i [1/1] 1.79ns
:72  %tmp_101_11_i = sub i19 %tmp_101_10_i, %shift_reg_V_3_7_0_load

ST_6: tmp7 [1/1] 1.79ns
:77  %tmp7 = add i19 %shift_reg_V_3_5_0_load, %tmp_101_11_i

ST_6: tmp_71_8_i [1/1] 1.79ns
:161  %tmp_71_8_i = sub i19 %tmp_71_7_i, %shift_reg_V_1_0_1_load

ST_6: tmp_71_10_i [1/1] 1.79ns
:164  %tmp_71_10_i = sub i19 %tmp_71_8_i, %shift_reg_V_1_7_0_load

ST_6: tmp_71_11_i [1/1] 1.79ns
:167  %tmp_71_11_i = sub i19 %tmp_71_10_i, %shift_reg_V_1_6_0_load

ST_6: tmp_68_12_i [1/1] 1.79ns
:170  %tmp_68_12_i = add i19 %shift_reg_V_1_5_0_load, %tmp_71_11_i

ST_6: tmp_86_10_i [1/1] 1.79ns
:255  %tmp_86_10_i = sub i19 %tmp_86_9_i, %shift_reg_V_2_0_1_load

ST_6: tmp_86_11_i [1/1] 1.79ns
:258  %tmp_86_11_i = sub i19 %tmp_86_10_i, %shift_reg_V_2_7_0_load

ST_6: tmp19 [1/1] 1.79ns
:263  %tmp19 = add i19 %shift_reg_V_2_5_0_load, %tmp_86_11_i

ST_6: tmp_83_12_i [1/1] 1.79ns
:264  %tmp_83_12_i = add i19 %tmp19, %shift_reg_V_2_6_0_load

ST_6: tmp_56_7_i [1/1] 1.79ns
:344  %tmp_56_7_i = sub i19 %tmp_53_11_i, %shift_reg_V_169_1_load

ST_6: tmp_56_8_i [1/1] 1.79ns
:347  %tmp_56_8_i = sub i19 %tmp_56_7_i, %shift_reg_V_0_1_load

ST_6: tmp_56_10_i [1/1] 1.79ns
:350  %tmp_56_10_i = sub i19 %tmp_56_8_i, %shift_reg_V_7_0_load

ST_6: tmp_56_11_i [1/1] 1.79ns
:353  %tmp_56_11_i = sub i19 %tmp_56_10_i, %shift_reg_V_6_0_load


 <State 7>: 7.16ns
ST_7: tmp_98_12_i [1/1] 1.79ns
:78  %tmp_98_12_i = add i19 %tmp7, %shift_reg_V_3_6_0_load

ST_7: tmp_101_12_i [1/1] 1.79ns
:81  %tmp_101_12_i = sub i19 %tmp_98_12_i, %shift_reg_V_3_4_0_load

ST_7: tmp_101_13_i [1/1] 1.79ns
:84  %tmp_101_13_i = sub i19 %tmp_101_12_i, %shift_reg_V_3_3_0_load

ST_7: tmp_101_14_i [1/1] 1.79ns
:87  %tmp_101_14_i = sub i19 %tmp_101_13_i, %shift_reg_V_3_2_0_load

ST_7: tmp_71_12_i [1/1] 1.79ns
:173  %tmp_71_12_i = sub i19 %tmp_68_12_i, %shift_reg_V_1_4_0_load

ST_7: tmp_68_13_i [1/1] 1.79ns
:176  %tmp_68_13_i = add i19 %shift_reg_V_1_3_0_load, %tmp_71_12_i

ST_7: tmp_71_13_i [1/1] 1.79ns
:179  %tmp_71_13_i = sub i19 %tmp_68_13_i, %shift_reg_V_1_2_0_load

ST_7: tmp_68_14_i [1/1] 1.79ns
:182  %tmp_68_14_i = add i19 %shift_reg_V_1_1_0_load, %tmp_71_13_i

ST_7: tmp_86_12_i [1/1] 1.79ns
:267  %tmp_86_12_i = sub i19 %tmp_83_12_i, %shift_reg_V_2_4_0_load

ST_7: tmp_86_13_i [1/1] 1.79ns
:270  %tmp_86_13_i = sub i19 %tmp_86_12_i, %shift_reg_V_2_3_0_load

ST_7: tmp_86_14_i [1/1] 1.79ns
:273  %tmp_86_14_i = sub i19 %tmp_86_13_i, %shift_reg_V_2_2_0_load

ST_7: tmp_83_13_i [1/1] 1.79ns
:276  %tmp_83_13_i = add i19 %shift_reg_V_2_1_0_load, %tmp_86_14_i

ST_7: tmp_53_12_i [1/1] 1.79ns
:356  %tmp_53_12_i = add i19 %shift_reg_V_5_0_load, %tmp_56_11_i

ST_7: tmp_56_12_i [1/1] 1.79ns
:359  %tmp_56_12_i = sub i19 %tmp_53_12_i, %shift_reg_V_4_0_load

ST_7: tmp_53_13_i [1/1] 1.79ns
:362  %tmp_53_13_i = add i19 %shift_reg_V_371_0_load, %tmp_56_12_i

ST_7: tmp_56_13_i [1/1] 1.79ns
:365  %tmp_56_13_i = sub i19 %tmp_53_13_i, %shift_reg_V_270_0_load


 <State 8>: 7.16ns
ST_8: tmp_98_13_i [1/1] 1.79ns
:90  %tmp_98_13_i = add i19 %shift_reg_V_3_1_0_load, %tmp_101_14_i

ST_8: tmp_101_15_i [1/1] 1.79ns
:93  %tmp_101_15_i = sub i19 %tmp_98_13_i, %shift_reg_V_3_0_0_load

ST_8: tmp_71_14_i [1/1] 1.79ns
:185  %tmp_71_14_i = sub i19 %tmp_68_14_i, %shift_reg_V_1_0_0_load

ST_8: p_Val2_s [1/1] 1.79ns
:187  %p_Val2_s = sub i19 %tmp_71_14_i, %Q_V_read

ST_8: tmp_86_15_i [1/1] 1.79ns
:279  %tmp_86_15_i = sub i19 %tmp_83_13_i, %shift_reg_V_2_0_0_load

ST_8: tmp_53_14_i [1/1] 1.79ns
:368  %tmp_53_14_i = add i19 %shift_reg_V_169_0_load, %tmp_56_13_i

ST_8: tmp24 [1/1] 1.79ns
:372  %tmp24 = add i19 %p_Val2_s, %I_V_read

ST_8: ssdm_int_V_write_assign [1/1] 1.79ns
:373  %ssdm_int_V_write_assign = add i19 %tmp24, %tmp_101_15_i

ST_8: tmp_56_14_i [1/1] 1.79ns
:374  %tmp_56_14_i = sub i19 %shift_reg_V_0_0_load, %tmp_53_14_i

ST_8: tmp25 [1/1] 1.79ns
:375  %tmp25 = add i19 %tmp_56_14_i, %I_V_read

ST_8: tmp26 [1/1] 1.79ns
:376  %tmp26 = add i19 %tmp_86_15_i, %Q_V_read

ST_8: ssdm_int_V_write_assign_1 [1/1] 1.79ns
:377  %ssdm_int_V_write_assign_1 = add i19 %tmp26, %tmp25

ST_8: mrv [1/1] 0.00ns
:378  %mrv = insertvalue { i19, i19 } undef, i19 %ssdm_int_V_write_assign, 0

ST_8: mrv_1 [1/1] 0.00ns
:379  %mrv_1 = insertvalue { i19, i19 } %mrv, i19 %ssdm_int_V_write_assign_1, 1

ST_8: stg_389 [1/1] 0.00ns
:380  ret { i19, i19 } %mrv_1



============================================================
+ Verbose Summary: Binding
============================================================
N/A
* FSMD analyzer results:
  - Output states:
  - Chain level:
	State 1
	State 2
	State 3
	State 4
	State 5
	State 6
	State 7
	State 8


============================================================
+ Verbose Summary: Datapath Resource usage 
============================================================
N/A
