; ModuleID = 'D:/Projects/vivado/project_4/HLS/1_Subcomponents/1_bit_reverse/bit_reverse/solution1/.autopilot/db/a.o.2.bc'
target datalayout = "e-p:64:64:64-i1:8:8-i8:8:8-i16:16:16-i32:32:32-i64:64:64-f32:32:32-f64:64:64-v64:64:64-v128:128:128-a0:0:64-s0:64:64-f80:128:128-n8:16:32:64-S128"
target triple = "x86_64-w64-mingw32"

@table1024 = internal unnamed_addr constant [1024 x i10] [i10 0, i10 -512, i10 256, i10 -256, i10 128, i10 -384, i10 384, i10 -128, i10 64, i10 -448, i10 320, i10 -192, i10 192, i10 -320, i10 448, i10 -64, i10 32, i10 -480, i10 288, i10 -224, i10 160, i10 -352, i10 416, i10 -96, i10 96, i10 -416, i10 352, i10 -160, i10 224, i10 -288, i10 480, i10 -32, i10 16, i10 -496, i10 272, i10 -240, i10 144, i10 -368, i10 400, i10 -112, i10 80, i10 -432, i10 336, i10 -176, i10 208, i10 -304, i10 464, i10 -48, i10 48, i10 -464, i10 304, i10 -208, i10 176, i10 -336, i10 432, i10 -80, i10 112, i10 -400, i10 368, i10 -144, i10 240, i10 -272, i10 496, i10 -16, i10 8, i10 -504, i10 264, i10 -248, i10 136, i10 -376, i10 392, i10 -120, i10 72, i10 -440, i10 328, i10 -184, i10 200, i10 -312, i10 456, i10 -56, i10 40, i10 -472, i10 296, i10 -216, i10 168, i10 -344, i10 424, i10 -88, i10 104, i10 -408, i10 360, i10 -152, i10 232, i10 -280, i10 488, i10 -24, i10 24, i10 -488, i10 280, i10 -232, i10 152, i10 -360, i10 408, i10 -104, i10 88, i10 -424, i10 344, i10 -168, i10 216, i10 -296, i10 472, i10 -40, i10 56, i10 -456, i10 312, i10 -200, i10 184, i10 -328, i10 440, i10 -72, i10 120, i10 -392, i10 376, i10 -136, i10 248, i10 -264, i10 504, i10 -8, i10 4, i10 -508, i10 260, i10 -252, i10 132, i10 -380, i10 388, i10 -124, i10 68, i10 -444, i10 324, i10 -188, i10 196, i10 -316, i10 452, i10 -60, i10 36, i10 -476, i10 292, i10 -220, i10 164, i10 -348, i10 420, i10 -92, i10 100, i10 -412, i10 356, i10 -156, i10 228, i10 -284, i10 484, i10 -28, i10 20, i10 -492, i10 276, i10 -236, i10 148, i10 -364, i10 404, i10 -108, i10 84, i10 -428, i10 340, i10 -172, i10 212, i10 -300, i10 468, i10 -44, i10 52, i10 -460, i10 308, i10 -204, i10 180, i10 -332, i10 436, i10 -76, i10 116, i10 -396, i10 372, i10 -140, i10 244, i10 -268, i10 500, i10 -12, i10 12, i10 -500, i10 268, i10 -244, i10 140, i10 -372, i10 396, i10 -116, i10 76, i10 -436, i10 332, i10 -180, i10 204, i10 -308, i10 460, i10 -52, i10 44, i10 -468, i10 300, i10 -212, i10 172, i10 -340, i10 428, i10 -84, i10 108, i10 -404, i10 364, i10 -148, i10 236, i10 -276, i10 492, i10 -20, i10 28, i10 -484, i10 284, i10 -228, i10 156, i10 -356, i10 412, i10 -100, i10 92, i10 -420, i10 348, i10 -164, i10 220, i10 -292, i10 476, i10 -36, i10 60, i10 -452, i10 316, i10 -196, i10 188, i10 -324, i10 444, i10 -68, i10 124, i10 -388, i10 380, i10 -132, i10 252, i10 -260, i10 508, i10 -4, i10 2, i10 -510, i10 258, i10 -254, i10 130, i10 -382, i10 386, i10 -126, i10 66, i10 -446, i10 322, i10 -190, i10 194, i10 -318, i10 450, i10 -62, i10 34, i10 -478, i10 290, i10 -222, i10 162, i10 -350, i10 418, i10 -94, i10 98, i10 -414, i10 354, i10 -158, i10 226, i10 -286, i10 482, i10 -30, i10 18, i10 -494, i10 274, i10 -238, i10 146, i10 -366, i10 402, i10 -110, i10 82, i10 -430, i10 338, i10 -174, i10 210, i10 -302, i10 466, i10 -46, i10 50, i10 -462, i10 306, i10 -206, i10 178, i10 -334, i10 434, i10 -78, i10 114, i10 -398, i10 370, i10 -142, i10 242, i10 -270, i10 498, i10 -14, i10 10, i10 -502, i10 266, i10 -246, i10 138, i10 -374, i10 394, i10 -118, i10 74, i10 -438, i10 330, i10 -182, i10 202, i10 -310, i10 458, i10 -54, i10 42, i10 -470, i10 298, i10 -214, i10 170, i10 -342, i10 426, i10 -86, i10 106, i10 -406, i10 362, i10 -150, i10 234, i10 -278, i10 490, i10 -22, i10 26, i10 -486, i10 282, i10 -230, i10 154, i10 -358, i10 410, i10 -102, i10 90, i10 -422, i10 346, i10 -166, i10 218, i10 -294, i10 474, i10 -38, i10 58, i10 -454, i10 314, i10 -198, i10 186, i10 -326, i10 442, i10 -70, i10 122, i10 -390, i10 378, i10 -134, i10 250, i10 -262, i10 506, i10 -6, i10 6, i10 -506, i10 262, i10 -250, i10 134, i10 -378, i10 390, i10 -122, i10 70, i10 -442, i10 326, i10 -186, i10 198, i10 -314, i10 454, i10 -58, i10 38, i10 -474, i10 294, i10 -218, i10 166, i10 -346, i10 422, i10 -90, i10 102, i10 -410, i10 358, i10 -154, i10 230, i10 -282, i10 486, i10 -26, i10 22, i10 -490, i10 278, i10 -234, i10 150, i10 -362, i10 406, i10 -106, i10 86, i10 -426, i10 342, i10 -170, i10 214, i10 -298, i10 470, i10 -42, i10 54, i10 -458, i10 310, i10 -202, i10 182, i10 -330, i10 438, i10 -74, i10 118, i10 -394, i10 374, i10 -138, i10 246, i10 -266, i10 502, i10 -10, i10 14, i10 -498, i10 270, i10 -242, i10 142, i10 -370, i10 398, i10 -114, i10 78, i10 -434, i10 334, i10 -178, i10 206, i10 -306, i10 462, i10 -50, i10 46, i10 -466, i10 302, i10 -210, i10 174, i10 -338, i10 430, i10 -82, i10 110, i10 -402, i10 366, i10 -146, i10 238, i10 -274, i10 494, i10 -18, i10 30, i10 -482, i10 286, i10 -226, i10 158, i10 -354, i10 414, i10 -98, i10 94, i10 -418, i10 350, i10 -162, i10 222, i10 -290, i10 478, i10 -34, i10 62, i10 -450, i10 318, i10 -194, i10 190, i10 -322, i10 446, i10 -66, i10 126, i10 -386, i10 382, i10 -130, i10 254, i10 -258, i10 510, i10 -2, i10 1, i10 -511, i10 257, i10 -255, i10 129, i10 -383, i10 385, i10 -127, i10 65, i10 -447, i10 321, i10 -191, i10 193, i10 -319, i10 449, i10 -63, i10 33, i10 -479, i10 289, i10 -223, i10 161, i10 -351, i10 417, i10 -95, i10 97, i10 -415, i10 353, i10 -159, i10 225, i10 -287, i10 481, i10 -31, i10 17, i10 -495, i10 273, i10 -239, i10 145, i10 -367, i10 401, i10 -111, i10 81, i10 -431, i10 337, i10 -175, i10 209, i10 -303, i10 465, i10 -47, i10 49, i10 -463, i10 305, i10 -207, i10 177, i10 -335, i10 433, i10 -79, i10 113, i10 -399, i10 369, i10 -143, i10 241, i10 -271, i10 497, i10 -15, i10 9, i10 -503, i10 265, i10 -247, i10 137, i10 -375, i10 393, i10 -119, i10 73, i10 -439, i10 329, i10 -183, i10 201, i10 -311, i10 457, i10 -55, i10 41, i10 -471, i10 297, i10 -215, i10 169, i10 -343, i10 425, i10 -87, i10 105, i10 -407, i10 361, i10 -151, i10 233, i10 -279, i10 489, i10 -23, i10 25, i10 -487, i10 281, i10 -231, i10 153, i10 -359, i10 409, i10 -103, i10 89, i10 -423, i10 345, i10 -167, i10 217, i10 -295, i10 473, i10 -39, i10 57, i10 -455, i10 313, i10 -199, i10 185, i10 -327, i10 441, i10 -71, i10 121, i10 -391, i10 377, i10 -135, i10 249, i10 -263, i10 505, i10 -7, i10 5, i10 -507, i10 261, i10 -251, i10 133, i10 -379, i10 389, i10 -123, i10 69, i10 -443, i10 325, i10 -187, i10 197, i10 -315, i10 453, i10 -59, i10 37, i10 -475, i10 293, i10 -219, i10 165, i10 -347, i10 421, i10 -91, i10 101, i10 -411, i10 357, i10 -155, i10 229, i10 -283, i10 485, i10 -27, i10 21, i10 -491, i10 277, i10 -235, i10 149, i10 -363, i10 405, i10 -107, i10 85, i10 -427, i10 341, i10 -171, i10 213, i10 -299, i10 469, i10 -43, i10 53, i10 -459, i10 309, i10 -203, i10 181, i10 -331, i10 437, i10 -75, i10 117, i10 -395, i10 373, i10 -139, i10 245, i10 -267, i10 501, i10 -11, i10 13, i10 -499, i10 269, i10 -243, i10 141, i10 -371, i10 397, i10 -115, i10 77, i10 -435, i10 333, i10 -179, i10 205, i10 -307, i10 461, i10 -51, i10 45, i10 -467, i10 301, i10 -211, i10 173, i10 -339, i10 429, i10 -83, i10 109, i10 -403, i10 365, i10 -147, i10 237, i10 -275, i10 493, i10 -19, i10 29, i10 -483, i10 285, i10 -227, i10 157, i10 -355, i10 413, i10 -99, i10 93, i10 -419, i10 349, i10 -163, i10 221, i10 -291, i10 477, i10 -35, i10 61, i10 -451, i10 317, i10 -195, i10 189, i10 -323, i10 445, i10 -67, i10 125, i10 -387, i10 381, i10 -131, i10 253, i10 -259, i10 509, i10 -3, i10 3, i10 -509, i10 259, i10 -253, i10 131, i10 -381, i10 387, i10 -125, i10 67, i10 -445, i10 323, i10 -189, i10 195, i10 -317, i10 451, i10 -61, i10 35, i10 -477, i10 291, i10 -221, i10 163, i10 -349, i10 419, i10 -93, i10 99, i10 -413, i10 355, i10 -157, i10 227, i10 -285, i10 483, i10 -29, i10 19, i10 -493, i10 275, i10 -237, i10 147, i10 -365, i10 403, i10 -109, i10 83, i10 -429, i10 339, i10 -173, i10 211, i10 -301, i10 467, i10 -45, i10 51, i10 -461, i10 307, i10 -205, i10 179, i10 -333, i10 435, i10 -77, i10 115, i10 -397, i10 371, i10 -141, i10 243, i10 -269, i10 499, i10 -13, i10 11, i10 -501, i10 267, i10 -245, i10 139, i10 -373, i10 395, i10 -117, i10 75, i10 -437, i10 331, i10 -181, i10 203, i10 -309, i10 459, i10 -53, i10 43, i10 -469, i10 299, i10 -213, i10 171, i10 -341, i10 427, i10 -85, i10 107, i10 -405, i10 363, i10 -149, i10 235, i10 -277, i10 491, i10 -21, i10 27, i10 -485, i10 283, i10 -229, i10 155, i10 -357, i10 411, i10 -101, i10 91, i10 -421, i10 347, i10 -165, i10 219, i10 -293, i10 475, i10 -37, i10 59, i10 -453, i10 315, i10 -197, i10 187, i10 -325, i10 443, i10 -69, i10 123, i10 -389, i10 379, i10 -133, i10 251, i10 -261, i10 507, i10 -5, i10 7, i10 -505, i10 263, i10 -249, i10 135, i10 -377, i10 391, i10 -121, i10 71, i10 -441, i10 327, i10 -185, i10 199, i10 -313, i10 455, i10 -57, i10 39, i10 -473, i10 295, i10 -217, i10 167, i10 -345, i10 423, i10 -89, i10 103, i10 -409, i10 359, i10 -153, i10 231, i10 -281, i10 487, i10 -25, i10 23, i10 -489, i10 279, i10 -233, i10 151, i10 -361, i10 407, i10 -105, i10 87, i10 -425, i10 343, i10 -169, i10 215, i10 -297, i10 471, i10 -41, i10 55, i10 -457, i10 311, i10 -201, i10 183, i10 -329, i10 439, i10 -73, i10 119, i10 -393, i10 375, i10 -137, i10 247, i10 -265, i10 503, i10 -9, i10 15, i10 -497, i10 271, i10 -241, i10 143, i10 -369, i10 399, i10 -113, i10 79, i10 -433, i10 335, i10 -177, i10 207, i10 -305, i10 463, i10 -49, i10 47, i10 -465, i10 303, i10 -209, i10 175, i10 -337, i10 431, i10 -81, i10 111, i10 -401, i10 367, i10 -145, i10 239, i10 -273, i10 495, i10 -17, i10 31, i10 -481, i10 287, i10 -225, i10 159, i10 -353, i10 415, i10 -97, i10 95, i10 -417, i10 351, i10 -161, i10 223, i10 -289, i10 479, i10 -33, i10 63, i10 -449, i10 319, i10 -193, i10 191, i10 -321, i10 447, i10 -65, i10 127, i10 -385, i10 383, i10 -129, i10 255, i10 -257, i10 511, i10 -1]
@llvm_global_ctors_1 = appending global [1 x void ()*] [void ()* @_GLOBAL__I_a]
@llvm_global_ctors_0 = appending global [1 x i32] [i32 65535]
@bit_reverse_str = internal unnamed_addr constant [12 x i8] c"bit_reverse\00"
@p_str1 = private unnamed_addr constant [4 x i8] c"rev\00", align 1
@p_str = private unnamed_addr constant [1 x i8] zeroinitializer, align 1

declare void @llvm.dbg.value(metadata, i64, metadata) nounwind readnone

define void @bit_reverse([1024 x float]* %real_i, [1024 x float]* %imag_i) nounwind uwtable {
codeRepl:
  call void (...)* @_ssdm_op_SpecDataflowPipeline(i32 -1, [1 x i8]* @p_str) nounwind
  call void (...)* @_ssdm_op_SpecBitsMap([1024 x float]* %real_i) nounwind, !map !7
  call void (...)* @_ssdm_op_SpecBitsMap([1024 x float]* %imag_i) nounwind, !map !13
  call void (...)* @_ssdm_op_SpecTopModule([12 x i8]* @bit_reverse_str) nounwind
  call fastcc void @bit_reverse_Loop_rev_proc([1024 x float]* %real_i, [1024 x float]* %imag_i)
  ret void
}

define weak void @_ssdm_op_SpecTopModule(...) {
entry:
  ret void
}

define weak i32 @_ssdm_op_SpecRegionEnd(...) {
entry:
  ret i32 0
}

define weak i32 @_ssdm_op_SpecRegionBegin(...) {
entry:
  ret i32 0
}

define weak void @_ssdm_op_SpecPipeline(...) nounwind {
entry:
  ret void
}

define weak i32 @_ssdm_op_SpecLoopTripCount(...) {
entry:
  ret i32 0
}

define weak void @_ssdm_op_SpecLoopName(...) nounwind {
entry:
  ret void
}

define weak void @_ssdm_op_SpecDataflowPipeline(...) nounwind {
entry:
  ret void
}

define weak void @_ssdm_op_SpecBitsMap(...) {
entry:
  ret void
}

declare i16 @_ssdm_op_HSub(...)

declare i16 @_ssdm_op_HMul(...)

declare i16 @_ssdm_op_HDiv(...)

declare i16 @_ssdm_op_HAdd(...)

declare void @_GLOBAL__I_a() nounwind

define internal fastcc void @bit_reverse_Loop_rev_proc([1024 x float]* nocapture %real_i, [1024 x float]* nocapture %imag_i) nounwind {
newFuncRoot:
  br label %0

bit_reverse_.exit2.exitStub:                      ; preds = %0
  ret void

; <label>:0                                       ; preds = %._crit_edge.i.i, %newFuncRoot
  %i_0_i_i = phi i11 [ 0, %newFuncRoot ], [ %i, %._crit_edge.i.i ]
  %exitcond_i_i = icmp eq i11 %i_0_i_i, -1024
  %i = add i11 %i_0_i_i, 1
  br i1 %exitcond_i_i, label %bit_reverse_.exit2.exitStub, label %2

._crit_edge.i.i:                                  ; preds = %2, %1
  %empty = call i32 (...)* @_ssdm_op_SpecRegionEnd([4 x i8]* @p_str1, i32 %tmp) nounwind
  br label %0

; <label>:1                                       ; preds = %2
  %real_i_addr = getelementptr [1024 x float]* %real_i, i64 0, i64 %tmp_i
  %tmp_1 = load float* %real_i_addr, align 4
  %tmp_3_i = zext i10 %reversed to i64
  %real_i_addr_1 = getelementptr [1024 x float]* %real_i, i64 0, i64 %tmp_3_i
  %real_i_load = load float* %real_i_addr_1, align 4
  store float %real_i_load, float* %real_i_addr, align 4
  store float %tmp_1, float* %real_i_addr_1, align 4
  %imag_i_addr = getelementptr [1024 x float]* %imag_i, i64 0, i64 %tmp_i
  %tmp_2 = load float* %imag_i_addr, align 4
  %imag_i_addr_1 = getelementptr [1024 x float]* %imag_i, i64 0, i64 %tmp_3_i
  %imag_i_load = load float* %imag_i_addr_1, align 4
  store float %imag_i_load, float* %imag_i_addr, align 4
  store float %tmp_2, float* %imag_i_addr_1, align 4
  br label %._crit_edge.i.i

; <label>:2                                       ; preds = %0
  %empty_2 = call i32 (...)* @_ssdm_op_SpecLoopTripCount(i64 1024, i64 1024, i64 1024) nounwind
  call void (...)* @_ssdm_op_SpecLoopName([4 x i8]* @p_str1) nounwind
  %tmp = call i32 (...)* @_ssdm_op_SpecRegionBegin([4 x i8]* @p_str1) nounwind
  call void (...)* @_ssdm_op_SpecPipeline(i32 1, i32 1, i32 1, i32 0, [1 x i8]* @p_str) nounwind
  %tmp_i = zext i11 %i_0_i_i to i64
  %table1024_addr = getelementptr [1024 x i10]* @table1024, i64 0, i64 %tmp_i
  %reversed = load i10* %table1024_addr, align 2
  %reversed_cast9 = zext i10 %reversed to i11
  %tmp_1_i = icmp ult i11 %i_0_i_i, %reversed_cast9
  br i1 %tmp_1_i, label %1, label %._crit_edge.i.i
}

!hls.encrypted.func = !{}
!llvm.map.gv = !{!0}

!0 = metadata !{metadata !1, [1 x i32]* @llvm_global_ctors_0}
!1 = metadata !{metadata !2}
!2 = metadata !{i32 0, i32 31, metadata !3}
!3 = metadata !{metadata !4}
!4 = metadata !{metadata !"llvm.global_ctors.0", metadata !5, metadata !"", i32 0, i32 31}
!5 = metadata !{metadata !6}
!6 = metadata !{i32 0, i32 0, i32 1}
!7 = metadata !{metadata !8}
!8 = metadata !{i32 0, i32 31, metadata !9}
!9 = metadata !{metadata !10}
!10 = metadata !{metadata !"real_i", metadata !11, metadata !"float", i32 0, i32 31}
!11 = metadata !{metadata !12}
!12 = metadata !{i32 0, i32 1023, i32 1}
!13 = metadata !{metadata !14}
!14 = metadata !{i32 0, i32 31, metadata !15}
!15 = metadata !{metadata !16}
!16 = metadata !{metadata !"imag_i", metadata !11, metadata !"float", i32 0, i32 31}
